[
  {
    "type": "MOD_INFO",
    "id": "crazy_cataclysm",
    "name": "Crazy Cataclysm",
    "authors": [
      "Kevin"
    ],
    "description": "Want a little crazy in your Cataclysm?  Try this one.",
    "category": "misc_additions",
    "dependencies": [
      "bn"
    ],
    "obsolete": true
  },
  {
    "type": "MONSTER_WHITELIST",
    "monsters": [
      "mon_zombie_dancer",
      "mon_zombie_jackson",
      "mon_shia",
      "mon_bear_smoky",
      "mon_zombie_skeltal",
      "mon_zombie_skeltal_minion"
    ],
    "id": "abb07b9e-f089-4ea3-9497-1f20b69b9bf3"
  },
  {
    "type": "EXTERNAL_OPTION",
    "name": "CRAZY",
    "stype": "bool",
    "value": true,
    "id": "CRAZY"
  }
]