[
  {
    "id": "22_lr",
    "type": "MIGRATION",
    "replace": "tiny_pistol_ball",
    "unrolled_id_group": "22_lr"
  },
  {
    "id": "32_acp",
    "type": "MIGRATION",
    "replace": "tiny_pistol_ball",
    "unrolled_id_group": "22_lr"
  },
  {
    "id": "reloaded_22_fmj",
    "type": "MIGRATION",
    "replace": "tiny_pistol_ball",
    "unrolled_id_group": "22_lr"
  },
  {
    "id": "reloaded_32_acp",
    "type": "MIGRATION",
    "replace": "tiny_pistol_ball",
    "unrolled_id_group": "22_lr"
  },
  {
    "id": "bp_22_fmj",
    "type": "MIGRATION",
    "replace": "bp_tiny_pistol_ball",
    "unrolled_id_group": "bp_22_fmj"
  },
  {
    "id": "bp_22_lr",
    "type": "MIGRATION",
    "replace": "bp_tiny_pistol_ball",
    "unrolled_id_group": "bp_22_fmj"
  },
  {
    "id": "bp_32_acp",
    "type": "MIGRATION",
    "replace": "bp_tiny_pistol_ball",
    "unrolled_id_group": "bp_22_fmj"
  },
  {
    "id": "22_cphp",
    "type": "MIGRATION",
    "replace": "tiny_pistol_jhp",
    "unrolled_id_group": "22_cphp"
  },
  {
    "id": "22_lr",
    "type": "MIGRATION",
    "replace": "tiny_pistol_jhp",
    "unrolled_id_group": "22_cphp"
  },
  {
    "id": "22_ratshot",
    "type": "MIGRATION",
    "replace": "tiny_pistol_jhp",
    "unrolled_id_group": "22_cphp"
  },
  {
    "id": "reloaded_22_lr",
    "type": "MIGRATION",
    "replace": "tiny_pistol_jhp",
    "unrolled_id_group": "22_cphp"
  },
  {
    "id": "bp_22_cphp",
    "type": "MIGRATION",
    "replace": "bp_tiny_pistol_jhp",
    "unrolled_id_group": "bp_22_cphp"
  },
  {
    "id": "10mm_fmj",
    "type": "MIGRATION",
    "replace": "pistol_ball",
    "unrolled_id_group": "10mm_fmj"
  },
  {
    "id": "357sig_fmj",
    "type": "MIGRATION",
    "replace": "pistol_ball",
    "unrolled_id_group": "10mm_fmj"
  },
  {
    "id": "38_fmj",
    "type": "MIGRATION",
    "replace": "pistol_ball",
    "unrolled_id_group": "10mm_fmj"
  },
  {
    "id": "380_FMJ",
    "type": "MIGRATION",
    "replace": "pistol_ball",
    "unrolled_id_group": "10mm_fmj"
  },
  {
    "id": "380_p",
    "type": "MIGRATION",
    "replace": "pistol_ball",
    "unrolled_id_group": "10mm_fmj"
  },
  {
    "id": "38super_fmj",
    "type": "MIGRATION",
    "replace": "pistol_ball",
    "unrolled_id_group": "10mm_fmj"
  },
  {
    "id": "40fmj",
    "type": "MIGRATION",
    "replace": "pistol_ball",
    "unrolled_id_group": "10mm_fmj"
  },
  {
    "id": "45_acp",
    "type": "MIGRATION",
    "replace": "pistol_ball",
    "unrolled_id_group": "10mm_fmj"
  },
  {
    "id": "46mm",
    "type": "MIGRATION",
    "replace": "pistol_ball",
    "unrolled_id_group": "10mm_fmj"
  },
  {
    "id": "57mm",
    "type": "MIGRATION",
    "replace": "pistol_ball",
    "unrolled_id_group": "10mm_fmj"
  },
  {
    "id": "5x50dart",
    "type": "MIGRATION",
    "replace": "pistol_ball",
    "unrolled_id_group": "10mm_fmj"
  },
  {
    "id": "762_25hot",
    "type": "MIGRATION",
    "replace": "pistol_ball",
    "unrolled_id_group": "10mm_fmj"
  },
  {
    "id": "762_25typeP",
    "type": "MIGRATION",
    "replace": "pistol_ball",
    "unrolled_id_group": "10mm_fmj"
  },
  {
    "id": "9mmfmj",
    "type": "MIGRATION",
    "replace": "pistol_ball",
    "unrolled_id_group": "10mm_fmj"
  },
  {
    "id": "9mmP",
    "type": "MIGRATION",
    "replace": "pistol_ball",
    "unrolled_id_group": "10mm_fmj"
  },
  {
    "id": "9mmP2",
    "type": "MIGRATION",
    "replace": "pistol_ball",
    "unrolled_id_group": "10mm_fmj"
  },
  {
    "id": "9x18mmfmj",
    "type": "MIGRATION",
    "replace": "pistol_ball",
    "unrolled_id_group": "10mm_fmj"
  },
  {
    "id": "9x18mmP2",
    "type": "MIGRATION",
    "replace": "pistol_ball",
    "unrolled_id_group": "10mm_fmj"
  },
  {
    "id": "reloaded_10mm_fmj",
    "type": "MIGRATION",
    "replace": "pistol_ball",
    "unrolled_id_group": "10mm_fmj"
  },
  {
    "id": "reloaded_357sig_fmj",
    "type": "MIGRATION",
    "replace": "pistol_ball",
    "unrolled_id_group": "10mm_fmj"
  },
  {
    "id": "reloaded_38_fmj",
    "type": "MIGRATION",
    "replace": "pistol_ball",
    "unrolled_id_group": "10mm_fmj"
  },
  {
    "id": "reloaded_380_FMJ",
    "type": "MIGRATION",
    "replace": "pistol_ball",
    "unrolled_id_group": "10mm_fmj"
  },
  {
    "id": "reloaded_380_p",
    "type": "MIGRATION",
    "replace": "pistol_ball",
    "unrolled_id_group": "10mm_fmj"
  },
  {
    "id": "reloaded_38super_fmj",
    "type": "MIGRATION",
    "replace": "pistol_ball",
    "unrolled_id_group": "10mm_fmj"
  },
  {
    "id": "reloaded_40fmj",
    "type": "MIGRATION",
    "replace": "pistol_ball",
    "unrolled_id_group": "10mm_fmj"
  },
  {
    "id": "reloaded_45_acp",
    "type": "MIGRATION",
    "replace": "pistol_ball",
    "unrolled_id_group": "10mm_fmj"
  },
  {
    "id": "reloaded_46mm",
    "type": "MIGRATION",
    "replace": "pistol_ball",
    "unrolled_id_group": "10mm_fmj"
  },
  {
    "id": "reloaded_57mm",
    "type": "MIGRATION",
    "replace": "pistol_ball",
    "unrolled_id_group": "10mm_fmj"
  },
  {
    "id": "reloaded_5x50dart",
    "type": "MIGRATION",
    "replace": "pistol_ball",
    "unrolled_id_group": "10mm_fmj"
  },
  {
    "id": "reloaded_9mmfmj",
    "type": "MIGRATION",
    "replace": "pistol_ball",
    "unrolled_id_group": "10mm_fmj"
  },
  {
    "id": "reloaded_9mmP",
    "type": "MIGRATION",
    "replace": "pistol_ball",
    "unrolled_id_group": "10mm_fmj"
  },
  {
    "id": "reloaded_9mmP2",
    "type": "MIGRATION",
    "replace": "pistol_ball",
    "unrolled_id_group": "10mm_fmj"
  },
  {
    "id": "reloaded_9x18mmfmj",
    "type": "MIGRATION",
    "replace": "pistol_ball",
    "unrolled_id_group": "10mm_fmj"
  },
  {
    "id": "reloaded_9x18mmP2",
    "type": "MIGRATION",
    "replace": "pistol_ball",
    "unrolled_id_group": "10mm_fmj"
  },
  {
    "id": "bp_10mm_fmj",
    "type": "MIGRATION",
    "replace": "bp_pistol_ball",
    "unrolled_id_group": "bp_10mm_fmj"
  },
  {
    "id": "bp_38_fmj",
    "type": "MIGRATION",
    "replace": "bp_pistol_ball",
    "unrolled_id_group": "bp_10mm_fmj"
  },
  {
    "id": "bp_380_FMJ",
    "type": "MIGRATION",
    "replace": "bp_pistol_ball",
    "unrolled_id_group": "bp_10mm_fmj"
  },
  {
    "id": "bp_40ball",
    "type": "MIGRATION",
    "replace": "bp_pistol_ball",
    "unrolled_id_group": "bp_10mm_fmj"
  },
  {
    "id": "bp_44ball",
    "type": "MIGRATION",
    "replace": "bp_pistol_ball",
    "unrolled_id_group": "bp_10mm_fmj"
  },
  {
    "id": "bp_45_acp",
    "type": "MIGRATION",
    "replace": "bp_pistol_ball",
    "unrolled_id_group": "bp_10mm_fmj"
  },
  {
    "id": "bp_46mm",
    "type": "MIGRATION",
    "replace": "bp_pistol_ball",
    "unrolled_id_group": "bp_10mm_fmj"
  },
  {
    "id": "bp_57mm",
    "type": "MIGRATION",
    "replace": "bp_pistol_ball",
    "unrolled_id_group": "bp_10mm_fmj"
  },
  {
    "id": "bp_9mmfmj",
    "type": "MIGRATION",
    "replace": "bp_pistol_ball",
    "unrolled_id_group": "bp_10mm_fmj"
  },
  {
    "id": "bp_9x18mmfmj",
    "type": "MIGRATION",
    "replace": "bp_pistol_ball",
    "unrolled_id_group": "bp_10mm_fmj"
  },
  {
    "id": "357sig_jhp",
    "type": "MIGRATION",
    "replace": "pistol_jhp",
    "unrolled_id_group": "357sig_jhp"
  },
  {
    "id": "38_special",
    "type": "MIGRATION",
    "replace": "pistol_jhp",
    "unrolled_id_group": "357sig_jhp"
  },
  {
    "id": "38_super",
    "type": "MIGRATION",
    "replace": "pistol_jhp",
    "unrolled_id_group": "357sig_jhp"
  },
  {
    "id": "380_JHP",
    "type": "MIGRATION",
    "replace": "pistol_jhp",
    "unrolled_id_group": "357sig_jhp"
  },
  {
    "id": "40sw",
    "type": "MIGRATION",
    "replace": "pistol_jhp",
    "unrolled_id_group": "357sig_jhp"
  },
  {
    "id": "45_jhp",
    "type": "MIGRATION",
    "replace": "pistol_jhp",
    "unrolled_id_group": "357sig_jhp"
  },
  {
    "id": "45_super",
    "type": "MIGRATION",
    "replace": "pistol_jhp",
    "unrolled_id_group": "357sig_jhp"
  },
  {
    "id": "45colt_jhp",
    "type": "MIGRATION",
    "replace": "pistol_jhp",
    "unrolled_id_group": "357sig_jhp"
  },
  {
    "id": "5x50heavy",
    "type": "MIGRATION",
    "replace": "pistol_jhp",
    "unrolled_id_group": "357sig_jhp"
  },
  {
    "id": "762_25",
    "type": "MIGRATION",
    "replace": "pistol_jhp",
    "unrolled_id_group": "357sig_jhp"
  },
  {
    "id": "9mm",
    "type": "MIGRATION",
    "replace": "pistol_jhp",
    "unrolled_id_group": "357sig_jhp"
  },
  {
    "id": "9x18mm",
    "type": "MIGRATION",
    "replace": "pistol_jhp",
    "unrolled_id_group": "357sig_jhp"
  },
  {
    "id": "reloaded_357sig_jhp",
    "type": "MIGRATION",
    "replace": "pistol_jhp",
    "unrolled_id_group": "357sig_jhp"
  },
  {
    "id": "reloaded_38_special",
    "type": "MIGRATION",
    "replace": "pistol_jhp",
    "unrolled_id_group": "357sig_jhp"
  },
  {
    "id": "reloaded_38_super",
    "type": "MIGRATION",
    "replace": "pistol_jhp",
    "unrolled_id_group": "357sig_jhp"
  },
  {
    "id": "reloaded_380_JHP",
    "type": "MIGRATION",
    "replace": "pistol_jhp",
    "unrolled_id_group": "357sig_jhp"
  },
  {
    "id": "reloaded_40sw",
    "type": "MIGRATION",
    "replace": "pistol_jhp",
    "unrolled_id_group": "357sig_jhp"
  },
  {
    "id": "reloaded_45_jhp",
    "type": "MIGRATION",
    "replace": "pistol_jhp",
    "unrolled_id_group": "357sig_jhp"
  },
  {
    "id": "reloaded_45_super",
    "type": "MIGRATION",
    "replace": "pistol_jhp",
    "unrolled_id_group": "357sig_jhp"
  },
  {
    "id": "reloaded_45colt_jhp",
    "type": "MIGRATION",
    "replace": "pistol_jhp",
    "unrolled_id_group": "357sig_jhp"
  },
  {
    "id": "reloaded_762_25",
    "type": "MIGRATION",
    "replace": "pistol_jhp",
    "unrolled_id_group": "357sig_jhp"
  },
  {
    "id": "reloaded_9mm",
    "type": "MIGRATION",
    "replace": "pistol_jhp",
    "unrolled_id_group": "357sig_jhp"
  },
  {
    "id": "reloaded_9x18mm",
    "type": "MIGRATION",
    "replace": "pistol_jhp",
    "unrolled_id_group": "357sig_jhp"
  },
  {
    "id": "bp_38_special",
    "type": "MIGRATION",
    "replace": "bp_pistol_jhp",
    "unrolled_id_group": "bp_38_special"
  },
  {
    "id": "bp_380_JHP",
    "type": "MIGRATION",
    "replace": "bp_pistol_jhp",
    "unrolled_id_group": "bp_38_special"
  },
  {
    "id": "bp_40sw",
    "type": "MIGRATION",
    "replace": "bp_pistol_jhp",
    "unrolled_id_group": "bp_38_special"
  },
  {
    "id": "bp_45_jhp",
    "type": "MIGRATION",
    "replace": "bp_pistol_jhp",
    "unrolled_id_group": "bp_38_special"
  },
  {
    "id": "bp_45colt_jhp",
    "type": "MIGRATION",
    "replace": "bp_pistol_jhp",
    "unrolled_id_group": "bp_38_special"
  },
  {
    "id": "bp_762_25",
    "type": "MIGRATION",
    "replace": "bp_pistol_jhp",
    "unrolled_id_group": "bp_38_special"
  },
  {
    "id": "bp_9mm",
    "type": "MIGRATION",
    "replace": "bp_pistol_jhp",
    "unrolled_id_group": "bp_38_special"
  },
  {
    "id": "bp_9x18mm",
    "type": "MIGRATION",
    "replace": "bp_pistol_jhp",
    "unrolled_id_group": "bp_38_special"
  },
  {
    "id": "357mag_fmj",
    "type": "MIGRATION",
    "replace": "pistol_magnum_ball",
    "unrolled_id_group": "357mag_fmj"
  },
  {
    "id": "44fmj",
    "type": "MIGRATION",
    "replace": "pistol_magnum_ball",
    "unrolled_id_group": "357mag_fmj"
  },
  {
    "id": "460_fmj",
    "type": "MIGRATION",
    "replace": "pistol_magnum_ball",
    "unrolled_id_group": "357mag_fmj"
  },
  {
    "id": "reloaded_357mag_fmj",
    "type": "MIGRATION",
    "replace": "pistol_magnum_ball",
    "unrolled_id_group": "357mag_fmj"
  },
  {
    "id": "reloaded_44magnum",
    "type": "MIGRATION",
    "replace": "pistol_magnum_ball",
    "unrolled_id_group": "357mag_fmj"
  },
  {
    "id": "reloaded_460_fmj",
    "type": "MIGRATION",
    "replace": "pistol_magnum_ball",
    "unrolled_id_group": "357mag_fmj"
  },
  {
    "id": "bp_357mag_fmj",
    "type": "MIGRATION",
    "replace": "bp_pistol_magnum_ball",
    "unrolled_id_group": "bp_357mag_fmj"
  },
  {
    "id": "bp_44fmj",
    "type": "MIGRATION",
    "replace": "bp_pistol_magnum_ball",
    "unrolled_id_group": "bp_357mag_fmj"
  },
  {
    "id": "bp_460_fmj",
    "type": "MIGRATION",
    "replace": "bp_pistol_magnum_ball",
    "unrolled_id_group": "bp_357mag_fmj"
  },
  {
    "id": "357mag_jhp",
    "type": "MIGRATION",
    "replace": "pistol_magnum_jhp",
    "unrolled_id_group": "357mag_jhp"
  },
  {
    "id": "44magnum",
    "type": "MIGRATION",
    "replace": "pistol_magnum_jhp",
    "unrolled_id_group": "357mag_jhp"
  },
  {
    "id": "454_Casull",
    "type": "MIGRATION",
    "replace": "pistol_magnum_jhp",
    "unrolled_id_group": "357mag_jhp"
  },
  {
    "id": "460_rowland",
    "type": "MIGRATION",
    "replace": "pistol_magnum_jhp",
    "unrolled_id_group": "357mag_jhp"
  },
  {
    "id": "500_Magnum",
    "type": "MIGRATION",
    "replace": "pistol_magnum_jhp",
    "unrolled_id_group": "357mag_jhp"
  },
  {
    "id": "reloaded_357mag_jhp",
    "type": "MIGRATION",
    "replace": "pistol_magnum_jhp",
    "unrolled_id_group": "357mag_jhp"
  },
  {
    "id": "reloaded_44fmj",
    "type": "MIGRATION",
    "replace": "pistol_magnum_jhp",
    "unrolled_id_group": "357mag_jhp"
  },
  {
    "id": "reloaded_454_Casull",
    "type": "MIGRATION",
    "replace": "pistol_magnum_jhp",
    "unrolled_id_group": "357mag_jhp"
  },
  {
    "id": "reloaded_460_rowland",
    "type": "MIGRATION",
    "replace": "pistol_magnum_jhp",
    "unrolled_id_group": "357mag_jhp"
  },
  {
    "id": "reloaded_500_Magnum",
    "type": "MIGRATION",
    "replace": "pistol_magnum_jhp",
    "unrolled_id_group": "357mag_jhp"
  },
  {
    "id": "bp_357mag_jhp",
    "type": "MIGRATION",
    "replace": "bp_pistol_magnum_jhp",
    "unrolled_id_group": "bp_357mag_jhp"
  },
  {
    "id": "bp_44magnum",
    "type": "MIGRATION",
    "replace": "bp_pistol_magnum_jhp",
    "unrolled_id_group": "bp_357mag_jhp"
  },
  {
    "id": "bp_454_Casull",
    "type": "MIGRATION",
    "replace": "bp_pistol_magnum_jhp",
    "unrolled_id_group": "bp_357mag_jhp"
  },
  {
    "id": "bp_460_rowland",
    "type": "MIGRATION",
    "replace": "bp_pistol_magnum_jhp",
    "unrolled_id_group": "bp_357mag_jhp"
  },
  {
    "id": "bp_500_Magnum",
    "type": "MIGRATION",
    "replace": "bp_pistol_magnum_jhp",
    "unrolled_id_group": "bp_357mag_jhp"
  },
  {
    "id": "545_ap",
    "type": "MIGRATION",
    "replace": "rifle_ball",
    "unrolled_id_group": "545_ap"
  },
  {
    "id": "556",
    "type": "MIGRATION",
    "replace": "rifle_ball",
    "unrolled_id_group": "545_ap"
  },
  {
    "id": "556_incendiary",
    "type": "MIGRATION",
    "replace": "rifle_ball",
    "unrolled_id_group": "545_ap"
  },
  {
    "id": "762_m43",
    "type": "MIGRATION",
    "replace": "rifle_ball",
    "unrolled_id_group": "545_ap"
  },
  {
    "id": "8mm_caseless",
    "type": "MIGRATION",
    "replace": "rifle_ball",
    "unrolled_id_group": "545_ap"
  },
  {
    "id": "8mm_hvp",
    "type": "MIGRATION",
    "replace": "rifle_ball",
    "unrolled_id_group": "545_ap"
  },
  {
    "id": "8mm_inc",
    "type": "MIGRATION",
    "replace": "rifle_ball",
    "unrolled_id_group": "545_ap"
  },
  {
    "id": "reloaded_556",
    "type": "MIGRATION",
    "replace": "rifle_ball",
    "unrolled_id_group": "545_ap"
  },
  {
    "id": "reloaded_556_incendiary",
    "type": "MIGRATION",
    "replace": "rifle_ball",
    "unrolled_id_group": "545_ap"
  },
  {
    "id": "reloaded_762_m43",
    "type": "MIGRATION",
    "replace": "rifle_ball",
    "unrolled_id_group": "545_ap"
  },
  {
    "id": "bp_3006_incendiary",
    "type": "MIGRATION",
    "replace": "bp_rifle_ball",
    "unrolled_id_group": "bp_3006_incendiary"
  },
  {
    "id": "bp_3006fmj",
    "type": "MIGRATION",
    "replace": "bp_rifle_ball",
    "unrolled_id_group": "bp_3006_incendiary"
  },
  {
    "id": "bp_556",
    "type": "MIGRATION",
    "replace": "bp_rifle_ball",
    "unrolled_id_group": "bp_3006_incendiary"
  },
  {
    "id": "bp_556_incendiary",
    "type": "MIGRATION",
    "replace": "bp_rifle_ball",
    "unrolled_id_group": "bp_3006_incendiary"
  },
  {
    "id": "223",
    "type": "MIGRATION",
    "replace": "rifle_jhp",
    "unrolled_id_group": "223"
  },
  {
    "id": "300blk",
    "type": "MIGRATION",
    "replace": "rifle_jhp",
    "unrolled_id_group": "223"
  },
  {
    "id": "300blk_ss",
    "type": "MIGRATION",
    "replace": "rifle_jhp",
    "unrolled_id_group": "223"
  },
  {
    "id": "545",
    "type": "MIGRATION",
    "replace": "rifle_jhp",
    "unrolled_id_group": "223"
  },
  {
    "id": "8mm_civilian",
    "type": "MIGRATION",
    "replace": "rifle_jhp",
    "unrolled_id_group": "223"
  },
  {
    "id": "8mm_jhp",
    "type": "MIGRATION",
    "replace": "rifle_jhp",
    "unrolled_id_group": "223"
  },
  {
    "id": "reloaded_223",
    "type": "MIGRATION",
    "replace": "rifle_jhp",
    "unrolled_id_group": "223"
  },
  {
    "id": "reloaded_300blk",
    "type": "MIGRATION",
    "replace": "rifle_jhp",
    "unrolled_id_group": "223"
  },
  {
    "id": "reloaded_545",
    "type": "MIGRATION",
    "replace": "rifle_jhp",
    "unrolled_id_group": "223"
  },
  {
    "id": "bp_223",
    "type": "MIGRATION",
    "replace": "bp_rifle_jhp",
    "unrolled_id_group": "bp_223"
  },
  {
    "id": "bp_300blk",
    "type": "MIGRATION",
    "replace": "bp_rifle_jhp",
    "unrolled_id_group": "bp_223"
  },
  {
    "id": "3006_incendiary",
    "type": "MIGRATION",
    "replace": "sniper_ball",
    "unrolled_id_group": "3006_incendiary"
  },
  {
    "id": "3006fmj",
    "type": "MIGRATION",
    "replace": "sniper_ball",
    "unrolled_id_group": "3006_incendiary"
  },
  {
    "id": "4570_pen",
    "type": "MIGRATION",
    "replace": "sniper_ball",
    "unrolled_id_group": "3006_incendiary"
  },
  {
    "id": "762_51",
    "type": "MIGRATION",
    "replace": "sniper_ball",
    "unrolled_id_group": "3006_incendiary"
  },
  {
    "id": "762_51_incendiary",
    "type": "MIGRATION",
    "replace": "sniper_ball",
    "unrolled_id_group": "3006_incendiary"
  },
  {
    "id": "reloaded_3006_incendiary",
    "type": "MIGRATION",
    "replace": "sniper_ball",
    "unrolled_id_group": "3006_incendiary"
  },
  {
    "id": "reloaded_3006fmj",
    "type": "MIGRATION",
    "replace": "sniper_ball",
    "unrolled_id_group": "3006_incendiary"
  },
  {
    "id": "reloaded_4570_pen",
    "type": "MIGRATION",
    "replace": "sniper_ball",
    "unrolled_id_group": "3006_incendiary"
  },
  {
    "id": "reloaded_545_ap",
    "type": "MIGRATION",
    "replace": "sniper_ball",
    "unrolled_id_group": "3006_incendiary"
  },
  {
    "id": "reloaded_762_51",
    "type": "MIGRATION",
    "replace": "sniper_ball",
    "unrolled_id_group": "3006_incendiary"
  },
  {
    "id": "reloaded_762_51_incendiary",
    "type": "MIGRATION",
    "replace": "sniper_ball",
    "unrolled_id_group": "3006_incendiary"
  },
  {
    "id": "bp_3006_incendiary",
    "type": "MIGRATION",
    "replace": "bp_sniper_ball",
    "unrolled_id_group": "bp_3006_incendiary"
  },
  {
    "id": "bp_3006fmj",
    "type": "MIGRATION",
    "replace": "bp_sniper_ball",
    "unrolled_id_group": "bp_3006_incendiary"
  },
  {
    "id": "bp_556",
    "type": "MIGRATION",
    "replace": "bp_sniper_ball",
    "unrolled_id_group": "bp_3006_incendiary"
  },
  {
    "id": "bp_556_incendiary",
    "type": "MIGRATION",
    "replace": "bp_sniper_ball",
    "unrolled_id_group": "bp_3006_incendiary"
  },
  {
    "id": "bp_762_51",
    "type": "MIGRATION",
    "replace": "bp_sniper_ball",
    "unrolled_id_group": "bp_3006_incendiary"
  },
  {
    "id": "bp_762_51_incendiary",
    "type": "MIGRATION",
    "replace": "bp_sniper_ball",
    "unrolled_id_group": "bp_3006_incendiary"
  },
  {
    "id": "270win_jsp",
    "type": "MIGRATION",
    "replace": "sniper_jhp",
    "unrolled_id_group": "270win_jsp"
  },
  {
    "id": "300_winmag",
    "type": "MIGRATION",
    "replace": "sniper_jhp",
    "unrolled_id_group": "270win_jsp"
  },
  {
    "id": "3006",
    "type": "MIGRATION",
    "replace": "sniper_jhp",
    "unrolled_id_group": "270win_jsp"
  },
  {
    "id": "308",
    "type": "MIGRATION",
    "replace": "sniper_jhp",
    "unrolled_id_group": "270win_jsp"
  },
  {
    "id": "4570_low",
    "type": "MIGRATION",
    "replace": "sniper_jhp",
    "unrolled_id_group": "270win_jsp"
  },
  {
    "id": "4570_sp",
    "type": "MIGRATION",
    "replace": "sniper_jhp",
    "unrolled_id_group": "270win_jsp"
  },
  {
    "id": "762_54R",
    "type": "MIGRATION",
    "replace": "sniper_jhp",
    "unrolled_id_group": "270win_jsp"
  },
  {
    "id": "762_m87",
    "type": "MIGRATION",
    "replace": "sniper_jhp",
    "unrolled_id_group": "270win_jsp"
  },
  {
    "id": "reloaded_270win_jsp",
    "type": "MIGRATION",
    "replace": "sniper_jhp",
    "unrolled_id_group": "270win_jsp"
  },
  {
    "id": "reloaded_300_winmag",
    "type": "MIGRATION",
    "replace": "sniper_jhp",
    "unrolled_id_group": "270win_jsp"
  },
  {
    "id": "reloaded_3006",
    "type": "MIGRATION",
    "replace": "sniper_jhp",
    "unrolled_id_group": "270win_jsp"
  },
  {
    "id": "reloaded_308",
    "type": "MIGRATION",
    "replace": "sniper_jhp",
    "unrolled_id_group": "270win_jsp"
  },
  {
    "id": "reloaded_4570_low",
    "type": "MIGRATION",
    "replace": "sniper_jhp",
    "unrolled_id_group": "270win_jsp"
  },
  {
    "id": "reloaded_4570_sp",
    "type": "MIGRATION",
    "replace": "sniper_jhp",
    "unrolled_id_group": "270win_jsp"
  },
  {
    "id": "reloaded_762_54R",
    "type": "MIGRATION",
    "replace": "sniper_jhp",
    "unrolled_id_group": "270win_jsp"
  },
  {
    "id": "reloaded_762_m87",
    "type": "MIGRATION",
    "replace": "sniper_jhp",
    "unrolled_id_group": "270win_jsp"
  },
  {
    "id": "bp_270win_jsp",
    "type": "MIGRATION",
    "replace": "bp_sniper_jhp",
    "unrolled_id_group": "bp_270win_jsp"
  },
  {
    "id": "bp_300_winmag",
    "type": "MIGRATION",
    "replace": "bp_sniper_jhp",
    "unrolled_id_group": "bp_270win_jsp"
  },
  {
    "id": "bp_3006",
    "type": "MIGRATION",
    "replace": "bp_sniper_jhp",
    "unrolled_id_group": "bp_270win_jsp"
  },
  {
    "id": "bp_308",
    "type": "MIGRATION",
    "replace": "bp_sniper_jhp",
    "unrolled_id_group": "bp_270win_jsp"
  },
  {
    "id": "50ss",
    "type": "MIGRATION",
    "replace": "rifle_huge_ball",
    "unrolled_id_group": "50ss"
  },
  {
    "id": "50_mk211",
    "type": "MIGRATION",
    "replace": "rifle_huge_ball",
    "unrolled_id_group": "50ss"
  },
  {
    "id": "700nx",
    "type": "MIGRATION",
    "replace": "rifle_huge_ball",
    "unrolled_id_group": "50ss"
  },
  {
    "id": "reloaded_50ss",
    "type": "MIGRATION",
    "replace": "rifle_huge_ball",
    "unrolled_id_group": "50ss"
  },
  {
    "id": "reloaded_700nx",
    "type": "MIGRATION",
    "replace": "rifle_huge_ball",
    "unrolled_id_group": "50ss"
  },
  {
    "id": "50_incendiary",
    "type": "MIGRATION",
    "replace": "rifle_huge_jhp",
    "unrolled_id_group": "50_incendiary"
  },
  {
    "id": "50bmg",
    "type": "MIGRATION",
    "replace": "rifle_huge_jhp",
    "unrolled_id_group": "50_incendiary"
  },
  {
    "id": "50match",
    "type": "MIGRATION",
    "replace": "rifle_huge_jhp",
    "unrolled_id_group": "50_incendiary"
  },
  {
    "id": "reloaded_50_incendiary",
    "type": "MIGRATION",
    "replace": "rifle_huge_jhp",
    "unrolled_id_group": "50_incendiary"
  },
  {
    "id": "reloaded_50bmg",
    "type": "MIGRATION",
    "replace": "rifle_huge_jhp",
    "unrolled_id_group": "50_incendiary"
  },
  {
    "id": "36navy",
    "type": "MIGRATION",
    "replace": "black_powder_ball",
    "unrolled_id_group": "36navy"
  },
  {
    "id": "44army",
    "type": "MIGRATION",
    "replace": "black_powder_ball",
    "unrolled_id_group": "36navy"
  },
  {
    "id": "flintlock_ammo",
    "type": "MIGRATION",
    "replace": "black_powder_ball",
    "unrolled_id_group": "36navy"
  },
  {
    "id": "flintlock_shot",
    "type": "MIGRATION",
    "replace": "bluss_shot",
    "unrolled_id_group": "flintlock_shot"
  },
  {
    "id": "40x46mm_m1006",
    "type": "MIGRATION",
    "replace": "grenade_ammo_beanbag",
    "unrolled_id_group": "40x46mm_m1006"
  },
  {
    "id": "40mm_flare",
    "type": "MIGRATION",
    "replace": "grenade_ammo_flare",
    "unrolled_id_group": "40mm_flare"
  },
  {
    "id": "40x46mm_m433",
    "type": "MIGRATION",
    "replace": "grenade_ammo_hedp",
    "unrolled_id_group": "40x46mm_m433"
  },
  {
    "id": "40x46mm_m651",
    "type": "MIGRATION",
    "replace": "grenade_ammo_hedp",
    "unrolled_id_group": "40x46mm_m433"
  },
  {
    "id": "40x53mm_m430a1",
    "type": "MIGRATION",
    "replace": "grenade_ammo_hedp",
    "unrolled_id_group": "40x46mm_m433"
  },
  {
    "id": "40x46mm_m576",
    "type": "MIGRATION",
    "replace": "grenade_ammo_shot",
    "unrolled_id_group": "40x46mm_m576"
  },
  {
    "id": "40x46mm_buckshot_m118",
    "type": "MIGRATION",
    "replace": "grenade_ammo_shot",
    "unrolled_id_group": "40x46mm_m576"
  },
  {
    "id": "40x46mm_flechette_m118",
    "type": "MIGRATION",
    "replace": "grenade_ammo_shot",
    "unrolled_id_group": "40x46mm_m576"
  },
  {
    "id": "40x46mm_flechette_m199",
    "type": "MIGRATION",
    "replace": "grenade_ammo_shot",
    "unrolled_id_group": "40x46mm_m576"
  },
  {
    "id": "40x53mm_m1001",
    "type": "MIGRATION",
    "replace": "grenade_ammo_shot",
    "unrolled_id_group": "40x46mm_m576"
  },
  {
    "id": "40x53mm_buckshot_m169",
    "type": "MIGRATION",
    "replace": "grenade_ammo_shot",
    "unrolled_id_group": "40x46mm_m576"
  },
  {
    "id": "40x46mm_slug_m118",
    "type": "MIGRATION",
    "replace": "grenade_ammo_slug",
    "unrolled_id_group": "40x46mm_slug_m118"
  },
  {
    "id": "40x46mm_slug_m199",
    "type": "MIGRATION",
    "replace": "grenade_ammo_slug",
    "unrolled_id_group": "40x46mm_slug_m118"
  },
  {
    "id": "40x53mm_slug_m169",
    "type": "MIGRATION",
    "replace": "grenade_ammo_slug",
    "unrolled_id_group": "40x46mm_slug_m118"
  },
  {
    "id": "40x46mm_m651",
    "type": "MIGRATION",
    "replace": "grenade_ammo_teargas",
    "unrolled_id_group": "40x46mm_m651"
  },
  {
    "id": "shot_00",
    "type": "MIGRATION",
    "replace": "shot_buck",
    "unrolled_id_group": "shot_00"
  },
  {
    "id": "shot_paper_00",
    "type": "MIGRATION",
    "replace": "shot_buck",
    "unrolled_id_group": "shot_00"
  },
  {
    "id": "410shot_000",
    "type": "MIGRATION",
    "replace": "shot_buck",
    "unrolled_id_group": "shot_00"
  },
  {
    "id": "20x66_exp",
    "type": "MIGRATION",
    "replace": "shot_buck",
    "unrolled_id_group": "shot_00"
  },
  {
    "id": "20x66_frag",
    "type": "MIGRATION",
    "replace": "shot_buck",
    "unrolled_id_group": "shot_00"
  },
  {
    "id": "20x66_inc",
    "type": "MIGRATION",
    "replace": "shot_buck",
    "unrolled_id_group": "shot_00"
  },
  {
    "id": "20x66_shot",
    "type": "MIGRATION",
    "replace": "shot_buck",
    "unrolled_id_group": "shot_00"
  },
  {
    "id": "20x66_flare",
    "type": "MIGRATION",
    "replace": "shot_buck",
    "unrolled_id_group": "shot_00"
  },
  {
    "id": "reloaded_shot_00",
    "type": "MIGRATION",
    "replace": "shot_buck",
    "unrolled_id_group": "shot_00"
  },
  {
    "id": "reloaded_410shot_000",
    "type": "MIGRATION",
    "replace": "shot_buck",
    "unrolled_id_group": "shot_00"
  },
  {
    "id": "20x66_bootleg_shot",
    "type": "MIGRATION",
    "replace": "shot_buck",
    "unrolled_id_group": "shot_00"
  },
  {
    "id": "shot_beanbag",
    "type": "MIGRATION",
    "replace": "shot_bean",
    "unrolled_id_group": "shot_beanbag"
  },
  {
    "id": "20x66_beanbag",
    "type": "MIGRATION",
    "replace": "shot_bean",
    "unrolled_id_group": "shot_beanbag"
  },
  {
    "id": "shot_bird",
    "type": "MIGRATION",
    "replace": "shot_fowl",
    "unrolled_id_group": "shot_bird"
  },
  {
    "id": "shot_paper_bird",
    "type": "MIGRATION",
    "replace": "shot_fowl",
    "unrolled_id_group": "shot_bird"
  },
  {
    "id": "reloaded_shot_bird",
    "type": "MIGRATION",
    "replace": "shot_fowl",
    "unrolled_id_group": "shot_bird"
  },
  {
    "id": "shot_slug",
    "type": "MIGRATION",
    "replace": "shot_foster",
    "unrolled_id_group": "shot_slug"
  },
  {
    "id": "shot_paper_slug",
    "type": "MIGRATION",
    "replace": "shot_foster",
    "unrolled_id_group": "shot_slug"
  },
  {
    "id": "20x66_slug",
    "type": "MIGRATION",
    "replace": "shot_foster",
    "unrolled_id_group": "shot_slug"
  },
  {
    "id": "reloaded_shot_slug",
    "type": "MIGRATION",
    "replace": "shot_foster",
    "unrolled_id_group": "shot_slug"
  },
  {
    "id": "20x66_bootleg_slug",
    "type": "MIGRATION",
    "replace": "shot_foster",
    "unrolled_id_group": "shot_slug"
  },
  {
    "id": "shot_dragon",
    "type": "MIGRATION",
    "replace": "shot_pyro",
    "unrolled_id_group": "shot_dragon"
  },
  {
    "id": "shot_paper_dragon",
    "type": "MIGRATION",
    "replace": "shot_pyro",
    "unrolled_id_group": "shot_dragon"
  },
  {
    "id": "reloaded_shot_dragon",
    "type": "MIGRATION",
    "replace": "shot_pyro",
    "unrolled_id_group": "shot_dragon"
  },
  {
    "id": "shot_scrap",
    "type": "MIGRATION",
    "replace": "shot_junk",
    "unrolled_id_group": "shot_scrap"
  },
  {
    "id": "reloaded_shot_flechette",
    "type": "MIGRATION",
    "replace": "shot_dart",
    "unrolled_id_group": "reloaded_shot_flechette"
  },
  {
    "id": "20x66_flechette",
    "type": "MIGRATION",
    "replace": "shot_dart",
    "unrolled_id_group": "reloaded_shot_flechette"
  },
  {
    "id": "20x66_bootleg_flechette",
    "type": "MIGRATION",
    "replace": "shot_dart",
    "unrolled_id_group": "reloaded_shot_flechette"
  },
  {
    "id": "bp_shot_00",
    "type": "MIGRATION",
    "replace": "bp_shot_buck",
    "unrolled_id_group": "bp_shot_00"
  },
  {
    "id": "bp_shot_bird",
    "type": "MIGRATION",
    "replace": "bp_shot_fowl",
    "unrolled_id_group": "bp_shot_bird"
  },
  {
    "id": "bp_shot_slug",
    "type": "MIGRATION",
    "replace": "bp_shot_foster",
    "unrolled_id_group": "bp_shot_slug"
  },
  {
    "id": "bp_shot_dragon",
    "type": "MIGRATION",
    "replace": "bp_shot_pyro",
    "unrolled_id_group": "bp_shot_dragon"
  },
  {
    "id": "bp_shot_flechette",
    "type": "MIGRATION",
    "replace": "bp_shot_dart",
    "unrolled_id_group": "bp_shot_flechette"
  },
  {
    "id": "bp_shot_scrap",
    "type": "MIGRATION",
    "replace": "bp_shot_junk",
    "unrolled_id_group": "bp_shot_scrap"
  },
  {
    "id": "84x246mm_he",
    "type": "MIGRATION",
    "replace": "rocket_he",
    "unrolled_id_group": "84x246mm_he"
  },
  {
    "id": "RPG-7_ammo",
    "type": "MIGRATION",
    "replace": "rocket_he",
    "unrolled_id_group": "84x246mm_he"
  },
  {
    "id": "84x246mm_hedp",
    "type": "MIGRATION",
    "replace": "rocket_hedp",
    "unrolled_id_group": "84x246mm_hedp"
  },
  {
    "id": "m235_tpa",
    "type": "MIGRATION",
    "replace": "rocket_hedp",
    "unrolled_id_group": "84x246mm_hedp"
  },
  {
    "id": "RPG-7_pg7vr",
    "type": "MIGRATION",
    "replace": "rocket_hedp",
    "unrolled_id_group": "84x246mm_hedp"
  },
  {
    "id": "RPG-7_tbg7v",
    "type": "MIGRATION",
    "replace": "rocket_hedp",
    "unrolled_id_group": "84x246mm_hedp"
  },
  {
    "id": "RPG-7_og7v",
    "type": "MIGRATION",
    "replace": "rocket_hedp",
    "unrolled_id_group": "84x246mm_hedp"
  },
  {
    "id": "84x246mm_smoke",
    "type": "MIGRATION",
    "replace": "rocket_smoke",
    "unrolled_id_group": "84x246mm_smoke"
  },
  {
    "id": "blun_slug",
    "type": "MIGRATION",
    "replace": "bluss_slug",
    "unrolled_id_group": "blun_slug"
  },
  {
    "id": "blun_slug",
    "type": "MIGRATION",
    "replace": "bluss_shot",
    "unrolled_id_group": "blun_slug"
  },
  {
    "id": "blun_flechette",
    "type": "MIGRATION",
    "replace": "bluss_flechette",
    "unrolled_id_group": "blun_flechette"
  }
]