[
  {
    "abstract": "grenade_ammo",
    "copy-from": "40x46mm_grenade",
    "type": "AMMO",
    "name": {
      "str": "40mm grenade"
    },
    "ammo_type": "ammo_grenade",
    "casing": "grenade_casing",
    "id": "grenade_ammo"
  },
  {
    "id": "grenade_ammo_hedp",
    "copy-from": "grenade_ammo",
    "type": "AMMO",
    "name": {
      "str": "40mm HEDP grenade"
    },
    "description": "A grenade cartridge with a high explosive dual purpose load, capable of producing good penetration and a high number of damaging fragments.  Good for armored or soft targets.",
    "extend": {
      "effects": [
        "FRAG",
        "EXPLOSIVE"
      ]
    }
  },
  {
    "id": "grenade_ammo_beanbag",
    "copy-from": "grenade_ammo",
    "type": "AMMO",
    "name": {
      "str": "40mm beanbag grenade"
    },
    "description": "A less-lethal beanbag grenade cartridge that delivers strong impact on target, causing major pain and disorientation.  May still injure or kill.",
    "damage": {
      "damage_type": "bullet",
      "amount": 20
    },
    "extend": {
      "effects": [
        "LARGE_BEANBAG"
      ]
    }
  },
  {
    "id": "grenade_ammo_flare",
    "copy-from": "grenade_ammo",
    "type": "AMMO",
    "name": {
      "str": "40mm flare grenade"
    },
    "description": "A signal flare grenade cartridge.  It will burn brightly for up to a minute, and will also leave a streak of smoke cover in its wake.",
    "drop": "handflare_lit",
    "extend": {
      "effects": [
        "TRAIL",
        "NO_EMBED"
      ]
    }
  },
  {
    "id": "grenade_ammo_shot",
    "copy-from": "grenade_ammo",
    "type": "AMMO",
    "name": {
      "str": "40mm buckshot grenade"
    },
    "description": "A grenade cartridge with a powerful buckshot load, designed to provide some defensive options when carrying a grenade launcher.",
    "range": 12,
    "damage": {
      "damage_type": "bullet",
      "amount": 85
    },
    "recoil": 525,
    "extend": {
      "effects": [
        "SHOT"
      ]
    }
  },
  {
    "id": "grenade_ammo_smoke",
    "copy-from": "grenade_ammo",
    "type": "AMMO",
    "name": "40mm smoke grenade",
    "description": "A grenade cartridge grenade designed to provide smoke cover.",
    "drop": "smokebomb_act",
    "extend": {
      "effects": [
        "TRAIL",
        "NO_EMBED"
      ]
    }
  },
  {
    "id": "grenade_ammo_teargas",
    "copy-from": "grenade_ammo",
    "type": "AMMO",
    "name": "40mm teargas grenade",
    "description": "A grenade cartridge with a teargas load.  It will disburse a cloud of highly incapacitating gas.",
    "drop": "gasbomb_act",
    "extend": {
      "effects": [
        "NO_EMBED"
      ]
    }
  },
  {
    "id": "grenade_ammo_slug",
    "copy-from": "grenade_ammo",
    "type": "AMMO",
    "name": "40mm slug grenade",
    "description": "A grenade cartridge loaded with a massive bullet.  Say goodbye to your shoulder, I guess.",
    "damage": {
      "damage_type": "bullet",
      "amount": 130
    },
    "recoil": 875,
    "extend": {
      "effects": [
        "LARGE_BEANBAG"
      ]
    }
  }
]