[
  {
    "type": "mapgen",
    "om_terrain": [
      "mil_outpost_2le"
    ],
    "//": "second floor left edge",
    "method": "json",
    "weight": 0,
    "object": {
      "fill_ter": "t_flat_roof",
      "rows": [
        "######F          F######",
        "######F          F######",
        "######F          F######",
        "######F          F######",
        "######F          F######",
        "######F          F######",
        "######F          F######",
        "######F          F######",
        "######F          F######",
        "######F          F######",
        "######F          F######",
        "######F          F######",
        "######F          F######",
        "######F          F######",
        "######F          F######",
        "######F          F######",
        "######F          F######",
        "######F          F######",
        "######F          F######",
        "######F          F######",
        "######F          F######",
        "######F          F######",
        "######F          F######",
        "######F          F######"
      ],
      "palettes": [
        "mil_outpost_bandit"
      ],
      "terrain": {
        " ": "t_flat_roof",
        ",": "t_open_air",
        "f": "t_railing_h",
        "F": "t_railing_v"
      }
    },
    "id": "f6307cff-dabe-4bb7-b3ad-8d38f8edc548"
  }
]