[
  {
    "type": "mapgen",
    "om_terrain": [
      "mil_outpost_1blc"
    ],
    "//": "first floor bottom left corner",
    "method": "json",
    "weight": 250,
    "object": {
      "fill_ter": "t_concrete_floor",
      "rows": [
        ",,,,,,||........||,wwwww",
        ",,,,,,||c.D.DD..||wwwwww",
        ",,,,,,||..D...D.||ww,,ww",
        ",,,----|DD.DD.D.|-!--,ww",
        ",,,|-----------+-- -|,ww",
        ",,,||BB...B...|  <<||,,,",
        ",,,||.....B...+  <<|----",
        ",,,||.BB......|-+-------",
        ",,,||l...d.l..|.....^^..",
        ",,,||---------|...^^....",
        ",,,||&.+......+.........",
        ",,,||---......|.........",
        ",,,||&.+..sssC|^^DD^^N..",
        ",,,||-------------------",
        ",,,||H.............+    ",
        ",,,||..A....H......+    ",
        ",,,||..A@..........-----",
        ",,,||........nnn...|----",
        ",,,||H.....a......H||,,,",
        ",,,|----------------|,,,",
        ",,,------------------,,,",
        ",,,,,,,,,,,,,,,,,,,,,,,,",
        ",,,,,,,,,,,,,,,,,,,,,,,,",
        ",,,,,,,,,,,,,,,,,,,,,,,,"
      ],
      "palettes": [
        "mil_outpost_bandit"
      ],
      "npcs": {
        "@": {
          "class": "thug"
        }
      },
      "mapping": {
        "X": {
          "furniture": "f_brazier",
          "item": {
            "item": "2x4",
            "count": 5
          },
          "fields": {
            "field": "fd_fire"
          }
        }
      }
    },
    "id": "106ee713-94ac-49d1-a69a-d7014c7c74b8"
  }
]