[
  {
    "type": "mapgen",
    "om_terrain": [
      "mil_outpost_1mid"
    ],
    "//": "ground level middle parking lot",
    "method": "json",
    "weight": 250,
    "object": {
      "fill_ter": "t_pavement",
      "rows": [
        ",,,                  ,,,",
        ",,                    ,,",
        ",                      ,",
        "                        ",
        "                        ",
        "                        ",
        "                        ",
        "                        ",
        "                        ",
        "                        ",
        "                        ",
        "           V            ",
        "                        ",
        "                        ",
        "                        ",
        "                        ",
        "                        ",
        "                        ",
        "                        ",
        "                        ",
        "                        ",
        ",                      ,",
        ",,                    ,,",
        ",,,                  ,,,"
      ],
      "palettes": [
        "mil_outpost_bandit"
      ],
      "terrain": {
        " ": "t_pavement"
      },
      "vehicles": {
        "V": {
          "vehicle": "military_cargo_truck",
          "chance": 50,
          "fuel": 50,
          "status": 3
        }
      }
    },
    "id": "3ae1c9ed-30be-44e4-9df7-40640170f228"
  }
]