[
  {
    "type": "mapgen",
    "om_terrain": [
      "mil_outpost_ytrc"
    ],
    "//": "outer yard top right corner",
    "method": "json",
    "weight": 250,
    "object": {
      "fill_ter": "t_pavement",
      "rows": [
        ",,,,,,,,,,,,,,,,,,,,,,,,",
        "fffffffffffffffffffffff,",
        ",,,,,,,,,,,,,,,,,,,,,,F,",
        ",,,,,,,,,,,,,,,,,,,,,,F,",
        ",,,,,,,,,,,,,,,,,,,,,,F,",
        ",,,,,,,,,,,,,,,,,,,,,,F,",
        ",,,,,,,,,,,,,,,,,,,,,,F,",
        ",,,,,,,,,,,,,,,,,,,,,,F,",
        ",,,,,,,,,,,,,,,,,,,,,,F,",
        ",,,,,,,,,,,,,,,,,,,,,,F,",
        ",,,,,,,,,,,,,,,,,,,,,,F,",
        ",,,,,,,,,,,,,,,,,,,,,,F,",
        ",,,,,,,,,,,,,,,,,,,,,,F,",
        ",,,,,,,,,,,,,,,,,,,,,,F,",
        ",,,,,,,,,,,,,,,,,,,,,,F,",
        ",,,,,,,,,,,,,,,,,,,,,,F,",
        ",,,,,,,,,,,,,,,,,,,,,,F,",
        ",,,,,,,,,,,,,,,,,,,,,,F,",
        ",,,,,,,,,,,,,,,,,,,,,,F,",
        "fffff,,,,,,,,,,,,,,,,,F,",
        ",,,,F,,,,,,,,,,,,,,,,,F,",
        ",,,,F,,,,,,,,,,,,,,,,,F,",
        ",,,,F,,,,,,,,,,,,,,,,,F,",
        ",,,,F,,,,,,,,,,,,,,,,,F,"
      ],
      "palettes": [
        "mil_outpost_bandit"
      ],
      "place_traps": [
        {
          "x": [
            0,
            18
          ],
          "y": [
            2,
            18
          ],
          "trap": "tr_landmine",
          "chance": 85,
          "repeat": [
            20,
            45
          ]
        },
        {
          "x": [
            5,
            18
          ],
          "y": [
            19,
            23
          ],
          "trap": "tr_landmine",
          "chance": 85,
          "repeat": [
            10,
            15
          ]
        }
      ]
    },
    "id": "8e8af24e-cee8-4fae-9bbf-6e80339d4a77"
  }
]