[
  {
    "type": "mapgen",
    "om_terrain": [
      "mil_outpost_ubrc"
    ],
    "//": "underground bottom right corner",
    "method": "json",
    "weight": 250,
    "object": {
      "fill_ter": "t_concrete_floor",
      "rows": [
        "......|C....C|  |#######",
        "......|C....C|  |#######",
        "......|C....C|  |#######",
        "-------C....s|  |#######",
        "T...c7|.....s|  |#######",
        "......|.....C|  |#######",
        "....c7|.....C|  |#######",
        "......|.....C|  |#######",
        "....c7|...TTT|  |#######",
        "......|...TTT|  |#######",
        "....c7|CCCTTT|  |#######",
        "--+-----------  |#######",
        "                |#######",
        "                |#######",
        "-----------------#######",
        "########################",
        "########################",
        "########################",
        "########################",
        "########################",
        "########################",
        "########################",
        "########################",
        "########################"
      ],
      "palettes": [
        "mil_outpost_underground"
      ]
    },
    "id": "6de338bb-ec41-484f-ae60-b7a8bb185a3b"
  }
]