[
  {
    "type": "mapgen",
    "om_terrain": [
      "mil_outpost_ule"
    ],
    "//": "underground left edge",
    "method": "json",
    "weight": 250,
    "object": {
      "fill_ter": "t_concrete_floor",
      "rows": [
        "#######|  |#############",
        "#######|  |#############",
        "##-----|  |----------###",
        "##|...N|  |bbb...BBd|###",
        "##|D...+  |......BBd|###",
        "##|Dc..|  |Tc...----|###",
        "##|----|  |T....|lll|###",
        "##|N...|  |....a|...|###",
        "##|....+  --+---|..L|---",
        "##|..DD|        |..s|b..",
        "##|..c.|        +..s|b..",
        "##--------+---  |...|b..",
        "##|X.x.x.....|  |ll.|b..",
        "##|X..xX.x...|  |----...",
        "##|X.x.Xx.x.X|  |7......",
        "##-----------|  |C......",
        "######|L....x|  |7......",
        "######|LTc..x|  --------",
        "######|.T....+          ",
        "######|.22...|          ",
        "######|------|  ----+---",
        "######|TT....|  |c....c.",
        "######|2.....+  |..c....",
        "######|......|  |......."
      ],
      "palettes": [
        "mil_outpost_underground"
      ],
      "items": {
        "x": {
          "item": "chem_lab",
          "chance": 25
        },
        "X": {
          "item": "electronics",
          "chance": 40
        }
      }
    },
    "id": "288ceebc-b45f-41d8-8256-3ee52c8c28b1"
  }
]