[
  {
    "type": "mapgen",
    "om_terrain": [
      "mil_outpost_2brc"
    ],
    "//": "second floor bottom right corner",
    "method": "json",
    "weight": 250,
    "object": {
      "fill_ter": "t_concrete_floor",
      "rows": [
        "######F          F######",
        "######F          F######",
        "######F          F######",
        "###--------++--------###",
        "###|-------++-------|###",
        "###||>>......|.....||###",
        "fff||>>......+.....||###",
        "   ||....----------||###",
        "   ||...v|.....|...||###",
        "   ||..---.....+...||###",
        "   ||..|.......|.BB||###",
        "   !...!...<<..|---||###",
        "   !...!...<<..|xxx||###",
        "   |----.......|X.x||###",
        "   ||l.|......p|x.x||###",
        "   ||l.|--+------+-||###",
        "   ||l.|......W.@..||###",
        "fff||l.+.....c....L||###",
        "###||l.|NNNbTTTL..L||###",
        "###|----------------|###",
        "###------------------###",
        "########################",
        "########################",
        "########################"
      ],
      "palettes": [
        "mil_outpost_bandit"
      ],
      "terrain": {
        " ": "t_flat_roof",
        ",": "t_open_air",
        "f": "t_railing_h",
        "F": "t_railing_v"
      },
      "items": {
        "X": {
          "item": "hardware_bulk",
          "chance": 80
        },
        "x": {
          "item": "mechanics",
          "chance": 80
        }
      }
    },
    "id": "86e85b5d-41e8-41c5-98dd-baf4df1a6fe2"
  }
]