[
  {
    "type": "mapgen",
    "om_terrain": [
      "mil_outpost_ybe_gate"
    ],
    "//": "yard bottom edge gate",
    "method": "json",
    "weight": 250,
    "object": {
      "fill_ter": "t_pavement",
      "rows": [
        ",,Fww,            ,wwF,,",
        ",,Fww,            ,wwF,,",
        ",,Fww,            ,wwF,,",
        ",,Fww,            ,wwF,,",
        "ffF==F            F==Fff",
        ",,FwwF            FwwF,,",
        ",,FwwF5   z   z   FwwF,,",
        ",,FwwFYPPPPPPPPPPPFwwF,,",
        ",,FwwF _      _   FwwF,,",
        ",,FwwF   _        FwwF,,",
        ",,FwwF        _   FwwF,,",
        ",,FwwF _      _   FwwF,,",
        ",,FwwF            FwwF,,",
        ",,FwwF  _   _   _ FwwF,,",
        ",,FwwF         _  FwwF,,",
        ",,FwwF _      _   FwwF,,",
        ",,FwwF            FwwF,,",
        ",,FwwF   Z  Z    5FwwF,,",
        ",,FwwFPPPPPPPPPPPYFwwF,,",
        ",,-++- H        H -++-,,",
        ",,|.c| 8 @ 8     %|c.|,,",
        ",,|7DG 88888 8  @ GD7|,,",
        "ff--0-       88888-0--ff",
        ",,,,, X           X,,,,,"
      ],
      "palettes": [
        "mil_outpost_bandit"
      ],
      "npcs": {
        "@": {
          "class": "raider"
        },
        "z": {
          "class": "bandit"
        },
        "Z": {
          "class": "thug"
        }
      },
      "traps": {
        "_": "tr_beartrap"
      },
      "mapping": {
        "H": {
          "furniture": "f_brazier",
          "item": {
            "item": "2x4",
            "count": 5
          },
          "fields": {
            "field": "fd_fire"
          }
        }
      }
    },
    "id": "7695d158-1985-4d15-880b-07128751889f"
  }
]