[
  {
    "type": "mapgen",
    "om_terrain": [
      "mil_outpost_1brc"
    ],
    "//": "first floor bottom right corner",
    "method": "json",
    "weight": 0,
    "object": {
      "fill_ter": "t_concrete_floor",
      "rows": [
        "wwwww,||..|.....||,,,,,,",
        "wwwww,||........||,,,,,,",
        "ww,,,,||........||,,,,,,",
        "ww,----|........|----,,,",
        "ww,|----........----|,,,",
        ",,,||<<............||,,,",
        "----|<<............||,,,",
        "-----..............||,,,",
        "...................||,,,",
        "...................||,,,",
        "...................||,,,",
        "...................||,,,",
        "...................||,,,",
        "...................||,,,",
        "...................||,,,",
        "...................||,,,",
        "-----..............||,,,",
        "----|..............||,,,",
        ",,,||..............||,,,",
        ",,,|----------------|,,,",
        ",,,------------------,,,",
        ",,,,,,,,,,,,,,,,,,,,,,,,",
        ",,,,,,,,,,,,,,,,,,,,,,,,",
        ",,,,,,,,,,,,,,,,,,,,,,,,"
      ],
      "palettes": [
        "mil_outpost_bandit"
      ]
    },
    "id": "49e2a368-bba0-458b-b085-62b020e84b93"
  }
]