[
  {
    "type": "mapgen",
    "om_terrain": [
      "mil_outpost_utlc"
    ],
    "//": "underground top left corner",
    "method": "json",
    "weight": 250,
    "object": {
      "fill_ter": "t_concrete_floor",
      "rows": [
        "########################",
        "##------------##########",
        "##|d.....X.=.|##########",
        "##|..BB....ff|----------",
        "##|..BB......|          ",
        "##|d.........!          ",
        "##|----------|  --------",
        "##|...BB.....|  |BBl|L..",
        "##|...BB.....!  |...|L..",
        "##|..........|  +...|L..",
        "##|d........d|  |BBl|...",
        "##|----------|  |---|...",
        "##|B..B|&|&|&|  |LLL|fff",
        "##|B..B|+|+|+|  +...+...",
        "##|....|.....|  +...+...",
        "##|l..l|ss...|  |LLL|...",
        "##---+-----+--  --------",
        "##|                     ",
        "##|                     ",
        "##|       ----+---------",
        "##------  |.x...x|######",
        "#######|  |x...x.|######",
        "#######|  |-------######",
        "#######|  |#############"
      ],
      "palettes": [
        "mil_outpost_underground"
      ],
      "items": {
        "x": {
          "item": "bed",
          "chance": 95
        },
        "X": {
          "item": "mil_food",
          "chance": 65
        }
      }
    },
    "id": "d69135ea-fbe7-4132-94aa-88fc45438d1b"
  }
]