[
  {
    "type": "mapgen",
    "om_terrain": [
      "mil_outpost_ubea"
    ],
    "//": "underground bottom edge. A stair",
    "method": "json",
    "weight": 250,
    "object": {
      "fill_ter": "t_concrete_floor",
      "rows": [
        "...T|##########|........",
        "...c|##########|C...C...",
        "....|##########|C....CCC",
        "--+---------------++----",
        "           |............",
        "           |47c.........",
        "---------  |............",
        "........|  |47c.........",
        "...c....|  |............",
        ".TTTTTT.|  |47c.........",
        "...TT...|  |............",
        "...TT...|  ----ggggggg--",
        ".TTTTTT.|               ",
        "........|               ",
        "---+-----    -----  ----",
        "             |###|  |###",
        "             |###|  |###",
        "-----------  |###-++-###",
        "##########|  |###|  |###",
        "##########-++-###|  |###",
        "##########|>>|###----###",
        "##########|>>|##########",
        "##########----##########",
        "########################"
      ],
      "palettes": [
        "mil_outpost_underground"
      ]
    },
    "id": "42b26b70-6685-46f6-8b09-44734165966c"
  }
]