[
  {
    "type": "mapgen",
    "om_terrain": [
      "mil_outpost_ure"
    ],
    "//": "underground right edge",
    "method": "json",
    "weight": 250,
    "object": {
      "fill_ter": "t_concrete_floor",
      "rows": [
        "....|###|.........|#####",
        "....|----.........|#####",
        "....|74...........|#####",
        "....|.............|#####",
        "--!--.....33......|#####",
        ".........3##3.....|#####",
        ".........3##3.....|#####",
        "..........33....74|#####",
        "..................|#####",
        ".....nnn........74|#####",
        "--+----------------#####",
        "                |#######",
        "                |##...##",
        "---------+----  |##...##",
        ".............|  |##...##",
        ".............|  |##...##",
        ".............|  +.....##",
        "CCCCCCCC.....|  |##...##",
        "-------C.....|  |##...##",
        ".N.N.N|C.....|  |#######",
        ".N.N.N|C.....|  |#######",
        ".N N.N|C.....|  |#######",
        ".N.N.N|C.....|  |#######",
        "......|C.....|  |#######"
      ],
      "palettes": [
        "mil_outpost_underground"
      ]
    },
    "id": "67cfdb23-b252-4228-b3f5-3701e433e6cf"
  }
]