[
  {
    "type": "mapgen",
    "om_terrain": [
      "mil_outpost_1le"
    ],
    "//": "first floor left edge",
    "method": "json",
    "weight": 0,
    "object": {
      "fill_ter": "t_concrete_floor",
      "rows": [
        ",,,,,,||..|.....||,ww,,,",
        ",,,,,,||........||,ww,,,",
        ",,,,,,||........||,ww,,,",
        ",,,,,,||........||,ww,,,",
        ",,,,,,||........||,ww,,,",
        ",,,,,,||........||,ww,,,",
        ",,,,,,||........||,ww,,,",
        ",,,,,,||........||,ww,,,",
        ",,,,,,||........||,ww,,,",
        ",,,,,,||........||,ww,,,",
        ",,,,,,||........||,ww,,,",
        ",,,,,,||........||,ww,,,",
        ",,,,,,||........||,ww,,,",
        ",,,,,,||........||,ww,,,",
        ",,,,,,||........||,ww,,,",
        ",,,,,,||........||,ww,,,",
        ",,,,,,||........||,ww,,,",
        ",,,,,,||........||,ww,,,",
        ",,,,,,||........||,ww,,,",
        ",,,,,,||........||,ww,,,",
        ",,,,,,||........||,ww,,,",
        ",,,,,,||........||,ww,,,",
        ",,,,,,||........||,ww,,,",
        ",,,,,,||........||,ww,,,"
      ],
      "palettes": [
        "mil_outpost_bandit"
      ]
    },
    "id": "4a9257a6-5d0d-40f3-a1de-69ecd9ee8548"
  }
]