[
  {
    "type": "mapgen",
    "om_terrain": [
      "mil_outpost_1re"
    ],
    "//": "first floor right edge",
    "method": "json",
    "weight": 250,
    "object": {
      "fill_ter": "t_concrete_floor",
      "rows": [
        ",,,ww,||.....|  ||,,,,,,",
        ",,,ww,||[****|  ||,,,,,,",
        ",,,ww,||....l|  ||,,,,,,",
        ",,,ww,||--+---  ||,,,,,,",
        ",,,ww,||        ||,,,,,,",
        ",,,ww,||        ||,,,,,,",
        ",,,ww,||  ------||,,,,,,",
        ",,,ww,||  |..DDD||,,,,,,",
        ",,,ww,||  |...c.||,,,,,,",
        ",,,ww,G   +.....||,,,,,,",
        ",,,ww,G   G.....||,,,,,,",
        ",,,ww,||  |...c.||,,,,,,",
        ",,,www!   |..DDD||,,,,,,",
        ",,,www!   |-----||,,,,,,",
        ",,,ww,||  |.x.xx||,,,,,,",
        ",,,ww,||  +...xx||,,,,,,",
        ",,,ww,||  |.....||,,,,,,",
        ",,,ww,||  |....x||,,,,,,",
        ",,,ww,G   G....x||,,,,,,",
        ",,,ww,G   G..x.x||,,,,,,",
        ",,,ww,||  |-----||,,,,,,",
        ",,,ww,||  |..7DD||,,,,,,",
        ",,,ww,||  +...c.||,,,,,,",
        ",,,ww,||  |.....||,,,,,,"
      ],
      "palettes": [
        "mil_outpost_bandit"
      ],
      "items": {
        "x": {
          "item": "forage_spring",
          "chance": 90
        }
      }
    },
    "id": "825a983a-2892-4b2d-ba39-a5f5c1857586"
  }
]