[
  {
    "type": "mapgen",
    "om_terrain": [
      "mil_outpost_ubea"
    ],
    "//": "underground bottom edge. A stair",
    "method": "json",
    "weight": 250,
    "object": {
      "fill_ter": "t_concrete_floor",
      "rows": [
        "....|##########|........",
        "...n|##----####|...TTTc.",
        "...n|##|  |####|........",
        "--+-----  |-----++------",
        "          |l.BB|  |4g...",
        "          +....|  |gg...",
        "-+------  |l.BB|  |4g...",
        "..|BB.l|  |----|  |gg7..",
        "..|....+  |l.BB|  |4g...",
        "..|BB.l|  |B...+  |gg...",
        "TT|----|  |B..l|  |4g...",
        "TT|l..B|  |----|  ------",
        ".L|B..B|  |l.BB|        ",
        ".L|B..l|  +....|        ",
        "-----+--  |l.BB|  ------",
        "          ------  |#####",
        "                  |#####",
        "----+---          |#####",
        "##|....|          |#####",
        "##|B..B|          ---###",
        "##|B..B|   >>       |###",
        "##|l..l|   >>       |###",
        "##-------------------###",
        "########################"
      ],
      "palettes": [
        "mil_outpost_underground"
      ]
    },
    "id": "8d68bdb3-ac74-4377-a2fb-e9e54320c49c"
  }
]