[
  {
    "type": "mapgen",
    "om_terrain": [
      "mil_outpost_ube"
    ],
    "//": "underground bottom edge",
    "method": "json",
    "weight": 0,
    "object": {
      "fill_ter": "t_concrete_floor",
      "rows": [
        "....|##########|........",
        "........................",
        "........................",
        "-......................-",
        "........................",
        "........................",
        "-.......................",
        "........................",
        "........................",
        "........................",
        "........................",
        ".......................-",
        "........................",
        "........................",
        "-......................-",
        ".......................#",
        ".......................#",
        "-......................#",
        "#......................#",
        "#......................#",
        "#......................#",
        "#......................#",
        "#......................#",
        "#......................#"
      ],
      "palettes": [
        "mil_outpost_underground"
      ]
    },
    "id": "83b6c067-2f7d-46db-a86e-5f344d5a96fe"
  }
]