[
  {
    "type": "mapgen",
    "om_terrain": [
      "mil_outpost_ubrc"
    ],
    "//": "underground bottom right corner",
    "method": "json",
    "weight": 250,
    "object": {
      "fill_ter": "t_concrete_floor",
      "rows": [
        "......|C....C|  |#######",
        "......|C....C|  |#######",
        "......|C....C|  |#######",
        "-------C....C|  ---#####",
        "............s|    |#####",
        "............s|  ---#####",
        "....gggg..ggg|  |#######",
        "....g........|  ---#####",
        "....g.S.S.S.S|    |#####",
        "....g........|  ---#####",
        "....g.S.S.S.S|  |#######",
        "--+-----------  ---#####",
        "     x            |#####",
        "           x     x|#####",
        "--------------..---#####",
        "#############|.v|#######",
        "#########-----..-----###",
        "#########|XX....v.XX|###",
        "#########|XX.v..v.Xx|###",
        "#########|XX..v...XX|###",
        "#########|XXxXXXxxxX|###",
        "#########|XXXXXXXXXX|###",
        "#########------------###",
        "########################"
      ],
      "palettes": [
        "mil_outpost_underground"
      ],
      "items": {
        "x": {
          "item": "hardware_bulk",
          "chance": 15
        },
        "X": {
          "item": "hardware_bulk",
          "chance": 20
        }
      },
      "vehicles": {
        "v": {
          "vehicle": "handjack",
          "chance": 80,
          "fuel": 50,
          "status": 3
        }
      }
    },
    "id": "e852452c-548e-4cb9-ba91-8cdd584d99fa"
  }
]