[
  {
    "type": "mapgen",
    "om_terrain": [
      "mil_outpost_2trc"
    ],
    "//": "second floor top right corner",
    "method": "json",
    "weight": 250,
    "object": {
      "fill_ter": "t_concrete_floor",
      "rows": [
        "########################",
        "########################",
        "########################",
        "###------------------###",
        "###|----------------|###",
        "###||AAA....AAA...R||###",
        "fff||...........9..||###",
        "   ||...9......9...||###",
        "   ||.c..H......H..||###",
        "   ||..............||###",
        "  8||..........Y...||###",
        "   !.......<<....Y.||###",
        "   !.......<<..Y...||###",
        "  8||^.H..........n||###",
        "   ||-----H.......n||###",
        "   ||^..^|....9...n||###",
        "   ||^^.^+.........||###",
        "fff||>>..|......H..||###",
        "###||>>.^|^.......^||###",
        "###|-------..-------|###",
        "###--------!!--------###",
        "######F 888  88  F######",
        "######F       8  F######",
        "######F    888   F######"
      ],
      "palettes": [
        "mil_outpost_bandit"
      ],
      "terrain": {
        " ": "t_flat_roof",
        ",": "t_open_air",
        "f": "t_railing_h",
        "F": "t_railing_v"
      },
      "mapping": {
        "H": {
          "furniture": "f_brazier",
          "item": {
            "item": "2x4",
            "count": 5
          },
          "fields": {
            "field": "fd_fire"
          }
        }
      }
    },
    "id": "828a6ed1-ee2c-4020-a1cb-8107ae2ea2f5"
  }
]