[
  {
    "type": "mapgen",
    "om_terrain": [
      "mil_outpost_1blc"
    ],
    "//": "first floor bottom left corner",
    "method": "json",
    "weight": 0,
    "object": {
      "fill_ter": "t_concrete_floor",
      "rows": [
        ",,,,,,||........||,wwwww",
        ",,,,,,||........||,wwwww",
        ",,,,,,||........||,,,,ww",
        ",,,----|........|----,ww",
        ",,,|----........----|,ww",
        ",,,||............<<||,,,",
        ",,,||............<<|----",
        ",,,||..............-----",
        ",,,||...................",
        ",,,||...................",
        ",,,||...................",
        ",,,||...................",
        ",,,||...................",
        ",,,||..................-",
        ",,,||...................",
        ",,,||...................",
        ",,,||..............-----",
        ",,,||..............|----",
        ",,,||..............||,,,",
        ",,,|----------------|,,,",
        ",,,------------------,,,",
        ",,,,,,,,,,,,,,,,,,,,,,,,",
        ",,,,,,,,,,,,,,,,,,,,,,,,",
        ",,,,,,,,,,,,,,,,,,,,,,,,"
      ],
      "palettes": [
        "mil_outpost_bandit"
      ]
    },
    "id": "65e338f6-310c-4cf0-b9e5-b581ec5f7459"
  }
]