[
  {
    "type": "mapgen",
    "om_terrain": [
      "mil_outpost_utea"
    ],
    "//": "underground top edge. A stair",
    "method": "json",
    "weight": 100,
    "object": {
      "fill_ter": "t_concrete_floor",
      "rows": [
        "########################",
        "########################",
        "########################",
        "----------------########",
        "           +...|########",
        "           +...---------",
        "-----------|...bbbbbbbbb",
        "...F.......|............",
        "...=.......|T...........",
        "...=.....------.........",
        "...F.....|    |T..b.bbbb",
        "..-----!!- << ----------",
        "f=|        <<           ",
        "..|                     ",
        ".Z|  -------------------",
        "..|  |##################",
        "---  -------############",
        "           |############",
        "           |############",
        "---------  |------------",
        "########|  |............",
        "########|  +...c.....c..",
        "########|  +...TTTTTTT..",
        "########|  |......c....."
      ],
      "palettes": [
        "mil_outpost_underground"
      ]
    },
    "id": "681d5428-c8a2-41d8-9825-1a5dacafcb4b"
  }
]