[
  {
    "type": "mapgen",
    "om_terrain": [
      "mil_outpost_umid"
    ],
    "//": "underground middle",
    "method": "json",
    "weight": 250,
    "object": {
      "fill_ter": "t_concrete_floor",
      "rows": [
        "########|  |............",
        "########|  |.nn..nn.....",
        "########|  MMMMMMMMM....",
        "########|  Ml..7..lM....",
        "########|  M--...--M--+-",
        "########|  Ml.....lMo...",
        "########|  M--...--Mo...",
        "########|  Ml.....lMo...",
        "--------|  M--...--Mo...",
        "..C|S|.s|  Ml.....lMo.CC",
        "..C|.+..|  MMMM]MMMM----",
        "..C|--..|               ",
        "..C|&+..|               ",
        "..C|--..+  --------+----",
        "..C|&+..|  |AAA.|....|..",
        "..C|--.s|  |...a|x...|..",
        "..C|&+.s|  +....|.x.x|..",
        "---------  |....|X..x|..",
        "           |N..c|-----+-",
        "           |N.DD|3c.....",
        "--+--------------3......",
        "...p|##########|33c.....",
        "....|##########|........",
        "....|##########|........"
      ],
      "palettes": [
        "mil_outpost_underground"
      ],
      "items": {
        "x": {
          "item": "mechanics",
          "chance": 25
        },
        "X": {
          "item": "mechanics",
          "chance": 80
        }
      }
    },
    "id": "384da505-3dc6-49e8-bb29-9ca4625ccc0e"
  }
]