[
  {
    "type": "mapgen",
    "om_terrain": [
      "mil_outpost_3c"
    ],
    "//": "third floor top corner",
    "method": "json",
    "weight": 250,
    "object": {
      "fill_ter": "t_concrete_floor",
      "rows": [
        "########################",
        "########################",
        "########################",
        "###------------------###",
        "###|----------------|###",
        "###||xxx.||..VVVV..||###",
        "###||....!!........||###",
        "###||....||%.......||###",
        "###||i...|----++-----###",
        "###||i...||          ###",
        "###GiH...||          ###",
        "###Gi....||>>        ###",
        "###GI.c..||>>        ###",
        "###Gi....|-----------###",
        "###Gi9...-----------|###",
        "###||i............0||###",
        "###||.....x.x.xx..0||###",
        "###||.......x.....0||###",
        "###||h.a..hx.hx.h.0||###",
        "###|----------------|###",
        "###------------------###",
        "########################",
        "########################",
        "########################"
      ],
      "palettes": [
        "mil_outpost_bandit"
      ],
      "terrain": {
        " ": "t_flat_roof"
      },
      "furniture": {
        "0": "f_standing_tank",
        "9": "f_kiln_metal_full",
        "h": "f_crate_o",
        "H": "f_woodstove",
        "i": "f_counter",
        "I": "f_counter",
        "V": "f_vending_c"
      },
      "item": {
        "V": {
          "item": "meth",
          "amount": [
            10,
            30
          ]
        },
        "I": {
          "item": "chemistry_set"
        }
      },
      "items": {
        "i": {
          "item": "methlab",
          "chance": 15
        },
        "x": {
          "item": "methlab",
          "chance": 80
        },
        "h": {
          "item": "cleaning",
          "chance": 80
        }
      }
    },
    "id": "b9fb19c1-68cc-4bf3-9f14-ad4f01a19830"
  }
]