[
  {
    "type": "mapgen",
    "om_terrain": [
      "mil_outpost_ule"
    ],
    "//": "underground left edge",
    "method": "json",
    "weight": 250,
    "object": {
      "fill_ter": "t_concrete_floor",
      "rows": [
        "#######|  |#############",
        "#######|  |#############",
        "#######|  |#############",
        "#######|  |#############",
        "#######|  |#############",
        "#######|  |#############",
        "#######|  |#############",
        "#######|  |#############",
        "#######|  --------------",
        "#######|     +..........",
        "#######|     +.8........",
        "#######-------8.........",
        "#############|8.........",
        "#############|8.........",
        "#############|88........",
        "######-------|8.........",
        "######|33..33|88........",
        "######|..33..|----------",
        "######|......+          ",
        "######|.....C|          ",
        "######|.....C|  --------",
        "######|C....C|  |AAA.c..",
        "######|C.....|  |.......",
        "######|C.....|  |...TT.."
      ],
      "palettes": [
        "mil_outpost_underground"
      ]
    },
    "id": "9d795884-5e39-403a-859a-d14994e400e6"
  }
]