[
  {
    "type": "mapgen",
    "om_terrain": [
      "mil_outpost_ubrc"
    ],
    "//": "underground bottom right corner",
    "method": "json",
    "weight": 250,
    "object": {
      "fill_ter": "t_concrete_floor",
      "rows": [
        "......|C....C|  |#######",
        "......|C....C|  |#######",
        "......|C....C|  |#######",
        "-------C....s|  ------##",
        "CCCCCCCC....s|       |##",
        "............C|       |##",
        "...c...T.....------  |##",
        ".TT............H.B|  |##",
        ".TT......TTTT....B|  |##",
        "...c......c....HHH|  |##",
        "................Bb|  |##",
        "--+----HHH..ll.HHH|  |##",
        "      |BB...TT..BB|  |##",
        "      |HHH..TT.HHH|  |##",
        "----  |BB...ll..BB|  |##",
        "###|  |HHH..ll.HHH|  |##",
        "###|  |BB...ll..BB|  |##",
        "###|  |HHH..ll.HHH|  |##",
        "###|  |BB...ll..BB|  |##",
        "###|  -------------  |##",
        "###|                 |##",
        "###|                 |##",
        "###-------------------##",
        "########################"
      ],
      "palettes": [
        "mil_outpost_underground"
      ],
      "furniture": {
        "H": "f_large_canvas_wall"
      }
    },
    "id": "548643c5-3cb0-48e5-aae6-7e21a50861b3"
  }
]