[
  {
    "type": "mapgen",
    "om_terrain": [
      "mil_outpost_utrc"
    ],
    "//": "underground top right corner",
    "method": "json",
    "weight": 250,
    "object": {
      "fill_ter": "t_concrete_floor",
      "rows": [
        "########################",
        "########################",
        "########################",
        "########################",
        "########################",
        "-------------------#####",
        "bbbbbbbbb..bb.bb.b-----#",
        "...........bb.bb.bbbbb|#",
        "......................|#",
        "........c.....bb.bbbbb-#",
        "bb.....TTT....bb.b-----#",
        "---!!-------------|#####",
        "        !...x.x...|#####",
        "        !....x..5.|#####",
        "---------.......=.|#####",
        "########|.......=.|#####",
        "#----###|.......=.|#####",
        "#|bb|###|.....===.|#####",
        "#|..|###|.....=...|#####",
        "--!!-###|8...33..0|#####",
        "....|###|H...33...|#####",
        "....|###|8.......0|#####",
        "....|###|.........|#####",
        "....|###|........0|#####"
      ],
      "palettes": [
        "mil_outpost_underground"
      ],
      "terrain": {
        "0": "t_ind_furnace",
        "5": "t_ind_assembler",
        "=": "t_conveyor"
      },
      "items": {
        "x": {
          "item": "hardware_plumbing",
          "chance": 90
        }
      },
      "furniture": {
        "8": "f_water_heater",
        "H": "f_standing_tank"
      }
    },
    "id": "4200b9ec-e44c-472e-9b38-e003ee12ae26"
  }
]