[
  {
    "type": "mapgen",
    "om_terrain": [
      "mil_outpost_2te"
    ],
    "//": "second floor top edge",
    "method": "json",
    "weight": 0,
    "object": {
      "fill_ter": "t_flat_roof",
      "rows": [
        "########################",
        "########################",
        "########################",
        "########################",
        "########################",
        "########################",
        "ffffffffffffffffffffffff",
        "                        ",
        "                        ",
        "                        ",
        "                        ",
        "                        ",
        "                        ",
        "                        ",
        "                        ",
        "                        ",
        "                        ",
        "ffffffffffffffffffffffff",
        "########################",
        "########################",
        "########################",
        "########################",
        "########################",
        "########################"
      ],
      "palettes": [
        "mil_outpost_bandit"
      ],
      "terrain": {
        " ": "t_flat_roof",
        ",": "t_open_air",
        "f": "t_railing_h",
        "F": "t_railing_v"
      }
    },
    "id": "4d579a22-d979-476d-9886-7bd010004603"
  }
]