[
  {
    "type": "mapgen",
    "om_terrain": [
      "mil_outpost_1le"
    ],
    "//": "first floor left edge",
    "method": "json",
    "weight": 250,
    "object": {
      "fill_ter": "t_concrete_floor",
      "rows": [
        ",,,,,,||  |.....||,ww,,,",
        ",,,,,,||  |..DDD||,ww,,,",
        ",,,,,,||  |...c.||,ww,,,",
        ",,,,,,||  |N....||,ww,,,",
        ",,,,,,||  ------||,ww,,,",
        ",,,,,,||         !www,,,",
        ",,,,,,||         !www,,,",
        ",,,,,,|-!!-------|,ww,,,",
        ",,,,,,||....LLll||,ww,,,",
        ",,,,,,||........||,ww,,,",
        ",,,,,,||.........]======",
        ",,,,,,||.........]======",
        ",,,,,,||.........]======",
        ",,,,,,||.........]======",
        ",,,,,,||.........]======",
        ",,,,,,||.........]======",
        ",,,,,,||.........]======",
        ",,,,,,||........%]======",
        ",,,,,,||....v.V.||,ww,,,",
        ",,,,,,||...xTTTT||,ww,,,",
        ",,,,,,|--+-------|,ww,,,",
        ",,,,,,||.........G,ww,,,",
        ",,,,,,||.........G,ww,,,",
        ",,,,,,||........||,ww,,,"
      ],
      "palettes": [
        "mil_outpost_bandit"
      ],
      "terrain": {
        "=": "t_pavement",
        "%": "t_gates_mech_control"
      },
      "vehicles": {
        "v": {
          "vehicle": "welding_cart",
          "chance": 25,
          "fuel": 0,
          "status": 3
        },
        "V": {
          "vehicle": "handjack",
          "chance": 25,
          "fuel": 0,
          "status": 3
        }
      }
    },
    "id": "d56ad81b-8161-4b6d-96ee-38253000f074"
  }
]