[
  {
    "type": "mapgen",
    "om_terrain": [
      "mil_outpost_utlc"
    ],
    "//": "underground top left corner",
    "method": "json",
    "weight": 250,
    "object": {
      "fill_ter": "t_concrete_floor",
      "rows": [
        "########################",
        "########################",
        "########################",
        "##----------------------",
        "##|                     ",
        "##|                     ",
        "##|      MMM------------",
        "##|     MM.MM...........",
        "##|    MM...MMllllll....",
        "##|   MM.....MM.........",
        "##|  MM..ggg..MMllll....",
        "##|  *...gHg...M........",
        "##|  MM..ggg..MM----ffff",
        "##|   MM.....MM    |....",
        "##|    MM...MM     |.Z..",
        "##|     MM.MM      |....",
        "##|      MMM       -----",
        "##|                     ",
        "##|                     ",
        "##----           -------",
        "#####|           |######",
        "#####---         |######",
        "#######|  --------######",
        "#######|  |#############"
      ],
      "palettes": [
        "mil_outpost_underground"
      ],
      "terrain": {
        "H": "t_plut_generator"
      }
    },
    "id": "6af4ecd3-99f2-4c34-92cc-9c9ea11bb324"
  }
]