[
  {
    "type": "mapgen",
    "om_terrain": [
      "mil_outpost_2tlc"
    ],
    "//": "second floor top left corner",
    "method": "json",
    "weight": 0,
    "object": {
      "fill_ter": "t_concrete_floor",
      "rows": [
        "########################",
        "########################",
        "########################",
        "###------------------###",
        "###|----------------|###",
        "###||..............||###",
        "###||..............||fff",
        "###||..............||   ",
        "###||..............||   ",
        "###||..............||   ",
        "###||..............||   ",
        "###||......<<......++   ",
        "###||......<<......++   ",
        "###||..............||   ",
        "###||..............||   ",
        "###||..............||   ",
        "###||..............||   ",
        "###||............>>||fff",
        "###||............>>||###",
        "###|-------++-------|###",
        "###--------++--------###",
        "######F          F######",
        "######F          F######",
        "######F          F######"
      ],
      "palettes": [
        "mil_outpost_bandit"
      ],
      "terrain": {
        " ": "t_flat_roof",
        ",": "t_open_air",
        "f": "t_railing_h",
        "F": "t_railing_v"
      }
    },
    "id": "052c582e-9e0c-472b-9db0-47adf8de9449"
  }
]