[
  {
    "type": "mapgen",
    "om_terrain": [
      "mil_outpost_yblc"
    ],
    "//": "outer yard bottom left corner",
    "method": "json",
    "weight": 250,
    "object": {
      "fill_ter": "t_pavement",
      "rows": [
        ",F,,,,,,,,,,,,,,,,,F,,,,",
        ",F,,,,,,,,,,,,,,,,,F,,,,",
        ",F,,,,,,,,,,,,,,,,,F,,,,",
        ",F,,,,,,,,,,,,,,,,,F,,,,",
        ",F,,,,,,,,,,,,,,,,,fffff",
        ",F,,,,,,,,,,,,,,,,,,,,,,",
        ",F,,,,,,,,,,,,,,,,,,,,,,",
        ",F,,,,,,,,,,,,,,,,,,,,,,",
        ",F,,,,,,,,,,,,,,,,,,,,,,",
        ",F,,,,,,,,,,,,,,,,,,,,,,",
        ",F,,,,,,,,,,,,,,,,,,,,,,",
        ",F,,,,,,,,,,,,,,,,,,,,,,",
        ",F,,,,,,,,,,,,,,,,,,,,,,",
        ",F,,,,,,,,,,,,,,,,,,,,,,",
        ",F,,,,,,,,,,,,,,,,,,,,,,",
        ",F,,,,,,,,,,,,,,,,,,,,,,",
        ",F,,,,,,,,,,,,,,,,,,,,,,",
        ",F,,,,,,,,,,,,,,,,,,,,,,",
        ",F,,,,,,,,,,,,,,,,,,,,,,",
        ",F,,,,,,,,,,,,,,,,,,,,,,",
        ",F,,,,,,,,,,,,,,,,,,,,,,",
        ",F,,,,,,,,,,,,,,,,,,,,,,",
        ",fffffffffffffffffffffff",
        ",,,,,,,,,,,,,,,,,,,,,,,,"
      ],
      "palettes": [
        "mil_outpost_bandit"
      ],
      "place_traps": [
        {
          "x": [
            2,
            18
          ],
          "y": [
            0,
            21
          ],
          "trap": "tr_landmine",
          "chance": 85,
          "repeat": [
            20,
            35
          ]
        },
        {
          "x": [
            19,
            23
          ],
          "y": [
            5,
            21
          ],
          "trap": "tr_landmine",
          "chance": 85,
          "repeat": [
            5,
            10
          ]
        }
      ]
    },
    "id": "2cd095dd-26b5-47af-9d87-e400b8979724"
  }
]