[
  {
    "type": "mapgen",
    "om_terrain": [
      "mil_outpost_utea"
    ],
    "//": "underground top edge. A stair",
    "method": "json",
    "weight": 0,
    "object": {
      "fill_ter": "t_concrete_floor",
      "rows": [
        "#......................#",
        "#......................#",
        "#......................#",
        "-......................#",
        ".......................#",
        ".......................-",
        "-.......................",
        "........................",
        "........................",
        "........................",
        "........................",
        "...........<<..........-",
        "...........<<...........",
        "........................",
        ".......................-",
        ".......................#",
        "-......................#",
        ".......................#",
        ".......................#",
        "-......................-",
        "#.......................",
        "#.......................",
        "#.......................",
        "########|..|............"
      ],
      "palettes": [
        "mil_outpost_underground"
      ]
    },
    "id": "0cfe3c56-0d45-4c83-b48c-49439c277d9c"
  }
]