[
  {
    "type": "mapgen",
    "om_terrain": [
      "mil_outpost_2brc"
    ],
    "//": "second floor bottom right corner",
    "method": "json",
    "weight": 0,
    "object": {
      "fill_ter": "t_concrete_floor",
      "rows": [
        "######F          F######",
        "######F          F######",
        "######F          F######",
        "###--------++--------###",
        "###|-------++-------|###",
        "###||>>............||###",
        "fff||>>............||###",
        "   ||..............||###",
        "   ||..............||###",
        "   ||..............||###",
        "   ||..............||###",
        "   ++......<<......||###",
        "   ++......<<......||###",
        "   ||..............||###",
        "   ||..............||###",
        "   ||..............||###",
        "   ||..............||###",
        "fff||..............||###",
        "###||..............||###",
        "###|----------------|###",
        "###------------------###",
        "########################",
        "########################",
        "########################"
      ],
      "palettes": [
        "mil_outpost_bandit"
      ],
      "terrain": {
        " ": "t_flat_roof",
        ",": "t_open_air",
        "f": "t_railing_h",
        "F": "t_railing_v"
      }
    },
    "id": "46e69c0a-d341-41f4-afa9-884796c4dc24"
  }
]