[
  {
    "type": "mapgen",
    "om_terrain": [
      "mil_outpost_1re"
    ],
    "//": "first floor right edge",
    "method": "json",
    "weight": 0,
    "object": {
      "fill_ter": "t_concrete_floor",
      "rows": [
        ",,,ww,||.....|..||,,,,,,",
        ",,,ww,||........||,,,,,,",
        ",,,ww,||........||,,,,,,",
        ",,,ww,||........||,,,,,,",
        ",,,ww,||........||,,,,,,",
        ",,,ww,||........||,,,,,,",
        ",,,ww,||........||,,,,,,",
        ",,,ww,||........||,,,,,,",
        ",,,ww,||........||,,,,,,",
        ",,,ww,||........||,,,,,,",
        ",,,ww,||........||,,,,,,",
        ",,,ww,||........||,,,,,,",
        ",,,ww,||........||,,,,,,",
        ",,,ww,||........||,,,,,,",
        ",,,ww,||........||,,,,,,",
        ",,,ww,||........||,,,,,,",
        ",,,ww,||........||,,,,,,",
        ",,,ww,||........||,,,,,,",
        ",,,ww,||........||,,,,,,",
        ",,,ww,||........||,,,,,,",
        ",,,ww,||........||,,,,,,",
        ",,,ww,||........||,,,,,,",
        ",,,ww,||........||,,,,,,",
        ",,,ww,||..|.....||,,,,,,"
      ],
      "palettes": [
        "mil_outpost_bandit"
      ]
    },
    "id": "eeb4c9d3-b4ff-46f9-8354-c4840812313e"
  }
]