[
  {
    "type": "mapgen",
    "om_terrain": [
      "mil_outpost_1trc"
    ],
    "//": "first floor top right corner",
    "method": "json",
    "weight": 0,
    "object": {
      "fill_ter": "t_concrete_floor",
      "rows": [
        ",,,,,,,,,,,,,,,,,,,,,,,,",
        ",,,,,,,,,,,,,,,,,,,,,,,,",
        ",,,,,,,,,,,,,,,,,,,,,,,,",
        ",,,------------------,,,",
        ",,,|----------------|,,,",
        ",,,||..............||,,,",
        "----|..............||,,,",
        "-----..............||,,,",
        "...................||,,,",
        "...................||,,,",
        "-..................||,,,",
        "...................||,,,",
        "...................||,,,",
        "-..................||,,,",
        "...................||,,,",
        "...................||,,,",
        "-----..............||,,,",
        "----|<<............||,,,",
        ",,,||<<............||,,,",
        "ww,|----........----|,,,",
        "ww,----|........|----,,,",
        "ww,,,,||........||,,,,,,",
        "wwwww,||........||,,,,,,",
        "wwwww,||.....|..||,,,,,,"
      ],
      "palettes": [
        "mil_outpost_bandit"
      ]
    },
    "id": "00992d36-7687-43b8-91d1-716f4e212859"
  }
]