[
  {
    "type": "mapgen",
    "om_terrain": [
      "mil_outpost_utea"
    ],
    "//": "underground top edge. A stairs",
    "method": "json",
    "weight": 100,
    "object": {
      "fill_ter": "t_concrete_floor",
      "rows": [
        "########################",
        "########################",
        "########################",
        "----------------########",
        "               |########",
        "               ---------",
        "--+---------      |.....",
        ".....x|####|      +.....",
        ".....x|####-----  |.....",
        ".....x|########|  |.....",
        "......|####-----  |nnn..",
        "......|####|<<    ------",
        "ffffff|####|<<          ",
        "......|####|            ",
        "..Z.Z.|####-------------",
        "......|#################",
        "--G-G----------#########",
        "              |#########",
        "              |#########",
        "---------     |---------",
        "########|     |7g7g7g7g.",
        "########|  ----.g.g.g.g.",
        "########|  +............",
        "########|  |............"
      ],
      "palettes": [
        "mil_outpost_underground"
      ],
      "monster": {
        "Z": {
          "monster": "mon_zombie_dog"
        }
      }
    },
    "id": "8320b1fe-feb7-45f1-8556-20e3925b8157"
  }
]