[
  {
    "type": "mapgen",
    "om_terrain": [
      "mil_outpost_ule"
    ],
    "//": "underground left edge",
    "method": "json",
    "weight": 0,
    "object": {
      "fill_ter": "t_concrete_floor",
      "rows": [
        "#######|..|##|..|#######",
        ".......................#",
        ".......................#",
        ".......................#",
        ".......................#",
        ".......................#",
        ".......................#",
        ".......................#",
        ".......................-",
        "........................",
        "........................",
        "........................",
        "........................",
        "........................",
        "........................",
        "........................",
        "........................",
        ".......................-",
        "........................",
        "........................",
        ".......................-",
        "........................",
        "........................",
        "######|......|..|......."
      ],
      "palettes": [
        "mil_outpost_underground"
      ]
    },
    "id": "af1390ab-a265-4923-854e-8bd99ae00634"
  }
]