[
  {
    "type": "overmap_terrain",
    "id": "lab",
    "copy-from": "lab",
    "sym": "Á"
  },
  {
    "type": "overmap_terrain",
    "id": "lab_stairs",
    "copy-from": "lab_stairs",
    "sym": "Á"
  },
  {
    "type": "overmap_terrain",
    "id": "lab_core",
    "copy-from": "lab_core",
    "sym": "Á"
  },
  {
    "type": "overmap_terrain",
    "id": "lab_escape_cells",
    "copy-from": "lab_escape_cells",
    "sym": "Á"
  },
  {
    "type": "overmap_terrain",
    "id": "lab_escape_entrance",
    "copy-from": "lab_escape_entrance",
    "sym": "Á"
  },
  {
    "type": "overmap_terrain",
    "id": "ants_lab",
    "copy-from": "ants_lab",
    "sym": "Á"
  },
  {
    "type": "overmap_terrain",
    "id": "ants_lab_stairs",
    "copy-from": "ants_lab_stairs",
    "sym": "Á"
  },
  {
    "type": "overmap_terrain",
    "id": "lab_finale",
    "copy-from": "lab_finale",
    "sym": "Á"
  },
  {
    "type": "overmap_terrain",
    "id": "ice_lab",
    "copy-from": "ice_lab",
    "sym": "Á",
    "color": "white"
  },
  {
    "type": "overmap_terrain",
    "id": "ice_lab_stairs",
    "copy-from": "ice_lab_stairs",
    "sym": "Á",
    "color": "white"
  },
  {
    "type": "overmap_terrain",
    "id": "ice_lab_core",
    "copy-from": "ice_lab_core",
    "sym": "Á",
    "color": "white"
  },
  {
    "type": "overmap_terrain",
    "id": "ice_lab_finale",
    "copy-from": "ice_lab_finale",
    "sym": "Á"
  },
  {
    "type": "overmap_terrain",
    "id": "tower_lab",
    "copy-from": "tower_lab",
    "sym": "í"
  },
  {
    "type": "overmap_terrain",
    "id": "tower_lab_stairs",
    "copy-from": "tower_lab",
    "sym": "í"
  },
  {
    "type": "overmap_terrain",
    "id": "tower_lab_finale",
    "copy-from": "tower_lab",
    "sym": "í"
  },
  {
    "type": "overmap_terrain",
    "id": "lab_train_depot",
    "copy-from": "lab_train_depot",
    "sym": "Æ"
  },
  {
    "type": "overmap_terrain",
    "id": "central_lab_train_depot",
    "copy-from": "central_lab_train_depot",
    "sym": "Æ"
  },
  {
    "type": "overmap_terrain",
    "id": "central_lab_entrance",
    "copy-from": "central_lab_entrance",
    "sym": "è"
  },
  {
    "type": "overmap_terrain",
    "id": "central_lab_shaft",
    "copy-from": "central_lab_shaft",
    "sym": "Ò"
  },
  {
    "type": "overmap_terrain",
    "abstract": "generic_central_lab",
    "copy-from": "generic_central_lab",
    "sym": "Á",
    "id": "generic_central_lab"
  },
  {
    "type": "overmap_terrain",
    "id": "central_lab_hq_1",
    "copy-from": "generic_central_lab"
  },
  {
    "type": "overmap_terrain",
    "id": "central_lab_hq_2",
    "copy-from": "generic_central_lab"
  },
  {
    "type": "overmap_terrain",
    "id": "central_lab_hq_3",
    "copy-from": "generic_central_lab"
  },
  {
    "type": "overmap_terrain",
    "id": "central_lab_hq_4",
    "copy-from": "generic_central_lab"
  },
  {
    "type": "overmap_terrain",
    "id": "central_lab_hq_5",
    "copy-from": "generic_central_lab"
  },
  {
    "type": "overmap_terrain",
    "id": "central_lab_hq_6",
    "copy-from": "generic_central_lab"
  },
  {
    "type": "overmap_terrain",
    "id": "central_lab_hq_7",
    "copy-from": "generic_central_lab"
  },
  {
    "type": "overmap_terrain",
    "id": "central_lab_hq_8",
    "copy-from": "generic_central_lab"
  },
  {
    "type": "overmap_terrain",
    "id": "central_lab_hq_9",
    "copy-from": "generic_central_lab"
  },
  {
    "type": "overmap_terrain",
    "id": "central_lab",
    "copy-from": "central_lab",
    "sym": "Á"
  },
  {
    "type": "overmap_terrain",
    "id": "central_lab_stairs",
    "copy-from": "central_lab_stairs",
    "sym": "Á"
  },
  {
    "type": "overmap_terrain",
    "id": "central_lab_core",
    "copy-from": "central_lab_core",
    "sym": "Á"
  },
  {
    "type": "overmap_terrain",
    "id": "central_lab_finale",
    "copy-from": "central_lab_finale",
    "sym": "Á"
  },
  {
    "type": "overmap_terrain",
    "id": "lab_surface_brick_basementA0",
    "copy-from": "lab_surface_brick_basementA0",
    "sym": "®"
  },
  {
    "type": "overmap_terrain",
    "id": "lab_surface_brick_basementB0",
    "copy-from": "lab_surface_brick_basementA0"
  },
  {
    "type": "overmap_terrain",
    "id": "lab_surface_brick_basementC0",
    "copy-from": "lab_surface_brick_basementA0"
  },
  {
    "type": "overmap_terrain",
    "id": "lab_surface_brick_basementD0",
    "copy-from": "lab_surface_brick_basementA0"
  },
  {
    "type": "overmap_terrain",
    "id": "lab_surface_brick_basementE0",
    "copy-from": "lab_surface_brick_basementA0"
  },
  {
    "type": "overmap_terrain",
    "id": "lab_surface_brick_basementA1",
    "copy-from": "lab_surface_brick_basementA0"
  },
  {
    "type": "overmap_terrain",
    "id": "lab_surface_brick_basementB1",
    "copy-from": "lab_surface_brick_basementA0"
  },
  {
    "type": "overmap_terrain",
    "id": "lab_surface_brick_basementC1",
    "copy-from": "lab_surface_brick_basementA0"
  },
  {
    "type": "overmap_terrain",
    "id": "lab_surface_brick_basementD1_hidden_lab_stairs",
    "copy-from": "lab_surface_brick_basementD1_hidden_lab_stairs",
    "sym": "Á",
    "color": "blue"
  },
  {
    "type": "overmap_terrain",
    "id": "lab_surface_brick_basementE1",
    "copy-from": "lab_surface_brick_basementA0"
  },
  {
    "type": "overmap_terrain",
    "id": "lab_surface_brick_basementA2",
    "copy-from": "lab_surface_brick_basementA0"
  },
  {
    "type": "overmap_terrain",
    "id": "lab_surface_brick_basementB2",
    "copy-from": "lab_surface_brick_basementA0"
  },
  {
    "type": "overmap_terrain",
    "id": "lab_surface_brick_basementC2",
    "copy-from": "lab_surface_brick_basementA0"
  },
  {
    "type": "overmap_terrain",
    "id": "lab_surface_brick_basementD2",
    "copy-from": "lab_surface_brick_basementA0"
  },
  {
    "type": "overmap_terrain",
    "id": "lab_surface_brick_basementE2",
    "copy-from": "lab_surface_brick_basementA0"
  },
  {
    "type": "overmap_terrain",
    "id": "lab_surface_brick_basementA3",
    "copy-from": "lab_surface_brick_basementA0"
  },
  {
    "type": "overmap_terrain",
    "id": "lab_surface_brick_basementB3",
    "copy-from": "lab_surface_brick_basementA0"
  },
  {
    "type": "overmap_terrain",
    "id": "lab_surface_brick_basementC3",
    "copy-from": "lab_surface_brick_basementA0"
  },
  {
    "type": "overmap_terrain",
    "id": "lab_surface_brick_basementD3",
    "copy-from": "lab_surface_brick_basementA0"
  },
  {
    "type": "overmap_terrain",
    "id": "lab_surface_brick_basementE3",
    "copy-from": "lab_surface_brick_basementA0"
  },
  {
    "type": "overmap_terrain",
    "id": "lab_surface_brick_basementA4",
    "copy-from": "lab_surface_brick_basementA0"
  },
  {
    "type": "overmap_terrain",
    "id": "lab_surface_brick_basementB4",
    "copy-from": "lab_surface_brick_basementA0"
  },
  {
    "type": "overmap_terrain",
    "id": "lab_surface_brick_basementC4",
    "copy-from": "lab_surface_brick_basementA0"
  },
  {
    "type": "overmap_terrain",
    "id": "lab_surface_brick_basementD4",
    "copy-from": "lab_surface_brick_basementA0"
  },
  {
    "type": "overmap_terrain",
    "id": "lab_surface_brick_basementE4",
    "copy-from": "lab_surface_brick_basementA0"
  },
  {
    "type": "overmap_terrain",
    "id": "lab_surface_brick_blockA0",
    "copy-from": "lab_surface_brick_blockA0",
    "sym": "ô"
  },
  {
    "type": "overmap_terrain",
    "id": "lab_surface_brick_blockB0",
    "copy-from": "lab_surface_brick_blockA0"
  },
  {
    "type": "overmap_terrain",
    "id": "lab_surface_brick_blockC0",
    "copy-from": "lab_surface_brick_blockA0"
  },
  {
    "type": "overmap_terrain",
    "id": "lab_surface_brick_blockD0",
    "copy-from": "lab_surface_brick_blockA0"
  },
  {
    "type": "overmap_terrain",
    "id": "lab_surface_brick_blockE0",
    "copy-from": "lab_surface_brick_blockA0"
  },
  {
    "type": "overmap_terrain",
    "id": "lab_surface_brick_blockA1",
    "copy-from": "lab_surface_brick_blockA0"
  },
  {
    "type": "overmap_terrain",
    "id": "lab_surface_brick_blockB1",
    "copy-from": "lab_surface_brick_blockA0"
  },
  {
    "type": "overmap_terrain",
    "id": "lab_surface_brick_blockC1",
    "copy-from": "lab_surface_brick_blockA0"
  },
  {
    "type": "overmap_terrain",
    "id": "lab_surface_brick_blockD1",
    "copy-from": "lab_surface_brick_blockA0"
  },
  {
    "type": "overmap_terrain",
    "id": "lab_surface_brick_blockE1",
    "copy-from": "lab_surface_brick_blockA0"
  },
  {
    "type": "overmap_terrain",
    "id": "lab_surface_brick_blockA2",
    "copy-from": "lab_surface_brick_blockA2",
    "sym": "Á"
  },
  {
    "type": "overmap_terrain",
    "id": "lab_surface_brick_blockB2",
    "copy-from": "lab_surface_brick_blockA2"
  },
  {
    "type": "overmap_terrain",
    "id": "lab_surface_brick_blockC2",
    "copy-from": "lab_surface_brick_blockA0"
  },
  {
    "type": "overmap_terrain",
    "id": "lab_surface_brick_blockD2",
    "copy-from": "lab_surface_brick_blockA2"
  },
  {
    "type": "overmap_terrain",
    "id": "lab_surface_brick_blockE2",
    "copy-from": "lab_surface_brick_blockA2"
  },
  {
    "type": "overmap_terrain",
    "id": "lab_surface_brick_blockA3",
    "copy-from": "lab_surface_brick_blockA2"
  },
  {
    "type": "overmap_terrain",
    "id": "lab_surface_brick_blockB3",
    "copy-from": "lab_surface_brick_blockA2"
  },
  {
    "type": "overmap_terrain",
    "id": "lab_surface_brick_blockC3",
    "copy-from": "lab_surface_brick_blockC3",
    "sym": "Á",
    "color": "light_gray"
  },
  {
    "type": "overmap_terrain",
    "id": "lab_surface_brick_blockD3",
    "copy-from": "lab_surface_brick_blockA2"
  },
  {
    "type": "overmap_terrain",
    "id": "lab_surface_brick_blockE3",
    "copy-from": "lab_surface_brick_blockA2"
  },
  {
    "type": "overmap_terrain",
    "id": "lab_surface_brick_blockA4",
    "copy-from": "lab_surface_brick_blockA2"
  },
  {
    "type": "overmap_terrain",
    "id": "lab_surface_brick_blockB4",
    "copy-from": "lab_surface_brick_blockA2"
  },
  {
    "type": "overmap_terrain",
    "id": "lab_surface_brick_blockC4",
    "copy-from": "lab_surface_brick_blockA2"
  },
  {
    "type": "overmap_terrain",
    "id": "lab_surface_brick_blockD4",
    "copy-from": "lab_surface_brick_blockA2"
  },
  {
    "type": "overmap_terrain",
    "id": "lab_surface_brick_blockE4",
    "copy-from": "lab_surface_brick_blockA2"
  },
  {
    "type": "overmap_terrain",
    "id": "lab_surface_brick_block2A0",
    "copy-from": "lab_surface_brick_block2A0",
    "sym": "¦"
  },
  {
    "type": "overmap_terrain",
    "id": "lab_surface_brick_block2B0",
    "copy-from": "lab_surface_brick_block2A0"
  },
  {
    "type": "overmap_terrain",
    "id": "lab_surface_brick_block2C0",
    "copy-from": "lab_surface_brick_block2A0"
  },
  {
    "type": "overmap_terrain",
    "id": "lab_surface_brick_block2D0",
    "copy-from": "lab_surface_brick_block2A0"
  },
  {
    "type": "overmap_terrain",
    "id": "lab_surface_brick_block2E0",
    "copy-from": "lab_surface_brick_block2A0"
  },
  {
    "type": "overmap_terrain",
    "id": "lab_surface_brick_block2A1",
    "copy-from": "lab_surface_brick_block2A0"
  },
  {
    "type": "overmap_terrain",
    "id": "lab_surface_brick_block2B1",
    "copy-from": "lab_surface_brick_block2A0"
  },
  {
    "type": "overmap_terrain",
    "id": "lab_surface_brick_block2C1",
    "copy-from": "lab_surface_brick_block2A0"
  },
  {
    "type": "overmap_terrain",
    "id": "lab_surface_brick_block2D1",
    "copy-from": "lab_surface_brick_block2A0"
  },
  {
    "type": "overmap_terrain",
    "id": "lab_surface_brick_block2E1",
    "copy-from": "lab_surface_brick_block2A0"
  },
  {
    "type": "overmap_terrain",
    "id": "lab_surface_brick_block2A2",
    "copy-from": "lab_surface_brick_block2A2",
    "sym": "®"
  },
  {
    "type": "overmap_terrain",
    "id": "lab_surface_brick_block2B2",
    "copy-from": "lab_surface_brick_block2A2"
  },
  {
    "type": "overmap_terrain",
    "id": "lab_surface_brick_block2C2",
    "copy-from": "lab_surface_brick_block2A0"
  },
  {
    "type": "overmap_terrain",
    "id": "lab_surface_brick_block2D2",
    "copy-from": "lab_surface_brick_block2A2"
  },
  {
    "type": "overmap_terrain",
    "id": "lab_surface_brick_block2E2",
    "copy-from": "lab_surface_brick_block2A2"
  },
  {
    "type": "overmap_terrain",
    "id": "lab_surface_brick_block2A3",
    "copy-from": "lab_surface_brick_block2A2"
  },
  {
    "type": "overmap_terrain",
    "id": "lab_surface_brick_block2B3",
    "copy-from": "lab_surface_brick_block2A2"
  },
  {
    "type": "overmap_terrain",
    "id": "lab_surface_brick_block2C3",
    "copy-from": "lab_surface_brick_block2A2"
  },
  {
    "type": "overmap_terrain",
    "id": "lab_surface_brick_block2D3",
    "copy-from": "lab_surface_brick_block2A2"
  },
  {
    "type": "overmap_terrain",
    "id": "lab_surface_brick_block2E3",
    "copy-from": "lab_surface_brick_block2A2"
  },
  {
    "type": "overmap_terrain",
    "id": "lab_surface_brick_block2A4",
    "copy-from": "lab_surface_brick_block2A2"
  },
  {
    "type": "overmap_terrain",
    "id": "lab_surface_brick_block2B4",
    "copy-from": "lab_surface_brick_block2A2"
  },
  {
    "type": "overmap_terrain",
    "id": "lab_surface_brick_block2C4",
    "copy-from": "lab_surface_brick_block2A2"
  },
  {
    "type": "overmap_terrain",
    "id": "lab_surface_brick_block2D4",
    "copy-from": "lab_surface_brick_block2A2"
  },
  {
    "type": "overmap_terrain",
    "id": "lab_surface_brick_block2E4",
    "copy-from": "lab_surface_brick_block2A2"
  },
  {
    "type": "overmap_terrain",
    "id": "lab_surface_brick_block3A0",
    "copy-from": "lab_surface_brick_block2A0"
  },
  {
    "type": "overmap_terrain",
    "id": "lab_surface_brick_block3B0",
    "copy-from": "lab_surface_brick_block2A0"
  },
  {
    "type": "overmap_terrain",
    "id": "lab_surface_brick_block3C0",
    "copy-from": "lab_surface_brick_block2A0"
  },
  {
    "type": "overmap_terrain",
    "id": "lab_surface_brick_block3D0",
    "copy-from": "lab_surface_brick_block2A0"
  },
  {
    "type": "overmap_terrain",
    "id": "lab_surface_brick_block3E0",
    "copy-from": "lab_surface_brick_block2A0"
  },
  {
    "type": "overmap_terrain",
    "id": "lab_surface_brick_block3A1",
    "copy-from": "lab_surface_brick_block2A0"
  },
  {
    "type": "overmap_terrain",
    "id": "lab_surface_brick_block3B1",
    "copy-from": "lab_surface_brick_block2A0"
  },
  {
    "type": "overmap_terrain",
    "id": "lab_surface_brick_block3C1",
    "copy-from": "lab_surface_brick_block2A0"
  },
  {
    "type": "overmap_terrain",
    "id": "lab_surface_brick_block3D1",
    "copy-from": "lab_surface_brick_block2A0"
  },
  {
    "type": "overmap_terrain",
    "id": "lab_surface_brick_block3E1",
    "copy-from": "lab_surface_brick_block2A0"
  },
  {
    "type": "overmap_terrain",
    "id": "lab_surface_brick_block3A2",
    "copy-from": "lab_surface_brick_block3A2",
    "sym": "®"
  },
  {
    "type": "overmap_terrain",
    "id": "lab_surface_brick_block3B2",
    "copy-from": "lab_surface_brick_block3A2"
  },
  {
    "type": "overmap_terrain",
    "id": "lab_surface_brick_block3C2",
    "copy-from": "lab_surface_brick_block2A0"
  },
  {
    "type": "overmap_terrain",
    "id": "lab_surface_brick_block3D2",
    "copy-from": "lab_surface_brick_block3A2"
  },
  {
    "type": "overmap_terrain",
    "id": "lab_surface_brick_block3E2",
    "copy-from": "lab_surface_brick_block3A2"
  },
  {
    "type": "overmap_terrain",
    "id": "lab_surface_brick_block3A3",
    "copy-from": "lab_surface_brick_block3A2"
  },
  {
    "type": "overmap_terrain",
    "id": "lab_surface_brick_block3B3",
    "copy-from": "lab_surface_brick_block3A2"
  },
  {
    "type": "overmap_terrain",
    "id": "lab_surface_brick_block3C3",
    "copy-from": "lab_surface_brick_block3A2"
  },
  {
    "type": "overmap_terrain",
    "id": "lab_surface_brick_block3D3",
    "copy-from": "lab_surface_brick_block3A2"
  },
  {
    "type": "overmap_terrain",
    "id": "lab_surface_brick_block3E3",
    "copy-from": "lab_surface_brick_block3A2"
  },
  {
    "type": "overmap_terrain",
    "id": "lab_surface_brick_block3A4",
    "copy-from": "lab_surface_brick_block3A2"
  },
  {
    "type": "overmap_terrain",
    "id": "lab_surface_brick_block3B4",
    "copy-from": "lab_surface_brick_block3A2"
  },
  {
    "type": "overmap_terrain",
    "id": "lab_surface_brick_block3C4",
    "copy-from": "lab_surface_brick_block3A2"
  },
  {
    "type": "overmap_terrain",
    "id": "lab_surface_brick_block3D4",
    "copy-from": "lab_surface_brick_block3A2"
  },
  {
    "type": "overmap_terrain",
    "id": "lab_surface_brick_block3E4",
    "copy-from": "lab_surface_brick_block3A2"
  },
  {
    "type": "overmap_terrain",
    "id": "lab_surface_brick_block4A0",
    "copy-from": "lab_surface_brick_block2A0"
  },
  {
    "type": "overmap_terrain",
    "id": "lab_surface_brick_block4B0",
    "copy-from": "lab_surface_brick_block2A0"
  },
  {
    "type": "overmap_terrain",
    "id": "lab_surface_brick_block4C0",
    "copy-from": "lab_surface_brick_block2A0"
  },
  {
    "type": "overmap_terrain",
    "id": "lab_surface_brick_block4D0",
    "copy-from": "lab_surface_brick_block2A0"
  },
  {
    "type": "overmap_terrain",
    "id": "lab_surface_brick_block4E0",
    "copy-from": "lab_surface_brick_block2A0"
  },
  {
    "type": "overmap_terrain",
    "id": "lab_surface_brick_block4A1",
    "copy-from": "lab_surface_brick_block2A0"
  },
  {
    "type": "overmap_terrain",
    "id": "lab_surface_brick_block4B1",
    "copy-from": "lab_surface_brick_block2A0"
  },
  {
    "type": "overmap_terrain",
    "id": "lab_surface_brick_block4C1",
    "copy-from": "lab_surface_brick_block2A0"
  },
  {
    "type": "overmap_terrain",
    "id": "lab_surface_brick_block4D1",
    "copy-from": "lab_surface_brick_block2A0"
  },
  {
    "type": "overmap_terrain",
    "id": "lab_surface_brick_block4E1",
    "copy-from": "lab_surface_brick_block2A0"
  },
  {
    "type": "overmap_terrain",
    "id": "lab_surface_brick_block4A2",
    "copy-from": "lab_surface_brick_block4A2",
    "sym": "®"
  },
  {
    "type": "overmap_terrain",
    "id": "lab_surface_brick_block4B2",
    "copy-from": "lab_surface_brick_block4A2"
  },
  {
    "type": "overmap_terrain",
    "id": "lab_surface_brick_block4C2",
    "copy-from": "lab_surface_brick_block2A0"
  },
  {
    "type": "overmap_terrain",
    "id": "lab_surface_brick_block4D2",
    "copy-from": "lab_surface_brick_block4A2"
  },
  {
    "type": "overmap_terrain",
    "id": "lab_surface_brick_block4E2",
    "copy-from": "lab_surface_brick_block4A2"
  },
  {
    "type": "overmap_terrain",
    "id": "lab_surface_brick_block4A3",
    "copy-from": "lab_surface_brick_block4A2"
  },
  {
    "type": "overmap_terrain",
    "id": "lab_surface_brick_block4B3",
    "copy-from": "lab_surface_brick_block4A2"
  },
  {
    "type": "overmap_terrain",
    "id": "lab_surface_brick_block4C3",
    "copy-from": "lab_surface_brick_block4A2"
  },
  {
    "type": "overmap_terrain",
    "id": "lab_surface_brick_block4D3",
    "copy-from": "lab_surface_brick_block4A2"
  },
  {
    "type": "overmap_terrain",
    "id": "lab_surface_brick_block4E3",
    "copy-from": "lab_surface_brick_block4A2"
  },
  {
    "type": "overmap_terrain",
    "id": "lab_surface_brick_block4A4",
    "copy-from": "lab_surface_brick_block4A2"
  },
  {
    "type": "overmap_terrain",
    "id": "lab_surface_brick_block4B4",
    "copy-from": "lab_surface_brick_block4A2"
  },
  {
    "type": "overmap_terrain",
    "id": "lab_surface_brick_block4C4",
    "copy-from": "lab_surface_brick_block4A2"
  },
  {
    "type": "overmap_terrain",
    "id": "lab_surface_brick_block4D4",
    "copy-from": "lab_surface_brick_block4A2"
  },
  {
    "type": "overmap_terrain",
    "id": "lab_surface_brick_block4E4",
    "copy-from": "lab_surface_brick_block4A2"
  },
  {
    "type": "overmap_terrain",
    "id": "lab_surface_brick_block5A0",
    "copy-from": "lab_surface_brick_block2A0"
  },
  {
    "type": "overmap_terrain",
    "id": "lab_surface_brick_block5B0",
    "copy-from": "lab_surface_brick_block2A0"
  },
  {
    "type": "overmap_terrain",
    "id": "lab_surface_brick_block5C0",
    "copy-from": "lab_surface_brick_block2A0"
  },
  {
    "type": "overmap_terrain",
    "id": "lab_surface_brick_block5D0",
    "copy-from": "lab_surface_brick_block2A0"
  },
  {
    "type": "overmap_terrain",
    "id": "lab_surface_brick_block5E0",
    "copy-from": "lab_surface_brick_block2A0"
  },
  {
    "type": "overmap_terrain",
    "id": "lab_surface_brick_block5A1",
    "copy-from": "lab_surface_brick_block2A0"
  },
  {
    "type": "overmap_terrain",
    "id": "lab_surface_brick_block5B1",
    "copy-from": "lab_surface_brick_block2A0"
  },
  {
    "type": "overmap_terrain",
    "id": "lab_surface_brick_block5C1",
    "copy-from": "lab_surface_brick_block2A0"
  },
  {
    "type": "overmap_terrain",
    "id": "lab_surface_brick_block5D1",
    "copy-from": "lab_surface_brick_block2A0"
  },
  {
    "type": "overmap_terrain",
    "id": "lab_surface_brick_block5E1",
    "copy-from": "lab_surface_brick_block2A0"
  },
  {
    "type": "overmap_terrain",
    "id": "lab_surface_brick_block5A2",
    "copy-from": "lab_surface_brick_block5A2",
    "sym": "Á",
    "color": "light_blue"
  },
  {
    "type": "overmap_terrain",
    "id": "lab_surface_brick_block5B2",
    "copy-from": "lab_surface_brick_block5A2"
  },
  {
    "type": "overmap_terrain",
    "id": "lab_surface_brick_block5C2",
    "copy-from": "lab_surface_brick_block2A0"
  },
  {
    "type": "overmap_terrain",
    "id": "lab_surface_brick_block5D2",
    "copy-from": "lab_surface_brick_block5A2"
  },
  {
    "type": "overmap_terrain",
    "id": "lab_surface_brick_block5E2",
    "copy-from": "lab_surface_brick_block5A2"
  },
  {
    "type": "overmap_terrain",
    "id": "lab_surface_brick_block5A3",
    "copy-from": "lab_surface_brick_block5A2"
  },
  {
    "type": "overmap_terrain",
    "id": "lab_surface_brick_block5B3",
    "copy-from": "lab_surface_brick_block5A2"
  },
  {
    "type": "overmap_terrain",
    "id": "lab_surface_brick_block5C3",
    "copy-from": "lab_surface_brick_block5A2"
  },
  {
    "type": "overmap_terrain",
    "id": "lab_surface_brick_block5D3",
    "copy-from": "lab_surface_brick_block5A2"
  },
  {
    "type": "overmap_terrain",
    "id": "lab_surface_brick_block5E3",
    "copy-from": "lab_surface_brick_block5A2"
  },
  {
    "type": "overmap_terrain",
    "id": "lab_surface_brick_block5A4",
    "copy-from": "lab_surface_brick_block5A2"
  },
  {
    "type": "overmap_terrain",
    "id": "lab_surface_brick_block5B4",
    "copy-from": "lab_surface_brick_block5A2"
  },
  {
    "type": "overmap_terrain",
    "id": "lab_surface_brick_block5C4",
    "copy-from": "lab_surface_brick_block5A2"
  },
  {
    "type": "overmap_terrain",
    "id": "lab_surface_brick_block5D4",
    "copy-from": "lab_surface_brick_block5A2"
  },
  {
    "type": "overmap_terrain",
    "id": "lab_surface_brick_block5E4",
    "copy-from": "lab_surface_brick_block5A2"
  }
]