[
  {
    "type": "overmap_terrain",
    "abstract": "generic_river",
    "copy-from": "generic_water",
    "sym": "÷",
    "id": "generic_river"
  },
  {
    "type": "overmap_terrain",
    "abstract": "generic_river_bank",
    "copy-from": "generic_river_bank",
    "sym": "÷",
    "id": "generic_river_bank"
  },
  {
    "type": "overmap_terrain",
    "id": "river_center",
    "copy-from": "river_center",
    "sym": "÷"
  },
  {
    "type": "overmap_terrain",
    "id": "river",
    "copy-from": "river",
    "sym": "÷"
  },
  {
    "type": "overmap_terrain",
    "id": "river_c_not_ne",
    "copy-from": "river_c_not_ne",
    "sym": "÷"
  },
  {
    "type": "overmap_terrain",
    "id": "river_c_not_nw",
    "copy-from": "river_c_not_nw",
    "sym": "÷"
  },
  {
    "type": "overmap_terrain",
    "id": "river_c_not_se",
    "copy-from": "river_c_not_se",
    "sym": "÷"
  },
  {
    "type": "overmap_terrain",
    "id": "river_c_not_sw",
    "copy-from": "river_c_not_sw",
    "sym": "÷"
  },
  {
    "type": "overmap_terrain",
    "id": "river_ne",
    "copy-from": "river_ne",
    "sym": "÷"
  },
  {
    "type": "overmap_terrain",
    "id": "river_se",
    "copy-from": "river_se",
    "sym": "÷"
  },
  {
    "type": "overmap_terrain",
    "id": "river_sw",
    "copy-from": "river_sw",
    "sym": "÷"
  },
  {
    "type": "overmap_terrain",
    "id": "river_nw",
    "copy-from": "river_nw",
    "sym": "÷"
  }
]