[
  {
    "type": "overmap_terrain",
    "id": "church",
    "copy-from": "church",
    "sym": "ò",
    "color": "light_gray"
  },
  {
    "type": "overmap_terrain",
    "id": "church_roof",
    "copy-from": "church"
  },
  {
    "type": "overmap_terrain",
    "id": "church_steeple",
    "copy-from": "church"
  },
  {
    "type": "overmap_terrain",
    "id": "church_steeple_end",
    "copy-from": "church"
  },
  {
    "type": "overmap_terrain",
    "id": "church_steeple_roof",
    "copy-from": "church"
  },
  {
    "type": "overmap_terrain",
    "id": "church_1",
    "copy-from": "church_1",
    "sym": "ò",
    "color": "light_gray"
  },
  {
    "type": "overmap_terrain",
    "id": "church_2ndfloor_1",
    "copy-from": "church_1"
  },
  {
    "type": "overmap_terrain",
    "id": "church_3rdfloor_1",
    "copy-from": "church_1"
  },
  {
    "type": "overmap_terrain",
    "id": "church_roof_1",
    "copy-from": "church_1"
  },
  {
    "type": "overmap_terrain",
    "id": "cathedral_1_NW",
    "copy-from": "cathedral_1_NW",
    "sym": "ò",
    "color": "white"
  },
  {
    "type": "overmap_terrain",
    "id": "cathedral_1_NE",
    "copy-from": "cathedral_1_NW"
  },
  {
    "type": "overmap_terrain",
    "id": "cathedral_1_SW",
    "copy-from": "cathedral_1_NW"
  },
  {
    "type": "overmap_terrain",
    "id": "cathedral_1_SE",
    "copy-from": "cathedral_1_NW"
  },
  {
    "type": "overmap_terrain",
    "id": "cathedral_b_NW",
    "copy-from": "cathedral_b_NW",
    "sym": "ò",
    "color": "white"
  },
  {
    "type": "overmap_terrain",
    "id": "cathedral_b_NE",
    "copy-from": "cathedral_b_NW"
  },
  {
    "type": "overmap_terrain",
    "id": "cathedral_b_SW",
    "copy-from": "cathedral_b_NW"
  },
  {
    "type": "overmap_terrain",
    "id": "cathedral_b_SE",
    "copy-from": "cathedral_b_NW"
  },
  {
    "type": "overmap_terrain",
    "id": "s_library",
    "copy-from": "s_library",
    "sym": "ÿ",
    "color": "brown"
  },
  {
    "type": "overmap_terrain",
    "id": "s_library_roof",
    "copy-from": "s_library_roof",
    "sym": "ÿ",
    "color": "brown"
  },
  {
    "type": "overmap_terrain",
    "id": "s_library_1",
    "copy-from": "s_library_1",
    "sym": "ÿ",
    "color": "brown"
  },
  {
    "type": "overmap_terrain",
    "id": "s_library_roof_1",
    "copy-from": "s_library_roof_1",
    "sym": "ÿ",
    "color": "brown"
  },
  {
    "type": "overmap_terrain",
    "id": "s_library_2",
    "copy-from": "s_library_2",
    "sym": "ÿ",
    "color": "brown"
  },
  {
    "type": "overmap_terrain",
    "id": "s_library_roof_2",
    "copy-from": "s_library_roof_2",
    "sym": "ÿ",
    "color": "brown"
  },
  {
    "type": "overmap_terrain",
    "id": "police",
    "copy-from": "police",
    "sym": "ÿ",
    "color": "light_blue"
  },
  {
    "type": "overmap_terrain",
    "id": "police_roof",
    "copy-from": "police_roof",
    "sym": "ÿ",
    "color": "light_blue"
  },
  {
    "type": "overmap_terrain",
    "id": "police_1",
    "copy-from": "police_1",
    "sym": "ÿ",
    "color": "light_blue"
  },
  {
    "type": "overmap_terrain",
    "id": "police_2ndfloor_1",
    "copy-from": "police_2ndfloor_1",
    "sym": "ÿ",
    "color": "light_blue"
  },
  {
    "type": "overmap_terrain",
    "id": "police_roof_1",
    "copy-from": "police_roof_1",
    "sym": "ÿ",
    "color": "light_blue"
  },
  {
    "type": "overmap_terrain",
    "id": "police_2",
    "copy-from": "police_2",
    "sym": "ÿ",
    "color": "light_blue"
  },
  {
    "type": "overmap_terrain",
    "id": "police_roof_2",
    "copy-from": "police_roof_2",
    "sym": "ÿ",
    "color": "light_blue"
  },
  {
    "type": "overmap_terrain",
    "id": "police_upper_roof_2",
    "copy-from": "police_upper_roof_2",
    "sym": "ÿ",
    "color": "light_blue"
  },
  {
    "type": "overmap_terrain",
    "abstract": "generic_hospital",
    "copy-from": "generic_hospital",
    "sym": "Á",
    "id": "generic_hospital"
  },
  {
    "type": "overmap_terrain",
    "id": "hospital_1",
    "copy-from": "generic_hospital"
  },
  {
    "type": "overmap_terrain",
    "id": "hospital_2",
    "copy-from": "generic_hospital",
    "color": "red"
  },
  {
    "type": "overmap_terrain",
    "id": "hospital_3",
    "copy-from": "generic_hospital"
  },
  {
    "type": "overmap_terrain",
    "id": "hospital_4",
    "copy-from": "generic_hospital"
  },
  {
    "type": "overmap_terrain",
    "id": "hospital_5",
    "copy-from": "generic_hospital"
  },
  {
    "type": "overmap_terrain",
    "id": "hospital_6",
    "copy-from": "generic_hospital"
  },
  {
    "type": "overmap_terrain",
    "id": "hospital_7",
    "copy-from": "generic_hospital"
  },
  {
    "type": "overmap_terrain",
    "id": "hospital_8",
    "copy-from": "generic_hospital"
  },
  {
    "type": "overmap_terrain",
    "id": "hospital_9",
    "copy-from": "generic_hospital"
  },
  {
    "type": "overmap_terrain",
    "id": "school_1_1",
    "copy-from": "school_1_1",
    "sym": "Á"
  },
  {
    "type": "overmap_terrain",
    "id": "school_1_2",
    "copy-from": "school_1_2",
    "sym": "Á"
  },
  {
    "type": "overmap_terrain",
    "id": "school_1_3",
    "copy-from": "school_1_3",
    "sym": "Á"
  },
  {
    "type": "overmap_terrain",
    "id": "school_1_4",
    "copy-from": "school_1_4",
    "sym": "Á"
  },
  {
    "type": "overmap_terrain",
    "id": "school_1_5",
    "copy-from": "school_1_5",
    "sym": "Á"
  },
  {
    "type": "overmap_terrain",
    "id": "school_1_6",
    "copy-from": "school_1_6",
    "sym": "Á"
  },
  {
    "type": "overmap_terrain",
    "id": "school_1_7",
    "copy-from": "school_1_7",
    "sym": "Á"
  },
  {
    "type": "overmap_terrain",
    "id": "school_1_8",
    "copy-from": "school_1_8",
    "sym": "Á"
  },
  {
    "type": "overmap_terrain",
    "id": "school_1_9",
    "copy-from": "school_1_9",
    "sym": "Á"
  },
  {
    "type": "overmap_terrain",
    "id": "school_2_1",
    "copy-from": "school_2_1",
    "sym": "Á"
  },
  {
    "type": "overmap_terrain",
    "id": "school_2_2",
    "copy-from": "school_2_2",
    "sym": "Á"
  },
  {
    "type": "overmap_terrain",
    "id": "school_2_3",
    "copy-from": "school_2_3",
    "sym": "Á"
  },
  {
    "type": "overmap_terrain",
    "id": "school_2_4",
    "copy-from": "school_2_4",
    "sym": "Á"
  },
  {
    "type": "overmap_terrain",
    "id": "school_2_5",
    "copy-from": "school_2_5",
    "sym": "Á"
  },
  {
    "type": "overmap_terrain",
    "id": "school_2_6",
    "copy-from": "school_2_6",
    "sym": "Á"
  },
  {
    "type": "overmap_terrain",
    "id": "school_2_7",
    "copy-from": "school_2_7",
    "sym": "Á"
  },
  {
    "type": "overmap_terrain",
    "id": "school_2_8",
    "copy-from": "school_2_8",
    "sym": "Á"
  },
  {
    "type": "overmap_terrain",
    "id": "school_2_9",
    "copy-from": "school_2_9",
    "sym": "Á"
  },
  {
    "type": "overmap_terrain",
    "id": "school_3_1",
    "copy-from": "school_3_1",
    "sym": "Á"
  },
  {
    "type": "overmap_terrain",
    "id": "school_3_2",
    "copy-from": "school_3_2",
    "sym": "Á"
  },
  {
    "type": "overmap_terrain",
    "id": "school_3_3",
    "copy-from": "school_3_3",
    "sym": "Á"
  },
  {
    "type": "overmap_terrain",
    "id": "school_3_4",
    "copy-from": "school_3_4",
    "sym": "Á"
  },
  {
    "type": "overmap_terrain",
    "id": "school_3_5",
    "copy-from": "school_3_5",
    "sym": "Á"
  },
  {
    "type": "overmap_terrain",
    "id": "school_3_6",
    "copy-from": "school_3_6",
    "sym": "Á"
  },
  {
    "type": "overmap_terrain",
    "id": "school_3_7",
    "copy-from": "school_3_7",
    "sym": "Á"
  },
  {
    "type": "overmap_terrain",
    "id": "school_3_8",
    "copy-from": "school_3_8",
    "sym": "Á"
  },
  {
    "type": "overmap_terrain",
    "id": "school_3_9",
    "copy-from": "school_3_9",
    "sym": "Á"
  },
  {
    "type": "overmap_terrain",
    "id": "school_4_1",
    "copy-from": "school_4_1",
    "sym": "Á"
  },
  {
    "type": "overmap_terrain",
    "id": "school_4_2",
    "copy-from": "school_4_2",
    "sym": "Á"
  },
  {
    "type": "overmap_terrain",
    "id": "school_4_3",
    "copy-from": "school_4_3",
    "sym": "Á"
  },
  {
    "type": "overmap_terrain",
    "id": "school_4_4",
    "copy-from": "school_4_4",
    "sym": "Á"
  },
  {
    "type": "overmap_terrain",
    "id": "school_4_5",
    "copy-from": "school_4_5",
    "sym": "Á"
  },
  {
    "type": "overmap_terrain",
    "id": "school_4_6",
    "copy-from": "school_4_6",
    "sym": "Á"
  },
  {
    "type": "overmap_terrain",
    "id": "school_4_7",
    "copy-from": "school_4_7",
    "sym": "Á"
  },
  {
    "type": "overmap_terrain",
    "id": "school_4_8",
    "copy-from": "school_4_8",
    "sym": "Á"
  },
  {
    "type": "overmap_terrain",
    "id": "school_4_9",
    "copy-from": "school_4_9",
    "sym": "Á"
  },
  {
    "type": "overmap_terrain",
    "id": "prison_1_1",
    "copy-from": "prison_1_1",
    "sym": "í",
    "color": "light_gray"
  },
  {
    "type": "overmap_terrain",
    "id": "prison_1_2",
    "copy-from": "prison_1_2",
    "sym": "å",
    "color": "light_gray"
  },
  {
    "type": "overmap_terrain",
    "id": "prison_1_3",
    "copy-from": "prison_1_3",
    "sym": "í",
    "color": "light_gray"
  },
  {
    "type": "overmap_terrain",
    "id": "prison_1_4",
    "copy-from": "prison_1_4",
    "sym": "å",
    "color": "light_gray"
  },
  {
    "type": "overmap_terrain",
    "id": "prison_1_5",
    "copy-from": "prison_1_5",
    "sym": "å",
    "color": "light_gray"
  },
  {
    "type": "overmap_terrain",
    "id": "prison_1_6",
    "copy-from": "prison_1_6",
    "sym": "å",
    "color": "light_gray"
  },
  {
    "type": "overmap_terrain",
    "id": "prison_1_7",
    "copy-from": "prison_1_7",
    "sym": "í",
    "color": "light_gray"
  },
  {
    "type": "overmap_terrain",
    "id": "prison_1_8",
    "copy-from": "prison_1_8",
    "sym": "å",
    "color": "light_gray"
  },
  {
    "type": "overmap_terrain",
    "id": "prison_1_9",
    "copy-from": "prison_1_9",
    "sym": "í",
    "color": "light_gray"
  },
  {
    "type": "overmap_terrain",
    "id": "prison_1_b_1",
    "copy-from": "prison_1_b_1",
    "sym": "å",
    "color": "light_gray"
  },
  {
    "type": "overmap_terrain",
    "id": "prison_1_b_2",
    "copy-from": "prison_1_b_2",
    "sym": "å",
    "color": "light_gray"
  },
  {
    "type": "overmap_terrain",
    "id": "prison_1_b_3",
    "copy-from": "prison_1_b_3",
    "sym": "å",
    "color": "light_gray"
  },
  {
    "type": "overmap_terrain",
    "id": "prison_1_b_4",
    "copy-from": "prison_1_b_4",
    "sym": "å",
    "color": "light_gray"
  },
  {
    "type": "overmap_terrain",
    "id": "prison_1_b_5",
    "copy-from": "prison_1_b_5",
    "sym": "å",
    "color": "light_gray"
  },
  {
    "type": "overmap_terrain",
    "id": "prison_1_b_6",
    "copy-from": "prison_1_b_6",
    "sym": "å",
    "color": "light_gray"
  },
  {
    "type": "overmap_terrain",
    "id": "prison_1_b_7",
    "copy-from": "prison_1_b_7",
    "sym": "å",
    "color": "light_gray"
  },
  {
    "type": "overmap_terrain",
    "id": "prison_1_b_8",
    "copy-from": "prison_1_b_8",
    "sym": "å",
    "color": "light_gray"
  },
  {
    "type": "overmap_terrain",
    "id": "prison_1_b_9",
    "copy-from": "prison_1_b_9",
    "sym": "å",
    "color": "light_gray"
  },
  {
    "type": "overmap_terrain",
    "id": "prison_1_b_7_hidden",
    "copy-from": "prison_1_b_7_hidden",
    "sym": "å",
    "color": "light_gray"
  },
  {
    "type": "overmap_terrain",
    "id": "prison_1_b_8_hidden_lab_stairs",
    "copy-from": "prison_1_b_8_hidden_lab_stairs",
    "sym": "å",
    "color": "light_gray"
  },
  {
    "type": "overmap_terrain",
    "id": "prison_1_b_9_hidden",
    "copy-from": "prison_1_b_9_hidden",
    "sym": "å",
    "color": "light_gray"
  },
  {
    "type": "overmap_terrain",
    "id": "prison_alcatraz_1",
    "copy-from": "prison_alcatraz_1",
    "sym": "å",
    "color": "light_gray"
  },
  {
    "type": "overmap_terrain",
    "id": "prison_alcatraz_2",
    "copy-from": "prison_alcatraz_2",
    "sym": "å",
    "color": "light_gray"
  },
  {
    "type": "overmap_terrain",
    "id": "prison_alcatraz_3",
    "copy-from": "prison_alcatraz_3",
    "sym": "å",
    "color": "light_gray"
  },
  {
    "type": "overmap_terrain",
    "id": "prison_alcatraz_4",
    "copy-from": "prison_alcatraz_4",
    "sym": "å",
    "color": "light_gray"
  },
  {
    "type": "overmap_terrain",
    "id": "prison_alcatraz_5",
    "copy-from": "prison_alcatraz_5",
    "sym": "å",
    "color": "light_gray"
  },
  {
    "type": "overmap_terrain",
    "id": "prison_alcatraz_6",
    "copy-from": "prison_alcatraz_6",
    "sym": "å",
    "color": "light_gray"
  },
  {
    "type": "overmap_terrain",
    "id": "prison_alcatraz_7",
    "copy-from": "prison_alcatraz_7",
    "sym": "å",
    "color": "light_gray"
  },
  {
    "type": "overmap_terrain",
    "id": "prison_alcatraz_8",
    "copy-from": "prison_alcatraz_8",
    "sym": "å",
    "color": "light_gray"
  },
  {
    "type": "overmap_terrain",
    "id": "prison_alcatraz_9",
    "copy-from": "prison_alcatraz_9",
    "sym": "å",
    "color": "light_gray"
  },
  {
    "type": "overmap_terrain",
    "id": "prison_alcatraz_10",
    "copy-from": "prison_alcatraz_10",
    "sym": "å",
    "color": "light_gray"
  },
  {
    "type": "overmap_terrain",
    "id": "prison_alcatraz_11",
    "copy-from": "prison_alcatraz_11",
    "sym": "å",
    "color": "light_gray"
  },
  {
    "type": "overmap_terrain",
    "id": "prison_alcatraz_12",
    "copy-from": "prison_alcatraz_12",
    "sym": "å",
    "color": "light_gray"
  },
  {
    "type": "overmap_terrain",
    "id": "prison_alcatraz_13",
    "copy-from": "prison_alcatraz_13",
    "sym": "å",
    "color": "light_gray"
  },
  {
    "type": "overmap_terrain",
    "id": "prison_alcatraz_14",
    "copy-from": "prison_alcatraz_14",
    "sym": "å",
    "color": "light_gray"
  },
  {
    "type": "overmap_terrain",
    "id": "prison_alcatraz_15",
    "copy-from": "prison_alcatraz_15",
    "sym": "å",
    "color": "light_gray"
  },
  {
    "type": "overmap_terrain",
    "id": "prison_alcatraz_1_2f",
    "copy-from": "prison_alcatraz_1_2f",
    "sym": "å",
    "color": "light_gray"
  },
  {
    "type": "overmap_terrain",
    "id": "prison_alcatraz_2_2f",
    "copy-from": "prison_alcatraz_2_2f",
    "sym": "å",
    "color": "light_gray"
  },
  {
    "type": "overmap_terrain",
    "id": "prison_alcatraz_3_2f",
    "copy-from": "prison_alcatraz_3_2f",
    "sym": "å",
    "color": "light_gray"
  },
  {
    "type": "overmap_terrain",
    "id": "prison_alcatraz_4_2f",
    "copy-from": "prison_alcatraz_4_2f",
    "sym": "å",
    "color": "light_gray"
  },
  {
    "type": "overmap_terrain",
    "id": "prison_alcatraz_5_2f",
    "copy-from": "prison_alcatraz_5_2f",
    "sym": "å",
    "color": "light_gray"
  },
  {
    "type": "overmap_terrain",
    "id": "prison_alcatraz_6_2f",
    "copy-from": "prison_alcatraz_6_2f",
    "sym": "å",
    "color": "light_gray"
  },
  {
    "type": "overmap_terrain",
    "id": "prison_alcatraz_7_2f",
    "copy-from": "prison_alcatraz_7_2f",
    "sym": "å",
    "color": "light_gray"
  },
  {
    "type": "overmap_terrain",
    "id": "prison_alcatraz_8_2f",
    "copy-from": "prison_alcatraz_8_2f",
    "sym": "å",
    "color": "light_gray"
  },
  {
    "type": "overmap_terrain",
    "id": "prison_alcatraz_9_2f",
    "copy-from": "prison_alcatraz_9_2f",
    "sym": "å",
    "color": "light_gray"
  },
  {
    "type": "overmap_terrain",
    "id": "prison_alcatraz_10_2f",
    "copy-from": "prison_alcatraz_10_2f",
    "sym": "å",
    "color": "light_gray"
  },
  {
    "type": "overmap_terrain",
    "id": "prison_alcatraz_11_2f",
    "copy-from": "prison_alcatraz_11_2f",
    "sym": "å",
    "color": "light_gray"
  },
  {
    "type": "overmap_terrain",
    "id": "prison_alcatraz_12_2f",
    "copy-from": "prison_alcatraz_12_2f",
    "sym": "å",
    "color": "light_gray"
  },
  {
    "type": "overmap_terrain",
    "id": "prison_alcatraz_13_2f",
    "copy-from": "prison_alcatraz_13_2f",
    "sym": "å",
    "color": "light_gray"
  },
  {
    "type": "overmap_terrain",
    "id": "prison_alcatraz_14_2f",
    "copy-from": "prison_alcatraz_14_2f",
    "sym": "å",
    "color": "light_gray"
  },
  {
    "type": "overmap_terrain",
    "id": "prison_alcatraz_15_2f",
    "copy-from": "prison_alcatraz_15_2f",
    "sym": "å",
    "color": "light_gray"
  },
  {
    "type": "overmap_terrain",
    "id": "post_office",
    "copy-from": "post_office",
    "sym": "å",
    "color": "light_blue"
  },
  {
    "type": "overmap_terrain",
    "id": "post_office_roof",
    "copy-from": "post_office"
  },
  {
    "type": "overmap_terrain",
    "id": "post_office_1",
    "copy-from": "post_office",
    "sym": "å",
    "color": "light_blue"
  },
  {
    "type": "overmap_terrain",
    "id": "post_office_roof_1",
    "copy-from": "post_office"
  },
  {
    "type": "overmap_terrain",
    "id": "mortuary",
    "copy-from": "mortuary",
    "sym": "å",
    "color": "brown"
  },
  {
    "type": "overmap_terrain",
    "id": "mortuary_roof",
    "copy-from": "mortuary"
  },
  {
    "type": "overmap_terrain",
    "id": "fire_station",
    "copy-from": "fire_station",
    "sym": "Æ"
  },
  {
    "type": "overmap_terrain",
    "id": "fire_station_roof",
    "copy-from": "fire_station_roof",
    "sym": "Æ"
  },
  {
    "type": "overmap_terrain",
    "id": "fire_station_1",
    "copy-from": "fire_station_1",
    "sym": "Æ"
  },
  {
    "type": "overmap_terrain",
    "id": "fire_station_roof_1",
    "copy-from": "fire_station_roof_1",
    "sym": "Æ"
  },
  {
    "type": "overmap_terrain",
    "id": "homeless_0_0_0",
    "copy-from": "homeless_0_0_0",
    "sym": "å"
  },
  {
    "type": "overmap_terrain",
    "id": "homeless_1_0_0",
    "copy-from": "homeless_1_0_0",
    "sym": "å"
  },
  {
    "type": "overmap_terrain",
    "id": "homeless_0_0_1",
    "copy-from": "homeless_0_0_1",
    "sym": "å"
  },
  {
    "type": "overmap_terrain",
    "id": "homeless_1_0_1",
    "copy-from": "homeless_1_0_1",
    "sym": "å"
  },
  {
    "type": "overmap_terrain",
    "id": "homeless_0_0_2",
    "copy-from": "homeless_0_0_2",
    "sym": "å"
  },
  {
    "type": "overmap_terrain",
    "id": "homeless_1_0_2",
    "copy-from": "homeless_1_0_2",
    "sym": "å"
  },
  {
    "type": "overmap_terrain",
    "id": "homeless_0_0_roof",
    "copy-from": "homeless_0_0_roof",
    "sym": "å"
  },
  {
    "type": "overmap_terrain",
    "id": "homeless_1_0_roof",
    "copy-from": "homeless_1_0_roof",
    "sym": "å"
  },
  {
    "type": "overmap_terrain",
    "id": "town_hall_0_0_0",
    "copy-from": "town_hall_0_0_0",
    "sym": "ÿ",
    "color": "light_green"
  },
  {
    "type": "overmap_terrain",
    "id": "town_hall_1_0_0",
    "copy-from": "town_hall_1_0_0",
    "sym": "ÿ",
    "color": "light_green"
  },
  {
    "type": "overmap_terrain",
    "id": "town_hall_0_1_0",
    "copy-from": "town_hall_0_1_0",
    "sym": "ÿ",
    "color": "light_green"
  },
  {
    "type": "overmap_terrain",
    "id": "town_hall_1_1_0",
    "copy-from": "town_hall_1_1_0",
    "sym": "ÿ",
    "color": "light_green"
  },
  {
    "type": "overmap_terrain",
    "id": "town_hall_0_0_1",
    "copy-from": "town_hall_0_0_1",
    "sym": "ÿ",
    "color": "light_green"
  },
  {
    "type": "overmap_terrain",
    "id": "town_hall_1_0_1",
    "copy-from": "town_hall_1_0_1",
    "sym": "ÿ",
    "color": "light_green"
  },
  {
    "type": "overmap_terrain",
    "id": "town_hall_0_1_1",
    "copy-from": "town_hall_0_1_1",
    "sym": "ÿ",
    "color": "light_green"
  },
  {
    "type": "overmap_terrain",
    "id": "town_hall_1_1_1",
    "copy-from": "town_hall_1_1_1",
    "sym": "ÿ",
    "color": "light_green"
  },
  {
    "type": "overmap_terrain",
    "id": "town_hall_0_0_roof",
    "copy-from": "town_hall_0_0_roof",
    "sym": "ÿ",
    "color": "light_green"
  },
  {
    "type": "overmap_terrain",
    "id": "town_hall_1_0_roof",
    "copy-from": "town_hall_1_0_roof",
    "sym": "ÿ",
    "color": "light_green"
  },
  {
    "type": "overmap_terrain",
    "id": "town_hall_0_1_roof",
    "copy-from": "town_hall_0_1_roof",
    "sym": "ÿ",
    "color": "light_green"
  },
  {
    "type": "overmap_terrain",
    "id": "town_hall_1_1_roof",
    "copy-from": "town_hall_1_1_roof",
    "sym": "ÿ",
    "color": "light_green"
  }
]