[
  {
    "result": "withered_bundle",
    "type": "recipe",
    "category": "CC_OTHER",
    "subcategory": "CSC_OTHER_OTHER",
    "skill_used": "survival",
    "difficulty": 0,
    "time": 400,
    "autolearn": true,
    "components": [
      [
        [
          "withered",
          3
        ]
      ]
    ],
    "id": "ee46aa32-619a-499c-a8b6-ade6973d21b9"
  },
  {
    "result": "withered_bundle",
    "type": "uncraft",
    "time": 300,
    "components": [
      [
        [
          "withered",
          3
        ]
      ]
    ],
    "id": "7d66baa0-5c3a-42c4-88b9-31e016bc0d22"
  },
  {
    "result": "pellet",
    "type": "recipe",
    "category": "CC_AMMO",
    "subcategory": "CSC_AMMO_RIFLE",
    "skill_used": "fabrication",
    "difficulty": 4,
    "skills_required": [
      "gun",
      2
    ],
    "time": "90 s",
    "batch_time_factors": [
      60,
      5
    ],
    "book_learn": [
      [
        "recipe_bullets",
        2
      ],
      [
        "mag_rifle",
        4
      ]
    ],
    "charges": 1,
    "using": [
      [
        "bullet_forming",
        1
      ],
      [
        "ammo_bullet",
        1
      ]
    ],
    "id": "3f31abd9-1e9e-45f3-9799-66bec285fd20"
  }
]