[
  {
    "type": "snippet",
    "category": "flier",
    "text": [
      {
        "id": "flier_LW_HFSP",
        "text": "This is an advertisement for Leadworks LLC's Home Frontier Starter Pack.  It shows a picture of a young suburban parent, equipped with rifle and revolver, keeping a steely eye on the neighborhood from the front porch.  Similarly-armed parents are visible in front of every house on the street.  Young children are at play and older ones tend a large vegetable garden.  The caption reads: \"A well-armed community is a SAFE community.  Leadworks, LLC.\""
      },
      {
        "id": "flier_LW_handguns",
        "text": "This is an advertisement for Leadworks LLC handguns.  It shows a picture of a bionic police officer assisting a young couple, who were being attacked by a gang of ruffians.  The caption reads: \"You don't have to void your warranty or wear out your thumb to achieve felon-stopping firepower.  The L39B, tried and true by our fine cyborgs in blue, is available in .45 ACP for that extra punch, and we offer semiautomatic (but equally robust!) versions for the civilian market.  Leadworks, LLC.\""
      },
      {
        "id": "flier_LW_modular_weapons",
        "text": "This is an advertisement for Leadworks LLC modular weapons.  It shows a picture of an overworked-yet-grateful police sergeant assembling a sleek rifle, with similar-looking weapons racked neatly behind her.  The caption reads: \"Leadworks is proud to offer the L523 modular weapon system.  No more must armorers stock and maintain stacks and stacks of rifles, carbines, and squad support weapons, juggling multiple incompatible ammunition types!  Just procure a base unit for every trooper, and use our lightweight and portable conversion kits to swap from house-to-house CQB carbine to rooftop-patrol DSR, safely and cleanly!\""
      }
    ],
    "id": "2055ad61-ebc6-4d0d-953b-402d4e4330ee"
  }
]