[
  {
    "type": "MOD_INFO",
    "id": "No_Fungi",
    "name": "No Fungal Monsters",
    "authors": [
      "Chaosvolt"
    ],
    "description": "Removes fungal monsters and regions from the game.",
    "category": "monster_exclude",
    "dependencies": [
      "bn"
    ]
  },
  {
    "type": "MONSTER_BLACKLIST",
    "categories": [
      "GROUP_FUNGI",
      "GROUP_FUNGI_FUNGALOID",
      "GROUP_FUNGI_TOWER",
      "GROUP_FUNGI_FLOWERS"
    ],
    "id": "56ed293f-a75a-4d20-8a4b-ac815dc6aa46"
  },
  {
    "type": "MONSTER_BLACKLIST",
    "monsters": [
      "mon_spore",
      "mon_fungaloid",
      "mon_fungaloid_young",
      "mon_zombie_fungus",
      "mon_boomer_fungus",
      "mon_zombie_child_fungus",
      "mon_fungal_wall",
      "mon_fungaloid_queen",
      "mon_fungal_tendril",
      "mon_fungal_hedgerow",
      "mon_fungaloid_tower",
      "mon_fungal_blossom",
      "mon_fungaloid_seeder",
      "mon_zombie_gasbag_fungus",
      "mon_zombie_smoker_fungus",
      "mon_skeleton_hulk_fungus",
      "mon_spider_fungus"
    ],
    "id": "c94ed114-4a22-4b9d-a414-92a000be56f9"
  },
  {
    "type": "region_overlay",
    "regions": [
      "all"
    ],
    "overmap_feature_flag_settings": {
      "blacklist": [
        "FUNGAL"
      ]
    },
    "id": "0d5f6f4a-f2be-41cd-8b1e-b9e9830cc79d"
  }
]