[
  {
    "result": "broken_afs_mon_migoturret",
    "type": "uncraft",
    "skill_used": "survival",
    "difficulty": 5,
    "time": "1 h",
    "using": [
      [
        "soldering_standard",
        10
      ]
    ],
    "qualities": [
      {
        "id": "SCREW",
        "level": 1
      }
    ],
    "components": [
      [
        [
          "living_brain_jar",
          1
        ]
      ],
      [
        [
          "brain",
          4
        ]
      ],
      [
        [
          "mutant_meat",
          12
        ]
      ],
      [
        [
          "vibrating_blaster",
          1
        ]
      ],
      [
        [
          "acidic_bore",
          60
        ]
      ],
      [
        [
          "humming_heart",
          1
        ]
      ],
      [
        [
          "sensory_cluster",
          1
        ]
      ],
      [
        [
          "bioweapon_chassis",
          1
        ]
      ]
    ],
    "id": "a26dae4a-e0e3-419d-8bfa-034b222af8bc"
  },
  {
    "result": "broken_tankbot",
    "type": "uncraft",
    "skill_used": "electronics",
    "difficulty": 8,
    "time": "10 h",
    "using": [
      [
        "soldering_standard",
        30
      ],
      [
        "welding_standard",
        20
      ]
    ],
    "qualities": [
      {
        "id": "SCREW",
        "level": 1
      },
      {
        "id": "WRENCH",
        "level": 1
      },
      {
        "id": "SAW_M",
        "level": 1
      }
    ],
    "components": [
      [
        [
          "ai_module",
          1
        ]
      ],
      [
        [
          "sensor_module",
          1
        ]
      ],
      [
        [
          "memory_module",
          1
        ]
      ],
      [
        [
          "pathfinding_module",
          1
        ]
      ],
      [
        [
          "identification_module",
          1
        ]
      ],
      [
        [
          "tank_tread",
          1
        ]
      ],
      [
        [
          "tankbot_chassis",
          1
        ]
      ],
      [
        [
          "targeting_module",
          1
        ]
      ],
      [
        [
          "gun_module",
          3
        ]
      ],
      [
        [
          "flamethrower",
          1
        ]
      ],
      [
        [
          "tazer",
          1
        ]
      ],
      [
        [
          "m4a1",
          1
        ]
      ],
      [
        [
          "power_supply",
          20
        ]
      ],
      [
        [
          "storage_battery",
          1
        ]
      ],
      [
        [
          "plut_cell",
          4
        ]
      ],
      [
        [
          "mil_plate",
          2
        ]
      ]
    ],
    "id": "14db370b-aee5-43d3-ada3-91c2d3b56a7d"
  },
  {
    "result": "broken_chickenbot",
    "type": "uncraft",
    "skill_used": "electronics",
    "difficulty": 8,
    "time": "10 h",
    "using": [
      [
        "soldering_standard",
        30
      ],
      [
        "welding_standard",
        20
      ]
    ],
    "qualities": [
      {
        "id": "SCREW",
        "level": 1
      },
      {
        "id": "WRENCH",
        "level": 1
      },
      {
        "id": "SAW_M",
        "level": 1
      }
    ],
    "components": [
      [
        [
          "ai_module",
          1
        ]
      ],
      [
        [
          "sensor_module",
          1
        ]
      ],
      [
        [
          "memory_module",
          1
        ]
      ],
      [
        [
          "pathfinding_module",
          1
        ]
      ],
      [
        [
          "identification_module",
          1
        ]
      ],
      [
        [
          "chickenbot_chassis",
          1
        ]
      ],
      [
        [
          "targeting_module",
          1
        ]
      ],
      [
        [
          "gun_module",
          3
        ]
      ],
      [
        [
          "m249",
          1
        ]
      ],
      [
        [
          "power_supply",
          20
        ]
      ],
      [
        [
          "storage_battery",
          1
        ]
      ],
      [
        [
          "plut_cell",
          4
        ]
      ],
      [
        [
          "mil_plate",
          2
        ]
      ]
    ],
    "id": "4825d6fa-a187-4021-b4a7-f757257be763"
  },
  {
    "result": "broken_tripod",
    "type": "uncraft",
    "skill_used": "electronics",
    "difficulty": 8,
    "time": "5 h",
    "using": [
      [
        "soldering_standard",
        10
      ],
      [
        "welding_standard",
        10
      ]
    ],
    "qualities": [
      {
        "id": "SCREW",
        "level": 1
      },
      {
        "id": "SAW_M",
        "level": 1
      }
    ],
    "components": [
      [
        [
          "ai_module",
          1
        ]
      ],
      [
        [
          "self_monitoring_module",
          1
        ]
      ],
      [
        [
          "sensor_module",
          1
        ]
      ],
      [
        [
          "memory_module",
          1
        ]
      ],
      [
        [
          "pathfinding_module",
          1
        ]
      ],
      [
        [
          "identification_module",
          1
        ]
      ],
      [
        [
          "spidery_legs_big",
          1
        ]
      ],
      [
        [
          "tripod_chassis",
          1
        ]
      ],
      [
        [
          "targeting_module",
          1
        ]
      ],
      [
        [
          "gun_module",
          1
        ]
      ],
      [
        [
          "power_supply",
          12
        ]
      ],
      [
        [
          "storage_battery",
          1
        ]
      ],
      [
        [
          "flamethrower",
          1
        ]
      ]
    ],
    "id": "ce6fa734-2fec-46d4-96bf-efd8cafa631f"
  },
  {
    "result": "broken_afs_mon_sentinel_lx",
    "type": "uncraft",
    "skill_used": "electronics",
    "difficulty": 6,
    "time": "2 h",
    "using": [
      [
        "soldering_standard",
        20
      ],
      [
        "welding_standard",
        5
      ]
    ],
    "qualities": [
      {
        "id": "SCREW",
        "level": 1
      },
      {
        "id": "SAW_M",
        "level": 1
      }
    ],
    "components": [
      [
        [
          "ai_module_advanced",
          1
        ]
      ],
      [
        [
          "self_monitoring_module",
          1
        ]
      ],
      [
        [
          "sensor_module",
          1
        ]
      ],
      [
        [
          "memory_module",
          1
        ]
      ],
      [
        [
          "pathfinding_module",
          1
        ]
      ],
      [
        [
          "identification_module",
          1
        ]
      ],
      [
        [
          "android_legs",
          1
        ]
      ],
      [
        [
          "android_chassis",
          1
        ]
      ],
      [
        [
          "android_arms",
          1
        ]
      ],
      [
        [
          "medium_storage_battery",
          1
        ]
      ],
      [
        [
          "huge_atomic_battery_cell",
          1
        ]
      ],
      [
        [
          "plut_cell",
          4
        ]
      ],
      [
        [
          "afs_sentinel_laser",
          1
        ]
      ]
    ],
    "id": "036ac890-7766-4c45-afb5-d986d493bf8b"
  },
  {
    "result": "broken_bloodhound_drone",
    "type": "uncraft",
    "skill_used": "electronics",
    "difficulty": 4,
    "time": "2 m",
    "using": [
      [
        "soldering_standard",
        5
      ]
    ],
    "qualities": [
      {
        "id": "SCREW",
        "level": 1
      }
    ],
    "components": [
      [
        [
          "ai_module_basic",
          1
        ]
      ],
      [
        [
          "RAM",
          1
        ]
      ],
      [
        [
          "small_storage_battery",
          1
        ]
      ],
      [
        [
          "scrap",
          1
        ]
      ],
      [
        [
          "quad_rotors",
          1
        ]
      ],
      [
        [
          "sensor_module",
          1
        ]
      ],
      [
        [
          "spike",
          2
        ]
      ],
      [
        [
          "identification_module",
          1
        ]
      ]
    ],
    "id": "e8c66a4e-3548-4cc3-87ea-aa8000dad7c0"
  },
  {
    "//": "TODO: use copy-from inheritance for solarpack uncrafts -- it is currently not working properly #24702",
    "result": "q_solarpack",
    "type": "uncraft",
    "skill_used": "electronics",
    "difficulty": 10,
    "skills_required": [
      [
        "fabrication",
        2
      ],
      [
        "mechanics",
        2
      ]
    ],
    "time": "50 m",
    "using": [
      [
        "soldering_standard",
        35
      ],
      [
        "welding_standard",
        20
      ]
    ],
    "qualities": [
      {
        "id": "SCREW",
        "level": 1
      },
      {
        "id": "HAMMER",
        "level": 2
      },
      {
        "id": "SAW_M",
        "level": 2
      }
    ],
    "components": [
      [
        [
          "power_supply",
          2
        ]
      ],
      [
        [
          "amplifier",
          2
        ]
      ],
      [
        [
          "solar_panel_v3",
          1
        ]
      ],
      [
        [
          "cable",
          20
        ]
      ],
      [
        [
          "sheet_metal",
          1
        ]
      ],
      [
        [
          "sheet_metal_small",
          4
        ]
      ],
      [
        [
          "steel_chunk",
          4
        ]
      ],
      [
        [
          "scrap",
          8
        ]
      ],
      [
        [
          "rope_6",
          1
        ]
      ]
    ],
    "id": "6b3314ba-66dd-4bb8-9131-1f570b69d3b4"
  },
  {
    "//": "TODO: use copy-from inheritance for solarpack uncrafts -- it is currently not working properly #24702",
    "result": "q_solarpack_on",
    "type": "uncraft",
    "skill_used": "electronics",
    "difficulty": 10,
    "skills_required": [
      [
        "fabrication",
        2
      ],
      [
        "mechanics",
        2
      ]
    ],
    "time": "50 m",
    "using": [
      [
        "soldering_standard",
        35
      ],
      [
        "welding_standard",
        20
      ]
    ],
    "qualities": [
      {
        "id": "SCREW",
        "level": 1
      },
      {
        "id": "HAMMER",
        "level": 2
      },
      {
        "id": "SAW_M",
        "level": 2
      }
    ],
    "components": [
      [
        [
          "power_supply",
          2
        ]
      ],
      [
        [
          "amplifier",
          2
        ]
      ],
      [
        [
          "solar_panel_v3",
          1
        ]
      ],
      [
        [
          "cable",
          20
        ]
      ],
      [
        [
          "sheet_metal",
          1
        ]
      ],
      [
        [
          "sheet_metal_small",
          4
        ]
      ],
      [
        [
          "steel_chunk",
          4
        ]
      ],
      [
        [
          "scrap",
          8
        ]
      ],
      [
        [
          "rope_6",
          1
        ]
      ]
    ],
    "id": "bc8080ab-16a6-40a3-ac86-6df43dcb3cd3"
  }
]