[
  {
    "result": "golf_club",
    "//": "Google tells me that golf clubs often have titanium heads, so that's a source of it.",
    "type": "uncraft",
    "skill_used": "fabrication",
    "difficulty": 2,
    "time": "30 m",
    "qualities": [
      {
        "id": "SAW_M",
        "level": 1
      }
    ],
    "components": [
      [
        [
          "material_aluminium_ingot",
          1
        ]
      ],
      [
        [
          "afs_scrap_titanium",
          1
        ]
      ]
    ],
    "id": "1369dadf-1e05-4fc2-a700-e98c3ccc2e66"
  },
  {
    "result": "afs_atomic_smartphone",
    "type": "uncraft",
    "time": 500,
    "qualities": [
      {
        "id": "SCREW",
        "level": 1
      }
    ],
    "components": [
      [
        [
          "plastic_chunk",
          1
        ]
      ],
      [
        [
          "small_lcd_screen",
          1
        ]
      ],
      [
        [
          "RAM",
          1
        ]
      ],
      [
        [
          "processor",
          1
        ]
      ],
      [
        [
          "lens_small",
          1
        ]
      ],
      [
        [
          "plut_cell",
          1
        ]
      ]
    ],
    "id": "e2933359-952f-4e05-b1d1-44bd60ee4d6e"
  },
  {
    "result": "afs_titanium_frame",
    "type": "uncraft",
    "skill_used": "fabrication",
    "difficulty": 4,
    "time": "1 h",
    "qualities": [
      {
        "id": "SAW_M",
        "level": 1
      }
    ],
    "tools": [
      [
        [
          "welder",
          100
        ],
        [
          "toolset",
          150
        ]
      ]
    ],
    "components": [
      [
        [
          "afs_scrap_titanium",
          2
        ]
      ]
    ],
    "id": "4c99a84f-7cfc-4d7f-84ba-6216afb5ac33"
  },
  {
    "result": "afs_titanium_tooth",
    "type": "uncraft",
    "time": "30 s",
    "qualities": [
      {
        "id": "HAMMER",
        "level": 1
      }
    ],
    "components": [
      [
        [
          "afs_titanium_small",
          1
        ]
      ]
    ],
    "id": "f5cba2c1-60f7-4da2-b9f6-2ec28f11f7cb"
  },
  {
    "result": "afs_titanium_watch",
    "type": "uncraft",
    "time": "36 s",
    "qualities": [
      {
        "id": "HAMMER",
        "level": 1
      },
      {
        "id": "SCREW",
        "level": 1
      }
    ],
    "components": [
      [
        [
          "afs_titanium_small",
          20
        ]
      ],
      [
        [
          "clockworks",
          1
        ]
      ]
    ],
    "id": "49231c4e-e3db-455c-b1b1-9942bf2a83d8"
  },
  {
    "result": "afs_titanium_ring",
    "type": "uncraft",
    "time": "30 s",
    "qualities": [
      {
        "id": "HAMMER",
        "level": 1
      }
    ],
    "components": [
      [
        [
          "afs_titanium_small",
          2
        ]
      ]
    ],
    "id": "2da32f28-9bfd-4566-88b4-4fdba552b8ab"
  },
  {
    "result": "afs_titanium_implant",
    "type": "uncraft",
    "time": "10 m",
    "qualities": [
      {
        "id": "HAMMER",
        "level": 1
      }
    ],
    "components": [
      [
        [
          "afs_scrap_titanium",
          5
        ]
      ]
    ],
    "id": "62f37b38-c99a-41b3-a84a-1acc8e8d9340"
  },
  {
    "result": "afs_titanium_bat",
    "type": "uncraft",
    "skill_used": "mechanics",
    "difficulty": 3,
    "time": "30 m",
    "using": [
      [
        "welding_standard",
        3
      ]
    ],
    "qualities": [
      {
        "id": "HAMMER",
        "level": 1
      },
      {
        "id": "SAW_M",
        "level": 1
      }
    ],
    "components": [
      [
        [
          "afs_scrap_titanium",
          2
        ]
      ]
    ],
    "id": "50efbb5a-d540-4e63-be0e-230506a0a198"
  },
  {
    "result": "atomic_butterchurn",
    "type": "uncraft",
    "skill_used": "electronics",
    "time": "30 s",
    "qualities": [
      {
        "id": "SCREW",
        "level": 1
      }
    ],
    "components": [
      [
        [
          "plastic_chunk",
          5
        ]
      ],
      [
        [
          "power_supply",
          1
        ]
      ],
      [
        [
          "element",
          1
        ]
      ],
      [
        [
          "scrap",
          2
        ]
      ],
      [
        [
          "plut_cell",
          1
        ]
      ]
    ],
    "id": "2a43842c-9ed3-4bae-8824-a0d3c3ff88be"
  }
]