[
  {
    "type": "MOD_INFO",
    "id": "no_rivtech_guns",
    "name": "No Fictional Guns",
    "authors": [
      "tungtn/community"
    ],
    "description": "Removes fictional conventional firearms and ammunition.",
    "category": "item_exclude",
    "dependencies": [
      "bn"
    ],
    "obsolete": true
  },
  {
    "type": "ITEM_BLACKLIST",
    "items": [
      "8mm_caseless",
      "8mm_bootleg",
      "8mm_jhp",
      "8mm_inc",
      "5x50dart",
      "5x50heavy",
      "20x66_shot",
      "20x66_flechette",
      "20x66_slug",
      "20x66_exp",
      "20x66_frag",
      "20x66_flare",
      "20x66_inc",
      "20x66_beanbag",
      "20x66_bootleg_shot",
      "20x66_bootleg_flechette",
      "20x66_bootleg_slug",
      "recipe_caseless",
      "reloaded_5x50dart",
      "5x50_hull",
      "rm121aux",
      "rm802",
      "rm51_assault_rifle",
      "rm88_battle_rifle",
      "rm614_lmg",
      "rm2000_smg",
      "rm99_pistol",
      "rm103a_pistol",
      "needlegun",
      "needlepistol",
      "rm20",
      "rm120c",
      "rm228",
      "8mm_civilian",
      "rm298",
      "l_bak_223",
      "8x40_10_mag",
      "8x40_25_mag",
      "8x40_50_mag",
      "8x40_100_mag",
      "8x40_250_mag",
      "8x40_500_mag",
      "20x66_10_mag",
      "20x66_20_mag",
      "20x66_40_mag",
      "5x50_50_mag",
      "5x50_100_mag",
      "lwfeed"
    ],
    "id": "ec250b56-847e-4d8b-b8e3-5ef9a8798011"
  }
]