[
  {
    "type": "MOD_INFO",
    "id": "crt_expansion",
    "name": "C.R.I.T. Expansion",
    "authors": [ "Soupster89" ],
    "maintainers": [ "Zlorthishen" ],
    "description": "Adds the Catastrophe Response and Investigation Team (C.R.I.T.), with includes additional professions, guns/mods, WIP enemies, mutations, martial arts, melee weapons, and some QOL changes such as plants from cutting grass.",
    "category": "content",
    "dependencies": [ "bn" ]
  }
]
