[
  {
    "type": "EXTERNAL_OPTION",
    "name": "CBM_SLOTS_ENABLED",
    "stype": "bool",
    "value": true,
    "id": "CBM_SLOTS_ENABLED"
  },
  {
    "type": "EXTERNAL_OPTION",
    "name": "CBM_SLOTS_ENABLED",
    "stype": "bool",
    "value": true,
    "id": "CBM_SLOTS_ENABLED"
  }
]