[
  {
    "type": "recipe",
    "result": "dragon_essence",
    "qualities": [
      {
        "id": "CONCENTRATE",
        "level": 1
      },
      {
        "id": "FINE_DISTILL",
        "level": 1
      },
      {
        "id": "SEPARATE",
        "level": 1
      },
      {
        "id": "CONTAIN",
        "level": 1
      },
      {
        "id": "MANA_FOCUS",
        "level": 1
      }
    ],
    "tools": [
      [
        [
          "food_processor",
          40
        ]
      ],
      [
        [
          "surface_heat",
          20,
          "LIST"
        ]
      ]
    ],
    "components": [
      [
        [
          "dragon_scale",
          4,
          "LIST"
        ],
        [
          "meat_dragon",
          40
        ]
      ]
    ],
    "time": "2 h",
    "skill_used": "cooking",
    "difficulty": 3,
    "skills_required": [
      "spellcraft",
      2
    ],
    "book_learn": [
      [
        "black_dragons",
        2
      ]
    ],
    "category": "CC_ENCHANTED",
    "subcategory": "CSC_ENCHANTED_OTHER",
    "id": "9c3626d4-57b3-45eb-b6a6-12863173e636"
  },
  {
    "type": "recipe",
    "result": "spell_scroll_acid_resistance",
    "qualities": [
      {
        "id": "CONTAIN",
        "level": 1
      },
      {
        "id": "MANA_INFUSE",
        "level": 1
      },
      {
        "id": "MANA_FOCUS",
        "level": 1
      }
    ],
    "tools": [
      [
        [
          "paint_brush",
          -1
        ]
      ]
    ],
    "components": [
      [
        [
          "tainted_blood",
          2000
        ],
        [
          "blood",
          8
        ],
        [
          "dragon_blood",
          2000
        ]
      ],
      [
        [
          "acid",
          4
        ]
      ],
      [
        [
          "water",
          2
        ],
        [
          "water_clean",
          2
        ]
      ]
    ],
    "time": "2 h",
    "skill_used": "spellcraft",
    "difficulty": 2,
    "book_learn": [
      [
        "black_dragons",
        2
      ]
    ],
    "category": "CC_ENCHANTED",
    "subcategory": "CSC_ENCHANTED_OTHER",
    "flags": [
      "SECRET"
    ],
    "id": "f5541b78-25ae-4b38-8b05-65158d32f420"
  },
  {
    "type": "recipe",
    "result": "mana_dust",
    "qualities": [
      {
        "id": "CONTAIN",
        "level": 1
      }
    ],
    "tools": [
      [
        [
          "mortar_pestle",
          -1
        ]
      ]
    ],
    "components": [
      [
        [
          "crystallized_mana",
          1
        ]
      ]
    ],
    "time": "5 m",
    "skill_used": "fabrication",
    "difficulty": 1,
    "skills_required": [
      "spellcraft",
      2
    ],
    "category": "CC_ENCHANTED",
    "subcategory": "CSC_ENCHANTED_OTHER",
    "autolearn": true,
    "id": "1c5dd979-87e4-45e5-a7ee-bfb93878b1ed"
  },
  {
    "type": "recipe",
    "result": "mana_infused_blood",
    "qualities": [
      {
        "id": "CONTAIN",
        "level": 1
      },
      {
        "id": "MANA_INFUSE",
        "level": 1
      }
    ],
    "components": [
      [
        [
          "mana_dust",
          1
        ]
      ],
      [
        [
          "blood",
          1
        ]
      ]
    ],
    "time": "30 m",
    "skill_used": "cooking",
    "difficulty": 3,
    "skills_required": [
      "spellcraft",
      3
    ],
    "category": "CC_ENCHANTED",
    "subcategory": "CSC_ENCHANTED_OTHER",
    "autolearn": true,
    "id": "936ab84f-2ff9-4606-b0ff-1ddf56cdb00e"
  }
]