[
  {
    "result": "helmet_demonchitin",
    "byproducts": [
      [
        "demon_chitin_piece",
        3
      ]
    ],
    "qualities": [
      {
        "id": "CHISEL",
        "level": 1
      },
      {
        "id": "SEW",
        "level": 3
      },
      {
        "id": "LEATHER_AWL",
        "level": 1
      },
      {
        "id": "MANA_INFUSE",
        "level": 2
      }
    ],
    "type": "recipe",
    "category": "CC_ENCHANTED",
    "subcategory": "CSC_ENCHANTED_ARMOR",
    "skill_used": "tailor",
    "skills_required": [
      [
        "spellcraft",
        6
      ]
    ],
    "difficulty": 7,
    "time": "4 h",
    "book_learn": [
      [
        "magic_armormaking",
        6
      ]
    ],
    "components": [
      [
        [
          "cordage_superior",
          1,
          "LIST"
        ]
      ],
      [
        [
          "demon_chitin_plate",
          1
        ]
      ],
      [
        [
          "demon_chitin_piece",
          1
        ]
      ]
    ],
    "id": "0f3f3316-33fb-46b5-8a33-9bde6bf3f739"
  },
  {
    "result": "armguard_demonchitin",
    "byproducts": [
      [
        "demon_chitin_piece",
        8
      ]
    ],
    "qualities": [
      {
        "id": "CHISEL",
        "level": 1
      },
      {
        "id": "SEW",
        "level": 3
      },
      {
        "id": "LEATHER_AWL",
        "level": 1
      },
      {
        "id": "MANA_INFUSE",
        "level": 2
      }
    ],
    "type": "recipe",
    "category": "CC_ENCHANTED",
    "subcategory": "CSC_ENCHANTED_ARMOR",
    "skill_used": "tailor",
    "skills_required": [
      [
        "spellcraft",
        6
      ]
    ],
    "difficulty": 6,
    "time": "2 h",
    "book_learn": [
      [
        "magic_armormaking",
        5
      ]
    ],
    "components": [
      [
        [
          "cordage_superior",
          1,
          "LIST"
        ]
      ],
      [
        [
          "demon_chitin_plate",
          1
        ]
      ],
      [
        [
          "demon_chitin_piece",
          2
        ]
      ]
    ],
    "id": "b5128577-090f-4262-9595-492c12e6368a"
  },
  {
    "result": "armor_demonchitin",
    "qualities": [
      {
        "id": "CHISEL",
        "level": 1
      },
      {
        "id": "SEW",
        "level": 3
      },
      {
        "id": "LEATHER_AWL",
        "level": 1
      },
      {
        "id": "MANA_INFUSE",
        "level": 2
      }
    ],
    "type": "recipe",
    "category": "CC_ENCHANTED",
    "subcategory": "CSC_ENCHANTED_ARMOR",
    "skill_used": "tailor",
    "skills_required": [
      [
        "spellcraft",
        6
      ]
    ],
    "difficulty": 8,
    "time": "4 h",
    "book_learn": [
      [
        "magic_armormaking",
        7
      ]
    ],
    "components": [
      [
        [
          "cordage_superior",
          1,
          "LIST"
        ]
      ],
      [
        [
          "demon_chitin_plate",
          4
        ]
      ],
      [
        [
          "demon_chitin_piece",
          6
        ]
      ]
    ],
    "id": "3137002f-4c6f-4578-b202-70f1fe7a4470"
  },
  {
    "result": "boots_demonchitin",
    "qualities": [
      {
        "id": "CHISEL",
        "level": 1
      },
      {
        "id": "SEW",
        "level": 3
      },
      {
        "id": "LEATHER_AWL",
        "level": 1
      },
      {
        "id": "MANA_INFUSE",
        "level": 2
      }
    ],
    "type": "recipe",
    "category": "CC_ENCHANTED",
    "subcategory": "CSC_ENCHANTED_ARMOR",
    "skill_used": "tailor",
    "skills_required": [
      [
        "spellcraft",
        6
      ]
    ],
    "difficulty": 5,
    "time": "2 h 40 m",
    "book_learn": [
      [
        "magic_armormaking",
        4
      ]
    ],
    "components": [
      [
        [
          "cordage_superior",
          1,
          "LIST"
        ]
      ],
      [
        [
          "demon_chitin_plate",
          1
        ]
      ],
      [
        [
          "demon_chitin_piece",
          2
        ]
      ]
    ],
    "id": "822632b0-efce-456a-8c30-81c629299f68"
  },
  {
    "result": "gauntlets_demonchitin",
    "qualities": [
      {
        "id": "CHISEL",
        "level": 1
      },
      {
        "id": "SEW",
        "level": 3
      },
      {
        "id": "LEATHER_AWL",
        "level": 1
      },
      {
        "id": "MANA_INFUSE",
        "level": 2
      }
    ],
    "type": "recipe",
    "category": "CC_ENCHANTED",
    "subcategory": "CSC_ENCHANTED_ARMOR",
    "skill_used": "tailor",
    "skills_required": [
      [
        "spellcraft",
        6
      ]
    ],
    "difficulty": 5,
    "time": "2 h",
    "book_learn": [
      [
        "magic_armormaking",
        4
      ]
    ],
    "components": [
      [
        [
          "cordage_superior",
          1,
          "LIST"
        ]
      ],
      [
        [
          "demon_chitin_piece",
          10
        ]
      ]
    ],
    "id": "d4f3fd05-eced-4826-bd3d-e2c07a014ec0"
  },
  {
    "result": "demonchitin_armor_horse",
    "type": "recipe",
    "copy-from": "armor_demonchitin",
    "category": "CC_ANIMALS",
    "subcategory": "CSC_ANIMALS_EQUINE ARMOR",
    "time": "17 h 30 m",
    "book_learn": [
      [
        "textbook_tailor",
        5
      ],
      [
        "tailor_portfolio",
        5
      ]
    ],
    "skills_required": [
      [
        "spellcraft",
        6
      ],
      [
        "fabrication",
        4
      ],
      [
        "survival",
        4
      ]
    ],
    "using": [
      [
        "cordage",
        7
      ]
    ],
    "components": [
      [
        [
          "demon_chitin_plate",
          4
        ]
      ],
      [
        [
          "demon_chitin_piece",
          20
        ]
      ]
    ],
    "id": "ea94c518-976b-4410-99fe-8e284ce43e29"
  },
  {
    "result": "demonchitin_harness_dog",
    "type": "recipe",
    "copy-from": "armor_demonchitin",
    "category": "CC_ANIMALS",
    "subcategory": "CSC_ANIMALS_CANINE ARMOR",
    "skills_required": [
      [
        "spellcraft",
        6
      ],
      [
        "fabrication",
        4
      ],
      [
        "survival",
        4
      ]
    ],
    "time": "5 h",
    "using": [
      [
        "cordage",
        1
      ]
    ],
    "components": [
      [
        [
          "demon_chitin_piece",
          12
        ]
      ]
    ],
    "id": "e6559760-6e2a-46b1-945d-b5f9f1d959b5"
  }
]