[
  {
    "result": "orichalcum_ingot",
    "type": "recipe",
    "category": "CC_OTHER",
    "subcategory": "CSC_MATERIALS",
    "skill_used": "fabrication",
    "difficulty": 5,
    "time": "180 m",
    "batch_time_factors": [
      50,
      2
    ],
    "book_learn": [
      [
        "welding_book",
        4
      ]
    ],
    "tools": [
      [
        [
          "demon_forge",
          15
        ]
      ],
      [
        [
          "tongs",
          -1
        ]
      ]
    ],
    "components": [
      [
        [
          "orichalcum_sliver",
          8
        ],
        [
          "orichalcum_lump",
          2
        ]
      ],
      [
        [
          "mercury",
          100
        ]
      ]
    ],
    "id": "237e182b-9264-49d3-bbb9-45685ade2ffb"
  },
  {
    "result": "orichalcum_ingot",
    "id_suffix": "with_bronze",
    "type": "recipe",
    "category": "CC_OTHER",
    "skill_used": "fabrication",
    "difficulty": 5,
    "time": "180 m",
    "batch_time_factors": [
      50,
      2
    ],
    "book_learn": [
      [
        "welding_book",
        4
      ]
    ],
    "tools": [
      [
        [
          "demon_forge",
          15
        ]
      ],
      [
        [
          "tongs",
          -1
        ]
      ]
    ],
    "components": [
      [
        [
          "scrap_bronze",
          9
        ]
      ],
      [
        [
          "mercury",
          400
        ]
      ]
    ],
    "id": "0436ff36-7f09-4a56-bc40-ee0b4c17898f"
  },
  {
    "type": "recipe",
    "result": "fireproof_mortar",
    "category": "CC_OTHER",
    "subcategory": "CSC_OTHER_OTHER",
    "skill_used": "fabrication",
    "difficulty": 2,
    "time": "20 m",
    "book_learn": [
      [
        "metal_legends",
        2
      ]
    ],
    "qualities": [
      {
        "id": "MANA_INFUSE",
        "level": 1
      }
    ],
    "tools": [
      [
        [
          "con_mix",
          50
        ]
      ],
      [
        [
          "rock_quern",
          -1
        ],
        [
          "clay_quern",
          -1
        ],
        [
          "mortar_pestle",
          -1
        ]
      ]
    ],
    "components": [
      [
        [
          "material_cement",
          50
        ]
      ],
      [
        [
          "material_sand",
          150
        ]
      ],
      [
        [
          "demon_chitin_piece",
          10
        ]
      ]
    ],
    "id": "59a59dc8-e8de-40c1-af0b-4006a986516b"
  },
  {
    "type": "recipe",
    "result": "alumentum",
    "category": "CC_OTHER",
    "subcategory": "CSC_OTHER_OTHER",
    "skill_used": "spellcraft",
    "difficulty": 3,
    "time": "16 m",
    "autolearn": true,
    "qualities": [
      {
        "id": "MANA_INFUSE",
        "level": 1
      },
      {
        "id": "COOK",
        "level": 3
      },
      {
        "id": "DISTILL",
        "level": 1
      }
    ],
    "tools": [
      [
        [
          "surface_heat",
          10,
          "LIST"
        ]
      ]
    ],
    "components": [
      [
        [
          "charcoal",
          50
        ]
      ],
      [
        [
          "crystallized_mana",
          10
        ]
      ],
      [
        [
          "denat_alcohol",
          10
        ]
      ]
    ],
    "id": "13dce075-8582-42c9-89f1-d59c23622b2e"
  }
]