[
  {
    "result": "broken_claygolem",
    "type": "uncraft",
    "skill_used": "spellcraft",
    "difficulty": 2,
    "time": "4 h",
    "qualities": [
      {
        "id": "HAMMER",
        "level": 1
      }
    ],
    "components": [
      [
        [
          "clay_lump",
          231
        ]
      ]
    ],
    "id": "31a04787-a32c-404a-9144-1315a2420fd4"
  },
  {
    "result": "broken_stonegolem",
    "type": "uncraft",
    "skill_used": "spellcraft",
    "difficulty": 4,
    "time": "4 h",
    "qualities": [
      {
        "id": "HAMMER",
        "level": 1
      }
    ],
    "components": [
      [
        [
          "rock",
          222
        ]
      ],
      [
        [
          "sharp_rock",
          33
        ]
      ]
    ],
    "id": "85d9c75c-d0ef-488a-8729-92cace3b598c"
  },
  {
    "result": "broken_irongolem",
    "type": "uncraft",
    "skill_used": "spellcraft",
    "difficulty": 6,
    "time": "6 h",
    "qualities": [
      {
        "id": "HAMMER",
        "level": 1
      },
      {
        "id": "SAW_M",
        "level": 1
      }
    ],
    "components": [
      [
        [
          "scrap",
          800
        ]
      ],
      [
        [
          "steel_lump",
          200
        ]
      ]
    ],
    "id": "469b371a-fed0-4c56-87bc-fba27834ad2e"
  }
]