[
  {
    "type": "recipe",
    "result": "potion_starter",
    "category": "CC_ENCHANTED",
    "subcategory": "CSC_ENCHANTED_POTIONS",
    "skill_used": "cooking",
    "skills_required": [
      "spellcraft",
      2
    ],
    "difficulty": 3,
    "charges": 7,
    "time": "120 m",
    "batch_time_factors": [
      75,
      4
    ],
    "book_learn": [
      [
        "alchemy_basic",
        3
      ],
      [
        "necro_basic",
        4
      ]
    ],
    "qualities": [
      {
        "id": "CHEM",
        "level": 1
      },
      {
        "id": "CONCENTRATE",
        "level": 1
      },
      {
        "id": "MANA_INFUSE",
        "level": 1
      }
    ],
    "tools": [
      [
        [
          "surface_heat",
          10,
          "LIST"
        ]
      ]
    ],
    "using": [
      [
        "hard_liquor",
        7
      ]
    ],
    "id": "b5e18dea-b961-4d93-b3d4-239ba4c0a602"
  },
  {
    "type": "recipe",
    "result": "potion_starter_superior",
    "category": "CC_ENCHANTED",
    "subcategory": "CSC_ENCHANTED_POTIONS",
    "skill_used": "cooking",
    "skills_required": [
      "spellcraft",
      4
    ],
    "difficulty": 4,
    "charges": 7,
    "time": "120 m",
    "batch_time_factors": [
      75,
      4
    ],
    "book_learn": [
      [
        "alchemy_basic",
        3
      ],
      [
        "necro_basic",
        4
      ]
    ],
    "qualities": [
      {
        "id": "CHEM",
        "level": 1
      },
      {
        "id": "CONCENTRATE",
        "level": 1
      },
      {
        "id": "MANA_INFUSE",
        "level": 1
      }
    ],
    "tools": [
      [
        [
          "surface_heat",
          10,
          "LIST"
        ]
      ]
    ],
    "components": [
      [
        [
          "chem_ethanol",
          7
        ]
      ],
      [
        [
          "alumentum",
          1
        ]
      ]
    ],
    "id": "72d4ba1d-57a1-408c-a304-4338bc9beed1"
  },
  {
    "type": "recipe",
    "result": "mana_potion_lesser",
    "qualities": [
      {
        "id": "CONTAIN",
        "level": 1
      },
      {
        "id": "MANA_INFUSE",
        "level": 1
      }
    ],
    "tools": [
      [
        [
          "surface_heat",
          10,
          "LIST"
        ]
      ],
      [
        [
          "rune_alchemist",
          -1
        ]
      ]
    ],
    "components": [
      [
        [
          "lotus",
          1
        ]
      ],
      [
        [
          "potion_starter",
          1
        ]
      ]
    ],
    "time": "1 h",
    "batch_time_factors": [
      75,
      4
    ],
    "skill_used": "cooking",
    "difficulty": 3,
    "skills_required": [
      "spellcraft",
      3
    ],
    "category": "CC_ENCHANTED",
    "subcategory": "CSC_ENCHANTED_OTHER",
    "autolearn": true,
    "id": "611bf4be-953e-4803-8388-162b4a16aedd"
  },
  {
    "type": "recipe",
    "result": "mana_potion",
    "qualities": [
      {
        "id": "CONTAIN",
        "level": 1
      },
      {
        "id": "MANA_INFUSE",
        "level": 1
      }
    ],
    "tools": [
      [
        [
          "surface_heat",
          10,
          "LIST"
        ]
      ],
      [
        [
          "rune_alchemist",
          -1
        ]
      ]
    ],
    "components": [
      [
        [
          "mana_dust",
          1
        ]
      ],
      [
        [
          "lotus",
          1
        ]
      ],
      [
        [
          "potion_starter",
          1
        ]
      ]
    ],
    "time": "3 h",
    "batch_time_factors": [
      75,
      4
    ],
    "skill_used": "cooking",
    "difficulty": 4,
    "skills_required": [
      "spellcraft",
      4
    ],
    "category": "CC_ENCHANTED",
    "subcategory": "CSC_ENCHANTED_OTHER",
    "autolearn": true,
    "id": "b9514914-2f70-4efd-825e-180d2d5c0b04"
  },
  {
    "type": "recipe",
    "result": "mana_potion_greater",
    "qualities": [
      {
        "id": "CONTAIN",
        "level": 1
      },
      {
        "id": "MANA_INFUSE",
        "level": 2
      }
    ],
    "tools": [
      [
        [
          "surface_heat",
          10,
          "LIST"
        ]
      ],
      [
        [
          "rune_alchemist",
          -1
        ]
      ]
    ],
    "components": [
      [
        [
          "glow_dust",
          1
        ]
      ],
      [
        [
          "lotus",
          1
        ]
      ],
      [
        [
          "potion_starter_superior",
          1
        ]
      ]
    ],
    "time": "4 h",
    "batch_time_factors": [
      75,
      4
    ],
    "skill_used": "cooking",
    "difficulty": 5,
    "skills_required": [
      "spellcraft",
      5
    ],
    "category": "CC_ENCHANTED",
    "subcategory": "CSC_ENCHANTED_OTHER",
    "autolearn": true,
    "id": "caf395b8-125c-4b80-b019-1fb39c8dc547"
  },
  {
    "type": "recipe",
    "result": "manatouched_serum",
    "qualities": [
      {
        "id": "MAGIC_MUTAGEN",
        "level": 2
      },
      {
        "id": "MANA_INFUSE",
        "level": 2
      },
      {
        "id": "CONCENTRATE",
        "level": 1
      }
    ],
    "components": [
      [
        [
          "mana_dust",
          20
        ]
      ],
      [
        [
          "mana_potion",
          4
        ],
        [
          "mana_potion_greater",
          1
        ],
        [
          "mana_infused_blood",
          6
        ]
      ]
    ],
    "skill_used": "cooking",
    "difficulty": 4,
    "skills_required": [
      "spellcraft",
      6
    ],
    "time": "4 h",
    "batch_time_factors": [
      80,
      5
    ],
    "category": "CC_ENCHANTED",
    "subcategory": "CSC_ENCHANTED_OTHER",
    "autolearn": true,
    "id": "1ee27a7c-84ca-459b-8974-431d5034e714"
  },
  {
    "type": "recipe",
    "result": "cats_grace_potion",
    "category": "CC_ENCHANTED",
    "subcategory": "CSC_ENCHANTED_POTIONS",
    "skill_used": "cooking",
    "skills_required": [
      "spellcraft",
      5
    ],
    "difficulty": 5,
    "time": "60 m",
    "batch_time_factors": [
      50,
      4
    ],
    "book_learn": [
      [
        "alchemy_basic",
        4
      ]
    ],
    "qualities": [
      {
        "id": "CHEM",
        "level": 2
      },
      {
        "id": "CONCENTRATE",
        "level": 1
      },
      {
        "id": "MANA_FOCUS",
        "level": 1
      }
    ],
    "tools": [
      [
        [
          "surface_heat",
          10,
          "LIST"
        ]
      ],
      [
        [
          "rune_alchemist",
          -1
        ],
        [
          "rune_magus",
          -1
        ],
        [
          "rune_magus_weapon",
          -1
        ]
      ]
    ],
    "components": [
      [
        [
          "potion_starter",
          5
        ]
      ],
      [
        [
          "hairball",
          2
        ]
      ],
      [
        [
          "catfood",
          1
        ],
        [
          "fish",
          1
        ],
        [
          "salted_fish",
          1
        ],
        [
          "fish_cooked",
          1
        ],
        [
          "fish_smoked",
          1
        ],
        [
          "dry_fish",
          1
        ],
        [
          "rehydrated_fish",
          1
        ],
        [
          "fish_canned",
          1
        ],
        [
          "fish_pickled",
          1
        ],
        [
          "fish_fried",
          1
        ],
        [
          "lutefisk",
          1
        ]
      ],
      [
        [
          "adderall",
          10
        ],
        [
          "meth",
          6
        ],
        [
          "prozac",
          15
        ]
      ]
    ],
    "id": "fda4ac32-9c1b-429a-81b3-ec15ccbff948"
  },
  {
    "type": "recipe",
    "result": "ogres_strength_potion",
    "category": "CC_ENCHANTED",
    "subcategory": "CSC_ENCHANTED_POTIONS",
    "skill_used": "cooking",
    "skills_required": [
      "spellcraft",
      5
    ],
    "difficulty": 5,
    "time": "60 m",
    "batch_time_factors": [
      50,
      4
    ],
    "book_learn": [
      [
        "alchemy_basic",
        4
      ]
    ],
    "qualities": [
      {
        "id": "CHEM",
        "level": 2
      },
      {
        "id": "CONCENTRATE",
        "level": 1
      },
      {
        "id": "MANA_FOCUS",
        "level": 1
      }
    ],
    "tools": [
      [
        [
          "surface_heat",
          10,
          "LIST"
        ]
      ],
      [
        [
          "rune_alchemist",
          -1
        ],
        [
          "rune_magus",
          -1
        ],
        [
          "rune_magus_weapon",
          -1
        ]
      ]
    ],
    "components": [
      [
        [
          "potion_starter",
          5
        ]
      ],
      [
        [
          "sinew",
          40
        ]
      ],
      [
        [
          "adrenal_gland_large",
          2
        ]
      ]
    ],
    "id": "b8c8875b-575b-4498-9e2a-442ad15af280"
  },
  {
    "type": "recipe",
    "result": "eagles_sight_potion",
    "category": "CC_ENCHANTED",
    "subcategory": "CSC_ENCHANTED_POTIONS",
    "skill_used": "cooking",
    "skills_required": [
      "spellcraft",
      5
    ],
    "difficulty": 5,
    "time": "60 m",
    "batch_time_factors": [
      50,
      4
    ],
    "book_learn": [
      [
        "alchemy_basic",
        4
      ]
    ],
    "qualities": [
      {
        "id": "CHEM",
        "level": 2
      },
      {
        "id": "CONCENTRATE",
        "level": 1
      },
      {
        "id": "MANA_FOCUS",
        "level": 1
      }
    ],
    "tools": [
      [
        [
          "surface_heat",
          10,
          "LIST"
        ]
      ],
      [
        [
          "rune_alchemist",
          -1
        ],
        [
          "rune_magus",
          -1
        ],
        [
          "rune_magus_weapon",
          -1
        ]
      ]
    ],
    "components": [
      [
        [
          "potion_starter",
          5
        ]
      ],
      [
        [
          "egg_bird",
          5
        ],
        [
          "egg_bird_unfert",
          5
        ],
        [
          "egg_grouse",
          5
        ],
        [
          "egg_duck",
          3
        ],
        [
          "egg_crow",
          5
        ],
        [
          "egg_chicken",
          5
        ],
        [
          "egg_pheasant",
          5
        ],
        [
          "egg_cockatrice",
          5
        ],
        [
          "egg_turkey",
          3
        ],
        [
          "egg_goose_canadian",
          2
        ]
      ],
      [
        [
          "feather",
          20
        ],
        [
          "down_feather",
          20
        ]
      ],
      [
        [
          "liver",
          3
        ],
        [
          "veggy_canned",
          3
        ],
        [
          "veggy_salted",
          5
        ],
        [
          "carrot",
          3
        ],
        [
          "irradiated_carrot",
          3
        ],
        [
          "pumpkin",
          4
        ],
        [
          "irradiated_pumpkin",
          4
        ],
        [
          "raw_dandelion",
          6
        ],
        [
          "zucchini",
          4
        ],
        [
          "irradiated_zucchini",
          4
        ],
        [
          "rose_hips",
          6
        ]
      ]
    ],
    "id": "f7419e16-8697-4e23-8554-1ffc1f74534a"
  },
  {
    "type": "recipe",
    "result": "foxs_cunning_potion",
    "category": "CC_ENCHANTED",
    "subcategory": "CSC_ENCHANTED_POTIONS",
    "skill_used": "cooking",
    "skills_required": [
      "spellcraft",
      5
    ],
    "difficulty": 5,
    "time": "60 m",
    "batch_time_factors": [
      50,
      4
    ],
    "book_learn": [
      [
        "alchemy_basic",
        4
      ]
    ],
    "qualities": [
      {
        "id": "CHEM",
        "level": 2
      },
      {
        "id": "CONCENTRATE",
        "level": 1
      },
      {
        "id": "MANA_FOCUS",
        "level": 1
      }
    ],
    "tools": [
      [
        [
          "surface_heat",
          10,
          "LIST"
        ]
      ],
      [
        [
          "rune_alchemist",
          -1
        ],
        [
          "rune_magus",
          -1
        ],
        [
          "rune_magus_weapon",
          -1
        ]
      ]
    ],
    "components": [
      [
        [
          "potion_starter",
          5
        ]
      ],
      [
        [
          "brain",
          2
        ],
        [
          "brain_cooked",
          2
        ]
      ],
      [
        [
          "adderall",
          10
        ],
        [
          "caff_gum",
          30
        ],
        [
          "chaw",
          10
        ],
        [
          "cig",
          20
        ],
        [
          "cigar",
          5
        ],
        [
          "handrolled_cig",
          20
        ]
      ]
    ],
    "id": "8ee2b1ad-9798-4b0e-8e22-b7c65bc435f5"
  },
  {
    "type": "recipe",
    "result": "twisted_restore_potion",
    "category": "CC_ENCHANTED",
    "subcategory": "CSC_ENCHANTED_POTIONS",
    "skill_used": "cooking",
    "skills_required": [
      "spellcraft",
      4
    ],
    "difficulty": 4,
    "time": "60 m",
    "result_mult": 5,
    "batch_time_factors": [
      50,
      4
    ],
    "book_learn": [
      [
        "necro_basic",
        3
      ]
    ],
    "qualities": [
      {
        "id": "CHEM",
        "level": 2
      },
      {
        "id": "CONCENTRATE",
        "level": 1
      },
      {
        "id": "MANA_FOCUS",
        "level": 1
      }
    ],
    "tools": [
      [
        [
          "surface_heat",
          10,
          "LIST"
        ]
      ],
      [
        [
          "rune_alchemist",
          -1
        ],
        [
          "rune_animist",
          -1
        ],
        [
          "rune_animist_weapon",
          -1
        ]
      ]
    ],
    "components": [
      [
        [
          "potion_starter",
          5
        ]
      ],
      [
        [
          "blood",
          3
        ]
      ],
      [
        [
          "slime_scrap",
          4
        ],
        [
          "meat_tainted",
          12
        ]
      ]
    ],
    "id": "e8c91481-91d4-4636-a470-83c31d55102c"
  },
  {
    "type": "recipe",
    "result": "twisted_restore_potion_improved",
    "category": "CC_ENCHANTED",
    "subcategory": "CSC_ENCHANTED_POTIONS",
    "skill_used": "cooking",
    "skills_required": [
      "spellcraft",
      6
    ],
    "difficulty": 6,
    "time": "60 m",
    "result_mult": 5,
    "batch_time_factors": [
      50,
      4
    ],
    "book_learn": [
      [
        "necro_basic",
        5
      ]
    ],
    "qualities": [
      {
        "id": "CHEM",
        "level": 2
      },
      {
        "id": "CONCENTRATE",
        "level": 1
      },
      {
        "id": "MANA_FOCUS",
        "level": 1
      }
    ],
    "tools": [
      [
        [
          "surface_heat",
          10,
          "LIST"
        ]
      ],
      [
        [
          "rune_animist",
          -1
        ],
        [
          "rune_animist_weapon",
          -1
        ]
      ]
    ],
    "components": [
      [
        [
          "potion_starter",
          5
        ]
      ],
      [
        [
          "blood",
          5
        ]
      ],
      [
        [
          "slime_scrap",
          5
        ],
        [
          "meat_tainted",
          15
        ]
      ],
      [
        [
          "bandages",
          5
        ],
        [
          "bandages_makeshift_bleached",
          7
        ],
        [
          "bandages_makeshift_boiled",
          7
        ]
      ]
    ],
    "id": "ca82737d-5fbf-422b-b4c4-0781d710070b"
  }
]