[
  {
    "type": "mapgen",
    "method": "json",
    "om_terrain": [
      "house_39"
    ],
    "object": {
      "fill_ter": "t_floor",
      "rows": [
        "dddeeeedddddddDDDdBBBBdd",
        "ddQeeeedazzzaaDDDaaccaad",
        "daaPPPPaaDDDDDDDDaH   ad",
        "daQDDDDDaDDDDDDDDaH  pad",
        "daDDDDDDaaaaaacbca  GGad",
        "daDDDDDDa   aA   a  GGad",
        "daDDDDDDaqq     pa   pad",
        "daDDDDDDapp     pabaaaad",
        "daDDDDDDaqq        allad",
        "daDDDDDDa   au     bhhcd",
        "daDDDDDDaaa au     ajkad",
        "dawwDDDDamhhau   abaaaad",
        "daaaaaabaihhatt  a  uuad",
        "dalhkaIhamhh    pa    ad",
        "dalhjaJhajhh    ta    ad",
        "dahhmaa ahhh    ta GG ad",
        "daabaaO  hhha   papGGHad",
        "da   aabavNvaaFFaaaccaad",
        "daN  aH acccaeeeeezddddd",
        "daGG    aeeeeeeeeezddddd",
        "daGG    beeeeeeeeezddddd",
        "daN  u  azzzzzeezzzddddd",
        "daacaacaaddddddddddddddd",
        "dddddddddddddddddddddddd"
      ],
      "terrain": {
        "a": "t_wall",
        "b": "t_door_locked",
        "c": "t_window_domestic",
        "d": [
          "t_grass",
          "t_grass",
          "t_grass",
          "t_dirt"
        ],
        "e": "t_sidewalk",
        "f": [
          "t_tree",
          "t_tree_pine",
          "t_tree_pear",
          "t_tree_plum",
          "t_tree_cherry",
          "t_tree_maple",
          "t_tree_birch",
          "t_tree_apple",
          "t_tree_willow",
          "t_tree_hickory",
          "t_tree_young"
        ],
        "g": "t_sidewalk",
        "h": "t_linoleum_gray",
        "i": "t_linoleum_gray",
        "j": "t_linoleum_gray",
        "k": "t_linoleum_gray",
        "l": "t_linoleum_gray",
        "m": "t_linoleum_gray",
        "n": "t_linoleum_gray",
        "o": "t_linoleum_gray",
        "p": "t_floor",
        "q": "t_floor",
        "r": "t_floor",
        "s": "t_floor",
        "t": "t_floor",
        "u": "t_floor",
        "A": "t_floor",
        "B": [
          "t_shrub",
          "t_shrub",
          "t_shrub_strawberry",
          "t_shrub_blueberry"
        ],
        "C": "t_fence_v",
        "D": "t_concrete_floor",
        "E": "t_wall_glass",
        "F": "t_door_glass_c",
        "G": "t_floor",
        "H": "t_floor",
        "I": "t_linoleum_gray",
        "J": "t_linoleum_gray",
        "K": "t_rock_floor",
        "L": "t_rock_floor",
        "M": "t_rock",
        "N": "t_linoleum_gray",
        "O": "t_linoleum_gray",
        "P": "t_door_metal_locked",
        "Q": "t_gates_mech_control",
        "R": "t_linoleum_gray",
        "v": "t_linoleum_gray",
        "w": "t_concrete_floor",
        "z": "t_railing_h"
      },
      "furniture": {
        "g": "f_dumpster",
        "i": "f_oven",
        "j": "f_sink",
        "l": "f_bathtub",
        "m": "f_counter",
        "n": "f_fridge",
        "o": "f_cupboard",
        "p": "f_table",
        "q": "f_chair",
        "r": "f_trashcan",
        "s": "f_locker",
        "t": "f_sofa",
        "u": "f_bookcase",
        "A": "f_indoor_plant",
        "G": "f_bed",
        "H": "f_dresser",
        "I": "f_washer",
        "J": "f_dryer",
        "K": "f_fireplace",
        "N": "f_table",
        "O": "f_locker",
        "R": "f_rack",
        "v": "f_chair",
        "w": "f_locker"
      },
      "toilets": {
        "k": {}
      },
      "place_loot": [
        {
          "group": "tools_home",
          "chance": 60,
          "repeat": [
            5
          ],
          "x": [
            2,
            2
          ],
          "y": [
            11,
            11
          ]
        },
        {
          "group": "camping",
          "chance": 80,
          "repeat": [
            2
          ],
          "x": [
            3,
            3
          ],
          "y": [
            11,
            11
          ]
        },
        {
          "group": "softdrugs",
          "chance": 80,
          "repeat": [
            2
          ],
          "x": [
            4,
            4
          ],
          "y": [
            14,
            14
          ]
        },
        {
          "group": "cleaning",
          "chance": 80,
          "repeat": [
            2
          ],
          "x": [
            4,
            4
          ],
          "y": [
            15,
            15
          ]
        },
        {
          "group": "cleaning_bulk",
          "chance": 80,
          "repeat": [
            2
          ],
          "x": [
            6,
            6
          ],
          "y": [
            16,
            16
          ]
        },
        {
          "group": "dresser",
          "chance": 80,
          "repeat": [
            4
          ],
          "x": [
            6,
            6
          ],
          "y": [
            13,
            13
          ]
        },
        {
          "group": "dresser",
          "chance": 80,
          "repeat": [
            4
          ],
          "x": [
            6,
            6
          ],
          "y": [
            14,
            14
          ]
        },
        {
          "group": "dresser",
          "chance": 80,
          "repeat": [
            4
          ],
          "x": [
            6,
            6
          ],
          "y": [
            18,
            18
          ]
        },
        {
          "group": "dresser",
          "chance": 80,
          "repeat": [
            4
          ],
          "x": [
            21,
            21
          ],
          "y": [
            16,
            16
          ]
        },
        {
          "group": "dresser",
          "chance": 80,
          "repeat": [
            4
          ],
          "x": [
            18,
            18
          ],
          "y": [
            3,
            3
          ]
        },
        {
          "group": "dresser",
          "chance": 80,
          "repeat": [
            4
          ],
          "x": [
            18,
            18
          ],
          "y": [
            2,
            2
          ]
        },
        {
          "group": "bed",
          "chance": 60,
          "repeat": [
            4
          ],
          "x": [
            20,
            21
          ],
          "y": [
            4,
            5
          ]
        },
        {
          "group": "bed",
          "chance": 60,
          "repeat": [
            4
          ],
          "x": [
            19,
            20
          ],
          "y": [
            15,
            16
          ]
        },
        {
          "group": "bed",
          "chance": 60,
          "repeat": [
            4
          ],
          "x": [
            2,
            3
          ],
          "y": [
            19,
            20
          ]
        },
        {
          "group": "bedroom",
          "chance": 60,
          "repeat": [
            2
          ],
          "x": [
            21,
            21
          ],
          "y": [
            6,
            6
          ]
        },
        {
          "group": "bedroom",
          "chance": 60,
          "repeat": [
            2
          ],
          "x": [
            21,
            21
          ],
          "y": [
            3,
            3
          ]
        },
        {
          "group": "bedroom",
          "chance": 60,
          "repeat": [
            2
          ],
          "x": [
            18,
            18
          ],
          "y": [
            16,
            16
          ]
        },
        {
          "group": "bedroom",
          "chance": 60,
          "repeat": [
            2
          ],
          "x": [
            2,
            2
          ],
          "y": [
            21,
            21
          ]
        },
        {
          "group": "bedroom",
          "chance": 60,
          "repeat": [
            2
          ],
          "x": [
            2,
            2
          ],
          "y": [
            18,
            18
          ]
        },
        {
          "group": "homebooks",
          "chance": 60,
          "repeat": [
            2
          ],
          "x": [
            5,
            5
          ],
          "y": [
            21,
            21
          ]
        },
        {
          "group": "homebooks",
          "chance": 60,
          "repeat": [
            2
          ],
          "x": [
            20,
            21
          ],
          "y": [
            12,
            12
          ]
        },
        {
          "group": "homebooks",
          "chance": 60,
          "repeat": [
            4
          ],
          "x": [
            13,
            13
          ],
          "y": [
            11,
            10
          ]
        },
        {
          "group": "textbooks",
          "chance": 60,
          "repeat": [
            2
          ],
          "x": [
            13,
            13
          ],
          "y": [
            9,
            9
          ]
        },
        {
          "group": "livingroom",
          "chance": 30,
          "repeat": [
            2
          ],
          "x": [
            16,
            16
          ],
          "y": [
            14,
            15
          ]
        },
        {
          "group": "table_livingroom",
          "chance": 60,
          "repeat": [
            2
          ],
          "x": [
            16,
            16
          ],
          "y": [
            6,
            7
          ]
        },
        {
          "group": "table_livingroom",
          "chance": 60,
          "repeat": [
            2
          ],
          "x": [
            16,
            16
          ],
          "y": [
            13,
            13
          ]
        },
        {
          "group": "table_livingroom",
          "chance": 60,
          "repeat": [
            2
          ],
          "x": [
            16,
            16
          ],
          "y": [
            16,
            16
          ]
        },
        {
          "group": "dining",
          "chance": 80,
          "repeat": [
            2
          ],
          "x": [
            9,
            10
          ],
          "y": [
            7,
            7
          ]
        },
        {
          "group": "dining",
          "chance": 80,
          "repeat": [
            1
          ],
          "x": [
            10,
            10
          ],
          "y": [
            17,
            17
          ]
        },
        {
          "group": "softdrugs",
          "chance": 80,
          "repeat": [
            2
          ],
          "x": [
            20,
            20
          ],
          "y": [
            10,
            10
          ]
        },
        {
          "group": "livingroom",
          "chance": 60,
          "repeat": [
            2
          ],
          "x": [
            13,
            14
          ],
          "y": [
            12,
            12
          ]
        },
        {
          "group": "livingroom",
          "chance": 60,
          "repeat": [
            2
          ],
          "x": [
            13,
            16
          ],
          "y": [
            16,
            5
          ]
        },
        {
          "group": "livingroom",
          "chance": 60,
          "repeat": [
            4
          ],
          "x": [
            11,
            9
          ],
          "y": [
            5,
            9
          ]
        },
        {
          "group": "bedroom",
          "chance": 60,
          "repeat": [
            2
          ],
          "x": [
            7,
            2
          ],
          "y": [
            21,
            19
          ]
        },
        {
          "group": "bedroom",
          "chance": 60,
          "repeat": [
            2
          ],
          "x": [
            18,
            21
          ],
          "y": [
            6,
            2
          ]
        },
        {
          "group": "bedroom",
          "chance": 60,
          "repeat": [
            1
          ],
          "x": [
            4,
            2
          ],
          "y": [
            18,
            17
          ]
        }
      ]
    },
    "id": "fe1ff306-21f4-43dd-bd1a-ca63eb471d50"
  }
]