[
  {
    "type": "recipe",
    "result": "mjolnir_replica",
    "category": "CC_WEAPON",
    "subcategory": "CSC_WEAPON_BASHING",
    "skill_used": "fabrication",
    "difficulty": 9,
    "time": 480000,
    "book_learn": [
      [
        "book_asgard",
        10
      ]
    ],
    "using": [
      [
        "forging_standard",
        3
      ]
    ],
    "qualities": [
      {
        "id": "HAMMER",
        "level": 3
      },
      {
        "id": "CHISEL",
        "level": 3
      }
    ],
    "tools": [
      [
        [
          "tongs",
          -1
        ]
      ],
      [
        [
          "anvil",
          -1
        ]
      ],
      [
        [
          "swage",
          -1
        ]
      ]
    ],
    "components": [
      [
        [
          "warhammer",
          1
        ]
      ],
      [
        [
          "gold_small",
          1
        ]
      ],
      [
        [
          "silver_small",
          2
        ]
      ],
      [
        [
          "rebar",
          1
        ]
      ]
    ],
    "id": "f28e7037-f87d-4b9b-ac8b-b7949c56ace0"
  },
  {
    "type": "recipe",
    "result": "gungnir_replica",
    "category": "CC_WEAPON",
    "subcategory": "CSC_WEAPON_PIERCING",
    "skill_used": "fabrication",
    "difficulty": 9,
    "time": 480000,
    "book_learn": [
      [
        "book_asgard",
        10
      ]
    ],
    "using": [
      [
        "forging_standard",
        3
      ]
    ],
    "qualities": [
      {
        "id": "HAMMER",
        "level": 3
      },
      {
        "id": "CHISEL",
        "level": 3
      }
    ],
    "tools": [
      [
        [
          "tongs",
          -1
        ]
      ],
      [
        [
          "anvil",
          -1
        ]
      ],
      [
        [
          "swage",
          -1
        ]
      ]
    ],
    "components": [
      [
        [
          "spear_steel",
          1
        ]
      ],
      [
        [
          "gold_small",
          1
        ]
      ],
      [
        [
          "silver_small",
          2
        ]
      ]
    ],
    "id": "fa5d4d52-4957-4793-b4ba-4eee02ebfe3c"
  },
  {
    "type": "recipe",
    "result": "ichaival_replica",
    "category": "CC_WEAPON",
    "subcategory": "CSC_WEAPON_RANGED",
    "skill_used": "fabrication",
    "difficulty": 9,
    "time": 480000,
    "book_learn": [
      [
        "book_asgard",
        10
      ]
    ],
    "using": [
      [
        "forging_standard",
        3
      ]
    ],
    "qualities": [
      {
        "id": "HAMMER",
        "level": 3
      },
      {
        "id": "CHISEL",
        "level": 3
      }
    ],
    "tools": [
      [
        [
          "tongs",
          -1
        ]
      ],
      [
        [
          "anvil",
          -1
        ]
      ],
      [
        [
          "swage",
          -1
        ]
      ]
    ],
    "components": [
      [
        [
          "compositebow",
          1
        ]
      ],
      [
        [
          "gold_small",
          1
        ]
      ],
      [
        [
          "silver_small",
          2
        ]
      ]
    ],
    "id": "8cbb30e4-b706-4f12-9a92-4c533db245f0"
  },
  {
    "type": "recipe",
    "result": "laevateinn_replica",
    "category": "CC_WEAPON",
    "subcategory": "CSC_WEAPON_CUTTING",
    "skill_used": "fabrication",
    "difficulty": 9,
    "time": 480000,
    "book_learn": [
      [
        "book_asgard",
        10
      ]
    ],
    "using": [
      [
        "forging_standard",
        3
      ]
    ],
    "qualities": [
      {
        "id": "HAMMER",
        "level": 3
      },
      {
        "id": "CHISEL",
        "level": 3
      }
    ],
    "tools": [
      [
        [
          "tongs",
          -1
        ]
      ],
      [
        [
          "anvil",
          -1
        ]
      ],
      [
        [
          "swage",
          -1
        ]
      ]
    ],
    "components": [
      [
        [
          "arming_sword",
          1
        ]
      ],
      [
        [
          "gold_small",
          1
        ]
      ],
      [
        [
          "silver_small",
          2
        ]
      ]
    ],
    "id": "37a7dc78-517a-4e6d-ba1b-e8311a72015d"
  }
]