[
  {
    "type": "region_overlay",
    "regions": [
      "all"
    ],
    "city": {
      "houses": {
        "s_apt": 40,
        "s_apt_2": 40,
        "house_33": 50,
        "house_34": 50,
        "house_35": 50,
        "house_36": 50,
        "house_37": 50,
        "house_38": 50,
        "house_39": 50,
        "house_40": 50,
        "house_41": 50,
        "house_42": 50
      },
      "shops": {
        "s_gunstore": 500,
        "s_diner": 400,
        "s_apt": 400,
        "s_apt_2": 400,
        "s_cardealer": 200,
        "s_camping": 100,
        "s_games": 100,
        "s_electronicstore": 400
      }
    },
    "id": "964b70ce-22d7-4f69-a3aa-0da6b22ed30a"
  }
]