[
  {
    "type": "mapgen",
    "method": "json",
    "om_terrain": [
      "s_apt"
    ],
    "object": {
      "fill_ter": "t_floor",
      "rows": [
        "--w----w--W+W--w----w-- ",
        "-dBBd-FFt-...-t..-d...- ",
        "w.BB.+..3-.<.-3..+..BBw ",
        "-....-..O-...-O.A-....- ",
        "------..e-...-e.t------ ",
        " wwii+...D...D...+iiww  ",
        " -wTS-hth-...-...-STw-  ",
        "----------...---------- ",
        "-...d-..t-...-th.-..B.- ",
        "w.B..+..3-...-3..+..B.w ",
        "-.B..-F.O-...-O..-d...- ",
        "------F.e-...-e..------ ",
        " wwii+...D...D...+iiww  ",
        " -wTS-hth-...-tFF-STw-  ",
        "----------...---------- ",
        "-ii-ii-ii-...-t..-...d- ",
        "-fg-fg-fg-...-3..+..BBw ",
        "-iiiiiiii-...-O.t-...d- ",
        "-iiiiiiii-...-e.h------ ",
        "-fg-fg-iiD.<.D...+iiww  ",
        "-ii-ii-gf-...-FFA-STw-  ",
        "----------...--w------  ",
        "         -W+W-          ",
        "                        "
      ],
      "palettes": [
        "apartment_palette"
      ],
      "terrain": {
        "4": "t_linoleum_white",
        "5": "t_linoleum_white"
      },
      "furniture": {
        "4": "f_washer",
        "5": "f_dryer"
      },
      "place_loot": [
        {
          "group": "allclothes",
          "chance": 50,
          "repeat": [
            5
          ],
          "x": [
            7,
            8
          ],
          "y": [
            20,
            20
          ]
        },
        {
          "group": "tools_home",
          "chance": 50,
          "repeat": [
            1
          ],
          "x": [
            5,
            4
          ],
          "y": [
            15,
            15
          ]
        },
        {
          "group": "tools_home",
          "chance": 50,
          "repeat": [
            1
          ],
          "x": [
            2,
            1
          ],
          "y": [
            15,
            15
          ]
        },
        {
          "group": "tools_home",
          "chance": 50,
          "repeat": [
            1
          ],
          "x": [
            2,
            1
          ],
          "y": [
            20,
            20
          ]
        },
        {
          "group": "tools_home",
          "chance": 50,
          "repeat": [
            1
          ],
          "x": [
            4,
            5
          ],
          "y": [
            20,
            20
          ]
        }
      ]
    },
    "id": "2786da07-4777-49f7-b3cc-ad7934a99b8b"
  },
  {
    "type": "mapgen",
    "method": "json",
    "om_terrain": [
      "s_apt_2ndfloor"
    ],
    "object": {
      "fill_ter": "t_floor",
      "rows": [
        "--w----w--W-W--w----w--*",
        "-dB.d-..t-...-t..-....-*",
        "w.B..+..3-.>.-3..+..BBw*",
        "-...d-A.O-...-O.h-...d-*",
        "------..e-...-e.t------*",
        "*wwii+...D...D...+iiww**",
        "*-wTS-AtA-...-...-STw-**",
        "----------...----------*",
        "-...d-..t-...-AtA-..B.-*",
        "w.B..+..3-...-3..+..B.w*",
        "-.B..-F.O-...-O..-d...-*",
        "------F.e-...-e..------*",
        "*wwii+...D...D...+iiww**",
        "*-wTS-htA-...-tFF-STw-**",
        "----------...----------*",
        "-...d-A.t-...-...-..BB-*",
        "w.B..+..3-...-3..+...dw*",
        "-.B..-F.O-.<.-O.t-..BB-*",
        "------F.e-...-e.h------*",
        "*wwii+...D.>.D...+iiww**",
        "*-wTS-AtA-...-FFA-STw-**",
        "*---------W-W--w------**",
        "************************",
        "************************"
      ],
      "palettes": [
        "apartment_palette"
      ]
    },
    "id": "2f437ff7-8c4e-40e7-91e0-5f838e81d7aa"
  },
  {
    "type": "mapgen",
    "method": "json",
    "om_terrain": [
      "s_apt_roof"
    ],
    "object": {
      "fill_ter": "t_flat_roof",
      "rows": [
        "|2222222222222222222222 ",
        "|.....................3 ",
        "|.A..A...........A..A.3 ",
        "|.....................3 ",
        "||...................33 ",
        " |&.................&3  ",
        " |..X................3  ",
        "||................:..33 ",
        "|.....................3 ",
        "|.A..A...........A..A.3 ",
        "|.....................3 ",
        "||...................33 ",
        " |&.................&3  ",
        " |...................3  ",
        "||...................33 ",
        "|.........$$+$$.......3 ",
        "|.A..A....$___$..A..A.3 ",
        "|.........$>__$.......3 ",
        "||........$$$$$......33 ",
        " |&...............X.&3  ",
        " |...................3  ",
        " |-------------------3  ",
        "                        ",
        "                        "
      ],
      "palettes": [
        "roof_palette"
      ],
      "terrain": {
        "$": "t_wall",
        "+": "t_door_c",
        ">": "t_stairs_down"
      }
    },
    "id": "f0c56688-da50-4443-ab59-01457d1fe73f"
  }
]