[
  {
    "type": "MOD_INFO",
    "id": "Old_Mutations",
    "name": "Old Mutations",
    "authors": [
      "Coolthulhu"
    ],
    "description": "Makes mutations work like before, without balancing changes and mutagen accumulation.",
    "category": "rebalance",
    "dependencies": [
      "bn"
    ]
  },
  {
    "type": "EXTERNAL_OPTION",
    "name": "BALANCED_MUTATIONS",
    "stype": "bool",
    "value": false,
    "id": "BALANCED_MUTATIONS"
  },
  {
    "type": "mutation",
    "id": "ROBUST",
    "name": {
      "str": "Robust Genetics"
    },
    "points": 3,
    "description": "You have a very strong genetic base.  If you mutate, the odds that the mutation will be beneficial are greatly increased.",
    "starting_trait": true,
    "cancels": [
      "CHAOTIC_BAD"
    ],
    "category": [
      "FISH",
      "SLIME",
      "ALPHA",
      "MEDICAL"
    ]
  }
]