[
  {
    "type": "monstergroup",
    "name": "GROUP_MISSILE_SILO",
    "default": "mon_zombie_soldier",
    "monsters": [
      {
        "monster": "mon_zombie_soldier",
        "freq": 30,
        "cost_multiplier": 2
      },
      {
        "monster": "mon_zombie_hazmat",
        "freq": 20,
        "cost_multiplier": 3
      },
      {
        "monster": "mon_skeleton",
        "freq": 20,
        "cost_multiplier": 2
      },
      {
        "monster": "mon_zombie_smoker",
        "freq": 20,
        "cost_multiplier": 5
      },
      {
        "monster": "mon_zombie_gasbag",
        "freq": 10,
        "cost_multiplier": 10,
        "pack_size": [
          2,
          3
        ]
      },
      {
        "monster": "mon_zombie_spitter",
        "freq": 5,
        "cost_multiplier": 5
      },
      {
        "monster": "mon_zombie_acidic",
        "freq": 5,
        "cost_multiplier": 15
      },
      {
        "monster": "mon_zombie_electric",
        "freq": 10,
        "cost_multiplier": 5
      },
      {
        "monster": "mon_zombie_technician",
        "freq": 20,
        "cost_multiplier": 12
      },
      {
        "monster": "mon_zombie_brute_shocker",
        "freq": 5,
        "cost_multiplier": 40
      }
    ],
    "id": "GROUP_MISSILE_SILO"
  }
]