[
  {
    "type": "mapgen",
    "om_terrain": [
      "silo_ubrc"
    ],
    "//": "underground. bottom right corner",
    "method": "json",
    "weight": 100,
    "object": {
      "fill_ter": "t_floor",
      "rows": [
        "########################",
        "########################",
        "##--------####----------",
        "##|Z..ZZ.|####|.4446444.",
        "##|......------....c....",
        "##|..Z...+....+.........",
        "##|......------.........",
        "##|ffFFff|####|.........",
        "##|......|####|.c.......",
        "##|......|####|DD6......",
        "##---++---####|------+--",
        "####|..|############|.|#",
        "####|..|############|.|#",
        "####|..----------###|+--",
        "####|...........|###|...",
        "####|...........|###|...",
        "####----------..|#--|~~~",
        "#############|..|||~~~~~",
        "#############|..||~~~~~~",
        "#############|...~~~~~~~",
        "##------------...~~~~~~~",
        "##|D......+.....~~~~~~~~",
        "##|6c.....----..~~~~~~~~",
        "##|D......|##|..~~~~~~~~"
      ],
      "rotation": 2,
      "palettes": [
        "missile_silo"
      ],
      "monster": {
        "Z": {
          "monster": "mon_zombie_soldier"
        }
      }
    },
    "id": "025659f9-0f65-462a-8022-5b3ea2adc7c6"
  }
]