[
  {
    "type": "mapgen",
    "om_terrain": [
      "silo_trc"
    ],
    "//": "top right corner",
    "method": "json",
    "weight": 100,
    "object": {
      "fill_ter": "t_dirt",
      "rows": [
        ",,,,,,,,,,,,,,,,,,,,,,,,",
        ",,,,,,,,,,,,,,,,,,,,,,,,",
        ",,,,,,,,,,,,,,,,,,,,,,,,",
        ",,,,,,,,,,,,,,,,,,,,,,,,",
        ",,,,%%%%%,,,,,,,,,,,,,,,",
        ",,,,%fff%%%%%%%%%%%%%%%%",
        ",,..%fzfffffffffffffffff",
        ",,,,%ffF,,,,,,,,,,,,,,,,",
        ",,,,%%f,,,,,,,,,,,,,,,,,",
        ",,,,,%f,,,,,,,,,,,,,,,,,",
        ",,,,,%f,,,,,,,,,,,,,,,,,",
        ",,,,,%f,,,,,,,,,,,,,,,,,",
        ",,,,,%f,,,,,,,,,,,,,,,,,",
        ",,,,,%f,,,,,,,,,,,,,,,,,",
        ",,,,,%f,,,,,,,,,,,,,,,,,",
        ",,,,,%f,,,,,,,,,,,,,,,,,",
        ",,,,,%f,,,,,,,,,,,,,,~~~",
        ",,,,,%f,,,,,,,,,,,,~~~~~",
        ",,,,,%f,,,,,,,,,,,~~~~~~",
        ",,,,,%f,,,,,,,,,,~~~~~~~",
        ",,,,,%f,,,,,,,,,,~~~~~~~",
        ",,,,,%f,,,,,,,,,~~~~~~~~",
        ",,,,,%f,,,,,,,,,~~~~~~~~",
        ",,,,,%f,,,,,,,,,~~~~~~~~"
      ],
      "rotation": 1,
      "palettes": [
        "missile_silo"
      ],
      "terrain": {
        "z": "t_dirt",
        ",": "t_grass",
        "%": "t_fence_barbed"
      },
      "monster": {
        "Z": {
          "monster": "mon_zombie_soldier"
        },
        "z": {
          "monster": "mon_turret_medium"
        }
      }
    },
    "id": "6f129cc4-13e3-4a51-837c-9418c7958c41"
  }
]