[
  {
    "type": "mapgen",
    "om_terrain": [
      "silo_entrance"
    ],
    "//": "silo entrance. top left corner",
    "method": "json",
    "weight": 100,
    "object": {
      "fill_ter": "t_thconc_floor",
      "rows": [
        ",,,,,,,,,,,,,,,,,,,,,,,,",
        ",z,,,,,,,,,z,,,,,,,,,,,,",
        ",,--G------____,,,,,,,,,",
        ",,|DD6|lll|____,,,,,,,,,",
        ",,|.c.+...*____,,,,,,,,,",
        ",,|Z..|...9____%%%%%%%%%",
        ",,|-+-|-.-|fFFffffffffff",
        ",,|...|eee|,,,,,,,,,,,,,",
        ",,|.>.|eee|,,,,,,,,,,,,,",
        ",,|...|eee|,,,,,,,,,,,,,",
        ",,---------,,,,,,,,,,,,,",
        ",z,,,%f,,,,,,,,,,,,,,,,,",
        ",,,,,%f,,,,,,,,,,,,,,,,,",
        ",,,,,%f,,,,,,,,,,,,,,,,,",
        ",,,,,%f,,,,,,,,,,,,,,,,,",
        ",,,,,%f,,,,,,,,,,,,,,,,,",
        ",,,,,%f,,,,,,,,,,,,,,~~~",
        ",,,,,%f,,,,,,,,,,,,~~~~~",
        ",,,,,%f,,,,,,,,,,,~~~~~~",
        ",,,,,%f,,,,,,,,,,~~~~~~~",
        ",,,,,%f,,,,,,,,,,~~~~~~~",
        ",,,,,%f,,,,,,,,,~~~~~~~~",
        ",,,,,%f,,,,,,,,,~~~~~~~~",
        ",,,,,%f,,,,,,,,,~~~~~~~~"
      ],
      "rotation": 0,
      "palettes": [
        "missile_silo"
      ],
      "terrain": {
        "z": "t_dirt",
        ",": "t_grass",
        "_": "t_pavement_y",
        "*": "t_door_metal_locked",
        "%": "t_fence_barbed"
      },
      "monster": {
        "Z": {
          "monster": "mon_zombie_soldier"
        },
        "z": {
          "monster": "mon_turret_medium"
        }
      }
    },
    "id": "c264ba74-66ff-412f-9c61-7732449f94c2"
  }
]