[
  {
    "type": "mapgen",
    "om_terrain": [
      "silo_utlcb"
    ],
    "//": "underground. top left corner. alternate B stairs",
    "method": "json",
    "weight": 100,
    "object": {
      "fill_ter": "t_floor",
      "rows": [
        "########################",
        "#############..#########",
        "###########x....x##-----",
        "######.##.............x.",
        "######..................",
        "####....................",
        "##--+---G--.............",
        "##|...|eee|.............",
        "##|.>.GeeeG.......z.....",
        "##|...|eee|.............",
        "##------.--..........---",
        "######...............|##",
        "######.###.....#.....|##",
        "#########.....##.....---",
        "###########.............",
        "############............",
        "##############.......~~~",
        "##-----########....~~~~~",
        "##|...|###.#####..~~~~~~",
        "##|.<.+.....####.~~~~~~~",
        "##|...|###....###~~~~~~~",
        "##-----#####....~~~~~~~~",
        "##---------##|..~~~~~~~~",
        "##|.......|##|..~~~~~~~~"
      ],
      "rotation": 0,
      "palettes": [
        "missile_silo"
      ],
      "monster": {
        "z": {
          "monster": "mon_turret_medium"
        }
      }
    },
    "id": "99c01bb8-1872-4253-a6c8-83ca21007ea2"
  }
]