[
  {
    "type": "mapgen",
    "om_terrain": [
      "silo_fbrc"
    ],
    "//": "finale. bottom right corner",
    "method": "json",
    "weight": 100,
    "object": {
      "fill_ter": "t_floor",
      "rows": [
        "########################",
        "########################",
        "########################",
        "########################",
        "########################",
        "########################",
        "###########.............",
        "###########.............",
        "###########.............",
        "###########.............",
        "###########.............",
        "######..................",
        "######..................",
        "######..................",
        "######..................",
        "######..................",
        "######...............***",
        "######.............*****",
        "######............******",
        "######...........*******",
        "######...........*******",
        "######..........********",
        "######..........********",
        "######..........********"
      ],
      "rotation": 2,
      "palettes": [
        "missile_silo"
      ],
      "terrain": {
        "*": "t_metal_floor"
      },
      "fields": {
        "*": {
          "field": "fd_nuke_gas",
          "intensity": 2,
          "age": 0
        }
      },
      "monster": {
        "Z": {
          "monster": "mon_turret_medium"
        }
      }
    },
    "id": "ab271674-a690-4b53-b5af-ecb3da84f422"
  }
]