[
  {
    "type": "mapgen",
    "om_terrain": [
      "silo_ftrc"
    ],
    "//": "finale. top right corner",
    "method": "json",
    "weight": 100,
    "object": {
      "fill_ter": "t_floor",
      "rows": [
        "########################",
        "########################",
        "########################",
        "########################",
        "########################",
        "########################",
        "###########.............",
        "###########.............",
        "###########.............",
        "###########........z....",
        "###########.............",
        "######..................",
        "######..................",
        "######......v.....z.....",
        "######..................",
        "######..................",
        "######........z......***",
        "######.............*****",
        "######............******",
        "######...........*******",
        "######...........*******",
        "######......z...********",
        "######..........********",
        "######..........********"
      ],
      "rotation": 1,
      "palettes": [
        "missile_silo"
      ],
      "terrain": {
        "*": "t_metal_floor"
      },
      "fields": {
        "*": {
          "field": "fd_nuke_gas",
          "intensity": 2,
          "age": 0
        }
      },
      "monster": {
        "z": {
          "monster": "mon_zombie_soldier"
        }
      }
    },
    "id": "93351b2f-cb8b-49b3-862c-082a4e8631d9"
  }
]