[
  {
    "type": "mapgen",
    "om_terrain": [
      "silo_utlcb"
    ],
    "//": "underground. top left corner. alternate B stairs",
    "method": "json",
    "weight": 100,
    "object": {
      "fill_ter": "t_floor",
      "rows": [
        "########################",
        "########################",
        "##################------",
        "##################|z+...",
        "##################|GG...",
        "##################|z+...",
        "##---------#######|GG...",
        "##|...|eee|-----##|z+...",
        "##|.>..eee.....|##|GG...",
        "##|...|eee|---.|##|z+...",
        "##---------##|.|##------",
        "#############|.|########",
        "#############|.|########",
        "#############|.---------",
        "#############|..........",
        "#############|..........",
        "#############------..~~~",
        "##-----------------~~~~~",
        "##|.............|-~~~~~~",
        "##|.<...........|~~~~~~~",
        "##|...|#######..|~~~~~~~",
        "##-GGG-----##|..~~~~~~~~",
        "##|.......|##|..~~~~~~~~",
        "##|.......|##|..~~~~~~~~"
      ],
      "rotation": 0,
      "palettes": [
        "missile_silo"
      ],
      "monster": {
        "z": {
          "monster": "mon_secubot"
        }
      }
    },
    "id": "c66cb4da-ff69-406b-862a-37e3ff21ce81"
  }
]