[
  {
    "type": "mapgen",
    "om_terrain": "tri_tower_1cytlc",
    "//": "courtyard or parking lot, top left corner",
    "weight": 250,
    "method": "json",
    "object": {
      "fill_ter": "t_pavement",
      "rows": [
        "===##PPPPPPPPPPPPPP##===",
        "=####PPPPPPPPPPPPPP####=",
        "=###PPPPPPPPPPPPPPP9###=",
        "###                     ",
        "###                     ",
        "###                     ",
        "###                     ",
        "###                     ",
        "###                     ",
        "###                     ",
        "###                     ",
        "###                     ",
        "###                     ",
        "###                     ",
        "###              v      ",
        "###                     ",
        "###                     ",
        "###                     ",
        "###                     ",
        "###                     ",
        "###                     ",
        "=##                     ",
        "=##                     ",
        "===                     "
      ],
      "rotation": 0,
      "palettes": [
        "tri_tower",
        "ground_level"
      ],
      "terrain": {
        "9": "t_card_reader_broken",
        "P": "t_pavement",
        "y": "t_pavement_y"
      },
      "vehicles": {
        "v": {
          "vehicle": "suburban_home",
          "chance": 3
        }
      }
    },
    "id": "fa9e6510-554b-4868-894b-7e3c43ee618a"
  }
]