[
  {
    "type": "mapgen",
    "om_terrain": "tri_tower_1yre",
    "//": "yard, right edge",
    "weight": 250,
    "method": "json",
    "object": {
      "fill_ter": "t_grass",
      "rows": [
        "########################",
        "########################",
        "########################",
        "########################",
        "########################",
        "########################",
        "########################",
        "########################",
        "########################",
        "########################",
        "########################",
        "########################",
        "########################",
        "########################",
        "########################",
        "########################",
        "########################",
        "########################",
        "########################",
        "########################",
        "########################",
        "##====================##",
        "##=##################=##",
        "##=##################=##"
      ],
      "rotation": 1,
      "palettes": [
        "tri_tower",
        "ground_level"
      ]
    },
    "id": "5ce952d5-71d9-49aa-8285-b3dcb1e52da2"
  }
]