[
  {
    "type": "mapgen",
    "om_terrain": "tri_tower_1ybe",
    "//": "yard, bottom edge",
    "weight": 250,
    "method": "json",
    "object": {
      "fill_ter": "t_grass",
      "rows": [
        "########################",
        "########################",
        "########################",
        "########################",
        "########################",
        "########################",
        "########################",
        "########################",
        "########################",
        "########################",
        "########################",
        "########################",
        "########################",
        "########################",
        "########################",
        "########################",
        "########################",
        "########################",
        "########################",
        "########################",
        "########################",
        "##====================##",
        "##=##################=##",
        "##=##################=##"
      ],
      "rotation": 2,
      "palettes": [
        "tri_tower",
        "ground_level"
      ]
    },
    "id": "c0834a9b-e942-43f7-83b2-11a7d3520f3e"
  }
]