[
  {
    "type": "mapgen",
    "om_terrain": "tri_tower_ublc",
    "//": "underground, bottom left corner",
    "weight": 250,
    "method": "json",
    "object": {
      "fill_ter": "t_concrete_floor",
      "rows": [
        "===#######=  =#######===",
        "=#########=  =##########",
        "=#########=  =##########",
        "##########=  =########==",
        "##########=  =########==",
        "#####===##=  =########==",
        "#####===##=  =##########",
        "#####======!!===========",
        "#######=Y0        l|  CC",
        "#######=Y    HH    3    ",
        "========     HH    |q  T",
        "       !           |q  T",
        "       ! hh  HH    |q   ",
        "======== hh  HH    |q   ",
        "#######=           |q   ",
        "#######= hh    LLl |v   ",
        "#######= hh    l========",
        "#######=       l=====M==",
        "#######=-3------==<<<M==",
        "#######=  QQQQQ   <<<M==",
        "#######=          <<<M==",
        "=######=        =MMMMMMM",
        "=######=C       =====M==",
        "=##===#=C TT    =====M=="
      ],
      "rotation": 3,
      "palettes": [
        "tri_tower",
        "lower_level",
        "tri_tower_stuff"
      ],
      "terrain": {
        "3": "t_door_metal_pickable",
        "Y": "t_sewage_pump"
      },
      "furniture": {
        "0": "f_standing_tank",
        "v": "f_vending_o"
      },
      "items": {
        "v": {
          "item": "trash_cart",
          "chance": 15
        },
        "x": [
          {
            "item": "hardware_plumbing",
            "chance": 20
          },
          {
            "item": "hardware_bulk",
            "chance": 20
          }
        ],
        "X": {
          "item": "hardware_bulk",
          "chance": 35
        }
      }
    },
    "id": "e5cc2220-c51c-4e1d-bee0-2cff6df9d924"
  }
]