[
  {
    "type": "mapgen",
    "om_terrain": "tri_tower_3brc",
    "//": "bottom right corner, third and odd level floors.",
    "weight": 250,
    "method": "json",
    "object": {
      "fill_ter": "t_floor",
      "rows": [
        "########################",
        "########################",
        "########################",
        "#######==ww=====ww==ww==",
        "#######=..BB|d+..BB|BB==",
        "#####===....|-|....|BB==",
        "#####===....+d|....|....",
        "###=====+------+----....",
        "###=.a.............+....",
        "###=......-------+----++",
        "###w...A..|s.&|S|....|dd",
        "###w...A..+.....|....|--",
        "###w...A..|...|~|BB..+.d",
        "###=n.....--------------",
        "###=nn.......!..........",
        "###=--....---|..........",
        "###2.g....|RU|..===!!==[",
        "###2.g......C|..===..Mee",
        "###2.g..TT..C|..==<<<Mee",
        "###2.g..TT..s|..==<<<Mee",
        "###2.g......o|..==<<<Mee",
        "###2.g..c...C|..=MMMMMMM",
        "###2.+......U|..=eeeeM==",
        "###===-------|..]eeeeM=="
      ],
      "rotation": 2,
      "palettes": [
        "tri_tower",
        "upper_level",
        "tri_tower_stuff"
      ]
    },
    "id": "c4c2a41e-932c-43a4-9d27-d55266e59610"
  }
]