[
  {
    "type": "MOD_INFO",
    "id": "No_Big_Zombies",
    "name": "No Big Zombies",
    "authors": [
      "Inglonias"
    ],
    "description": "Removes shocker brutes, zombie hulks, and skeletal juggernauts from the game.",
    "category": "monster_exclude",
    "dependencies": [
      "bn"
    ],
    "obsolete": true
  },
  {
    "type": "MONSTER_BLACKLIST",
    "monsters": [
      "mon_zombie_hulk",
      "mon_zombie_brute_shocker",
      "mon_skeleton_hulk"
    ],
    "id": "a3097213-d993-42f7-9074-cec949b57a60"
  }
]