[
  {
    "type": "mapgen",
    "om_terrain": "3storyA_basement",
    "weight": 250,
    "method": "json",
    "object": {
      "fill_ter": "t_concrete_floor",
      "rows": [
        "########################",
        "########################",
        "########################",
        "##====================##",
        "##=R           H   h =##",
        "##=   z              =##",
        "##=                  =##",
        "##=   z              =##",
        "##=         ZZZ     n=##",
        "##=n  z     ZZZ     n=##",
        "##=n                n=##",
        "##=n                 =##",
        "##========A          =##",
        "#########=A          =##",
        "#########=A          =##",
        "#########=------     =##",
        "#########=Q    |     =##",
        "#########=           =##",
        "#########=q    |     =##",
        "#########=     |    <=##",
        "#########=============##",
        "########################",
        "########################",
        "########################"
      ],
      "palettes": [
        "multistory_house",
        "lower_level"
      ]
    },
    "id": "678cd5d0-4024-4bf8-b215-a1e2e44063ee"
  }
]