[
  {
    "type": "mapgen",
    "om_terrain": "3storyC_first",
    "weight": 250,
    "method": "json",
    "object": {
      "fill_ter": "t_floor",
      "rows": [
        "##########WW############",
        "##########WW############",
        "#########1WWWW1#########",
        "#########WWWWWW#########",
        "####===w=w=++=w=w===####",
        "####=pnn          p=####",
        "####=             b=####",
        "####=<<---+-b      w####",
        "####=b-|~~ |b    a =####",
        "####=-|    |  A    88###",
        "####+>|& ss|  A    N8###",
        "####=-------  A    88###",
        "####=R             g####",
        "####=C        TTT  g####",
        "####=CCsoCU|      p=####",
        "####========g*gggg==####",
        "#############W##########",
        "#############W##########",
        "#############W##########",
        "#############W###----###",
        "#############W###|LL|###",
        "#############WWWW+  |###",
        "#################----###",
        "########################"
      ],
      "palettes": [
        "multistory_house",
        "ground_level"
      ]
    },
    "id": "557f84fe-2d8f-4bff-b8e1-5a25fdd305a3"
  }
]