[
  {
    "type": "mapgen",
    "om_terrain": "3storyC_first",
    "weight": 250,
    "method": "json",
    "object": {
      "fill_ter": "t_floor",
      "rows": [
        "#####W##################",
        "#####W##################",
        "#####W###1WWWW1#########",
        "#####WWWWWWWWWW#########",
        "####====w==++====w==####",
        "####=A   a    p| ~~=####",
        "####=A         +   w####",
        "####=<<       b|s &=####",
        "####=---     ------=####",
        "####=b       |UU  W88###",
        "####=>       |    C88###",
        "####=-    T  |    o=####",
        "####=b   cT       sw####",
        "####g     T  |    s=####",
        "####=        | RCCC=####",
        "####=g=g=g=g==+=====####",
        "########################",
        "########################",
        "########################",
        "#################-++-###",
        "#################|  |###",
        "#################|ll|###",
        "#################----###",
        "########################"
      ],
      "palettes": [
        "multistory_house",
        "ground_level"
      ]
    },
    "id": "c4e5c64e-1fc2-48a2-92f3-b30d715bc7c9"
  }
]