[
  {
    "type": "mapgen",
    "om_terrain": "3storyD_second",
    "weight": 250,
    "method": "json",
    "object": {
      "fill_ter": "t_floor",
      "rows": [
        "########################",
        "########################",
        "#==w==##################",
        "#=>>>=######rrrrrrrrrr##",
        "#w   ===w====ww====rrr##",
        "#=<<            |d=rrr##",
        "#===  -----------+=rrr##",
        "###w  |Tc BB|d    =#####",
        "###=  +   BB|BB   w#####",
        "###w  |    d|d    w#####",
        "###=  |-++--|BB  T=#####",
        "###=  |d  d|-------=####",
        "###=  -----|&   ~~88####",
        "###w       |s     88####",
        "###=       |s    M88####",
        "###===w==  --+-**-==w==#",
        "#####rrr=     |  |d  d=#",
        "#####rrrw     |SS|d  d=#",
        "#####rrr=-+--------++-=#",
        "########=T   dBBd    D=#",
        "########wT    BB    cDw#",
        "########=T           7=#",
        "########===w==ww==w====#",
        "########################"
      ],
      "palettes": [
        "multistory_house",
        "upper_level"
      ]
    },
    "id": "d66d59b3-bc4e-4902-ae23-71ccb04000bd"
  }
]