[
  {
    "type": "mapgen",
    "om_terrain": "3storyF_first",
    "weight": 0,
    "method": "json",
    "object": {
      "fill_ter": "t_floor",
      "rows": [
        "########################",
        "########################",
        "########################",
        "##====================##",
        "##=                  =##",
        "##=                  =##",
        "##=                  =##",
        "##=                  =##",
        "##=  88              =##",
        "##=>>88              =##",
        "##=                  =##",
        "##=                  =##",
        "##=      <<          =##",
        "##=                  =##",
        "##=                  =##",
        "##=                  =##",
        "##=                  =##",
        "##====================##",
        "########################",
        "########################",
        "########################",
        "########################",
        "########################",
        "########################"
      ],
      "palettes": [
        "multistory_house"
      ]
    },
    "id": "efc51ee4-e0ba-4f05-a161-97b766ab12bc"
  }
]