[
  {
    "type": "mapgen",
    "om_terrain": "3storyC_third",
    "weight": 250,
    "method": "json",
    "object": {
      "fill_ter": "t_floor",
      "rows": [
        "########################",
        "########################",
        "########################",
        "########################",
        "####================####",
        "####=              =####",
        "####=              =####",
        "####=              =####",
        "####=              =####",
        "####=              88###",
        "####=              88###",
        "####=              =####",
        "####=              =####",
        "####=>>            =####",
        "####=              =####",
        "####================####",
        "########################",
        "########################",
        "########################",
        "########################",
        "########################",
        "########################",
        "########################",
        "########################"
      ],
      "palettes": [
        "multistory_house",
        "upper_level"
      ]
    },
    "id": "46e54fbf-f755-4b32-88a6-b9b8c5de8572"
  }
]