[
  {
    "type": "mapgen",
    "om_terrain": "3storyA_basement",
    "weight": 250,
    "method": "json",
    "object": {
      "fill_ter": "t_concrete_floor",
      "rows": [
        "########################",
        "########################",
        "########################",
        "##====================##",
        "##=d |b              =##",
        "##=d |b         AAA  =##",
        "##=d |b              =##",
        "##=-+--++----     TT =##",
        "##=        d|C    TT =##",
        "##=  BB     |U       =##",
        "##=  BB   c |o       =##",
        "##= T    DDD|CCsC   R=##",
        "##================++==##",
        "#########=S   ss|   l=##",
        "#########=      +   l=##",
        "#########=&     |   l=##",
        "#########=========++==##",
        "#########=Q   =     h=##",
        "#########=          H=##",
        "#########=q   =     <=##",
        "#########=============##",
        "########################",
        "########################",
        "########################"
      ],
      "palettes": [
        "multistory_house",
        "lower_level"
      ],
      "set": [
        {
          "square": "terrain",
          "x": 9,
          "y": 13,
          "x2": 14,
          "y2": 15,
          "id": "t_linoleum_white"
        },
        {
          "square": "terrain",
          "x": 3,
          "y": 8,
          "x2": 10,
          "y2": 11,
          "id": "t_carpet_purple"
        }
      ]
    },
    "id": "1f1b4e57-192d-4d93-bee7-553330012fc3"
  }
]