[
  {
    "type": "mapgen",
    "om_terrain": "3storyF_second",
    "weight": 0,
    "method": "json",
    "object": {
      "fill_ter": "t_floor",
      "rows": [
        "########################",
        "########################",
        "########################",
        "##rr================rr##",
        "##rr=              =rr##",
        "##rr=              =rr##",
        "##rr=              =rr##",
        "##rr=              =rr##",
        "##rr=88            =rr##",
        "##rr=88            =rr##",
        "##rr=              =rr##",
        "##rr=              =rr##",
        "##rr=      >>      =rr##",
        "##rr=              =rr##",
        "##rr=              =rr##",
        "##rr=      <<      =rr##",
        "##rr=              =rr##",
        "##rr================rr##",
        "########################",
        "########################",
        "########################",
        "########################",
        "########################",
        "########################"
      ],
      "palettes": [
        "multistory_house",
        "upper_level"
      ]
    },
    "id": "c5fdb51e-ea72-4a8f-891a-80e55ba15d63"
  }
]