[
  {
    "type": "mapgen",
    "om_terrain": "3storyF_third",
    "weight": 0,
    "method": "json",
    "object": {
      "fill_ter": "t_floor",
      "rows": [
        "########################",
        "########################",
        "########################",
        "####rrr===w==w===rrr####",
        "####rrr=b b  b b=rrr####",
        "####rrr=b b  b b=rrr####",
        "####rrr=b b  b b=rrr####",
        "####rrr=b b  b b=rrr####",
        "####r88=        =rrr####",
        "####r88=   TT   =rrr####",
        "####rrr=  cTT   =rrr####",
        "####rrr=   TTc  =rrr####",
        "####rrr=a       =rrr####",
        "####rrr=b      b=rrr####",
        "####rrr=b      b=rrr####",
        "####rrr=b  >>  b=rrr####",
        "####rrr=b      b=rrr####",
        "####rrr====ww====rrr####",
        "########################",
        "########################",
        "########################",
        "########################",
        "########################",
        "########################"
      ],
      "palettes": [
        "multistory_house",
        "upper_level"
      ]
    },
    "id": "97e22741-e64a-4f2d-a327-7989959ba81b"
  }
]