[
  {
    "type": "mapgen",
    "om_terrain": "3storyE_first",
    "weight": 0,
    "method": "json",
    "object": {
      "fill_ter": "t_floor",
      "rows": [
        "########################",
        "########################",
        "########################",
        "######===========#######",
        "######=         =#######",
        "######=         =#######",
        "###====         ====####",
        "###=               =####",
        "###=               =####",
        "###=               =####",
        "###=               =####",
        "###=               =####",
        "###=               =####",
        "###=               =####",
        "###=               =####",
        "###=          <<   =####",
        "###=>>        <<   =####",
        "###====         ====####",
        "######=         =#######",
        "######=         =#######",
        "######===========#######",
        "########################",
        "########################",
        "########################"
      ],
      "palettes": [
        "multistory_house",
        "ground_level"
      ]
    },
    "id": "12f0ab99-8862-473a-8fae-42152fb7e77f"
  }
]