[
  {
    "type": "mapgen",
    "om_terrain": "3storyC_second",
    "weight": 250,
    "method": "json",
    "object": {
      "fill_ter": "t_floor",
      "rows": [
        "########################",
        "########################",
        "#########rrrrrr#########",
        "#########rrrrrr#########",
        "####===w==w=====ww==####",
        "####= AAA  a b|ss &=####",
        "####w         +    w####",
        "####=>>       |l ~~=####",
        "####=-------  |----=####",
        "####w   p|d|  |d  d88###",
        "####=BB  + |  |-++-88###",
        "####wBB  |d|  +   T=####",
        "####=---+---  |   c=####",
        "####w<<       |BB  =####",
        "####=         |BB d=####",
        "####===ww==ww=======####",
        "#########rrrrrr#########",
        "########################",
        "########################",
        "#################rrrr###",
        "#################rrrr###",
        "#################rrrr###",
        "#################rrrr###",
        "########################"
      ],
      "palettes": [
        "multistory_house",
        "upper_level"
      ]
    },
    "id": "94e3a50c-8a9f-43d0-9389-176aba834526"
  }
]