[
  {
    "type": "mapgen",
    "om_terrain": "3storyB_third",
    "weight": 250,
    "method": "json",
    "object": {
      "fill_ter": "t_floor",
      "rows": [
        "########################",
        "########################",
        "##############fffffff###",
        "##############FrrrrrF###",
        "##############FrrrrrF###",
        "##############FrrrrrF###",
        "##==ww============**=###",
        "##=d  d|d+       |  =###",
        "##=-++---|BB     +  w###",
        "##=     T|d     T|  =###",
        "##wn   BB|BB   cT|  88##",
        "##=n   BB|--------  88##",
        "##w      |D   &|p   =###",
        "##=  p   |   ss|    w###",
        "##=+---+----+---    =###",
        "##=d|d|           >>=###",
        "##=--+------====w=w==###",
        "##=d       i=###########",
        "##w  BB   cDw###########",
        "##w  BB    Dw###########",
        "##=         =###########",
        "##==w==w==w==###########",
        "########################",
        "########################"
      ],
      "palettes": [
        "multistory_house",
        "upper_level"
      ]
    },
    "id": "0c262d98-7ef8-4c6b-a03d-30edd4ea0e5f"
  }
]