[
  {
    "type": "mapgen",
    "om_terrain": "3storyB_first",
    "weight": 250,
    "method": "json",
    "object": {
      "fill_ter": "t_floor",
      "rows": [
        "#################W######",
        "#############WWWWW######",
        "#############W===ww==###",
        "#############W=    n=###",
        "#############W+    n=###",
        "#############W=    n=###",
        "##====w========     =###",
        "##=S        |bb     =###",
        "##=  ss&    +       =###",
        "##=---------| a     =###",
        "##=       ii|      N88##",
        "##w Dc      +   A   88##",
        "##=pD     bb|   A   =###",
        "##=---------|      b=###",
        "##=    c          --=###",
        "##w TTTTT    <<  b|>+###",
        "##=         ===www===###",
        "##= ---T--- =###########",
        "##=         =###########",
        "##=         +WWWWW######",
        "##=RUCosCCUU=###########",
        "##===w=w=w===###########",
        "########################",
        "########################"
      ],
      "palettes": [
        "multistory_house",
        "ground_level"
      ]
    },
    "id": "b9571372-1139-48ab-9bee-5aaf69ed2a08"
  }
]