[
  {
    "type": "mapgen",
    "om_terrain": "3storyD_third",
    "weight": 0,
    "method": "json",
    "object": {
      "fill_ter": "t_floor",
      "rows": [
        "########################",
        "########################",
        "#=====##################",
        "#=<<<=##################",
        "#=   ==============#####",
        "#=>>              =#####",
        "#===              =#####",
        "###=              =#####",
        "###=              =#####",
        "###=              =#####",
        "###=              =#####",
        "###=              =#####",
        "###=              =#####",
        "###=              88####",
        "###=              88####",
        "###================rrrr#",
        "########rrrrrrrrrrrrrrr#",
        "########rrrrrrrrrrrrrrr#",
        "########rrrrrrrrrrrrrrr#",
        "########rrrrrrrrrrrrrrr#",
        "########rrrrrrrrrrrrrrr#",
        "########rrrrrrrrrrrrrrr#",
        "########rrrrrrrrrrrrrrr#",
        "########################"
      ],
      "palettes": [
        "multistory_house",
        "upper_level"
      ]
    },
    "id": "63e6315c-b844-4903-bd62-762b97f83f99"
  }
]