[
  {
    "type": "mapgen",
    "om_terrain": "3storyB_first",
    "weight": 250,
    "method": "json",
    "object": {
      "fill_ter": "t_floor",
      "rows": [
        "########################",
        "########################",
        "##############===w===###",
        "##############=~~ Sl=###",
        "##############=     w###",
        "##############=&ss  =###",
        "##=====w=++=w==---+-=###",
        "##=b                =###",
        "##= A               =###",
        "##= A          bbbbb=###",
        "##=b        --------88##",
        "##=    c    |  RCC N88##",
        "##=                o=###",
        "##=  TTT    |      C=###",
        "##=  TTT    |      C=###",
        "##=         |<<Usss>=###",
        "##=---   ---=========###",
        "##=        b=###########",
        "##= AAA     =###########",
        "##w     a   w###########",
        "##=        b=###########",
        "##===w=======###########",
        "########################",
        "########################"
      ],
      "palettes": [
        "multistory_house",
        "ground_level"
      ],
      "set": [
        {
          "square": "terrain",
          "x": 15,
          "y": 3,
          "x2": 17,
          "y2": 19,
          "id": "t_linoleum_white"
        },
        {
          "square": "terrain",
          "x": 13,
          "y": 11,
          "x2": 18,
          "y2": 14,
          "id": "t_linoleum_white"
        },
        {
          "square": "terrain",
          "x": 7,
          "y": 13,
          "x2": 15,
          "y2": 15,
          "id": "t_floor_green"
        }
      ]
    },
    "id": "e6b27f2a-e9a7-4ffb-ab80-012887c480d8"
  }
]