[
  {
    "type": "mapgen",
    "om_terrain": "3storyC_basement",
    "weight": 250,
    "method": "json",
    "object": {
      "fill_ter": "t_concrete_floor",
      "rows": [
        "########################",
        "########################",
        "########################",
        "########################",
        "####================####",
        "####=              =####",
        "####=              =####",
        "####=              =####",
        "####=              =####",
        "####=              =####",
        "####=<             =####",
        "####=              =####",
        "####=              =####",
        "####=              =####",
        "####=              =####",
        "####================####",
        "########################",
        "########################",
        "########################",
        "########################",
        "########################",
        "########################",
        "########################",
        "########################"
      ],
      "palettes": [
        "multistory_house",
        "lower_level"
      ]
    },
    "id": "460b5c6f-25a2-468e-be64-8c4c315e24dd"
  }
]