[
  {
    "type": "mapgen",
    "om_terrain": "3storyD_basement",
    "weight": 0,
    "method": "json",
    "object": {
      "fill_ter": "t_concrete_floor",
      "rows": [
        "########################",
        "########################",
        "########################",
        "########################",
        "###================#####",
        "###=      yyyyyyyy=#####",
        "###=    yyy yyyyyy=#####",
        "###=       yy   yy=#####",
        "###=    1 $  1  y =#####",
        "###=           yy =#####",
        "###=              =#####",
        "###=H   1    1    =#####",
        "###=              =#####",
        "###=              =#####",
        "###=h             =#####",
        "###==== ===========#####",
        "######=<=###############",
        "######===###############",
        "########################",
        "########################",
        "########################",
        "########################",
        "########################",
        "########################"
      ],
      "palettes": [
        "multistory_house",
        "lower_level"
      ],
      "terrain": {
        "y": "t_water_sh"
      }
    },
    "id": "403e4f2f-e1cb-4d87-afe3-e95a64e3e937"
  }
]