[
  {
    "type": "mapgen",
    "om_terrain": "3storyE_first",
    "weight": 250,
    "method": "json",
    "object": {
      "fill_ter": "t_floor",
      "rows": [
        "###########W############",
        "###########W############",
        "##########WWW###########",
        "######=w=w=+=w=w=#######",
        "######=         =#######",
        "######=b        =#######",
        "###==w=----     ==w=####",
        "###=S   ss|      AA=####",
        "###w&     +        =####",
        "###=----------a    w####",
        "###w        p|    A=####",
        "###w   TTTc  +    A=####",
        "###w  cTTT   +     =####",
        "###w        p|     w####",
        "###=  --++-------  =####",
        "###w  |    |d|<<   w####",
        "###=>>|R   | |<<   w####",
        "###====U   -+---====####",
        "######=C       o=#######",
        "######=CssC    o=#######",
        "######==w==w==w==#######",
        "########################",
        "########################",
        "########################"
      ],
      "palettes": [
        "multistory_house",
        "ground_level"
      ]
    },
    "id": "587aa772-f81c-45b4-a0a2-b54bec8fcc50"
  }
]