[
  {
    "type": "mapgen",
    "om_terrain": "3storyF_basement",
    "weight": 250,
    "method": "json",
    "object": {
      "fill_ter": "t_water_sh",
      "rows": [
        "########################",
        "########################",
        "########################",
        "##====================##",
        "##=h                 =##",
        "##=H                 =##",
        "##=                  =##",
        "##=                  =##",
        "##=  88              =##",
        "##=<<88              =##",
        "##=                  =##",
        "##=                  =##",
        "##=                  =##",
        "##=                  =##",
        "##=                  =##",
        "##=                  =##",
        "##=                  =##",
        "##====================##",
        "########################",
        "########################",
        "########################",
        "########################",
        "########################",
        "########################"
      ],
      "palettes": [
        "multistory_house",
        "lower_level"
      ],
      "set": [
        {
          "square": "terrain",
          "x": 3,
          "y": 4,
          "x2": 20,
          "y2": 19,
          "id": "t_water_sh",
          "chance": 30
        }
      ]
    },
    "id": "ae7a8125-e554-4877-a466-85b8110379e5"
  }
]