[
  {
    "type": "mapgen",
    "om_terrain": "3storyD_first",
    "weight": 250,
    "method": "json",
    "object": {
      "fill_ter": "t_floor",
      "rows": [
        "#############W##########",
        "#############W##########",
        "#==w==#######WWWWWW#####",
        "#=<<<=######===w=+=w==##",
        "#w   ===www==b      b=##",
        "#=T                 b=##",
        "#===-----   ---+--====##",
        "###=l  l|   |ss  l=#####",
        "###=--+--   |     =#####",
        "###=C  R|   |~~  &=#####",
        "###wo   |   ------=#####",
        "###wC            d=#####",
        "###ws   C   TT    88####",
        "###=C   C   TTc   N8####",
        "###=CCCCC   TT    88####",
        "###==ww==   TTc   ==w==#",
        "###F###>=   TT    |d d=#",
        "###F####=b        |d d=#",
        "###F####=---  ---+--+==#",
        "###F####g      |d     =#",
        "###F####*  TTc |BB   c=#",
        "###F####g      |BB  DD=#",
        "###fffff=gggggg========#",
        "########################"
      ],
      "palettes": [
        "multistory_house",
        "ground_level"
      ]
    },
    "id": "6cd9c28b-d1b5-4914-9ffc-2a34c7c6357e"
  }
]