[
  {
    "type": "mapgen",
    "om_terrain": "3storyD_second",
    "weight": 250,
    "method": "json",
    "object": {
      "fill_ter": "t_floor",
      "rows": [
        "########################",
        "########################",
        "#=w=w=##################",
        "#w>>>w######rrrrrrrrrr##",
        "#=   =========www==rrr##",
        "#w<<   |d|TT      wrrr##",
        "#=w=   | +     BB =rrr##",
        "###=   |d|d    BBM=#####",
        "###w   -----+-----=#####",
        "###w             b=#####",
        "###=p             =#####",
        "###=--+--------   =#####",
        "###=l  s|bbbbb|   88####",
        "###=   s|D    |   88####",
        "###=&  S|Dc   +   88####",
        "###======D    |   =====#",
        "#####rrr=bbbbb|   +   =#",
        "#####rrr=------++-|   =#",
        "#####rrr=        T|   =#",
        "########=D  BB   T|   =#",
        "########wD  BB   T|--+=#",
        "########=D        +d|d=#",
        "########====ww==w======#",
        "########################"
      ],
      "palettes": [
        "multistory_house",
        "upper_level"
      ]
    },
    "id": "72074619-5290-4b0a-8eb3-768d66db161b"
  }
]