[
  {
    "type": "mapgen",
    "om_terrain": "3storyE_first",
    "weight": 250,
    "method": "json",
    "object": {
      "fill_ter": "t_floor",
      "rows": [
        "########W###############",
        "########W###############",
        "########W###############",
        "######==+=ww=ww==#######",
        "######=   a    b=#######",
        "######w      A  w#######",
        "###==w=      A  ====####",
        "###=            |ll=####",
        "###w      AAAT b|  =####",
        "###=  -----------+-=####",
        "###w  |  d|d|     C=####",
        "###=  +   + | T   sw####",
        "###w  |BB + | Tc  ow####",
        "###=  |BB |d|     R=####",
        "###w  -----------+-=####",
        "###=          <<|  =####",
        "###=>>        <<|ll=####",
        "###====----+----====####",
        "######=     c   =#######",
        "######=  c      =#######",
        "######==ggg*ggg==#######",
        "########################",
        "########################",
        "########################"
      ],
      "palettes": [
        "multistory_house",
        "ground_level"
      ]
    },
    "id": "a7adeca3-a66b-4bbb-b1e8-fde6bc3be595"
  }
]