[
  {
    "type": "mapgen",
    "om_terrain": "3storyD_basement",
    "weight": 0,
    "method": "json",
    "object": {
      "fill_ter": "t_concrete_floor",
      "rows": [
        "########################",
        "########################",
        "#=====##################",
        "#= % =######==========##",
        "#=   ========T      Q=##",
        "#=   +      |T      q=##",
        "#===--      --  --====##",
        "###=              =#####",
        "###=              =#####",
        "###=             x=#####",
        "###=              =#####",
        "###=         ---+-=#####",
        "###=         |&  s=#####",
        "###=        H|   s=#####",
        "###=        h|   S=#####",
        "###====+======+========#",
        "######=<+      AAA a  =#",
        "######===             =#",
        "########=C   TTTc     =#",
        "########=o   TTT      =#",
        "########=s         BB =#",
        "########=CCU       BBd=#",
        "########===============#",
        "########################"
      ],
      "palettes": [
        "multistory_house",
        "lower_level"
      ],
      "terrain": {
        "%": "t_sewage_pump"
      }
    },
    "id": "42c1c5a0-c22d-4049-8f6a-737f9ff5af38"
  }
]