[
  {
    "type": "mapgen",
    "om_terrain": "3storyA_basement",
    "weight": 250,
    "method": "json",
    "object": {
      "fill_ter": "t_concrete_floor",
      "rows": [
        "########################",
        "########################",
        "########################",
        "##====================##",
        "##=   x x x          =##",
        "##=                  =##",
        "##= TT  1      1     =##",
        "##= TT             c =##",
        "##= TT            c  =##",
        "##= TT  1      1  c  =##",
        "##=                c =##",
        "##=               cc =##",
        "##==========+========###",
        "#########=Q   LLL= bb=##",
        "#########=q          =##",
        "#########=       =   =##",
        "#########=========  =###",
        "#########=l          =##",
        "#########=H          =##",
        "#########=h         <=##",
        "#########=============##",
        "########################",
        "########################",
        "########################"
      ],
      "palettes": [
        "multistory_house",
        "lower_level"
      ]
    },
    "id": "f7327ffa-e2fd-4363-b1c7-3e503188091e"
  }
]