[
  {
    "type": "mapgen",
    "om_terrain": "3storyD_basement",
    "weight": 250,
    "method": "json",
    "object": {
      "fill_ter": "t_concrete_floor",
      "rows": [
        "########################",
        "########################",
        "########################",
        "########################",
        "########################",
        "########################",
        "########################",
        "########################",
        "########################",
        "########################",
        "########################",
        "########################",
        "########################",
        "########################",
        "########################",
        "######=================#",
        "######=<+            x=#",
        "######===            x=#",
        "########=   ----     x=#",
        "########=     T|h     =#",
        "########=Q    T|H     =#",
        "########=q    T|      =#",
        "########===============#",
        "########################"
      ],
      "palettes": [
        "multistory_house",
        "lower_level"
      ]
    },
    "id": "48a49e06-944e-4d70-aeb9-bec0c2c95506"
  }
]