[
  {
    "type": "mapgen",
    "om_terrain": "3storyB_basement",
    "weight": 250,
    "method": "json",
    "object": {
      "fill_ter": "t_concrete_floor",
      "rows": [
        "########################",
        "########################",
        "##############=======###",
        "##############=Q   H=###",
        "##############=     =###",
        "##############=q   h=###",
        "##=============-- --=###",
        "##=                 =###",
        "##=  v              =###",
        "##=          v      =###",
        "##=                 =###",
        "##=    v            =###",
        "##=          v      =###",
        "##=                 =###",
        "##=    v            =###",
        "##=            ss  <=###",
        "##=----  ---=========###",
        "##=        L=###########",
        "##=        L=###########",
        "##=b    c   =###########",
        "##=b TTTTTT =###########",
        "##===========###########",
        "########################",
        "########################"
      ],
      "palettes": [
        "multistory_house",
        "lower_level"
      ],
      "vehicles": {
        "v": {
          "vehicle": "bicycle",
          "chance": 30,
          "status": 1
        }
      }
    },
    "id": "29008499-2378-4dbd-90cc-07ee317a9b94"
  }
]