[
  {
    "type": "mapgen",
    "om_terrain": "3storyE_second",
    "weight": 0,
    "method": "json",
    "object": {
      "fill_ter": "t_floor",
      "rows": [
        "########################",
        "########################",
        "########################",
        "######rrrrrrrrrrr#######",
        "######rrrrrrrrrrr#######",
        "######rrrrrrrrrrr#######",
        "###fff===========rrr####",
        "###Frr=       <<=rrr####",
        "###Frrg       <<=rrr####",
        "###Frrg  -------=rrr####",
        "###Frrg  |D   +d=rrr####",
        "###Frr*  |Dc  --=rrr####",
        "###Frr*  |D   BB=rrr####",
        "###Frrg  |    BB=rrr####",
        "###Frrg  --+----=rrr####",
        "###Frrg       >>=rrr####",
        "###Frr=       >>=rrr####",
        "###fff===========rrr####",
        "######rrrrrrrrrrr#######",
        "######rrrrrrrrrrr#######",
        "######rrrrrrrrrrr#######",
        "########################",
        "########################",
        "########################"
      ],
      "palettes": [
        "multistory_house"
      ],
      "terrain": {
        "#": "t_open_air"
      }
    },
    "id": "97688dd7-9acd-4928-a130-0c3958ef2c5f"
  }
]