[
  {
    "type": "mapgen",
    "om_terrain": "3storyA_first",
    "weight": 250,
    "method": "json",
    "object": {
      "fill_ter": "t_floor",
      "rows": [
        "#################WW#####",
        "#################WW#####",
        "#################WW#####",
        "##====w====w===w=++=w=##",
        "##=&    |            =##",
        "##w     +            w##",
        "##=S  ss|bbbbb       =##",
        "##=-----------       w##",
        "##=p        b|       =##",
        "##w   AAAA   |     <<=##",
        "##w          +    ---=##",
        "##=p       a |    + l=##",
        "##=====8N=-----  ----=##",
        "##F####88=CCCR      R=##",
        "##F######=C      c   =##",
        "##F######ws    TTTT  =##",
        "##F######=s          =##",
        "##F######=CCoUC     L=##",
        "##F######=-------+---=##",
        "##F######g  c      +>=##",
        "##F######==gggggg+====##",
        "##F#####################",
        "##ffffffff##############",
        "########################"
      ],
      "palettes": [
        "multistory_house",
        "ground_level"
      ],
      "set": [
        {
          "square": "terrain",
          "x": 3,
          "y": 4,
          "x2": 7,
          "y2": 6,
          "id": "t_linoleum_white"
        },
        {
          "square": "terrain",
          "x": 10,
          "y": 13,
          "x2": 20,
          "y2": 17,
          "id": "t_linoleum_white"
        }
      ]
    },
    "id": "edfdad6e-824d-4d2a-ad13-efc84b305690"
  }
]