[
  {
    "type": "mapgen",
    "om_terrain": "3storyC_second",
    "weight": 250,
    "method": "json",
    "object": {
      "fill_ter": "t_floor",
      "rows": [
        "########################",
        "########################",
        "#########rrrrrr#########",
        "#########rrrrrr#########",
        "####================####",
        "####=d +     BB   D=####",
        "####=---     BB  c7=####",
        "####=>>|          D=####",
        "####=  -+-------+--=####",
        "####=    |ss  &| |d88###",
        "####=    +   ~~|d| 88###",
        "####=   ----------+=####",
        "####=   +          =####",
        "####=<< |d       B w####",
        "####=bbb|BB cTT  Bd=####",
        "####======w==w======####",
        "#########rrrrrr#########",
        "########################",
        "########################",
        "#################rrrr###",
        "#################rrrr###",
        "#################rrrr###",
        "#################rrrr###",
        "########################"
      ],
      "palettes": [
        "multistory_house",
        "upper_level"
      ]
    },
    "id": "abe0eff7-557b-45ca-a96a-e838c868d816"
  }
]