[
  {
    "type": "mapgen",
    "om_terrain": "3storyE_roof",
    "weight": 0,
    "method": "json",
    "object": {
      "fill_ter": "t_flat_roof",
      "rows": [
        "########################",
        "########################",
        "########################",
        "########################",
        "########################",
        "########################",
        "######rrrrrrrrrrr#######",
        "######rrrrrrrrrrr#######",
        "######rrrrrrrrrrr#######",
        "######rrrrrrrrrrr#######",
        "######rrrrrrrrrrr#######",
        "######rrrrrrrrrrr#######",
        "######rrrrrrrrrrr#######",
        "######rrrrrrrrrrr#######",
        "######rrrrrrrrrrr#######",
        "######rrrrrrrrrrr#######",
        "######rrrrrrrrrrr#######",
        "######rrrrrrrrrrr#######",
        "########################",
        "########################",
        "########################",
        "########################",
        "########################",
        "########################"
      ],
      "palettes": [
        "multistory_house"
      ],
      "terrain": {
        "#": "t_open_air"
      }
    },
    "id": "9fe9d49f-40b3-4561-99c4-1ff188ef05fb"
  }
]