[
  {
    "type": "mapgen",
    "om_terrain": "3storyD_second",
    "weight": 250,
    "method": "json",
    "object": {
      "fill_ter": "t_floor",
      "rows": [
        "########################",
        "########################",
        "#==w==##################",
        "#=>>>=######rrrrrrrrrr##",
        "#w   ===w==w==www==rrr##",
        "#=<<              wrrr##",
        "#===-+----------  =rrr##",
        "###=  DD|&|s  l|  =#####",
        "###=  c |*|s   |  w#####",
        "###w    |      +  =#####",
        "###=  BB|~~   l|  =#####",
        "###=  BB|------|  w#####",
        "###=+---- B  DD|  88####",
        "###= |x + B   c|  88####",
        "###=d|dd|      +  88####",
        "###======-------  ==w==#",
        "#####rrr=D    d|  |TTT=#",
        "#####rrrwDc    +  +   =#",
        "#####rrr=7     |--|   w#",
        "########=    BB|d +   =#",
        "########w    BB|--| BBw#",
        "########=p     + d|dBB=#",
        "########===w=w=========#",
        "########################"
      ],
      "palettes": [
        "multistory_house",
        "upper_level"
      ]
    },
    "id": "465255d3-3030-4f54-b2b2-8a92c74b1285"
  }
]