[
  {
    "type": "mapgen",
    "om_terrain": "3storyB_second",
    "weight": 250,
    "method": "json",
    "object": {
      "fill_ter": "t_floor",
      "rows": [
        "########################",
        "########################",
        "##############===w===###",
        "#############r=&   S=###",
        "#############rw     w###",
        "#############r=   ss=###",
        "##=====w=======-+---=###",
        "##= BB     dG       =###",
        "##w         +       w###",
        "##= TTT     G   c   =###",
        "##=GGGGGGG+GG   Tc  88##",
        "##=d   d|d dE   T   88##",
        "##=EE+EEEEEEE   T   =###",
        "##=D        E       w###",
        "##=Dc       +       =###",
        "##=i        E>>   <<=###",
        "##=EEEEEEE+EE===www===##",
        "##w    BB   =###########",
        "##=    BB   =###########",
        "##=        d=###########",
        "##=bb       =###########",
        "##=====ww====###########",
        "########################",
        "########################"
      ],
      "palettes": [
        "multistory_house",
        "upper_level"
      ],
      "terrain": {
        "G": "t_wall_r",
        "E": "t_wall_g"
      },
      "set": [
        {
          "square": "terrain",
          "x": 15,
          "y": 3,
          "x2": 19,
          "y2": 5,
          "id": "t_linoleum_white"
        },
        {
          "square": "terrain",
          "x": 3,
          "y": 13,
          "x2": 11,
          "y2": 15,
          "id": "t_floor_red"
        }
      ]
    },
    "id": "63e83937-a702-41c8-a3c5-e8cdb27979d3"
  }
]