[
  {
    "type": "mapgen",
    "om_terrain": "3storyB_third",
    "weight": 250,
    "method": "json",
    "object": {
      "fill_ter": "t_floor",
      "rows": [
        "########################",
        "########################",
        "##############rrrrrrr###",
        "##############rrrrrrr###",
        "##############rrrrrrr###",
        "##############rrrrrrr###",
        "##====w==w=====w=w=w=###",
        "##=d      |d|       =###",
        "##= BB    + |  BB   w###",
        "##=       |-|       =###",
        "##=TT     |d+      N88##",
        "##=------+------+---88##",
        "##=&  ss|           =###",
        "##w     +           w###",
        "##=*----|   --+---  =###",
        "##=S|d d|   |L  L|>>=###",
        "##=---+---+-=========###",
        "##=         =###########",
        "##w         w###########",
        "##w   BB  c w###########",
        "##=b      DD=###########",
        "##==w==w=====###########",
        "########################",
        "########################"
      ],
      "palettes": [
        "multistory_house",
        "upper_level"
      ],
      "set": [
        {
          "square": "terrain",
          "x": 3,
          "y": 6,
          "x2": 7,
          "y2": 7,
          "id": "t_linoleum_white"
        },
        {
          "square": "terrain",
          "x": 3,
          "y": 7,
          "x2": 9,
          "y2": 10,
          "id": "t_carpet_yellow"
        },
        {
          "square": "terrain",
          "x": 13,
          "y": 7,
          "x2": 19,
          "y2": 10,
          "id": "t_carpet_red"
        },
        {
          "square": "terrain",
          "x": 3,
          "y": 17,
          "x2": 11,
          "y2": 20,
          "id": "t_carpet_green"
        }
      ]
    },
    "id": "5610c19b-808a-40b9-9a8b-e11c5cc118cd"
  }
]