[
  {
    "type": "mapgen",
    "om_terrain": "3storyB_third",
    "weight": 250,
    "method": "json",
    "object": {
      "fill_ter": "t_floor",
      "rows": [
        "########################",
        "########################",
        "##############rrrrrrr###",
        "##############rrrrrrr###",
        "##############rrrrrrr###",
        "##############rrrrrrr###",
        "##====w==w=====w=w=w=###",
        "##=b       d|b    a =###",
        "##=Dc     BB| A     w###",
        "##=D      BB| A     =###",
        "##=    -----| A    N88##",
        "##=    |S  s|       88##",
        "##=T   |&  s|     a =###",
        "##=+--+---+---    --=###",
        "##w  |              =###",
        "##=dd|            >>=###",
        "##=------+--=========###",
        "##= b b b b =###########",
        "##w b b b b w###########",
        "##w   b b b w###########",
        "##=a        =###########",
        "##==w==w==w==###########",
        "########################",
        "########################"
      ],
      "palettes": [
        "multistory_house",
        "upper_level"
      ]
    },
    "id": "967eb6a1-2cf2-4514-9ebe-a2cab471835d"
  }
]