[
  {
    "type": "mapgen",
    "om_terrain": "3storyE_third",
    "weight": 250,
    "method": "json",
    "object": {
      "fill_ter": "t_floor",
      "rows": [
        "########################",
        "########################",
        "########################",
        "########################",
        "########################",
        "########################",
        "######==w=====w==#######",
        "######=& ss|  >>=#######",
        "######w    +  >>w#######",
        "######=~~  |    =#######",
        "######=----|b   w#######",
        "######=d  d|b   =#######",
        "######=-++----+-=#######",
        "######=         =#######",
        "######w  BB     w#######",
        "######w  BB   c w#######",
        "######=T     D7D=#######",
        "######==w==w==w==#######",
        "########################",
        "########################",
        "########################",
        "########################",
        "########################",
        "########################"
      ],
      "palettes": [
        "multistory_house"
      ],
      "terrain": {
        "#": "t_open_air"
      },
      "toilets": {
        "&": {
          "amount": [
            0,
            40
          ]
        }
      }
    },
    "id": "528cdcf5-f97c-4b73-b5c9-78b7631a190a"
  }
]