[
  {
    "type": "mapgen",
    "om_terrain": "3storyD_second",
    "weight": 250,
    "method": "json",
    "object": {
      "fill_ter": "t_floor",
      "rows": [
        "########################",
        "########################",
        "#==w==##################",
        "#=>>>=######rrrrrrrrrr##",
        "#w   ===w====w==ww=rrr##",
        "#=<<        |c  BBwrrr##",
        "#===------  +   BBwrrr##",
        "###wS  ss|  |     =#####",
        "###=     |  |T    w#####",
        "###w&    +  |---++=#####",
        "###=-----|  |d |dd=#####",
        "###=d|BB |  |-+---=#####",
        "###=+|   |  |d  B 88####",
        "###w     +  +   B 88####",
        "###=DD  T|  |T    88####",
        "###===w==-  ------==g==#",
        "#####Frr*            T=#",
        "#####Frr*        c    g#",
        "#####fff=n    cTTT    g#",
        "########gn     TTT    g#",
        "########gn            g#",
        "########=b           b=#",
        "########==ggggggggggg==#",
        "########################"
      ],
      "palettes": [
        "multistory_house",
        "upper_level"
      ]
    },
    "id": "97cf7417-10be-4e54-84b8-b43edc69644f"
  }
]