[
  {
    "type": "mapgen",
    "om_terrain": "3storyA_basement",
    "weight": 250,
    "method": "json",
    "object": {
      "fill_ter": "t_concrete_floor",
      "rows": [
        "########################",
        "########################",
        "########################",
        "##====================##",
        "##=R     |   |       =##",
        "##=R                 =##",
        "##=R     |   |  z    =##",
        "##=-------   --------=##",
        "##=   H h|   |ddd  x =##",
        "##=Q               x =##",
        "##=                x =##",
        "##=q     |   |  xxxx =##",
        "##========   --------=##",
        "#########=   | bbbbb =##",
        "#########=   |    T  =##",
        "#########=       cT  =##",
        "#########=   |    T  =##",
        "#########=   |       =##",
        "#########=   --------=##",
        "#########=          <=##",
        "#########=============##",
        "########################",
        "########################",
        "########################"
      ],
      "palettes": [
        "multistory_house",
        "lower_level"
      ]
    },
    "id": "9055237c-510e-400d-866c-c2966b27c07c"
  }
]