[
  {
    "type": "mapgen",
    "om_terrain": "3storyC_second",
    "weight": 250,
    "method": "json",
    "object": {
      "fill_ter": "t_floor",
      "rows": [
        "########################",
        "########################",
        "#########rrrrrr#########",
        "#########rrrrrr#########",
        "####======wwww===w==####",
        "####=d +        7DD=####",
        "####=--|         c w####",
        "####=>>|iii   c    =####",
        "####w  ----+-------=####",
        "####w              88###",
        "####=   bb bbbbbbbb88###",
        "####w              w####",
        "####w   bbbbbb bbbb=####",
        "####=<<            w####",
        "####=   bbbbbbbbbbb=####",
        "####==w====w===w====####",
        "#########rrrrrr#########",
        "########################",
        "########################",
        "#################rrrr###",
        "#################rrrr###",
        "#################rrrr###",
        "#################rrrr###",
        "########################"
      ],
      "palettes": [
        "multistory_house",
        "upper_level"
      ]
    },
    "id": "c6710712-6ff9-46d1-9880-e1ae32fbb307"
  }
]