[
  {
    "type": "mapgen",
    "om_terrain": "3storyF_first",
    "weight": 250,
    "method": "json",
    "object": {
      "fill_ter": "t_floor",
      "rows": [
        "##########WWWW##########",
        "###########WW###########",
        "##########WWWW##########",
        "##===w=====++=====ww==##",
        "##=U   cTT|   |d|   d=##",
        "##wo    TT|   | +    w##",
        "##ws      +   ---  BB=##",
        "##=CC    R|    b|  BB=##",
        "##=--88-----    |b   w##",
        "##w>>88& ss|    |b  d=##",
        "##=  |S    +    --+--=##",
        "##w  |-+----         +##",
        "##=  |d |<<     ---+-=##",
        "##w  ----      A|b   g##",
        "##=     a      A| c  g##",
        "##w             | c  g##",
        "##=bb  AAA      |    g##",
        "##====w=====w=++=gggg1##",
        "####HH##################",
        "########################",
        "########################",
        "########################",
        "########################",
        "########################"
      ],
      "palettes": [
        "multistory_house",
        "ground_level"
      ]
    },
    "id": "ecba2ec4-4354-44a0-89e9-d99ade0f30f7"
  }
]