[
  {
    "type": "mapgen",
    "om_terrain": "3storyA_second",
    "weight": 250,
    "method": "json",
    "object": {
      "fill_ter": "t_floor",
      "rows": [
        "########################",
        "########################",
        "########################",
        "##==ww=w====w==w===w==##",
        "##=      b|          =##",
        "##w BB    +  ------  =##",
        "##=      b|  |S  &|<<=##",
        "##=----+--|  |    |  w##",
        "##= d|d  d|  |s   |--=##",
        "##=+------|  |s  M|>>=##",
        "##= BB   d|  --+---  =##",
        "##=       +          =##",
        "##==ww=88====w==w==w==##",
        "#######88rrrrrrrrrrrrr##",
        "#########rrrrrrrrrrrrr##",
        "#########rrrrrrrrrrrrr##",
        "#########rrrrrrrrrrrrr##",
        "#########rrrrrrrrrrrrr##",
        "#########rrrrrrrrrrrrr##",
        "#########rrrrrrrrrrrrr##",
        "#########rrrrrrrrrrrrr##",
        "########################",
        "########################",
        "########################"
      ],
      "palettes": [
        "multistory_house",
        "upper_level"
      ],
      "set": [
        {
          "square": "terrain",
          "x": 14,
          "y": 6,
          "x2": 17,
          "y2": 9,
          "id": "t_linoleum_white"
        },
        {
          "square": "terrain",
          "x": 3,
          "y": 4,
          "x2": 9,
          "y2": 6,
          "id": "t_carpet_green"
        },
        {
          "square": "terrain",
          "x": 3,
          "y": 10,
          "x2": 9,
          "y2": 11,
          "id": "t_carpet_yellow"
        }
      ]
    },
    "id": "976bbc88-562f-45de-bf95-78136998029d"
  }
]