[
  {
    "type": "mapgen",
    "om_terrain": "3storyF_first",
    "weight": 250,
    "method": "json",
    "object": {
      "fill_ter": "t_floor",
      "rows": [
        "########WW##############",
        "########WW##############",
        "########WW##############",
        "##===ww=++=ww====w=w==##",
        "##=b           |Tc BB=##",
        "##w            |c  BBw##",
        "##=    TAAA    +     =##",
        "##w            ----+-=##",
        "##=  88     A    |d d=##",
        "##w>>88N    A    ----=##",
        "##=------   A        w##",
        "##=bbb  +            w##",
        "##w     |<<  b---  --=##",
        "##=D   c|-----|TT   Cw##",
        "##wDc  c|Sss|R TT   U=##",
        "##=D    |   +       Cw##",
        "##=  iii|& l|   CosCC=##",
        "##==ww====w==w=+=ww===##",
        "########################",
        "########################",
        "########################",
        "########################",
        "########################",
        "########################"
      ],
      "palettes": [
        "multistory_house",
        "ground_level"
      ]
    },
    "id": "5267ddf3-4af8-4b4e-adbe-4deb2981f24f"
  }
]