[
  {
    "type": "mapgen",
    "om_terrain": "3storyC_second",
    "weight": 0,
    "method": "json",
    "object": {
      "fill_ter": "t_floor",
      "rows": [
        "########################",
        "########################",
        "#########rrrrrr#########",
        "#########rrrrrr#########",
        "####================####",
        "####=              =####",
        "####=              =####",
        "####=>>            =####",
        "####=              =####",
        "####=              88###",
        "####=              88###",
        "####=              =####",
        "####=              =####",
        "####=<<            =####",
        "####=              =####",
        "####================####",
        "#########rrrrrr#########",
        "########################",
        "########################",
        "#################rrrr###",
        "#################rrrr###",
        "#################rrrr###",
        "#################rrrr###",
        "########################"
      ],
      "palettes": [
        "multistory_house",
        "upper_level"
      ]
    },
    "id": "ce0e4b5f-c215-4ffe-b578-7b7b0090dc89"
  }
]