[
  {
    "type": "mapgen",
    "om_terrain": "3storyC_basement",
    "weight": 250,
    "method": "json",
    "object": {
      "fill_ter": "t_concrete_floor",
      "rows": [
        "########################",
        "########################",
        "########################",
        "########################",
        "####================####",
        "####=              =####",
        "####=              =####",
        "####=              =####",
        "####=              =####",
        "####=              =####",
        "####=<             =####",
        "####=              =####",
        "####=              =####",
        "####=              =####",
        "####=              =####",
        "####================####",
        "########################",
        "########################",
        "########################",
        "########################",
        "########################",
        "########################",
        "########################",
        "########################"
      ],
      "palettes": [
        "multistory_house",
        "lower_level"
      ]
    },
    "id": "75b66d0d-ce4c-4d70-88b6-9195cac545f3"
  }
]