[
  {
    "type": "mapgen",
    "om_terrain": "3storyC_first",
    "weight": 0,
    "method": "json",
    "object": {
      "fill_ter": "t_floor",
      "rows": [
        "########################",
        "########################",
        "#########1    1#########",
        "#########      #########",
        "####================####",
        "####=              =####",
        "####=              =####",
        "####=<<            =####",
        "####=              =####",
        "####=              88###",
        "####=>             88###",
        "####=              =####",
        "####=              =####",
        "####=              =####",
        "####=              =####",
        "####================####",
        "########################",
        "########################",
        "########################",
        "#################----###",
        "#################| >|###",
        "#################+  |###",
        "#################----###",
        "########################"
      ],
      "palettes": [
        "multistory_house",
        "ground_level"
      ]
    },
    "id": "9238a10f-6033-4686-b5c5-e3c6291ed8dc"
  }
]