[
  {
    "type": "mapgen",
    "om_terrain": "3storyF_first",
    "weight": 250,
    "method": "json",
    "object": {
      "fill_ter": "t_floor",
      "rows": [
        "#############WW#########",
        "#############WW#########",
        "#############WW#########",
        "##====ww=====++===ww==##",
        "##=CCCosCC|b        p=##",
        "##=U            TTc  w##",
        "##=C            TT   w##",
        "##=CC C  R|    cTT   =##",
        "##=--88---|         n=##",
        "##=>>88& s|  ---+----=##",
        "##=  |S   +  |      d=##",
        "##=  ------  |D    BB=##",
        "##=   bbb<<  |Dc   BB=##",
        "##=          |D      =##",
        "##= A     a  ------++=##",
        "##= A             |  =##",
        "##=b   AAA        |dd=##",
        "##==============++====##",
        "########################",
        "########################",
        "########################",
        "########################",
        "########################",
        "########################"
      ],
      "palettes": [
        "multistory_house",
        "ground_level"
      ]
    },
    "id": "63b0e1b4-8543-4879-8e83-b0c68cbc99d8"
  }
]