[
  {
    "type": "mapgen",
    "om_terrain": "3storyB_third",
    "weight": 0,
    "method": "json",
    "object": {
      "fill_ter": "t_floor",
      "rows": [
        "########################",
        "########################",
        "##############rrrrrrr###",
        "##############rrrrrrr###",
        "##############rrrrrrr###",
        "##############rrrrrrr###",
        "##===============w===###",
        "##=                 =###",
        "##=                 =###",
        "##=                 =###",
        "##=                 88##",
        "##=                 88##",
        "##=                 =###",
        "##=                 =###",
        "##=                 =###",
        "##=               >>=###",
        "##=         =========###",
        "##=         =###########",
        "##=         =###########",
        "##=         =###########",
        "##=         =###########",
        "##===========###########",
        "########################",
        "########################"
      ],
      "palettes": [
        "multistory_house",
        "upper_level"
      ]
    },
    "id": "94b35dda-e9d3-4306-9224-9e3e32a3a155"
  }
]