[
  {
    "//": "edited from no_wildlife",
    "type": "MONSTER_WHITELIST",
    "mode": "EXCLUSIVE",
    "categories": [
      "ALIEN",
      "WILDLIFE"
    ],
    "id": "6a5cd908-a9b9-4d7f-afae-47c6f9ff5d4d"
  }
]