[
  {
    "type": "mapgen",
    "om_terrain": "mega_2te",
    "//": "second floor. top edge",
    "weight": 10,
    "method": "json",
    "object": {
      "fill_ter": "t_thconc_floor",
      "rows": [
        "########################",
        "########################",
        "########################",
        "########################",
        "--------ggg--ggg--------",
        "     I            I     ",
        "                        ",
        "                        ",
        "                        ",
        "                        ",
        "                        ",
        "                        ",
        "                        ",
        "                        ",
        "                        ",
        "                        ",
        "                        ",
        "------------------------",
        "     I            I     ",
        "                        ",
        "                        ",
        "                        ",
        "                        ",
        "                        "
      ],
      "rotation": 0,
      "palettes": [
        "megastore"
      ]
    },
    "id": "7fe45331-08dc-4e2d-ae3f-82fc1f425832"
  }
]