[
  {
    "type": "mapgen",
    "om_terrain": "mega_1blc",
    "//": "ground floor. bottom left corner",
    "weight": 100,
    "method": "json",
    "object": {
      "fill_ter": "t_thconc_floor",
      "rows": [
        ",,,,,,,,,,,,,,,,,,,,,,,,",
        ",,,,,,,,,,,,,,,,,,,,,,,,",
        ",,,,,,,,,,,,,,,,,-------",
        ",,,,,,,,,,,,,,,,,|RRRRRR",
        ",,----------------......",
        ",,|kkIkkkkkkkkkkkkI.....",
        ",,|.....................",
        ",,|.....................",
        ",,|..kkkkkkkkkkkkkk.....",
        ",,|.....................",
        ",,|.....................",
        ",,|..kkkkkkkkkkkkkk.....",
        ",,|.....................",
        ",,|.....................",
        ",,|..kkkkkkkkkkkkkk.....",
        ",,|.....................",
        ",,|.....................",
        ",,|.....................",
        ",,|ppI.........CCCI.....",
        ",,---.....CCCr.6........",
        ",,WW|.....6.............",
        ",,WWg..........CCCr.....",
        ",,WWg.....CCCr.6........",
        ",,WWg.....6............."
      ],
      "rotation": 3,
      "palettes": [
        "megastore",
        "mega_goods_d"
      ],
      "set": [
        {
          "square": "terrain",
          "x": 9,
          "y": 9,
          "x2": 14,
          "y2": 14,
          "id": "t_concrete"
        }
      ]
    },
    "id": "b0a68905-f2da-4f6a-b047-975a196627bf"
  }
]