[
  {
    "type": "mapgen",
    "om_terrain": "mega_1trc",
    "//": "ground floor. top right corner",
    "weight": 100,
    "method": "json",
    "object": {
      "fill_ter": "t_thconc_floor",
      "rows": [
        ",,,,,PPPPPPPPPPPP,,,,,,,",
        ",,,,,PPPPPPPPPPPP,,,,,,,",
        ",,,,,PPPPPPPPPPPP--[----",
        ",,,,,PPPPPPPPPPPP|<..|..",
        ",,,,--][[][][][]-|l..!..",
        ",,,,|I..........%|I..|..",
        ",,,,|............|---|..",
        ",,,,|............|Css|..",
        ",,,,|............|...!..",
        ",,,,|............|&|t|..",
        ",,,,|............|---|..",
        ",,,,|...x........|&|t|..",
        ",,,,|............|...!..",
        ",,,,|.....X...X..|Css|..",
        ",,,,|............|----..",
        ",,,,|....x.......|f.....",
        ",,,,|l..xX...X..v|f.....",
        ",,,,|----....----|f.....",
        ",,,,|I.....x...x.|I.....",
        ",,,,|.....x......|f.....",
        ",,,,|..X.....x...|f.....",
        ",,,,|.....X......|f.....",
        ",,,,|x..x.......x|f.....",
        ",,,,|..xx........|f....."
      ],
      "rotation": 1,
      "palettes": [
        "megastore",
        "mega_goods_a"
      ],
      "terrain": {
        "%": "t_gates_mech_control",
        "m": "t_mdoor_frame"
      },
      "vehicles": {
        "v": {
          "vehicle": "shopping_cart",
          "chance": 30,
          "status": 0
        }
      }
    },
    "id": "685dddd0-df03-45d7-b282-14750f969ac0"
  }
]