[
  {
    "type": "mapgen",
    "om_terrain": "mega_3brc",
    "//": "third floor  bottom right corner",
    "weight": 10,
    "method": "json",
    "object": {
      "fill_ter": "t_flat_roof",
      "rows": [
        "########################",
        "########################",
        "####================####",
        "####================####",
        "####====================",
        "####====================",
        "####====================",
        "####====================",
        "####====================",
        "####=====######=========",
        "####=====######=========",
        "####=====######=========",
        "####=====######=========",
        "####=====######=========",
        "####=====######=========",
        "####====================",
        "####====================",
        "##======================",
        "##======================",
        "##======================",
        "##======================",
        "##======================",
        "##======================",
        "##======================"
      ],
      "rotation": 2,
      "palettes": [
        "megastore"
      ]
    },
    "id": "f17d723d-3876-4a7b-8ea0-0e57b1aa7121"
  }
]