[
  {
    "type": "mapgen",
    "om_terrain": "mega_3mid",
    "//": "roof. middle area",
    "weight": 10,
    "method": "json",
    "object": {
      "fill_ter": "t_flat_roof",
      "rows": [
        "========================",
        "========================",
        "========================",
        "========================",
        "========================",
        "========================",
        "========================",
        "========================",
        "========================",
        "=========######=========",
        "=========######=========",
        "=========######=========",
        "=========######=========",
        "=========######=========",
        "=========######=========",
        "========================",
        "========================",
        "========================",
        "========================",
        "========================",
        "========================",
        "========================",
        "========================",
        "========================"
      ],
      "rotation": [
        0,
        3
      ],
      "palettes": [
        "megastore"
      ]
    },
    "id": "d2532146-790d-45a7-a5b8-cb34fd35b1e1"
  }
]