[
  {
    "type": "mapgen",
    "om_terrain": "mega_1le",
    "//": "ground floor. left edge",
    "weight": 100,
    "method": "json",
    "object": {
      "fill_ter": "t_thconc_floor",
      "rows": [
        ",,,,,,,,,,,,,,,,,,,,,,,,",
        ",,,,,,,,,,,,,,,,,,,,,,,,",
        "------------------------",
        "rrrrr|CCCCCCCCCCCC|RRRRR",
        "....r|...........%|.....",
        "....rI..CCCCCCC..%I.....",
        "....r|...........%|..RR.",
        "....r|....CCC....%|..RR.",
        "....r|....6......%|.....",
        ".....C....C......%|..RR.",
        ".....C....CCC%%%%CC..RR.",
        "........................",
        "........................",
        "........................",
        "....kkkkkkkkkkkkkkkk....",
        "....kkkkkkkkkkkkkkkk....",
        "........................",
        "........................",
        "....RI..R..RR..R..IR....",
        "....RR..R..RR..R..RR....",
        ".....R..R..RR..R..R.....",
        ".....R..R..RR..R..R.....",
        ".....R..R..RR..R..R.....",
        "........................"
      ],
      "rotation": 3,
      "palettes": [
        "megastore",
        "mega_goods_b"
      ],
      "furniture": {
        "%": "f_displaycase"
      },
      "set": [
        {
          "square": "terrain",
          "x": 9,
          "y": 9,
          "x2": 14,
          "y2": 14,
          "id": "t_concrete"
        }
      ],
      "items": {
        "C": {
          "item": "consumer_electronics",
          "chance": 60
        },
        "%": {
          "item": "jewelry_front",
          "chance": 60
        }
      }
    },
    "id": "ebc7a4be-54c1-4d14-999b-3236ec8c76b7"
  }
]