[
  {
    "type": "mapgen",
    "om_terrain": "mega_1mid",
    "//": "ground floor. middle area",
    "weight": 100,
    "method": "json",
    "object": {
      "fill_ter": "t_thconc_floor",
      "rows": [
        "........................",
        ".KKKKKKKKKKKKKK..RR..RR.",
        ".KKKKKKKKKKKKKK..RR..RR.",
        ".................RR..RR.",
        ".KKKKKKKKKKKKKK..RR..RR.",
        ".KKKKKIKKKKKKKK..RI..RR.",
        ".................RR..RR.",
        ".KKKKKKKKKKKKKK..RR..RR.",
        ".KKKKKKKKKKKKKK..RR..RR.",
        ".................RR..RR.",
        ".................RR..RR.",
        ".kk..kk..........RR..RR.",
        ".kk..kk.................",
        ".kk..kk.................",
        ".kk..kk..rrrrrrrrrrrrrrr",
        ".kk..kk.................",
        ".kk..kk..rrrrrrrrrrrrrrr",
        ".kk..kk.................",
        ".kk..Ik..rrrrrrrrrrrrrrr",
        ".kk..kk.................",
        ".kk..kk..rrrrrrrrrrrrrrr",
        ".kk..kk.................",
        ".kk..kk..rrrrrrrrrrrrrrr",
        "........................"
      ],
      "rotation": [
        0,
        3
      ],
      "palettes": [
        "megastore",
        "mega_goods_a"
      ],
      "set": [
        {
          "square": "terrain",
          "x": 9,
          "y": 9,
          "x2": 14,
          "y2": 14,
          "id": "t_concrete"
        }
      ]
    },
    "id": "456c2cc8-05db-463b-93c4-4f8b63922ef7"
  }
]