[
  {
    "type": "mapgen",
    "om_terrain": "mega_1re",
    "//": "ground floor. right edge",
    "weight": 100,
    "method": "json",
    "object": {
      "fill_ter": "t_thconc_floor",
      "rows": [
        ",,,,,,,,,,,,,,,,,,,,,,,,",
        ",,,,,,,,,,,,,,,,,,,,,,,,",
        "------------------------",
        "rrrrrrrrrrrrrrrrrrrrrrrr",
        "........................",
        "..rrrIrrrrr..rrrrrIrrr..",
        "........................",
        "..rrrrrrrrr..rrrrrrrrr..",
        "........................",
        "..rrrrrrrrr..rrrrrrrrr..",
        "........................",
        "........................",
        "........................",
        ".KK.KK..................",
        ".KK.KK..................",
        ".KK.KK..................",
        ".KK.KK..................",
        ".KK.KK..................",
        ".KK.KI......CCCCCCI.....",
        "..................C.....",
        "............C.c...C.....",
        ".RR.........C6CCCCC.....",
        ".RR.....................",
        "........................"
      ],
      "rotation": 1,
      "palettes": [
        "megastore",
        "mega_goods_d"
      ],
      "set": [
        {
          "square": "terrain",
          "x": 9,
          "y": 9,
          "x2": 14,
          "y2": 14,
          "id": "t_concrete"
        }
      ],
      "items": {
        "C": {
          "item": "consumer_electronics",
          "chance": 60
        }
      }
    },
    "id": "ae4a183a-a8dd-4937-8df8-337e0e4fc7d8"
  }
]