[
  {
    "type": "mapgen",
    "om_terrain": "mega_1blc",
    "//": "ground floor. bottom left corner",
    "weight": 100,
    "method": "json",
    "object": {
      "fill_ter": "t_thconc_floor",
      "rows": [
        ",,,,,,,,,,,,,,,,,,,,,,,,",
        ",,,,,,,,,,,,,,,,,,,,,,,,",
        ",,,,,,,,,,,,,,,,,-------",
        ",,,,,,,,,,,,,,,,,|KKKKKK",
        ",,----------------......",
        ",,|KKIKKKKKKKKKKKKI.....",
        ",,|.....................",
        ",,|.....................",
        ",,|k.k.k.k..FFFFFFFFFF..",
        ",,|k.k.k.k..FFFFFFFFFF..",
        ",,|k.k.k.k..............",
        ",,|k.k.k.k..............",
        ",,|k.k.k.k..ffffffffff..",
        ",,|k...k.k..ffffffffff..",
        ",,|---.k.k..............",
        ",,|..|..................",
        ",,|..!..................",
        ",,|..|..................",
        ",,|..I.........CCCI.....",
        ",,----....CCCr.6........",
        ",,WW|.....6.............",
        ",,WWg..........CCCr.....",
        ",,WWg.....CCCr.6........",
        ",,WWg.....6............."
      ],
      "rotation": 3,
      "palettes": [
        "megastore",
        "mega_goods_a"
      ],
      "set": [
        {
          "square": "terrain",
          "x": 9,
          "y": 9,
          "x2": 14,
          "y2": 14,
          "id": "t_concrete"
        }
      ]
    },
    "id": "898d7403-adcf-4b52-b3f3-a502c0c428c8"
  }
]