[
  {
    "type": "mapgen",
    "om_terrain": "mega_2blc",
    "//": "second floor. bottom left corner",
    "weight": 10,
    "method": "json",
    "object": {
      "fill_ter": "t_open_air",
      "rows": [
        "########################",
        "########################",
        "#################-------",
        "#################|      ",
        "##----------------      ",
        "##|  I            I     ",
        "##|                     ",
        "##|                     ",
        "##|                     ",
        "##|      ######         ",
        "##|      ######         ",
        "##|      ######         ",
        "##|      ######         ",
        "##|      ######         ",
        "##|      ######         ",
        "##|                     ",
        "##|                     ",
        "##|                     ",
        "##|  I            I     ",
        "##---                   ",
        "####|                   ",
        "####|                   ",
        "####|                   ",
        "####|                   "
      ],
      "rotation": 3,
      "palettes": [
        "megastore"
      ]
    },
    "id": "c8ba4e8b-785f-40c7-aea7-ee915c5815d7"
  }
]