[
  {
    "type": "mapgen",
    "om_terrain": "mega_1re",
    "//": "ground floor. right edge",
    "weight": 100,
    "method": "json",
    "object": {
      "fill_ter": "t_thconc_floor",
      "rows": [
        ",,,,,,,,,,,,,,,,,,,,,,,,",
        ",,,,,,,,,,,,,,,,,,,,,,,,",
        "------------------------",
        "rrrrrrrrrrrrrrrrrrrrrrrr",
        "........................",
        "...rrIrrrrrrrrrrrrIrr...",
        "........................",
        "...rrrrrrrrrrrrrrrrrr...",
        "........................",
        "...rrrrrrrrrrrrrrrrrr...",
        "........................",
        "...rrrrrrrrrrrrrrrrrr...",
        "........................",
        "...rrrrrrrkkkkkkkkkkk...",
        "........................",
        "........................",
        "........................",
        "........................",
        "....RI..RR...RR..RI.....",
        "....RR..RR...RR..RR.....",
        "....RR..RR...RR..RR.....",
        "....RR..RR...RR..RR.....",
        "....RR..RR...RR..RR.....",
        "........................"
      ],
      "rotation": 1,
      "palettes": [
        "megastore",
        "mega_goods_b"
      ],
      "set": [
        {
          "square": "terrain",
          "x": 9,
          "y": 9,
          "x2": 14,
          "y2": 14,
          "id": "t_concrete"
        }
      ]
    },
    "id": "7aab89c3-5193-4263-a28a-1c65c9c91a64"
  }
]