[
  {
    "type": "mapgen",
    "om_terrain": "mega_2trc",
    "//": "second floor  top right corner",
    "weight": 10,
    "method": "json",
    "object": {
      "fill_ter": "t_thconc_floor",
      "rows": [
        "########################",
        "########################",
        "#################-------",
        "#################|>.<|  ",
        "####-------------|...|  ",
        "####|I           |...|  ",
        "####|            |..L|  ",
        "####|            |..L|  ",
        "####|            |...|  ",
        "####|            |.%%|  ",
        "####|            |.%%|  ",
        "####|            |...|  ",
        "####|            |%..|  ",
        "####|            |..%|  ",
        "####|            |----  ",
        "####|            |      ",
        "####|            |      ",
        "####|----    ----|      ",
        "####|I           |I     ",
        "####|            |      ",
        "####|            |      ",
        "####|            |      ",
        "####|            |      ",
        "####|            |      "
      ],
      "rotation": 1,
      "palettes": [
        "megastore"
      ],
      "terrain": {
        "%": "t_machinery_heavy",
        "m": "t_mdoor_frame"
      }
    },
    "id": "a1305fd5-b130-4180-ad79-fda497c61967"
  }
]