[
  {
    "type": "mapgen",
    "om_terrain": "mega_3tlc",
    "//": "roof. top left corner.",
    "weight": 10,
    "method": "json",
    "object": {
      "fill_ter": "t_flat_roof",
      "rows": [
        "########################",
        "########################",
        "########################",
        "########################",
        "####====================",
        "####====================",
        "####====================",
        "####====================",
        "####====================",
        "####====================",
        "####====================",
        "####====================",
        "####====================",
        "####====================",
        "####====================",
        "####====================",
        "####====================",
        "##======================",
        "##======================",
        "##======================",
        "##======================",
        "##======================",
        "##======================",
        "##======================"
      ],
      "rotation": 0,
      "palettes": [
        "megastore"
      ]
    },
    "id": "d09794ba-673c-4fd7-913f-1c904e4e1879"
  }
]