[
  {
    "type": "mapgen",
    "om_terrain": "mega_1te",
    "//": "ground floor. top edge",
    "weight": 100,
    "method": "json",
    "object": {
      "fill_ter": "t_thconc_floor",
      "rows": [
        ",,,,,,,,,,,,,,,,,,,,,,,,",
        ",,,,,,,,,,,,,,,,,,,,,,,,",
        ",,,,,,,,,,,,,,,,,,,,,,,,",
        ",,,,,,,,,,,,,,,,,,,,,,,,",
        "------------------------",
        ".....IKKKKKKKKKKKKI.....",
        "......................xx",
        "..XX..rrrrrrrrrrrr....xx",
        "..XX....................",
        ".....XX.................",
        "...xxXX.................",
        "...xx...................",
        "........................",
        "...xx............xx.....",
        "...xx............xx.....",
        ".........xx..xx.........",
        ".........xx..xx....LLL..",
        "-----------!!-----------",
        "RRRRRIRRRR....RRRRIRRRRR",
        "........................",
        ".RRRRRRRRRRRRRRRRRRRRRR.",
        "........................",
        ".RRRRRRRRRRRRRRRRRRRRRR.",
        "........................"
      ],
      "rotation": 0,
      "palettes": [
        "megastore",
        "mega_goods_c"
      ]
    },
    "id": "422078c1-843b-4cf0-98a0-2d1079a112d5"
  }
]