[
  {
    "type": "mapgen",
    "om_terrain": "mega_1blc",
    "//": "ground floor. bottom left corner",
    "weight": 100,
    "method": "json",
    "object": {
      "fill_ter": "t_thconc_floor",
      "rows": [
        ",,,,,,,,,,,,,,,,,,,,,,,,",
        ",,,,,,,,,,,,,,,,,,,,,,,,",
        ",,,,,,,,,,,,,,,,,-------",
        ",,,,,,,,,,,,,,,,,|RRRRRR",
        ",,----------------......",
        ",,|FFIFFFFFFFFFFFFI.....",
        ",,|.....................",
        ",,|.FFFFFFFFFFFFFF......",
        ",,|.....................",
        ",,|.KKKKKKKKKKKKKK......",
        ",,|.....................",
        ",,|.KKKKKKKKKKKKKK......",
        ",,|.....................",
        ",,|.kkkkkkkkkkkkkk......",
        ",,|.....................",
        ",,|%....................",
        ",,|%....................",
        ",,|.....................",
        ",,|%%I.........CCCI.....",
        ",,---.....CCCr.6........",
        ",,WW|.....6.............",
        ",,WWg..........CCCr.....",
        ",,WWg.....CCCr.6........",
        ",,WWg.....6............."
      ],
      "rotation": 3,
      "palettes": [
        "megastore",
        "mega_goods_c"
      ],
      "set": [
        {
          "square": "terrain",
          "x": 9,
          "y": 9,
          "x2": 14,
          "y2": 14,
          "id": "t_concrete"
        }
      ],
      "furniture": {
        "%": "f_vending_c"
      }
    },
    "id": "9a8f8a1c-f6a6-41ef-8ac8-242ab52efe73"
  }
]