[
  {
    "type": "mapgen",
    "om_terrain": "mega_1blc",
    "//": "ground floor. bottom left corner",
    "weight": 100,
    "method": "json",
    "object": {
      "fill_ter": "t_thconc_floor",
      "rows": [
        ",,,,,,,,,,,,,,,,,,,,,,,,",
        ",,,,,,,,,,,,,,,,,,,,,,,,",
        ",,,,,,,,,,,,,,,,,-------",
        ",,,,,,,,,,,,,,,,,|......",
        ",,----------------......",
        ",,|U.I|CCCCffFffF|I.....",
        ",,|o..!..........!......",
        ",,|o..|.......TTo|......",
        ",,|----C6CC6CC---|......",
        ",,|..............|......",
        ",,|..c..................",
        ",,|......TT...c.........",
        ",,|..TT..TT..TT.........",
        ",,|.cTT......TT.........",
        ",,|............c........",
        ",,|----gggggggg----.....",
        ",,|s..!.................",
        ",,|-+-|.................",
        ",,|&.I|........CCCI.....",
        ",,-----...CCCr.6........",
        ",,WWg.....6.............",
        ",,WWg..........CCCr.....",
        ",,WWg.....CCCr.6........",
        ",,WWg.....6............."
      ],
      "rotation": 3,
      "palettes": [
        "megastore",
        "mega_goods_b"
      ],
      "set": [
        {
          "square": "terrain",
          "x": 9,
          "y": 9,
          "x2": 14,
          "y2": 14,
          "id": "t_concrete"
        }
      ]
    },
    "id": "7bb54d77-3611-4064-a1fd-b63406bac5f3"
  }
]