[
  {
    "type": "mapgen",
    "om_terrain": "mega_1re",
    "//": "ground floor. right edge",
    "weight": 100,
    "method": "json",
    "object": {
      "fill_ter": "t_thconc_floor",
      "rows": [
        ",,,,,,,,,,,,,,,,,,,,,,,,",
        ",,,,,,,,,,,,,,,,,,,,,,,,",
        "------------------------",
        "kkkkkkkkkk.AA.kkkkkkkkkk",
        "........................",
        "...kkIkkkkk..bbbbbIbb...",
        "........................",
        "...kkkkkkkk..bbbbbbbb...",
        "........................",
        "...kkkkkkkk..bbbbbbbb...",
        "........................",
        "...kkkkkkkk..bbbbbbbb...",
        "........................",
        "...kkkkkkkk..bbbbbbbb...",
        "........................",
        "........................",
        "........................",
        ".....KK....KK....KK.....",
        ".....IK....KK....KI.....",
        "........................",
        ".....KK..........KK.....",
        ".....KK....KK....KK.....",
        "........................",
        "........................"
      ],
      "rotation": 1,
      "palettes": [
        "megastore",
        "mega_goods_c"
      ],
      "set": [
        {
          "square": "terrain",
          "x": 9,
          "y": 9,
          "x2": 14,
          "y2": 14,
          "id": "t_concrete"
        }
      ]
    },
    "id": "49b0f22d-0c8e-4c4e-a214-ce381232c3fe"
  }
]