[
  {
    "type": "mapgen",
    "om_terrain": "mega_3trc",
    "//": "third floor. top right corner",
    "weight": 10,
    "method": "json",
    "object": {
      "fill_ter": "t_flat_roof",
      "rows": [
        "########################",
        "########################",
        "#################=======",
        "#################===>===",
        "####====================",
        "####====================",
        "####====================",
        "####====================",
        "####====================",
        "####====================",
        "####====================",
        "####====================",
        "####====================",
        "####====================",
        "####====================",
        "####====================",
        "####====================",
        "####====================",
        "####====================",
        "####====================",
        "####====================",
        "####====================",
        "####====================",
        "####===================="
      ],
      "rotation": 1,
      "palettes": [
        "megastore"
      ]
    },
    "id": "46225444-a717-45e7-9a47-57362a32fcae"
  }
]