[
  {
    "type": "mapgen",
    "om_terrain": "mega_1te",
    "//": "ground floor. top edge",
    "weight": 100,
    "method": "json",
    "object": {
      "fill_ter": "t_thconc_floor",
      "rows": [
        ",,,,,,,,,,,,,,,,,,,,,,,,",
        ",,,,,,,,,,,,,,,,,,,,,,,,",
        ",,,,,,,,,,,,,,,,,,,,,,,,",
        ",,,,,,,,,,,,,,,,,,,,,,,,",
        "------------------------",
        ".....ILLLLLLLLLLLLIXX...",
        "...................XXxx.",
        ".....................xx.",
        "........................",
        "........................",
        "........................",
        "........................",
        "........................",
        "........................",
        "........................",
        "........................",
        "...................LLXX.",
        "---!--------------------",
        ".....IkkkkkkkkkkkkIkkkkk",
        "........................",
        "........................",
        ".....kkkkkkkkkkkkkkkkkkk",
        "........................",
        "........................"
      ],
      "rotation": 0,
      "palettes": [
        "megastore",
        "mega_goods_a"
      ]
    },
    "id": "40e784c9-52c5-4656-afe1-242bb4382d80"
  }
]