[
  {
    "type": "mapgen",
    "om_terrain": "mega_2mid",
    "//": "second floor. middle area",
    "weight": 10,
    "method": "json",
    "object": {
      "fill_ter": "t_thconc_floor",
      "rows": [
        "                        ",
        "                        ",
        "                        ",
        "                        ",
        "                        ",
        "     I            I     ",
        "                        ",
        "                        ",
        "                        ",
        "         ######         ",
        "         ######         ",
        "         ######         ",
        "         ######         ",
        "         ######         ",
        "         ######         ",
        "                        ",
        "                        ",
        "                        ",
        "     I            I     ",
        "                        ",
        "                        ",
        "                        ",
        "                        ",
        "                        "
      ],
      "rotation": [
        0,
        3
      ],
      "palettes": [
        "megastore"
      ]
    },
    "id": "e3b9d24d-09bb-432d-8342-8f486d91ed8b"
  }
]