[
  {
    "type": "mapgen",
    "om_terrain": "mega_1te",
    "//": "ground floor. top edge",
    "weight": 100,
    "method": "json",
    "object": {
      "fill_ter": "t_thconc_floor",
      "rows": [
        ",,,,,,,,,,,,,,,,,,,,,,,,",
        ",,,,,,,,,,,,,,,,,,,,,,,,",
        ",,,,,,,,,,,,,,,,,,,,,,,,",
        ",,,,,,,,,,,,,,,,,,,,,,,,",
        "------------------------",
        "x....ILLLLLLLLLLLLI.XX..",
        "x...................XX..",
        "........................",
        "...xx.................XX",
        "...xx.................XX",
        "........................",
        "........................",
        "........................",
        "........................",
        "..................XX....",
        "..................XX....",
        "........................",
        "------!!----------------",
        "KKKKKI...RRRRRRRRRIRRRRR",
        "........................",
        "........................",
        "......KKKKKKKKKKKK......",
        "......KKKKKKKKKKKK......",
        "........................"
      ],
      "rotation": 0,
      "palettes": [
        "megastore",
        "mega_goods_e"
      ]
    },
    "id": "af184ddf-f91e-4ba2-890c-2171ff05f8bb"
  }
]