[
  {
    "type": "mapgen",
    "om_terrain": "mega_1blc",
    "//": "ground floor. bottom left corner",
    "weight": 100,
    "method": "json",
    "object": {
      "fill_ter": "t_thconc_floor",
      "rows": [
        ",,,,,,,,,,,,,,,,,,,,,,,,",
        ",,,,,,,,,,,,,,,,,,,,,,,,",
        ",,,,,,,,,,,,,,,,,-------",
        ",,,,,,,,,,,,,,,,,|RRRRRR",
        ",,----------------......",
        ",,|r.IrrrrrrrrrrrrI..RR.",
        ",,|r.................RR.",
        ",,|r..rrrrrrrrrrrrr..RR.",
        ",,|r.................RR.",
        ",,|r..rrrrrrrrrrrrr..RR.",
        ",,|r.................RR.",
        ",,|r..rrrrrrrrrrrrr..RR.",
        ",,|r....................",
        ",,|r..rrrrrrrrrrrrr.....",
        ",,|.....................",
        ",,|...v.........v.......",
        ",,|.....................",
        ",,|.....................",
        ",,|FFIFFF......CCCI.....",
        ",,---.....CCCr.6........",
        ",,WW|.....6.............",
        ",,WWg..........CCCr.....",
        ",,WWg.....CCCr.6........",
        ",,WW|.....6............."
      ],
      "rotation": 3,
      "palettes": [
        "megastore",
        "mega_goods_e"
      ],
      "set": [
        {
          "square": "terrain",
          "x": 9,
          "y": 9,
          "x2": 14,
          "y2": 14,
          "id": "t_concrete"
        }
      ],
      "vehicles": {
        "v": {
          "vehicle": "food_cart",
          "chance": 50,
          "status": 0
        }
      }
    },
    "id": "4aca5607-8356-41c4-97e1-b530465185dc"
  }
]