[
  {
    "type": "mapgen",
    "om_terrain": "mega_1tlc",
    "//": "ground floor. top left corner",
    "weight": 100,
    "method": "json",
    "object": {
      "fill_ter": "t_thconc_floor",
      "rows": [
        ",,,,,,,,,,,,,,,,,,,,,,,,",
        ",,,,,,,,,,,,,,,,,,,,,,,,",
        ",,,,,,,,,,,,,,,,,,,,,,,,",
        ",,,,,,,,,,,,,,,,,,,,,,,,",
        ",,,,--------------------",
        ",,,,|I..l|&...|l..I|<<|.",
        ",,,,|n..l|--!-|l..n|<<|.",
        ",,,,|n..l|s...|l..n|!!|.",
        ",,,,|...l|s...|l...|....",
        ",,,,|-!-----!----!-|....",
        ",,,,|p.............|....",
        ",,,,|..............|....",
        ",,,,|....cTTTT.....|....",
        ",,,,|....cTTTT.....|....",
        ",,,,[..........--!-|....",
        ",,,,].....c.c..|...!....",
        ",,,,|..CCCCCCCC|...|....",
        ",,---------------!------",
        ",,|..I............I.....",
        ",,|.....................",
        ",,|.....................",
        ",,|.....................",
        ",,|.....................",
        ",,|....................."
      ],
      "rotation": 0,
      "palettes": [
        "megastore",
        "mega_goods_c"
      ],
      "items": {
        "C": {
          "item": "coffee_table",
          "chance": 30
        },
        "l": {
          "item": "everyday_gear",
          "chance": 75
        },
        "T": {
          "item": "office",
          "chance": 20
        }
      }
    },
    "id": "64d55bc2-c4c0-4cfa-9584-8a91113bb875"
  }
]