[
  {
    "type": "mapgen",
    "om_terrain": "mega_parking",
    "weight": 100,
    "method": "json",
    "object": {
      "fill_ter": "t_pavement",
      "rows": [
        "#,....................#,",
        ",......................7",
        "........................",
        "______............______",
        "........................",
        ".....v.............v....",
        "........................",
        "........................",
        "______............______",
        "........................",
        "........................",
        "......................v.",
        "........................",
        "______............______",
        "...........v..v.........",
        "........................",
        "........................",
        "........................",
        "______............______",
        "........................",
        ".....v..................",
        "........................",
        "1_____............_____,",
        "#,....................##"
      ],
      "rotation": 0,
      "terrain": {
        "1": "t_tree_young",
        "7": "t_tree",
        ".": "t_pavement",
        "_": "t_pavement_y",
        "#": "t_underbrush",
        ",": "t_grass"
      },
      "vehicles": {
        "v": {
          "vehicle": "city_vehicles",
          "chance": 10
        }
      }
    },
    "id": "90276ee6-561a-494b-896e-1528be5831a9"
  }
]