[
  {
    "type": "mapgen",
    "om_terrain": "mega_1tlc",
    "//": "ground floor. top left corner",
    "weight": 100,
    "method": "json",
    "object": {
      "fill_ter": "t_thconc_floor",
      "rows": [
        ",,,,,,,,,,,,,,,,,,,,,,,,",
        ",,,,,,,,,,,,,,,,,,,,,,,,",
        ",,,,,,,,,,,,,,,,,,,,,,,,",
        ",,,,,,,,,,,,,,,,,,,,,,,,",
        ",,,,--------------------",
        ",,,,|I..l|&...|l..I|<<|x",
        ",,,,|n..l|--!-|l..n|<<|x",
        ",,,,|n..l|s...|l..n|!!|.",
        ",,,,|...l|s...|l...|....",
        ",,,,|-!-----!----!-|....",
        ",,,,|p.............|....",
        ",,,,|..............|XX..",
        ",,,,|....cTTTT.....|XX..",
        ",,,,|....cTTTT.....|....",
        ",,,,[..........--!-|....",
        ",,,,].....c.c..|...!....",
        ",,,,|..CCCCCCCC|...|....",
        ",,---------------!------",
        ",,|K.I............Irrrrr",
        ",,|K....................",
        ",,|K.....K..K...........",
        ",,|K..K..K..K.....rrrrrr",
        ",,|K..K..K..K...........",
        ",,|K..K..K..K..........."
      ],
      "rotation": 0,
      "palettes": [
        "megastore",
        "mega_goods_d"
      ],
      "items": {
        "C": {
          "item": "coffee_table",
          "chance": 30
        },
        "l": {
          "item": "everyday_gear",
          "chance": 75
        },
        "T": {
          "item": "office",
          "chance": 20
        }
      }
    },
    "id": "04cb7e41-cc2f-4f96-9b32-33754f43dc7c"
  }
]