[
  {
    "type": "mapgen",
    "om_terrain": "mega_1mid",
    "//": "ground floor. middle area",
    "weight": 100,
    "method": "json",
    "object": {
      "fill_ter": "t_thconc_floor",
      "rows": [
        "........................",
        ".....r...rr.............",
        ".....r...rr...b...b...b.",
        ".....r...rr...b...b...b.",
        ".....r...rr...b...b...b.",
        ".rrrrI...rr...b...I...b.",
        ".........rr...b...b...b.",
        ".........rr...b...b...b.",
        ".rrrrrrrrrr...b...b...b.",
        ".rrrrrrrrrr...b...b...b.",
        "........................",
        "........................",
        ".kkkkkkkkkkkkkkkkkkkkkk.",
        "........................",
        ".kkkkkkkkkkkkkkkkkkkkkk.",
        "........................",
        "........................",
        "........................",
        "....RI.RR......RR.IR....",
        "....RR.RR......RR.RR....",
        "........................",
        "....RR............RR....",
        "....RR............RR....",
        "........................"
      ],
      "rotation": [
        0,
        3
      ],
      "palettes": [
        "megastore",
        "mega_goods_b"
      ],
      "set": [
        {
          "square": "terrain",
          "x": 9,
          "y": 9,
          "x2": 14,
          "y2": 14,
          "id": "t_concrete"
        }
      ]
    },
    "id": "a3a44665-b215-4499-b664-8300e12b4b1f"
  }
]