[
  {
    "type": "MOD_INFO",
    "id": "no_npc_food",
    "name": "Disable NPC Needs",
    "authors": [
      "Coolthulhu"
    ],
    "maintainers": [
      "Coolthulhu"
    ],
    "description": "Makes NPCs not require food, water or rest.",
    "category": "rebalance",
    "dependencies": [
      "bn"
    ]
  },
  {
    "type": "EXTERNAL_OPTION",
    "name": "NO_NPC_FOOD",
    "stype": "bool",
    "value": true,
    "id": "NO_NPC_FOOD"
  }
]