[
  {
    "type": "mapgen",
    "method": "json",
    "om_terrain": [
      "s_bunker_shop_b"
    ],
    "object": {
      "fill_ter": "t_rock",
      "rows": [
        "              fff       ",
        "              fvffffff  ",
        "              fbbbbbbf  ",
        "              fbffffbf  ",
        "        fffff fbf  faf  ",
        "       fftsrf fbf  fff  ",
        "       fvbbbf fbf       ",
        "     ffffffdfffdfffff   ",
        "     fnccmfbfjubbxfvf   ",
        "     fllccbbdbbbbbebf   ",
        "     fvccofjfbbbbbfbf   ",
        "     fffffffffgggffbf   ",
        "            fjhhhbfbf   ",
        "    fffffffffbbpbbdbf   ",
        "    fviiiiivfibbbbfff   ",
        "  fffbbbbbbbfibvbwf     ",
        "  fkdbiiiiibdbbbbhf     ",
        "  fffbbbbbbbfiqqbhf     ",
        "    fviiiiivffffdff     ",
        "    ffffffffffnlcmf     ",
        "        fvbbbdclcmf     ",
        "        fftsrfcccvf     ",
        "         ffffffffff     ",
        "                        "
      ],
      "terrain": {
        "a": "t_stairs_up",
        "b": "t_concrete_floor",
        "c": "t_floor",
        "d": "t_door_metal_c",
        "e": "t_door_metal_locked",
        "f": "t_concrete_wall",
        "g": "t_reinforced_glass",
        "h": "t_concrete_floor",
        "i": "t_concrete_floor",
        "j": "t_concrete_floor",
        "k": "t_plut_generator",
        "l": "t_floor",
        "m": "t_floor",
        "n": "t_floor",
        "o": "t_floor",
        "p": "t_concrete_floor",
        "q": "t_concrete_floor",
        "r": "t_concrete_floor",
        "s": "t_concrete_floor",
        "t": "t_concrete_floor",
        "u": "t_concrete_floor",
        "v": "t_utility_light",
        "w": "t_console_broken",
        "x": "t_atm"
      },
      "furniture": {
        "h": "f_table",
        "i": "f_rack",
        "j": "f_locker",
        "l": "f_bed",
        "m": "f_dresser",
        "n": "f_table",
        "o": "f_sofa",
        "p": "f_chair",
        "q": "f_sofa",
        "r": "f_toilet",
        "s": "f_sink",
        "t": "f_shower",
        "u": "f_crate_o"
      },
      "place_loot": [
        {
          "group": "mil_food_nodrugs",
          "chance": 90,
          "repeat": [
            10
          ],
          "x": [
            6,
            10
          ],
          "y": [
            18,
            18
          ]
        },
        {
          "group": "ammo_rifle_milspec",
          "chance": 90,
          "repeat": [
            10
          ],
          "x": [
            6,
            10
          ],
          "y": [
            16,
            16
          ]
        },
        {
          "group": "camping",
          "chance": 90,
          "repeat": [
            10
          ],
          "x": [
            6,
            10
          ],
          "y": [
            14,
            14
          ]
        },
        {
          "group": "allclothes",
          "chance": 90,
          "repeat": [
            4
          ],
          "x": [
            17,
            17
          ],
          "y": [
            19,
            20
          ]
        },
        {
          "group": "allclothes",
          "chance": 90,
          "repeat": [
            4
          ],
          "x": [
            9,
            9
          ],
          "y": [
            8,
            8
          ]
        },
        {
          "group": "book_military",
          "chance": 90,
          "repeat": [
            1
          ],
          "x": [
            6,
            6
          ],
          "y": [
            8,
            8
          ]
        },
        {
          "group": "book_military",
          "chance": 90,
          "repeat": [
            1
          ],
          "x": [
            14,
            14
          ],
          "y": [
            12,
            12
          ]
        },
        {
          "group": "cleaning_bulk",
          "chance": 90,
          "repeat": [
            2
          ],
          "x": [
            11,
            11
          ],
          "y": [
            10,
            10
          ]
        },
        {
          "group": "cleaning_bulk",
          "chance": 90,
          "repeat": [
            2
          ],
          "x": [
            13,
            13
          ],
          "y": [
            12,
            12
          ]
        },
        {
          "group": "guns_milspec",
          "chance": 90,
          "repeat": [
            2
          ],
          "x": [
            13,
            13
          ],
          "y": [
            14,
            15
          ]
        },
        {
          "group": "mil_food_nodrugs",
          "chance": 90,
          "repeat": [
            5
          ],
          "x": [
            13,
            13
          ],
          "y": [
            17,
            17
          ]
        },
        {
          "group": "mil_armor",
          "chance": 90,
          "repeat": [
            5
          ],
          "x": [
            17,
            17
          ],
          "y": [
            15,
            17
          ]
        }
      ],
      "place_npcs": [
        {
          "class": "bunker_merchant",
          "x": 15,
          "y": 13
        }
      ]
    },
    "id": "2ab0d57b-0186-4789-b555-3993155ef15c"
  }
]