[
  {
    "type": "mapgen",
    "om_terrain": "bandit_tower_3trc",
    "//": "top right corner, third and odd level floors.",
    "weight": 500,
    "method": "json",
    "object": {
      "fill_ter": "t_floor",
      "rows": [
        "########################",
        "########################",
        "########################",
        "#######==ww=====ww==ww==",
        "#######=..BB|d+..BB|BB==",
        "#####===....|-|....|BB==",
        "#####===....+d|....|....",
        "###=====+------+----....",
        "###=.a.............+....",
        "###=......-------+----++",
        "###w...A..|s.&|S|....|dd",
        "###w...A..+.....|....|--",
        "###w...A..|...|~|BB..+.d",
        "###=n....@--------------",
        "###=nn.......!..........",
        "###=--....---|..........",
        "###2.g....|RU|..===!!==.",
        "###2.g......C|..===..Mee",
        "###2.g..TT..C|..==>>>Mee",
        "###2.g..TT..s|..==>>>Mee",
        "###2.g......o|..==>>>Mee",
        "###2.g..c...C|..=MMMMMMM",
        "###2.+......U|..=eeeeM==",
        "###===-------|...eeeeM=="
      ],
      "rotation": 1,
      "palettes": [
        "tri_tower",
        "upper_level",
        "bandit_tower_stuff"
      ],
      "npcs": {
        "@": {
          "class": "bandit"
        }
      }
    },
    "id": "95dc94fb-128a-46eb-86cc-86c57537ff49"
  }
]