[
  {
    "type": "mapgen",
    "om_terrain": "bandit_tower_utlc",
    "//": "underground, top left corner",
    "weight": 250,
    "method": "json",
    "object": {
      "fill_ter": "t_concrete_floor",
      "rows": [
        "===#######=  =#######===",
        "=#########=  =##########",
        "=#########=  =##########",
        "##########=  =########==",
        "##########=  =########==",
        "#####===##=  =########==",
        "#####===##=  =##########",
        "#####======!!===========",
        "#######=Y0       l|   CC",
        "#######=Y    HH   3     ",
        "========     HH   |q   T",
        "       !          |q   T",
        "       ! hh  HH   |q    ",
        "======== hh  HH   |q    ",
        "#######=          |q    ",
        "#######= hh       |v    ",
        "#######= hh    x========",
        "#######=     XXx=====M==",
        "#######=-3------=====M==",
        "#######=  QQQQQQ=====M==",
        "#######=        =====M==",
        "=######=        =MMMMMMM",
        "=######=C       =====M==",
        "=##===#=C TT    =====M=="
      ],
      "rotation": 0,
      "palettes": [
        "tri_tower",
        "lower_level",
        "bandit_tower_stuff"
      ],
      "terrain": {
        "3": "t_door_metal_pickable",
        "Y": "t_sewage_pump"
      },
      "furniture": {
        "0": "f_standing_tank",
        "v": "f_vending_o"
      },
      "items": {
        "v": {
          "item": "trash_cart",
          "chance": 15
        },
        "x": [
          {
            "item": "hardware_plumbing",
            "chance": 20
          },
          {
            "item": "hardware_bulk",
            "chance": 20
          }
        ],
        "X": {
          "item": "hardware_bulk",
          "chance": 35
        }
      }
    },
    "id": "836db432-34c9-4c55-b2e7-b15617a1f1d5"
  }
]