[
  {
    "type": "mapgen",
    "om_terrain": "bandit_tower_2brc",
    "//": "bottom right corner, second story and even levels",
    "weight": 250,
    "method": "json",
    "object": {
      "fill_ter": "t_floor",
      "rows": [
        "########################",
        "########################",
        "########################",
        "#######==ww=====ww==ww==",
        "#######=..BB|d+..BB|BB==",
        "#####===..BB|-|....|BB==",
        "#####===....+d|..BB|....",
        "###=====+------+----....",
        "###=AAA.....@@.....+....",
        "###=......-------+----++",
        "###w...A..|s.&|w|....|dd",
        "###w...A..+....~|BB.@|--",
        "###w...A..|...|0|BB..+.d",
        "###=......--------------",
        "###=AAA...+..+..........",
        "###=--....---|..........",
        "###2.g....|RU|..=======.",
        "###2.g......C|..=====Mee",
        "###2.g..TT.@C|..==>>>Mee",
        "###2.g..TT..s|....>>>Mee",
        "###2.g......o|....>>>Mee",
        "###2.g..c...C|..=MMMMMMM",
        "###2.+......U|..=eeeeM==",
        "###===-------|...eeeeM=="
      ],
      "rotation": 2,
      "palettes": [
        "tri_tower",
        "upper_level",
        "bandit_tower_stuff"
      ],
      "terrain": {
        "5": "t_pavement"
      },
      "npcs": {
        "@": {
          "class": "bandit"
        }
      }
    },
    "id": "6d1b1b5a-e654-4338-9533-e381610ad3ab"
  }
]