[
  {
    "type": "mapgen",
    "om_terrain": "bandit_tower_1yre",
    "//": "yard, right edge",
    "weight": 250,
    "method": "json",
    "object": {
      "fill_ter": "t_grass",
      "rows": [
        "########################",
        "########################",
        "########################",
        "########################",
        "########################",
        "########################",
        "########################",
        "########################",
        "########################",
        "########################",
        "########################",
        "########################",
        "########################",
        "########################",
        "########################",
        "########################",
        "########################",
        "########################",
        "########################",
        "########################",
        "YYYYYYYYYYYYYYYYYYYYYYYY",
        "##====================##",
        "##=##################=##",
        "##=##################=##"
      ],
      "rotation": 1,
      "palettes": [
        "tri_tower",
        "ground_level",
        "bandit_tower_stuff"
      ],
      "terrain": {
        "Y": "t_pit_spiked"
      }
    },
    "id": "abc919c1-1b77-485c-bcba-4d1a37cf5b3d"
  }
]