[
  {
    "type": "mapgen",
    "om_terrain": "bandit_tower_1cytrc",
    "//": "courtyard or parking lot, top right corner",
    "weight": 250,
    "method": "json",
    "object": {
      "fill_ter": "t_pavement",
      "rows": [
        "===#####PPPPPPPPPPP##===",
        "=#######PPPPPPPPPPP###*=",
        "=#######PPPPPPPPPPP####=",
        "########                ",
        "########                ",
        "#####                   ",
        "#####                   ",
        "#####                   ",
        "PPP                     ",
        "PPP                     ",
        "PPP                     ",
        "PPP                     ",
        "PPP                     ",
        "PPP                     ",
        "PPP                     ",
        "PPP               @v    ",
        "###                     ",
        "###                     ",
        "###                     ",
        "###                     ",
        "###   @                 ",
        "=##                     ",
        "=*#                     ",
        "===                     "
      ],
      "rotation": 1,
      "palettes": [
        "tri_tower",
        "ground_level",
        "bandit_tower_stuff"
      ],
      "terrain": {
        "9": "t_card_reader_broken",
        "P": "t_pavement",
        "y": "t_pavement_y"
      },
      "vehicles": {
        "v": {
          "vehicle": "military_vehicles",
          "chance": 80,
          "status": 0
        }
      },
      "npcs": {
        "v": {
          "class": "raider"
        },
        "@": {
          "class": "thug"
        }
      }
    },
    "id": "a62d7f6b-1730-414a-9980-ec0403fa0134"
  }
]