[
  {
    "type": "mapgen",
    "om_terrain": "bandit_tower_1yte",
    "//": "yard, top edge",
    "weight": 100,
    "method": "json",
    "object": {
      "fill_ter": "t_grass",
      "rows": [
        "########################",
        "########################",
        "#####______________#####",
        "########################",
        "########################",
        "########################",
        "#####_______________####",
        "########################",
        "########################",
        "########################",
        "########################",
        "#kkkkk_____ ______kkkkk#",
        "#####kk_____ ____kk#####",
        "######kk_____ __kk######",
        "#######kk___ __kk#######",
        "########kk_ __kk########",
        "#########kfFFfk#########",
        "##########f##f##########",
        "##########ffFf##########",
        "########################",
        "YYYYYYYYYYYYYYYYYYYYYYYY",
        "##====================##",
        "##=jjjjjjjjjjjjjjjjjj=##",
        "##=jjjjjjjjjjjjjjjjjj=##"
      ],
      "rotation": 0,
      "palettes": [
        "tri_tower",
        "ground_level",
        "bandit_tower_stuff"
      ],
      "terrain": {
        "f": "t_chainfence_v",
        "F": "t_chaingate_c",
        "j": "t_dirtmound",
        "k": "t_scrap_wall"
      },
      "traps": {
        "_": "tr_nailboard"
      }
    },
    "id": "230f6f21-a4b5-495f-b277-88b634949135"
  }
]