[
  {
    "type": "mapgen",
    "om_terrain": "bandit_tower_1yte",
    "//": "yard, top edge",
    "weight": 250,
    "method": "json",
    "object": {
      "fill_ter": "t_grass",
      "rows": [
        "########################",
        "########################",
        "########################",
        "########################",
        "########################",
        "########################",
        "########################",
        "########################",
        "########################",
        "########################",
        "########################",
        "########################",
        "########################",
        "########################",
        "########################",
        "########################",
        "########################",
        "########################",
        "########################",
        "########################",
        "YYYYYYYYYYYYYYYYYYYYYYYY",
        "##====================##",
        "##=jjjjjjjjjjjjjjjjjj=##",
        "##=##################=##"
      ],
      "rotation": 0,
      "palettes": [
        "tri_tower",
        "ground_level",
        "bandit_tower_stuff"
      ],
      "terrain": {
        "j": "t_dirtmound",
        "Y": "t_pit_spiked"
      }
    },
    "id": "b87aa20f-2756-457b-bcf8-9090dc3d2df0"
  }
]