[
  {
    "type": "mapgen",
    "om_terrain": "bandit_tower_1brc",
    "//": "bottom right corner, ground floor",
    "weight": 250,
    "method": "json",
    "object": {
      "fill_ter": "t_pavement",
      "rows": [
        "===####KPPPPPPPP#####===",
        "=######KPPPPPPPP########",
        "=######KPPPPPPPP########",
        "#######K        KKKKKK==",
        "#######K         Y Y Y==",
        "#####===             Y==",
        "#####===              K ",
        "#KKKK===              K ",
        "PPP                  YK ",
        "PPP                  *K ",
        "PPP                YYYK ",
        "PPP           KKKKKKKKK ",
        "PPP           KY   Y YK ",
        "PPP          --    ---- ",
        "PPP          |jjjjjjjjjj",
        "PPP           jjjjjjjjjj",
        "#PP           jj===jj==j",
        "#PP           jj===jjMee",
        "#PP           jj==<<<Mee",
        "##P           jj==<<<MeY",
        "##P       v   jj==<<<Mee",
        "=##   v       jj=MMMMMMM",
        "=##           jj=eeeYM==",
        "=##===        jjjeeYeM=="
      ],
      "rotation": 2,
      "palettes": [
        "tri_tower",
        "ground_level",
        "bandit_tower_stuff"
      ],
      "terrain": {
        "j": "t_concrete_floor",
        "K": "t_wall_wood",
        "P": "t_pavement",
        "y": "t_pavement_y"
      },
      "mapping": {
        "e": {
          "items": {
            "item": "trash",
            "chance": 95
          },
          "fields": {
            "field": "fd_blood"
          }
        },
        "Y": {
          "terrain": "t_elevator",
          "furniture": "f_dumpster",
          "fields": {
            "field": "fd_blood",
            "chance": 50
          },
          "items": [
            {
              "item": "trash_cart",
              "chance": 95
            },
            {
              "item": "monparts",
              "chance": 50
            },
            {
              "item": "wreckage",
              "chance": 25
            },
            {
              "item": "cloning_vat",
              "chance": 25
            },
            {
              "item": "trash_forest",
              "chance": 70
            }
          ],
          "item": {
            "item": "corpse",
            "amount": [
              0,
              4
            ]
          }
        }
      },
      "vehicles": {
        "v": {
          "vehicle": "bandit_vehicles",
          "chance": 10,
          "status": 0
        }
      }
    },
    "id": "61301e76-65ef-4830-99d0-9af40f9600a9"
  }
]