[
  {
    "type": "mapgen",
    "om_terrain": "bandit_tower_1gate",
    "//": "gate at the top left corner of the whole compound",
    "weight": 200,
    "method": "json",
    "object": {
      "fill_ter": "t_pavement",
      "rows": [
        "#####              #####",
        "#####              #####",
        "#####              #####",
        "#####              #####",
        "#####              #####",
        "#####              #####",
        "####9              #####",
        "#####              #####",
        "#####              #####",
        "#####              #####",
        "#####              #####",
        "#####              #####",
        "#####              #####",
        "#####              #####",
        "#####              #####",
        "#####              #####",
        "#####              #####",
        "#####              #####",
        "#####              #####",
        "#####              #####",
        "#####              #####",
        "##===[[[[[[[[[[[[[[===##",
        "##=##PPPPPPPPPPPPPP%#=##",
        "##=##PPPPPPPPPPPPPP##=##"
      ],
      "palettes": [
        "tri_tower",
        "ground_level"
      ],
      "terrain": {
        "9": "t_card_reader_broken",
        "p": "t_pavement",
        "y": "t_pavement_y",
        "%": "t_gates_mech_control"
      },
      "place_monsters": [
        {
          "monster": "GROUP_ZOMBIE",
          "x": [
            4,
            19
          ],
          "y": [
            4,
            19
          ],
          "repeat": [
            1,
            2
          ]
        }
      ]
    },
    "id": "888b5cee-8027-45e2-98a4-659ebda3c317"
  }
]