[
  {
    "type": "mapgen",
    "om_terrain": "bandit_tower_2brc",
    "//": "bottom right corner, second story and even levels",
    "weight": 250,
    "method": "json",
    "object": {
      "fill_ter": "t_floor",
      "rows": [
        "########################",
        "########################",
        "########################",
        "#######==ww=====ww==ww==",
        "#######=.DDD|X+..XX|ii==",
        "#####===..c@|-|X..X|..==",
        "#####===....+X|..XX|..c.",
        "###=====!------!----.DDD",
        "###=.x.............!....",
        "###=.x....------------!!",
        "###w..x..l|v.v.v.v.v....",
        "###wx....l|.............",
        "###w.....l|*............",
        "###=b.....----..........",
        "###=b.......0|..........",
        "###=b..TT...C|...nAAAn..",
        "###|b..TT...W|..=======.",
        "###|b.......o|..=====Mee",
        "###|L...C...o|..==>>>Mee",
        "###wo...C...C|..!.>>>Mee",
        "###|C...K...s|..!.>>>Mee",
        "###|C...C...C|..=MMMMMMM",
        "###|0...3...R|..=eeeeM==",
        "###===-------|...eeeeM=="
      ],
      "rotation": 2,
      "palettes": [
        "tri_tower",
        "upper_level",
        "bandit_tower_stuff"
      ],
      "terrain": {
        "3": "t_floor",
        "5": "t_pavement",
        "8": "t_bridge"
      },
      "furniture": {
        "3": "f_centrifuge",
        "K": "f_counter",
        "v": "f_vending_c"
      },
      "items": {
        "b": {
          "item": "textbooks",
          "chance": 20
        },
        "C": {
          "item": "chem_lab",
          "chance": 40
        },
        "l": {
          "item": "chem_school",
          "chance": 60
        },
        "L": {
          "item": "harddrugs",
          "chance": 50
        },
        "R": {
          "item": "methlab",
          "chance": 80
        },
        "x": {
          "item": "mut_lab",
          "chance": 60
        }
      },
      "item": {
        "K": {
          "item": "chemistry_set"
        },
        "v": {
          "item": "meth",
          "amount": [
            0,
            20
          ]
        },
        "X": [
          {
            "item": "ammonia",
            "amount": [
              10,
              20
            ]
          },
          {
            "item": "bleach",
            "amount": [
              10,
              20
            ]
          }
        ]
      },
      "npcs": {
        "@": {
          "class": "bandit"
        }
      }
    },
    "id": "b57c353b-90d9-4aff-b9e5-56c1ca98aed1"
  }
]