[
  {
    "type": "mapgen",
    "om_terrain": "bandit_tower_2brc",
    "//": "bottom right corner, second story and even levels",
    "weight": 250,
    "method": "json",
    "object": {
      "fill_ter": "t_floor",
      "rows": [
        "########################",
        "########################",
        "########################",
        "#######==-g=====g-==ww==",
        "#######=z...BBB...z|dd==",
        "#####===z...BBB...z|.d==",
        "#####===p.........p|..dd",
        "###=====-----!!-----d..d",
        "###=R..............!....",
        "###=......-------!----++",
        "###gA.....|sss.~|.ddd|dd",
        "###gA.....!....~|...d|--",
        "###gA.....|.0W.~|dd..+.d",
        "###=......--------------",
        "###=*........!...@......",
        "###=----!----|...@......",
        "###g.j.....j.|..=======.",
        "###g.........|..=====Mee",
        "###g.j..j..j.|..==>>>Mee",
        "###g.........|..+.>>>Mee",
        "###g.j..j..j.|..+.>>>Mee",
        "###g.........|..=MMMMMMM",
        "###g.j..j..j.|..=eeeeM==",
        "###===-------|...eeeeM=="
      ],
      "rotation": 2,
      "palettes": [
        "tri_tower",
        "upper_level",
        "bandit_tower_stuff"
      ],
      "terrain": {
        "3": "t_floor",
        "5": "t_pavement",
        "8": "t_bridge"
      },
      "furniture": {
        "3": "f_centrifuge",
        "j": "f_displaycase",
        "p": "f_indoor_plant_y",
        "z": "f_statue"
      },
      "items": {
        "d": [
          {
            "item": "fancyfurs",
            "chance": 30
          },
          {
            "item": "art",
            "chance": 30
          }
        ],
        "j": {
          "item": "museum_melee",
          "chance": 30
        },
        "R": {
          "item": "alcohol",
          "chance": 80
        }
      },
      "npcs": {
        "@": {
          "class": "thug"
        }
      }
    },
    "id": "bdd6a1fb-8af3-468c-b8ad-242e1f4c28ee"
  }
]