[
  {
    "type": "mapgen",
    "om_terrain": "bandit_tower_4blc",
    "//": "bottom left corner, roof, fourth floor or even level",
    "weight": 250,
    "method": "json",
    "object": {
      "fill_ter": "t_floor",
      "rows": [
        "########################",
        "########################",
        "########################",
        "#######22222222222222222",
        "#######2                ",
        "#####222                ",
        "#####2                  ",
        "###222     c  c   c     ",
        "###2     TTTTTTTTTTT    ",
        "###2    cTTTTTTTTTTTc   ",
        "###2      c  c   c      ",
        "###2                    ",
        "###2            @       ",
        "###2                    ",
        "###2                    ",
        "###2                    ",
        "###2            ========",
        "###2            =llll=mm",
        "###2            =,,,,=mm",
        "###2            !,,,,!mm",
        "###2            !,,,,=m5",
        "###2            ===!====",
        "###2            =mmmm===",
        "###2            =mmm5==="
      ],
      "rotation": 3,
      "palettes": [
        "tri_tower",
        "upper_level",
        "bandit_tower_stuff"
      ],
      "terrain": {
        "5": "t_machinery_heavy",
        " ": "t_flat_roof",
        ",": "t_concrete_floor",
        "I": "t_flat_roof",
        "l": "t_concrete_floor",
        "L": "t_concrete_floor"
      },
      "furniture": {
        "0": "f_standing_tank"
      },
      "items": {
        "l": [
          {
            "item": "cleaning",
            "chance": 50
          },
          {
            "item": "chem_home",
            "chance": 40
          }
        ],
        "L": [
          {
            "item": "mechanics",
            "chance": 70
          },
          {
            "item": "hardware_plumbing",
            "chance": 30
          }
        ]
      },
      "vehicles": {
        "v": {
          "vehicle": "portable_generator",
          "chance": 10,
          "status": 0
        }
      }
    },
    "id": "035ba86f-8224-4983-8dd5-e49c62b656ef"
  }
]