[
  {
    "type": "mapgen",
    "om_terrain": "bandit_tower_1trc",
    "//": "top right corner, ground floor",
    "weight": 250,
    "method": "json",
    "object": {
      "fill_ter": "t_pavement",
      "rows": [
        "===#####PPPPPPPP#####===",
        "=#######PPPPPPPP########",
        "=kk#####PPPPPPPP########",
        "##kk###k              ==",
        "###kk##k              ==",
        "####k===            kk==",
        "#####===                ",
        "###kk===                ",
        "PPP                     ",
        "PPP                     ",
        "PPP                     ",
        "PPP                     ",
        "PPP    v           @    ",
        "PPP          --    -*-  ",
        "PPP          |jjjjjjjjjj",
        "PPP           jjjjjjjjjj",
        "###           jj===jj==j",
        "###           jj===jjMee",
        "###           jj==>>>Mee",
        "###    v     |jj==>>>Mee",
        "###          *jj==>>>mYe",
        "=##          |jj=MMMmMMM",
        "=##           jj=eeeYM==",
        "=##===        jjjeeeYM=="
      ],
      "rotation": 1,
      "palettes": [
        "tri_tower",
        "ground_level",
        "bandit_tower_stuff"
      ],
      "terrain": {
        "j": "t_concrete_floor",
        "P": "t_pavement",
        "y": "t_pavement_y"
      },
      "mapping": {
        "e": {
          "items": {
            "item": "trash",
            "chance": 95
          },
          "fields": {
            "field": "fd_blood"
          }
        },
        "Y": {
          "terrain": "t_elevator",
          "furniture": "f_dumpster",
          "fields": {
            "field": "fd_blood",
            "chance": 50
          },
          "items": [
            {
              "item": "trash_cart",
              "chance": 95
            },
            {
              "item": "monparts",
              "chance": 50
            },
            {
              "item": "wreckage",
              "chance": 25
            },
            {
              "item": "cloning_vat",
              "chance": 25
            },
            {
              "item": "trash_forest",
              "chance": 70
            }
          ],
          "item": {
            "item": "corpse",
            "amount": [
              0,
              4
            ]
          }
        }
      },
      "vehicles": {
        "v": {
          "vehicle": "truck_swat",
          "chance": 30,
          "status": 0
        }
      },
      "npcs": {
        "@": {
          "class": "raider"
        }
      }
    },
    "id": "6ec3e00c-0f79-4403-a1ea-c0aba2cf359a"
  }
]