[
  {
    "type": "mapgen",
    "om_terrain": "bandit_tower_3brc",
    "//": "bottom right corner, third and odd level floors.",
    "weight": 250,
    "method": "json",
    "object": {
      "fill_ter": "t_floor",
      "rows": [
        "########################",
        "########################",
        "########################",
        "#######==ww=====ww==ww==",
        "#######=B..B|d+..BB|BB==",
        "#####===B..B|-|....|..==",
        "#####===....+d|..BB|..BB",
        "###=====-+-----+----....",
        "###=BB.|...........+....",
        "###=...+..-------+----++",
        "###w..d|..|s0s|W|..BB|dd",
        "###----|..+....S|....|--",
        "###w..d|..|lll|0|BB..+.d",
        "###=...+..--------------",
        "###=BB.|.....+..........",
        "###=----.----|..........",
        "###|BB.|.|.BB|..===!!==.",
        "###w...+.+...|..===..Mee",
        "###|..d|.|..d|..==<<<Mee",
        "###|---|.|---|..==<<<Mee",
        "###|..d|.|.BB|..==<<<Mee",
        "###w...+.+...|..=MMMMMMM",
        "###|BB.|*|..d|..=eeeeM==",
        "###===-------|...eeeeM=="
      ],
      "rotation": 2,
      "palettes": [
        "tri_tower",
        "upper_level",
        "bandit_tower_stuff"
      ]
    },
    "id": "15619c42-61e1-4d2d-ab9b-39b0dd51552f"
  }
]