[
  {
    "type": "MOD_INFO",
    "id": "No_Explosive_Zombies",
    "name": "No Explosive Zombies",
    "description": "Removes all explosion-based zombies from the game.",
    "category": "monster_exclude",
    "dependencies": [
      "bn"
    ]
  },
  {
    "type": "MONSTER_BLACKLIST",
    "monsters": [
      "mon_zombie_grenadier",
      "mon_zombie_grenadier_elite",
      "mon_zombie_flamer",
      "mon_gas_zombie",
      "mon_zombie_gasbag",
      "mon_zombie_gasbag_fungus"
    ],
    "id": "1f1f3e83-2483-42ca-86b6-ba803eac7ea7"
  }
]