[
  {
    "type": "MOD_INFO",
    "id": "no_scifi",
    "name": "No Sci-Fi Equipment",
    "authors": [
      "Rivet-the-Zombie"
    ],
    "maintainers": [
      "mugling"
    ],
    "description": "Removes far-future Sci-Fi items such as powered armor and energy weapons.",
    "category": "item_exclude",
    "dependencies": [
      "bn"
    ],
    "obsolete": true
  },
  {
    "type": "ITEM_BLACKLIST",
    "items": [
      "power_armor_basic",
      "power_armor_helmet_basic",
      "power_armor_light",
      "power_armor_helmet_light",
      "power_armor_heavy",
      "power_armor_helmet_heavy",
      "power_armor_frame",
      "depowered_armor",
      "depowered_helmet",
      "rm13_armor",
      "rm13_armor_on",
      "v29",
      "cerberus_laser",
      "ftk93",
      "coilgun",
      "hk_g80",
      "plasma_rifle",
      "v29_cheap",
      "laser_rifle",
      "unbio_blaster_gun",
      "rebar_rifle",
      "laser_pack",
      "12mm",
      "rebar_rail",
      "steel_rail",
      "plasma_gun",
      "emp_gun"
    ],
    "id": "cf491c68-2749-4594-9224-ea3693c6c873"
  }
]