[
  {
    "type": "MOD_INFO",
    "id": "no_reviving_zombies",
    "name": "Prevent Zombie Revivication",
    "description": "Disables zombie revival.",
    "category": "rebalance",
    "dependencies": [
      "bn"
    ]
  },
  {
    "type": "monster_adjustment",
    "species": "ZOMBIE",
    "flag": {
      "name": "REVIVES",
      "value": false
    },
    "id": "02cc8316-7c96-483c-a0ef-adac2a352c16"
  },
  {
    "type": "MONSTER_BLACKLIST",
    "monsters": [
      "mon_zombie_necro"
    ],
    "id": "4795b8cd-ad2d-4771-9919-40058d8b4551"
  }
]