[
  {
    "type": "monstergroup",
    "name": "GROUP_FUNGI_TOWER",
    "default": "mon_fungal_tendril",
    "monsters": [
      {
        "monster": "mon_zilophosaurus_fungus",
        "freq": 1,
        "cost_multiplier": 0,
        "starts": 72
      },
      {
        "monster": "mon_zeratosaurus_fungus",
        "freq": 1,
        "cost_multiplier": 0,
        "starts": 72
      },
      {
        "monster": "mon_zallosaurus_fungus",
        "freq": 1,
        "cost_multiplier": 0,
        "starts": 144
      },
      {
        "monster": "mon_zacrocanthosaurus_fungus",
        "freq": 1,
        "cost_multiplier": 0,
        "starts": 144
      },
      {
        "monster": "mon_ziats_fungus",
        "freq": 1,
        "cost_multiplier": 0,
        "starts": 144
      },
      {
        "monster": "mon_zalbertosaurus_fungus",
        "freq": 1,
        "cost_multiplier": 0,
        "starts": 72
      },
      {
        "monster": "mon_zyrannosaurus_fungus",
        "freq": 1,
        "cost_multiplier": 0,
        "starts": 144
      },
      {
        "monster": "mon_zallimimus_fungus",
        "freq": 1,
        "cost_multiplier": 0,
        "starts": 72
      },
      {
        "monster": "mon_zothronychus_fungus",
        "freq": 1,
        "cost_multiplier": 0,
        "starts": 72
      },
      {
        "monster": "mon_zeinonychus_fungus",
        "freq": 1,
        "cost_multiplier": 0,
        "starts": 72
      },
      {
        "monster": "mon_zutahraptor_fungus",
        "freq": 1,
        "cost_multiplier": 0,
        "starts": 144
      },
      {
        "monster": "mon_zapatosaurus_fungus",
        "freq": 1,
        "cost_multiplier": 0,
        "starts": 72
      },
      {
        "monster": "mon_zrontosaurus_fungus",
        "freq": 1,
        "cost_multiplier": 0,
        "starts": 72
      },
      {
        "monster": "mon_ziplodocus_fungus",
        "freq": 1,
        "cost_multiplier": 0,
        "starts": 72
      },
      {
        "monster": "mon_zamarasaurus_fungus",
        "freq": 1,
        "cost_multiplier": 0,
        "starts": 72
      },
      {
        "monster": "mon_zrachiosaurus_fungus",
        "freq": 1,
        "cost_multiplier": 0,
        "starts": 72
      },
      {
        "monster": "mon_zalamosaurus_fungus",
        "freq": 1,
        "cost_multiplier": 0,
        "starts": 72
      },
      {
        "monster": "mon_ztegosaurus_fungus",
        "freq": 1,
        "cost_multiplier": 0,
        "starts": 72
      },
      {
        "monster": "mon_zyoplosaurus_fungus",
        "freq": 1,
        "cost_multiplier": 0,
        "starts": 72
      },
      {
        "monster": "mon_zankylosaurus_fungus",
        "freq": 1,
        "cost_multiplier": 0,
        "starts": 72
      },
      {
        "monster": "mon_zodosaurus_fungus",
        "freq": 1,
        "cost_multiplier": 0,
        "starts": 72
      },
      {
        "monster": "mon_zedmontonia_fungus",
        "freq": 1,
        "cost_multiplier": 0,
        "starts": 72
      },
      {
        "monster": "mon_zamptosaurus_fungus",
        "freq": 1,
        "cost_multiplier": 0,
        "starts": 72
      },
      {
        "monster": "mon_zaiasaura_fungus",
        "freq": 1,
        "cost_multiplier": 0,
        "starts": 72
      },
      {
        "monster": "mon_zarasaurolophus_fungus",
        "freq": 1,
        "cost_multiplier": 0,
        "starts": 72
      },
      {
        "monster": "mon_zorythosaurus_fungus",
        "freq": 1,
        "cost_multiplier": 0,
        "starts": 72
      },
      {
        "monster": "mon_zedmontosaurus_fungus",
        "freq": 1,
        "cost_multiplier": 0,
        "starts": 72
      },
      {
        "monster": "mon_zachycephalosaurus_fungus",
        "freq": 1,
        "cost_multiplier": 0,
        "starts": 72
      },
      {
        "monster": "mon_zachyrhinosaurus_fungus",
        "freq": 1,
        "cost_multiplier": 0,
        "starts": 72
      },
      {
        "monster": "mon_zentaceratops_fungus",
        "freq": 1,
        "cost_multiplier": 0,
        "starts": 72
      },
      {
        "monster": "mon_zosmoceratops_fungus",
        "freq": 1,
        "cost_multiplier": 0,
        "starts": 72
      },
      {
        "monster": "mon_zorosaurus_fungus",
        "freq": 1,
        "cost_multiplier": 0,
        "starts": 72
      },
      {
        "monster": "mon_zriceratops_fungus",
        "freq": 1,
        "cost_multiplier": 0,
        "starts": 72
      }
    ],
    "id": "GROUP_FUNGI_TOWER"
  },
  {
    "type": "monstergroup",
    "name": "GROUP_FUNGI_FLOWERS",
    "default": "mon_fungal_blossom",
    "monsters": [
      {
        "monster": "mon_zilophosaurus_fungus",
        "freq": 1,
        "cost_multiplier": 0,
        "starts": 72
      },
      {
        "monster": "mon_zeratosaurus_fungus",
        "freq": 1,
        "cost_multiplier": 0,
        "starts": 72
      },
      {
        "monster": "mon_zorvosaurus_fungus",
        "freq": 1,
        "cost_multiplier": 0,
        "starts": 72
      },
      {
        "monster": "mon_zallosaurus_fungus",
        "freq": 1,
        "cost_multiplier": 0,
        "starts": 144
      },
      {
        "monster": "mon_zacrocanthosaurus_fungus",
        "freq": 1,
        "cost_multiplier": 0,
        "starts": 144
      },
      {
        "monster": "mon_ziats_fungus",
        "freq": 1,
        "cost_multiplier": 0,
        "starts": 144
      },
      {
        "monster": "mon_zryptosaurus_fungus",
        "freq": 1,
        "cost_multiplier": 0,
        "starts": 72
      },
      {
        "monster": "mon_zappalachiosaurus_fungus",
        "freq": 1,
        "cost_multiplier": 0,
        "starts": 72
      },
      {
        "monster": "mon_zorgosaurus_fungus",
        "freq": 1,
        "cost_multiplier": 0,
        "starts": 72
      },
      {
        "monster": "mon_zalbertosaurus_fungus",
        "freq": 1,
        "cost_multiplier": 0,
        "starts": 72
      },
      {
        "monster": "mon_zanuqsaurus_fungus",
        "freq": 1,
        "cost_multiplier": 0,
        "starts": 72
      },
      {
        "monster": "mon_zaspletosaurus_fungus",
        "freq": 1,
        "cost_multiplier": 0,
        "starts": 72
      },
      {
        "monster": "mon_zyrannosaurus_fungus",
        "freq": 1,
        "cost_multiplier": 0,
        "starts": 144
      },
      {
        "monster": "mon_zallimimus_fungus",
        "freq": 1,
        "cost_multiplier": 0,
        "starts": 72
      },
      {
        "monster": "mon_ztruthiomimus_fungus",
        "freq": 1,
        "cost_multiplier": 0,
        "starts": 72
      },
      {
        "monster": "mon_zornithomimus_fungus",
        "freq": 1,
        "cost_multiplier": 0,
        "starts": 72
      },
      {
        "monster": "mon_zothronychus_fungus",
        "freq": 1,
        "cost_multiplier": 0,
        "starts": 72
      },
      {
        "monster": "mon_zanzu_fungus",
        "freq": 1,
        "cost_multiplier": 0,
        "starts": 72
      },
      {
        "monster": "mon_zeinonychus_fungus",
        "freq": 1,
        "cost_multiplier": 0,
        "starts": 72
      },
      {
        "monster": "mon_zutahraptor_fungus",
        "freq": 1,
        "cost_multiplier": 0,
        "starts": 144
      },
      {
        "monster": "mon_zarahsaurus_fungus",
        "freq": 1,
        "cost_multiplier": 0,
        "starts": 144
      },
      {
        "monster": "mon_zanchisaurus_fungus",
        "freq": 1,
        "cost_multiplier": 0,
        "starts": 144
      },
      {
        "monster": "mon_zissi_fungus",
        "freq": 1,
        "cost_multiplier": 0,
        "starts": 144
      },
      {
        "monster": "mon_zaplocanthosaurus_fungus",
        "freq": 1,
        "cost_multiplier": 0,
        "starts": 144
      },
      {
        "monster": "mon_zamargasaurus_fungus",
        "freq": 1,
        "cost_multiplier": 0,
        "starts": 144
      },
      {
        "monster": "mon_zapatosaurus_fungus",
        "freq": 1,
        "cost_multiplier": 0,
        "starts": 72
      },
      {
        "monster": "mon_zrontosaurus_fungus",
        "freq": 1,
        "cost_multiplier": 0,
        "starts": 72
      },
      {
        "monster": "mon_ziplodocus_fungus",
        "freq": 1,
        "cost_multiplier": 0,
        "starts": 72
      },
      {
        "monster": "mon_zarosaurus_fungus",
        "freq": 1,
        "cost_multiplier": 0,
        "starts": 72
      },
      {
        "monster": "mon_zamarasaurus_fungus",
        "freq": 1,
        "cost_multiplier": 0,
        "starts": 72
      },
      {
        "monster": "mon_zrachiosaurus_fungus",
        "freq": 1,
        "cost_multiplier": 0,
        "starts": 72
      },
      {
        "monster": "mon_zalamosaurus_fungus",
        "freq": 1,
        "cost_multiplier": 0,
        "starts": 72
      },
      {
        "monster": "mon_ztegosaurus_fungus",
        "freq": 1,
        "cost_multiplier": 0,
        "starts": 72
      },
      {
        "monster": "mon_zesperosaurus_fungus",
        "freq": 1,
        "cost_multiplier": 0,
        "starts": 72
      },
      {
        "monster": "mon_zastonia_fungus",
        "freq": 1,
        "cost_multiplier": 0,
        "starts": 72
      },
      {
        "monster": "mon_zargoyleosaurus_fungus",
        "freq": 1,
        "cost_multiplier": 0,
        "starts": 72
      },
      {
        "monster": "mon_zauropelta_fungus",
        "freq": 1,
        "cost_multiplier": 0,
        "starts": 72
      },
      {
        "monster": "mon_zodosaurus_fungus",
        "freq": 1,
        "cost_multiplier": 0,
        "starts": 72
      },
      {
        "monster": "mon_zanoplosaurus_fungus",
        "freq": 1,
        "cost_multiplier": 0,
        "starts": 72
      },
      {
        "monster": "mon_zedmontonia_fungus",
        "freq": 1,
        "cost_multiplier": 0,
        "starts": 72
      },
      {
        "monster": "mon_zzuul_fungus",
        "freq": 1,
        "cost_multiplier": 0,
        "starts": 72
      },
      {
        "monster": "mon_zyoplosaurus_fungus",
        "freq": 1,
        "cost_multiplier": 0,
        "starts": 72
      },
      {
        "monster": "mon_zankylosaurus_fungus",
        "freq": 1,
        "cost_multiplier": 0,
        "starts": 72
      },
      {
        "monster": "mon_zuoplocephalus_fungus",
        "freq": 1,
        "cost_multiplier": 0,
        "starts": 72
      },
      {
        "monster": "mon_zcolosaurus_fungus",
        "freq": 1,
        "cost_multiplier": 0,
        "starts": 72
      },
      {
        "monster": "mon_zenontosaurus_fungus",
        "freq": 1,
        "cost_multiplier": 0,
        "starts": 72
      },
      {
        "monster": "mon_zryosaurus_fungus",
        "freq": 1,
        "cost_multiplier": 0,
        "starts": 72
      },
      {
        "monster": "mon_zamptosaurus_fungus",
        "freq": 1,
        "cost_multiplier": 0,
        "starts": 72
      },
      {
        "monster": "mon_zadrosaurus_fungus",
        "freq": 1,
        "cost_multiplier": 0,
        "starts": 72
      },
      {
        "monster": "mon_zaiasaura_fungus",
        "freq": 1,
        "cost_multiplier": 0,
        "starts": 72
      },
      {
        "monster": "mon_zryposaurus_fungus",
        "freq": 1,
        "cost_multiplier": 0,
        "starts": 72
      },
      {
        "monster": "mon_zrosaurolophus_fungus",
        "freq": 1,
        "cost_multiplier": 0,
        "starts": 72
      },
      {
        "monster": "mon_zaurolophus_fungus",
        "freq": 1,
        "cost_multiplier": 0,
        "starts": 72
      },
      {
        "monster": "mon_zedmontosaurus_fungus",
        "freq": 1,
        "cost_multiplier": 0,
        "starts": 72
      },
      {
        "monster": "mon_zarasaurolophus_fungus",
        "freq": 1,
        "cost_multiplier": 0,
        "starts": 72
      },
      {
        "monster": "mon_zambeosaurus_fungus",
        "freq": 1,
        "cost_multiplier": 0,
        "starts": 72
      },
      {
        "monster": "mon_zorythosaurus_fungus",
        "freq": 1,
        "cost_multiplier": 0,
        "starts": 72
      },
      {
        "monster": "mon_zypacrosaurus_fungus",
        "freq": 1,
        "cost_multiplier": 0,
        "starts": 72
      },
      {
        "monster": "mon_zachycephalosaurus_fungus",
        "freq": 1,
        "cost_multiplier": 0,
        "starts": 72
      },
      {
        "monster": "mon_zeptoceratops_fungus",
        "freq": 1,
        "cost_multiplier": 0,
        "starts": 72
      },
      {
        "monster": "mon_zzuniceratops_fungus",
        "freq": 1,
        "cost_multiplier": 0,
        "starts": 72
      },
      {
        "monster": "mon_ztyracosaurus_fungus",
        "freq": 1,
        "cost_multiplier": 0,
        "starts": 72
      },
      {
        "monster": "mon_zentrosaurus_fungus",
        "freq": 1,
        "cost_multiplier": 0,
        "starts": 72
      },
      {
        "monster": "mon_zeiniosaurus_fungus",
        "freq": 1,
        "cost_multiplier": 0,
        "starts": 72
      },
      {
        "monster": "mon_zachelousaurus_fungus",
        "freq": 1,
        "cost_multiplier": 0,
        "starts": 72
      },
      {
        "monster": "mon_zachyrhinosaurus_fungus",
        "freq": 1,
        "cost_multiplier": 0,
        "starts": 72
      },
      {
        "monster": "mon_zasmosaurus_fungus",
        "freq": 1,
        "cost_multiplier": 0,
        "starts": 72
      },
      {
        "monster": "mon_zentaceratops_fungus",
        "freq": 1,
        "cost_multiplier": 0,
        "starts": 72
      },
      {
        "monster": "mon_zosmoceratops_fungus",
        "freq": 1,
        "cost_multiplier": 0,
        "starts": 72
      },
      {
        "monster": "mon_zorosaurus_fungus",
        "freq": 1,
        "cost_multiplier": 0,
        "starts": 72
      },
      {
        "monster": "mon_zriceratops_fungus",
        "freq": 1,
        "cost_multiplier": 0,
        "starts": 72
      },
      {
        "monster": "mon_zescelosaurus_fungus",
        "freq": 1,
        "cost_multiplier": 0,
        "starts": 72
      },
      {
        "monster": "mon_zteranodon_fungus",
        "freq": 1,
        "cost_multiplier": 0,
        "starts": 72
      },
      {
        "monster": "mon_zuetzalcoatlus_fungus",
        "freq": 1,
        "cost_multiplier": 0,
        "starts": 72
      }
    ],
    "id": "GROUP_FUNGI_FLOWERS"
  }
]