[
  {
    "type": "mod_tileset",
    "compatibility": [
      "UNDEAD_PEOPLE_BASE",
      "UNDEAD_PEOPLE",
      "MshockRealXotto",
      "MSX++DEAD_PEOPLE",
      "MSXotto+"
    ],
    "tiles-new": [
      {
        "file": "Aftershock_normal.png",
        "tiles": [
          {
            "id": "bg_bloob_glob_car",
            "fg": 1
          },
          {
            "id": "bg_book_adv",
            "fg": 2,
            "rotates": false
          },
          {
            "id": "bg_car",
            "fg": 3,
            "rotates": false
          },
          {
            "id": "bg_dirt",
            "fg": 4,
            "rotates": false
          },
          {
            "id": "bg_dirt_frozen",
            "fg": 5,
            "rotates": false
          },
          {
            "id": "bg_dirt_season_winter",
            "fg": 6,
            "rotates": false
          },
          {
            "id": "bg_fungal",
            "fg": 7,
            "rotates": false
          },
          {
            "id": "bg_shadow_custom_1",
            "fg": 8,
            "rotates": false
          },
          {
            "id": "bg_shadow_item",
            "fg": 9,
            "rotates": false
          },
          {
            "id": "bg_shadow_normal",
            "fg": 10,
            "rotates": false
          },
          {
            "id": "dc_fridge",
            "fg": 11,
            "rotates": false
          },
          {
            "id": "fridge",
            "fg": 12,
            "rotates": false
          },
          {
            "id": "laptop",
            "fg": 13,
            "rotates": false
          },
          {
            "id": "t_scrap_floor",
            "fg": 14,
            "rotates": false
          },
          {
            "id": "vp_dc_fridge",
            "fg": 15,
            "rotates": false
          },
          {
            "id": "vp_fridge",
            "fg": 16,
            "rotates": false
          },
          {
            "id": "fd_migo_atmosphere",
            "fg": 17,
            "rotates": false
          },
          {
            "id": "mil_armor",
            "fg": 18,
            "rotates": false
          },
          {
            "id": "overlay_worn_mil_armor",
            "fg": 19,
            "rotates": false
          },
          {
            "id": "nuclear_waste",
            "fg": 20,
            "rotates": false
          },
          {
            "id": "acidic_bore",
            "fg": 21,
            "rotates": false
          },
          {
            "id": "overlay_wielded_acidic_bore",
            "fg": 21,
            "rotates": false
          },
          {
            "id": "afs_bag_of_holding",
            "fg": 22,
            "rotates": true
          },
          {
            "id": "overlay_wielded_afs_bag_of_holding",
            "fg": 22,
            "rotates": true
          },
          {
            "id": "overlay_worn_afs_bag_of_holding",
            "fg": 23,
            "rotates": true
          },
          {
            "id": "afs_holo_cloak_mk2",
            "fg": 24,
            "rotates": false
          },
          {
            "id": "overlay_wielded_afs_holo_cloak_mk2",
            "fg": 24,
            "rotates": false
          },
          {
            "id": "overlay_worn_afs_holo_cloak_mk2",
            "fg": 25,
            "rotates": false
          },
          {
            "id": "afs_sentinel_cloak",
            "fg": 26,
            "rotates": false
          },
          {
            "id": "overlay_wielded_afs_sentinel_cloak",
            "fg": 26,
            "rotates": false
          },
          {
            "id": "overlay_worn_afs_sentinel_cloak",
            "fg": 27,
            "rotates": false
          },
          {
            "id": "afs_titanium_vest",
            "fg": 28,
            "rotates": false
          },
          {
            "id": "overlay_wielded_afs_titanium_vest",
            "fg": 28,
            "rotates": false
          },
          {
            "id": "overlay_worn_afs_titanium_vest",
            "fg": 29,
            "rotates": false
          },
          {
            "id": "overlay_wielded_q_solarpack",
            "fg": 30,
            "rotates": false
          },
          {
            "id": "q_solarpack",
            "fg": 30,
            "rotates": false
          },
          {
            "id": "overlay_worn_q_solarpack",
            "fg": 31,
            "rotates": false
          },
          {
            "id": "overlay_wielded_q_solarpack_on",
            "fg": 32,
            "rotates": false
          },
          {
            "id": "q_solarpack_on",
            "fg": 32,
            "rotates": false
          },
          {
            "id": "overlay_worn_q_solarpack_on",
            "fg": 33,
            "rotates": false
          },
          {
            "id": "bioweapon_chassis",
            "fg": 34,
            "rotates": false
          },
          {
            "id": "overlay_wielded_bioweapon_chassis",
            "fg": 34,
            "rotates": false
          },
          {
            "id": "broken_afs_mon_migoturret",
            "fg": 35,
            "rotates": false
          },
          {
            "id": "overlay_wielded_broken_afs_mon_migoturret",
            "fg": 35,
            "rotates": false
          },
          {
            "id": "humming_heart",
            "fg": 36,
            "rotates": false
          },
          {
            "id": "overlay_wielded_humming_heart",
            "fg": 36,
            "rotates": false
          },
          {
            "id": "living_brain_jar",
            "fg": 37,
            "rotates": false
          },
          {
            "id": "overlay_wielded_living_brain_jar",
            "fg": 37,
            "rotates": false
          },
          {
            "id": "overlay_wielded_sensory_cluster",
            "fg": 38,
            "rotates": false
          },
          {
            "id": "sensory_cluster",
            "fg": 38,
            "rotates": false
          },
          {
            "id": "vibrating_blaster",
            "fg": 39,
            "rotates": false
          },
          {
            "id": "overlay_wielded_vibrating_blaster",
            "fg": 40,
            "rotates": false
          },
          {
            "id": "afs_librarian_book",
            "fg": 41,
            "rotates": false
          },
          {
            "id": "overlay_wielded_afs_librarian_book",
            "fg": 42,
            "rotates": false
          },
          {
            "id": "afs_textbook_handguns",
            "fg": 43,
            "rotates": false
          },
          {
            "id": "overlay_wielded_afs_textbook_handguns",
            "fg": 44
          },
          {
            "id": "afs_textbook_launchers",
            "fg": 45,
            "rotates": false
          },
          {
            "id": "overlay_wielded_afs_textbook_launchers",
            "fg": 46
          },
          {
            "id": "afs_textbook_rifles",
            "fg": 47,
            "rotates": false
          },
          {
            "id": "overlay_wielded_afs_textbook_rifles",
            "fg": 48
          },
          {
            "id": "afs_textbook_shotguns",
            "fg": 49,
            "rotates": false
          },
          {
            "id": "overlay_wielded_afs_textbook_shotguns",
            "fg": 50
          },
          {
            "id": "overlay_wielded_schematics_chickenbot",
            "fg": 51,
            "rotates": true
          },
          {
            "id": "schematics_chickenbot",
            "fg": 51,
            "rotates": true
          },
          {
            "id": "overlay_wielded_schematics_tankbot",
            "fg": 52,
            "rotates": true
          },
          {
            "id": "schematics_tankbot",
            "fg": 52,
            "rotates": true
          },
          {
            "id": "overlay_wielded_schematics_tripod",
            "fg": 53,
            "rotates": true
          },
          {
            "id": "schematics_tripod",
            "fg": 53,
            "rotates": true
          },
          {
            "id": "overlay_wielded_textbook_atomic",
            "fg": 54,
            "rotates": false
          },
          {
            "id": "textbook_atomic",
            "fg": 54,
            "bg": 2,
            "rotates": false
          },
          {
            "id": "afs_holo_decoy_caster",
            "fg": 55,
            "rotates": false
          },
          {
            "id": "overlay_wielded_afs_holo_decoy_caster",
            "fg": 55,
            "rotates": false
          },
          {
            "id": "afs_holo_field_caster",
            "fg": 56,
            "rotates": false
          },
          {
            "id": "overlay_wielded_afs_holo_field_caster",
            "fg": 56,
            "rotates": false
          },
          {
            "id": "afs_holo_flare_caster",
            "fg": 57,
            "rotates": false
          },
          {
            "id": "overlay_wielded_afs_holo_flare_caster",
            "fg": 57,
            "rotates": false
          },
          {
            "id": "afs_holo_transposition_caster",
            "fg": 58,
            "rotates": false
          },
          {
            "id": "overlay_wielded_afs_holo_transposition_caster",
            "fg": 58,
            "rotates": false
          },
          {
            "id": "afs_bio_dopamine_stimulators",
            "fg": 59,
            "bg": 9,
            "rotates": false
          },
          {
            "id": "overlay_wielded_afs_bio_dopamine_stimulators",
            "fg": 59,
            "rotates": false
          },
          {
            "id": "afs_bio_linguistic_coprocessor",
            "fg": 60,
            "bg": 9,
            "rotates": false
          },
          {
            "id": "overlay_wielded_afs_bio_linguistic_coprocessor",
            "fg": 60,
            "rotates": false
          },
          {
            "id": "afs_bio_missiles",
            "fg": 61,
            "bg": 9,
            "rotates": false
          },
          {
            "id": "overlay_wielded_afs_bio_missiles",
            "fg": 61,
            "rotates": false
          },
          {
            "id": "afs_bio_wind_turbine",
            "fg": 62,
            "bg": 9,
            "rotates": false
          },
          {
            "id": "overlay_wielded_afs_bio_wind_turbine",
            "fg": 62,
            "rotates": false
          },
          {
            "id": "bn_bio_solar",
            "fg": 63,
            "rotates": false
          },
          {
            "id": "overlay_wielded_bn_bio_solar",
            "fg": 63,
            "rotates": false
          },
          {
            "id": "frost_human_flesh",
            "fg": 64,
            "rotates": true
          },
          {
            "id": "overlay_wielded_frost_human_flesh",
            "fg": 64,
            "rotates": true
          },
          {
            "id": "overlay_wielded_yum_lichen",
            "fg": 65,
            "rotates": true
          },
          {
            "id": "yum_lichen",
            "fg": 65,
            "rotates": true
          },
          {
            "id": "overlay_wielded_yum_lichen_extra",
            "fg": 66,
            "rotates": true
          },
          {
            "id": "yum_lichen_extra",
            "fg": 66,
            "rotates": true
          },
          {
            "id": "afs_calorie_pill",
            "fg": 67,
            "rotates": true
          },
          {
            "id": "overlay_wielded_afs_calorie_pill",
            "fg": 67,
            "rotates": true
          },
          {
            "id": "afs_calorie_water",
            "fg": 68,
            "rotates": false
          },
          {
            "id": "overlay_wielded_afs_calorie_water",
            "fg": 68,
            "rotates": false
          },
          {
            "id": "afs_sundew",
            "fg": 69,
            "rotates": false
          },
          {
            "id": "overlay_wielded_afs_sundew",
            "fg": 69,
            "rotates": false
          },
          {
            "id": "afs_sunesthesia",
            "fg": 70,
            "rotates": false
          },
          {
            "id": "overlay_wielded_afs_sunesthesia",
            "fg": 70,
            "rotates": false
          },
          {
            "id": "afs_sungel",
            "fg": 71,
            "rotates": false
          },
          {
            "id": "overlay_wielded_afs_sungel",
            "fg": 71,
            "rotates": false
          },
          {
            "id": "overlay_wielded_panacea",
            "fg": 72,
            "rotates": false
          },
          {
            "id": "panacea",
            "fg": 72,
            "rotates": false
          },
          {
            "id": "afs_landfall_kit_2",
            "fg": 73,
            "rotates": true
          },
          {
            "id": "overlay_wielded_afs_landfall_kit_2",
            "fg": 74,
            "rotates": false
          },
          {
            "id": "broken_afs_mon_sentinel_lx",
            "fg": 75,
            "rotates": false
          },
          {
            "id": "overlay_wielded_broken_afs_mon_sentinel_lx",
            "fg": 75,
            "rotates": false
          },
          {
            "id": "broken_bloodhound_drone",
            "fg": 76,
            "rotates": false
          },
          {
            "id": "overlay_wielded_broken_bloodhound_drone",
            "fg": 76,
            "rotates": false
          },
          {
            "id": "f_atomic_butter_churn",
            "fg": 77,
            "rotates": false
          },
          {
            "id": "overlay_wielded_f_atomic_butter_churn",
            "fg": 77,
            "rotates": false
          },
          {
            "id": "afs_eidolon_derringer",
            "fg": 78,
            "rotates": false
          },
          {
            "id": "overlay_wielded_afs_eidolon_derringer",
            "fg": 78,
            "rotates": false
          },
          {
            "id": "afs_sentinel_laser",
            "fg": 79,
            "rotates": false
          },
          {
            "id": "overlay_wielded_afs_sentinel_laser",
            "fg": 80,
            "rotates": false
          },
          {
            "id": "afs_sentinel_stunner",
            "fg": 81,
            "rotates": false
          },
          {
            "id": "overlay_wielded_afs_sentinel_stunner",
            "fg": 82,
            "rotates": false
          },
          {
            "id": "bot_bloodhound_drone",
            "fg": 83,
            "rotates": false
          },
          {
            "id": "overlay_wielded_bot_bloodhound_drone",
            "fg": 83,
            "rotates": false
          },
          {
            "id": "bot_migoturret",
            "fg": 84,
            "rotates": false
          },
          {
            "id": "overlay_wielded_bot_migoturret",
            "fg": 84,
            "rotates": false
          },
          {
            "id": "bot_sentinel_lx",
            "fg": 85,
            "rotates": false
          },
          {
            "id": "overlay_wielded_bot_sentinel_lx",
            "fg": 85,
            "rotates": false
          },
          {
            "id": "bot_tripod",
            "fg": 86,
            "rotates": false
          },
          {
            "id": "overlay_wielded_bot_tripod",
            "fg": 86,
            "rotates": false
          },
          {
            "id": "broken_tripod",
            "fg": 87,
            "rotates": false
          },
          {
            "id": "overlay_wielded_broken_tripod",
            "fg": 87,
            "rotates": false
          },
          {
            "id": "afs_basin",
            "fg": 88,
            "rotates": true
          },
          {
            "id": "overlay_wielded_afs_basin",
            "fg": 89,
            "rotates": true
          },
          {
            "id": "afs_cooking_rig",
            "fg": 90,
            "rotates": false
          },
          {
            "id": "overlay_wielded_afs_cooking_rig",
            "fg": 90,
            "rotates": false
          },
          {
            "id": "vp_afs_cooking_rig",
            "fg": 91,
            "bg": 1,
            "rotates": false,
            "multitile": true,
            "additional_tiles": [
              {
                "id": "broken",
                "fg": 92,
                "bg": 1
              }
            ]
          },
          {
            "id": "afs_freezer",
            "fg": 93,
            "rotates": false
          },
          {
            "id": "overlay_wielded_afs_freezer",
            "fg": 93,
            "rotates": false
          },
          {
            "id": "vp_afs_freezer",
            "fg": 94,
            "rotates": false,
            "multitile": true,
            "additional_tiles": [
              {
                "id": "broken",
                "fg": 95,
                "bg": [
                  16,
                  12,
                  93,
                  11,
                  15,
                  223,
                  221,
                  94,
                  96
                ]
              }
            ]
          },
          {
            "id": "afs_fridge",
            "fg": 96,
            "rotates": false,
            "multitile": true,
            "additional_tiles": [
              {
                "id": "broken",
                "fg": 97,
                "bg": [
                  16,
                  12,
                  93,
                  11,
                  15,
                  223,
                  221,
                  94,
                  96
                ]
              }
            ]
          },
          {
            "id": "overlay_wielded_afs_fridge",
            "fg": 96,
            "rotates": false,
            "multitile": true,
            "additional_tiles": [
              {
                "id": "broken",
                "fg": 97,
                "bg": [
                  16,
                  12,
                  93,
                  11,
                  15,
                  223,
                  221,
                  94,
                  96
                ]
              }
            ]
          },
          {
            "id": "vp_afs_fridge",
            "fg": 98,
            "rotates": false,
            "multitile": true,
            "additional_tiles": [
              {
                "id": "broken",
                "fg": 99
              }
            ]
          },
          {
            "id": "afs_kitchen_rig",
            "fg": 100,
            "rotates": false
          },
          {
            "id": "overlay_wielded_afs_kitchen_rig",
            "fg": 100,
            "rotates": false
          },
          {
            "id": "afs_metal_rig",
            "fg": 101,
            "bg": 131,
            "rotates": false,
            "multitile": true,
            "additional_tiles": [
              {
                "id": "broken",
                "fg": 102,
                "bg": 131
              }
            ]
          },
          {
            "id": "overlay_wielded_afs_metal_rig",
            "fg": 101,
            "rotates": false,
            "multitile": true,
            "additional_tiles": [
              {
                "id": "broken",
                "fg": 102,
                "bg": 131
              }
            ]
          },
          {
            "id": "vp_afs_metal_rig",
            "fg": 103,
            "bg": 131,
            "rotates": false,
            "multitile": true,
            "additional_tiles": [
              {
                "id": "broken",
                "fg": 104,
                "bg": 131
              }
            ]
          },
          {
            "id": "afs_radiobeacon",
            "fg": 105,
            "bg": 9,
            "rotates": false
          },
          {
            "id": "overlay_wielded_afs_radiobeacon",
            "fg": 105,
            "rotates": false
          },
          {
            "id": "afs_scrap_titanium",
            "fg": 106,
            "rotates": false
          },
          {
            "id": "overlay_wielded_afs_scrap_titanium",
            "fg": 106,
            "rotates": false
          },
          {
            "id": "afs_titanium_implant",
            "fg": 107,
            "rotates": false
          },
          {
            "id": "overlay_wielded_afs_titanium_implant",
            "fg": 107,
            "rotates": false
          },
          {
            "id": "afs_titanium_ring",
            "fg": 108,
            "rotates": false
          },
          {
            "id": "overlay_wielded_afs_titanium_ring",
            "fg": 108,
            "rotates": false
          },
          {
            "id": "overlay_worn_afs_titanium_ring",
            "fg": 109,
            "rotates": false
          },
          {
            "id": "afs_titanium_small",
            "fg": 110,
            "rotates": false
          },
          {
            "id": "overlay_wielded_afs_titanium_small",
            "fg": 110,
            "rotates": false
          },
          {
            "id": "afs_titanium_tooth",
            "fg": 111,
            "rotates": false
          },
          {
            "id": "overlay_wielded_afs_titanium_tooth",
            "fg": 111,
            "rotates": false
          },
          {
            "id": "afs_titanium_watch",
            "fg": 112,
            "rotates": false
          },
          {
            "id": "overlay_wielded_afs_titanium_watch",
            "fg": 112,
            "rotates": false
          },
          {
            "id": "overlay_worn_afs_titanium_watch",
            "fg": 113,
            "rotates": false
          },
          {
            "id": "atomic_butterchurn",
            "fg": 114,
            "rotates": false
          },
          {
            "id": "overlay_wielded_atomic_butterchurn",
            "fg": 114,
            "rotates": false
          },
          {
            "id": "atomic_pseudo_churn",
            "fg": 115,
            "rotates": false
          },
          {
            "id": "overlay_wielded_atomic_pseudo_churn",
            "fg": 115,
            "rotates": false
          },
          {
            "id": "crypto_coin",
            "fg": 116,
            "rotates": false
          },
          {
            "id": "overlay_wielded_crypto_coin",
            "fg": 116,
            "rotates": false
          },
          {
            "id": "hazardous_waste_drum",
            "fg": 117,
            "rotates": false
          },
          {
            "id": "overlay_wielded_hazardous_waste_drum",
            "fg": 117,
            "rotates": false
          },
          {
            "id": "nuclear_fuel",
            "fg": 118,
            "rotates": false
          },
          {
            "id": "overlay_wielded_nuclear_fuel",
            "fg": 118,
            "rotates": false
          },
          {
            "id": "mutagen",
            "fg": 119,
            "rotates": false
          },
          {
            "id": "overlay_wielded_mutagen",
            "fg": 119,
            "rotates": false
          },
          {
            "id": "afs_bio_precision_solderers",
            "fg": 120,
            "bg": 9,
            "rotates": false
          },
          {
            "id": "overlay_wielded_afs_bio_precision_solderers",
            "fg": 120,
            "rotates": false
          },
          {
            "id": "afs_blatant_half_life_reference",
            "fg": 121,
            "rotates": true
          },
          {
            "id": "overlay_wielded_afs_blatant_half_life_reference",
            "fg": 121,
            "rotates": true
          },
          {
            "id": "overlay_worn_afs_blatant_half_life_reference",
            "fg": 122,
            "rotates": true
          },
          {
            "id": "afs_boot_quiver",
            "fg": 123,
            "rotates": true
          },
          {
            "id": "overlay_wielded_afs_boot_quiver",
            "fg": 123,
            "rotates": true
          },
          {
            "id": "overlay_worn_afs_boot_quiver",
            "fg": 124,
            "rotates": true
          },
          {
            "id": "afs_brigandine",
            "fg": 125,
            "rotates": true
          },
          {
            "id": "overlay_wielded_afs_brigandine",
            "fg": 125,
            "rotates": true
          },
          {
            "id": "overlay_worn_afs_brigandine",
            "fg": 126,
            "rotates": true
          },
          {
            "id": "afs_brigandine_crafted",
            "fg": 127,
            "rotates": true
          },
          {
            "id": "overlay_wielded_afs_brigandine_crafted",
            "fg": 127,
            "rotates": true
          },
          {
            "id": "overlay_worn_afs_brigandine_crafted",
            "fg": 128,
            "rotates": true
          },
          {
            "id": "afs_dough",
            "fg": 129,
            "rotates": true
          },
          {
            "id": "overlay_wielded_afs_dough",
            "fg": 129,
            "rotates": true
          },
          {
            "id": "afs_hauling_space",
            "fg": 130,
            "rotates": false
          },
          {
            "id": "overlay_wielded_afs_hauling_space",
            "fg": 130,
            "rotates": false
          },
          {
            "id": "vp_afs_hauling_space",
            "fg": 131,
            "bg": 7,
            "rotates": false,
            "multitile": true,
            "additional_tiles": [
              {
                "id": "broken",
                "fg": 132,
                "bg": 7
              }
            ]
          },
          {
            "id": "afs_hev_helmet",
            "fg": 133,
            "rotates": true
          },
          {
            "id": "overlay_wielded_afs_hev_helmet",
            "fg": 133,
            "rotates": true
          },
          {
            "id": "overlay_worn_afs_hev_helmet",
            "fg": 134,
            "rotates": true
          },
          {
            "id": "afs_hev_helmet_on",
            "fg": 135,
            "rotates": true
          },
          {
            "id": "overlay_wielded_afs_hev_helmet_on",
            "fg": 135,
            "rotates": true
          },
          {
            "id": "afs_mbr_titanium",
            "fg": 136,
            "bg": 9,
            "rotates": false
          },
          {
            "id": "overlay_wielded_afs_mbr_titanium",
            "fg": 136,
            "rotates": false
          },
          {
            "id": "overlay_worn_afs_mbr_titanium",
            "fg": 137,
            "rotates": false
          },
          {
            "id": "afs_quilt",
            "fg": 138,
            "rotates": false
          },
          {
            "id": "overlay_wielded_afs_quilt",
            "fg": 138,
            "rotates": false
          },
          {
            "id": "overlay_worn_afs_quilt",
            "fg": 139,
            "rotates": false
          },
          {
            "id": "afs_quilt_patchwork",
            "fg": 140,
            "rotates": false
          },
          {
            "id": "overlay_wielded_afs_quilt_patchwork",
            "fg": 140,
            "rotates": false
          },
          {
            "id": "overlay_worn_afs_quilt_patchwork",
            "fg": 141,
            "rotates": false
          },
          {
            "id": "afs_solderers_item",
            "fg": 142,
            "rotates": false
          },
          {
            "id": "overlay_wielded_afs_solderers_item",
            "fg": 142,
            "rotates": false
          },
          {
            "id": "afs_survivor_belt",
            "fg": 143
          },
          {
            "id": "overlay_wielded_afs_survivor_belt",
            "fg": 143
          },
          {
            "id": "overlay_worn_afs_survivor_belt",
            "fg": 144,
            "rotates": false
          },
          {
            "id": "overlay_wielded_survivor_belt",
            "fg": 145
          },
          {
            "id": "survivor_belt",
            "fg": 145
          },
          {
            "id": "overlay_worn_survivor_belt",
            "fg": 146,
            "rotates": false
          },
          {
            "id": "overlay_wielded_spidery_legs_big",
            "fg": 147,
            "rotates": false
          },
          {
            "id": "spidery_legs_big",
            "fg": 147,
            "rotates": false
          },
          {
            "id": "overlay_wielded_tripod_chassis",
            "fg": 148,
            "rotates": false
          },
          {
            "id": "tripod_chassis",
            "fg": 148,
            "rotates": false
          },
          {
            "id": "adv_UPS_off",
            "fg": 149,
            "rotates": false
          },
          {
            "id": "overlay_wielded_adv_UPS_off",
            "fg": 149,
            "rotates": false
          },
          {
            "id": "afs_atomic_smartphone",
            "fg": 150,
            "rotates": false
          },
          {
            "id": "overlay_wielded_afs_atomic_smartphone",
            "fg": 150,
            "rotates": false
          },
          {
            "id": "afs_atomic_smartphone_flashlight",
            "fg": 151,
            "rotates": false
          },
          {
            "id": "overlay_wielded_afs_atomic_smartphone_flashlight",
            "fg": 151,
            "rotates": false
          },
          {
            "id": "afs_atomic_smartphone_music",
            "fg": 152,
            "rotates": false
          },
          {
            "id": "overlay_wielded_afs_atomic_smartphone_music",
            "fg": 152,
            "rotates": false
          },
          {
            "id": "afs_atomic_wraitheon_flashlight",
            "fg": 153,
            "rotates": false
          },
          {
            "id": "overlay_wielded_afs_atomic_wraitheon_flashlight",
            "fg": 154,
            "rotates": false
          },
          {
            "id": "afs_atomic_wraitheon_music",
            "fg": 155,
            "rotates": false
          },
          {
            "id": "overlay_wielded_afs_atomic_wraitheon_music",
            "fg": 155,
            "rotates": false
          },
          {
            "id": "afs_atompot",
            "fg": 156,
            "rotates": true
          },
          {
            "id": "overlay_wielded_afs_atompot",
            "fg": 156,
            "rotates": true
          },
          {
            "id": "afs_bionic_power_mod",
            "fg": 157,
            "rotates": true
          },
          {
            "id": "overlay_wielded_afs_bionic_power_mod",
            "fg": 157,
            "rotates": true
          },
          {
            "id": "afs_chain_wrench",
            "fg": 158,
            "rotates": true
          },
          {
            "id": "overlay_wielded_afs_chain_wrench",
            "fg": 159,
            "rotates": true
          },
          {
            "id": "afs_murdersaw",
            "fg": 160,
            "rotates": false
          },
          {
            "id": "overlay_wielded_afs_murdersaw",
            "fg": 161,
            "rotates": false
          },
          {
            "id": "afs_murdersaw_on",
            "fg": 162,
            "rotates": false
          },
          {
            "id": "overlay_wielded_afs_murdersaw_on",
            "fg": 163,
            "rotates": false
          },
          {
            "id": "afs_power_cutter",
            "fg": 164,
            "rotates": false
          },
          {
            "id": "overlay_wielded_afs_power_cutter",
            "fg": 165,
            "rotates": false
          },
          {
            "id": "afs_power_cutter_on",
            "fg": 166,
            "rotates": false
          },
          {
            "id": "overlay_wielded_afs_power_cutter_on",
            "fg": 167,
            "rotates": false
          },
          {
            "id": "afs_rope_lighter",
            "fg": 168,
            "rotates": false
          },
          {
            "id": "overlay_wielded_afs_rope_lighter",
            "fg": 169,
            "rotates": false
          },
          {
            "id": "afs_wraitheon_smartphone",
            "fg": 170,
            "rotates": false
          },
          {
            "id": "overlay_wielded_afs_wraitheon_smartphone",
            "fg": 170,
            "rotates": false
          },
          {
            "id": "control_laptop",
            "fg": 171,
            "bg": 13
          },
          {
            "id": "overlay_wielded_control_laptop",
            "fg": 172
          },
          {
            "id": "overlay_wielded_UPS_off",
            "fg": 173,
            "rotates": false
          },
          {
            "id": "UPS_off",
            "fg": 173,
            "rotates": false
          },
          {
            "id": "afs_bionic_rocket",
            "fg": 174,
            "rotates": true
          },
          {
            "id": "overlay_wielded_afs_bionic_rocket",
            "fg": 175,
            "rotates": true
          },
          {
            "id": "afs_energy_saber_off",
            "fg": 176,
            "rotates": true
          },
          {
            "id": "overlay_wielded_afs_energy_saber_off",
            "fg": 177,
            "rotates": true
          },
          {
            "id": "afs_energy_saber_on",
            "fg": 178,
            "rotates": true
          },
          {
            "id": "overlay_wielded_afs_energy_saber_on",
            "fg": 179,
            "rotates": true
          },
          {
            "id": "afs_hardlight_longbow",
            "fg": 180,
            "rotates": true
          },
          {
            "id": "overlay_wielded_afs_hardlight_longbow",
            "fg": 181,
            "rotates": true
          },
          {
            "id": "overlay_worn_afs_hardlight_longbow",
            "fg": 182,
            "rotates": true
          },
          {
            "id": "afs_hydraulic_gauntlet",
            "fg": 183,
            "rotates": false
          },
          {
            "id": "overlay_wielded_afs_hydraulic_gauntlet",
            "fg": 184,
            "rotates": false
          },
          {
            "id": "afs_rolling_pin_barbed_wire",
            "fg": 185,
            "rotates": false
          },
          {
            "id": "overlay_wielded_afs_rolling_pin_barbed_wire",
            "fg": 186,
            "rotates": false
          },
          {
            "id": "afs_titanium_bat",
            "fg": 187,
            "rotates": false
          },
          {
            "id": "overlay_wielded_afs_titanium_bat",
            "fg": 188,
            "rotates": false
          },
          {
            "id": "ceramic_knife",
            "fg": 189,
            "rotates": false
          },
          {
            "id": "overlay_wielded_ceramic_knife",
            "fg": 190,
            "rotates": false
          },
          {
            "id": "golf_club",
            "fg": 191,
            "rotates": false
          },
          {
            "id": "overlay_wielded_golf_club",
            "fg": 192,
            "rotates": false
          },
          {
            "id": "laser_rifle_cheap",
            "fg": 193,
            "rotates": false
          },
          {
            "id": "overlay_wielded_laser_rifle_cheap",
            "fg": 194,
            "rotates": false
          },
          {
            "id": "overlay_wielded_TANK",
            "fg": 195,
            "rotates": false
          },
          {
            "id": "TANK",
            "fg": 195,
            "rotates": false
          },
          {
            "id": "f_geo_mox",
            "fg": 196,
            "rotates": false
          },
          {
            "id": "f_moxie_tube",
            "fg": 197,
            "rotates": true,
            "multitile": true,
            "additional_tiles": [
              {
                "id": "center",
                "fg": 198
              },
              {
                "id": "corner",
                "fg": [
                  199,
                  200,
                  201,
                  202
                ]
              },
              {
                "id": "t_connection",
                "fg": [
                  209,
                  210,
                  211,
                  212
                ]
              },
              {
                "id": "edge",
                "fg": [
                  203,
                  204
                ]
              },
              {
                "id": "end_piece",
                "fg": [
                  205,
                  206,
                  207,
                  208
                ]
              },
              {
                "id": "unconnected",
                "fg": 213
              }
            ]
          },
          {
            "id": "f_moxie_vent",
            "fg": [
              {
                "weight": 30,
                "sprite": 214
              },
              {
                "weight": 3,
                "sprite": 215
              }
            ],
            "animated": true
          },
          {
            "id": "f_shrub_moss",
            "fg": 216,
            "rotates": false
          },
          {
            "id": "f_afs_escape_pod_seat",
            "fg": [
              219,
              220,
              218,
              217
            ],
            "rotates": true
          },
          {
            "id": "f_afs_freezer_vehicle",
            "fg": 221,
            "rotates": false,
            "multitile": true,
            "additional_tiles": [
              {
                "id": "broken",
                "fg": 222
              }
            ]
          },
          {
            "id": "f_afs_fridge_vehicle",
            "fg": 223,
            "rotates": false,
            "multitile": true,
            "additional_tiles": [
              {
                "id": "broken",
                "fg": 224
              }
            ]
          },
          {
            "id": "t_ice",
            "fg": 225,
            "bg": 5,
            "rotates": true,
            "multitile": true,
            "additional_tiles": [
              {
                "id": "center",
                "fg": 226,
                "bg": 5
              },
              {
                "id": "corner",
                "fg": [
                  227,
                  228,
                  229,
                  230
                ],
                "bg": 5
              },
              {
                "id": "t_connection",
                "fg": [
                  237,
                  238,
                  239,
                  240
                ],
                "bg": 5
              },
              {
                "id": "edge",
                "fg": [
                  231,
                  232
                ],
                "bg": 5
              },
              {
                "id": "end_piece",
                "fg": [
                  233,
                  234,
                  235,
                  236
                ],
                "bg": 5
              },
              {
                "id": "unconnected",
                "fg": 241,
                "bg": 5
              }
            ]
          },
          {
            "id": "t_lichen",
            "fg": 242,
            "bg": 225,
            "rotates": true,
            "multitile": true,
            "additional_tiles": [
              {
                "id": "center",
                "fg": 243,
                "bg": 225
              },
              {
                "id": "corner",
                "fg": [
                  244,
                  245,
                  246,
                  247
                ],
                "bg": 225
              },
              {
                "id": "t_connection",
                "fg": [
                  254,
                  255,
                  256,
                  257
                ],
                "bg": 225
              },
              {
                "id": "edge",
                "fg": [
                  248,
                  249
                ],
                "bg": 225
              },
              {
                "id": "end_piece",
                "fg": [
                  250,
                  251,
                  252,
                  253
                ],
                "bg": 225
              },
              {
                "id": "unconnected",
                "fg": 258,
                "bg": 225
              }
            ]
          },
          {
            "id": "t_lichendirt",
            "fg": 259,
            "rotates": false
          },
          {
            "id": "t_broken_prefab",
            "fg": 260
          },
          {
            "id": "t_wall_prefab_bglass",
            "fg": 261,
            "rotates": false
          },
          {
            "id": "t_wall_prefab_bglass_shutters",
            "fg": 262,
            "rotates": false
          },
          {
            "id": "t_wall_prefab_glass",
            "fg": 263,
            "rotates": false
          },
          {
            "id": "t_wall_prefab_glass_shutters",
            "fg": 264,
            "rotates": false
          },
          {
            "id": "t_afs_escapepod_g",
            "fg": 265
          },
          {
            "id": "t_afs_space_ship_hatch_c",
            "fg": 266
          },
          {
            "id": "t_afs_space_ship_hull_wall",
            "fg": 267,
            "bg": 4,
            "rotates": false,
            "multitile": true,
            "additional_tiles": [
              {
                "id": "center",
                "fg": 268,
                "bg": 4
              },
              {
                "id": "corner",
                "fg": [
                  269,
                  270,
                  271,
                  272
                ],
                "bg": 4
              },
              {
                "id": "t_connection",
                "fg": [
                  279,
                  280,
                  281,
                  282
                ],
                "bg": 4
              },
              {
                "id": "edge",
                "fg": [
                  273,
                  274
                ],
                "bg": 4
              },
              {
                "id": "end_piece",
                "fg": [
                  275,
                  276,
                  277,
                  278
                ],
                "bg": 4
              },
              {
                "id": "unconnected",
                "fg": 283,
                "bg": 4
              }
            ]
          },
          {
            "id": "t_nuclear_reactor",
            "fg": 284,
            "bg": 14,
            "rotates": false
          },
          {
            "id": "afs_grazer",
            "fg": 285,
            "bg": 10,
            "rotates": false
          },
          {
            "id": "corpse_afs_grazer",
            "fg": 286,
            "rotates": false
          },
          {
            "id": "afs_mon_hevel",
            "fg": 287,
            "bg": 8,
            "rotates": false
          },
          {
            "id": "corpse_afs_mon_hevel",
            "fg": 288,
            "rotates": false
          },
          {
            "id": "afs_mon_rabbit",
            "fg": 289,
            "bg": 8,
            "rotates": false
          },
          {
            "id": "corpse_afs_mon_rabbit",
            "fg": 290,
            "rotates": false
          },
          {
            "id": "afs_runner",
            "fg": 291,
            "bg": 10,
            "rotates": false
          },
          {
            "id": "corpse_afs_runner",
            "fg": 292,
            "rotates": false
          },
          {
            "id": "mon_mutant_cryo",
            "fg": [
              {
                "weight": 10,
                "sprite": 293
              },
              {
                "weight": 10,
                "sprite": 295
              },
              {
                "weight": 10,
                "sprite": 296
              },
              {
                "weight": 10,
                "sprite": 297
              },
              {
                "weight": 10,
                "sprite": 298
              },
              {
                "weight": 10,
                "sprite": 299
              },
              {
                "weight": 10,
                "sprite": 300
              },
              {
                "weight": 10,
                "sprite": 301
              },
              {
                "weight": 10,
                "sprite": 302
              },
              {
                "weight": 10,
                "sprite": 294
              }
            ],
            "bg": 10,
            "rotates": false,
            "animated": false
          },
          {
            "id": "corpse_mon_mutant_cryo",
            "fg": 303
          },
          {
            "id": "afs_mon_cyber_mastiff",
            "fg": 304,
            "bg": 10,
            "rotates": false
          },
          {
            "id": "corpse_afs_mon_cyber_mastiff",
            "fg": 305,
            "rotates": false
          },
          {
            "id": "afs_mon_cyber_mastiff_pup",
            "fg": 306,
            "bg": 10,
            "rotates": false
          },
          {
            "id": "corpse_afs_mon_cyber_mastiff_pup",
            "fg": 307,
            "rotates": false
          },
          {
            "id": "afs_mon_migoturret",
            "fg": 308,
            "bg": 10,
            "rotates": false
          },
          {
            "id": "afs_mon_sentinel_lx",
            "fg": 309,
            "bg": 10,
            "rotates": false
          },
          {
            "id": "mon_bloodhound_drone",
            "fg": 310,
            "bg": 10,
            "rotates": false
          },
          {
            "id": "mon_migoturret_whately",
            "fg": 311,
            "bg": 10,
            "rotates": false
          },
          {
            "id": "mon_uplifted_ape",
            "fg": 312,
            "bg": 10,
            "rotates": false
          },
          {
            "id": "corpse_mon_uplifted_ape",
            "fg": 313,
            "rotates": false
          },
          {
            "id": "mon_uplifted_bear",
            "fg": 314,
            "bg": 10,
            "rotates": false
          },
          {
            "id": "corpse_mon_uplifted_bear",
            "fg": 315,
            "rotates": false
          },
          {
            "id": "mon_uplifted_bear_cub",
            "fg": 316,
            "bg": 10,
            "rotates": false
          },
          {
            "id": "corpse_mon_uplifted_bear_cub",
            "fg": 317,
            "rotates": false
          },
          {
            "id": "mon_afs_headless_zombie",
            "fg": 318,
            "bg": 10,
            "rotates": false
          },
          {
            "id": "corpse_mon_afs_headless_zombie",
            "fg": 319,
            "rotates": false
          },
          {
            "id": "mon_human_biomachine",
            "fg": 320,
            "bg": 10,
            "rotates": false
          },
          {
            "id": "corpse_mon_human_biomachine",
            "fg": 321,
            "rotates": false
          },
          {
            "id": "mon_moxie_grabby",
            "fg": 322,
            "bg": 10,
            "rotates": false
          },
          {
            "id": "corpse_mon_zombie_grabber",
            "fg": 323,
            "rotates": false
          },
          {
            "id": "mon_moxie_regenerator",
            "fg": 324,
            "bg": 10,
            "rotates": false
          },
          {
            "id": "corpse_mon_moxie_regenerator",
            "fg": 325,
            "rotates": false
          },
          {
            "id": "mon_moxie_scavenger",
            "fg": 326,
            "bg": 10,
            "rotates": false
          },
          {
            "id": "corpse_mon_moxie_scavenger",
            "fg": 327,
            "rotates": false
          },
          {
            "id": "mon_uplifted_ape_zed",
            "fg": 328,
            "bg": 10,
            "rotates": false
          },
          {
            "id": "corpse_mon_uplifted_ape_zed",
            "fg": 329,
            "rotates": false
          },
          {
            "id": "mon_zombie_upliftedbear",
            "fg": 330,
            "bg": 10,
            "rotates": false
          },
          {
            "id": "corpse_mon_zombie_upliftedbear",
            "fg": 331,
            "rotates": false
          },
          {
            "id": "overlay_female_mutation_FUR",
            "fg": 332,
            "rotates": false
          },
          {
            "id": "overlay_male_mutation_FUR",
            "fg": 333,
            "rotates": false
          },
          {
            "id": "overlay_female_mutation_LIGHTFUR",
            "fg": 334,
            "rotates": false
          },
          {
            "id": "overlay_male_mutation_LIGHTFUR",
            "fg": 335,
            "rotates": false
          },
          {
            "id": "overlay_female_mutation_URSINE_FUR",
            "fg": 336,
            "rotates": false
          },
          {
            "id": "overlay_male_mutation_URSINE_FUR",
            "fg": 337,
            "rotates": false
          },
          {
            "id": "anesthetic",
            "fg": 338,
            "rotates": false
          },
          {
            "id": "f_autodoc",
            "fg": 339,
            "rotates": true
          },
          {
            "id": "afs_control_station",
            "fg": 340,
            "rotates": false
          },
          {
            "id": "vp_afs_control_station",
            "fg": 341,
            "bg": 1,
            "rotates": true,
            "multitile": true,
            "additional_tiles": [
              {
                "id": "broken",
                "fg": 342,
                "bg": 1
              }
            ]
          },
          {
            "id": "afs_titanium_frame",
            "fg": 343,
            "rotates": true
          },
          {
            "id": "solar_panel_v3",
            "fg": 344,
            "bg": 9,
            "rotates": false
          },
          {
            "id": "vp_solar_panel_v3",
            "fg": 345,
            "rotates": true,
            "multitile": true,
            "additional_tiles": [
              {
                "id": "broken",
                "fg": 346
              }
            ]
          },
          {
            "id": "vp_afs_cargo_trough",
            "fg": 347,
            "rotates": true,
            "multitile": true,
            "additional_tiles": [
              {
                "id": "broken",
                "fg": 348
              }
            ]
          },
          {
            "id": "vp_afs_crude_plating",
            "fg": 349,
            "rotates": true,
            "multitile": true,
            "additional_tiles": [
              {
                "id": "broken",
                "fg": 350
              }
            ]
          },
          {
            "id": "vp_afs_kitchen_rig",
            "fg": 351,
            "bg": 3,
            "rotates": false,
            "multitile": true,
            "additional_tiles": [
              {
                "id": "broken",
                "fg": 352,
                "bg": 3
              }
            ]
          },
          {
            "id": "vp_afs_lightweight_frame_cover",
            "fg": 353,
            "rotates": true
          },
          {
            "id": "vp_afs_lightweight_frame_cross",
            "fg": 354,
            "rotates": true
          },
          {
            "id": "vp_afs_lightweight_frame_horizontal",
            "fg": 355,
            "rotates": true
          },
          {
            "id": "vp_afs_lightweight_frame_horizontal_2",
            "fg": 356,
            "rotates": true
          },
          {
            "id": "vp_afs_lightweight_frame_ne",
            "fg": 357,
            "rotates": true
          },
          {
            "id": "vp_afs_lightweight_frame_nw",
            "fg": 358,
            "rotates": true
          },
          {
            "id": "vp_afs_lightweight_frame_se",
            "fg": 359,
            "rotates": true
          },
          {
            "id": "vp_afs_lightweight_frame_sw",
            "fg": 360,
            "rotates": true
          },
          {
            "id": "vp_afs_lightweight_frame_vertical",
            "fg": 361,
            "rotates": true
          },
          {
            "id": "vp_afs_lightweight_frame_vertical_2",
            "fg": 362,
            "rotates": true
          },
          {
            "id": "vp_afs_mounted_external_tank",
            "fg": 363,
            "rotates": true,
            "multitile": true,
            "additional_tiles": [
              {
                "id": "broken",
                "fg": 364
              }
            ]
          },
          {
            "id": "vp_robot_cargo",
            "fg": 365,
            "rotates": true,
            "multitile": true,
            "additional_tiles": [
              {
                "id": "broken",
                "fg": 366
              }
            ]
          }
        ],
        "//": "range 1 to 368",
        "sprite_width": 32,
        "sprite_height": 32,
        "sprite_offset_x": 0,
        "sprite_offset_y": 0
      },
      {
        "file": "Aftershock_large.png",
        "tiles": [
          {
            "id": "bg_big_dirt",
            "fg": 369,
            "rotates": false
          },
          {
            "id": "bg_big_dirt_frozen",
            "fg": 370,
            "rotates": false
          },
          {
            "id": "bot_chickenbot",
            "fg": 371,
            "rotates": false
          },
          {
            "id": "bot_tankbot",
            "fg": 372,
            "rotates": false
          },
          {
            "id": "broken_chickenbot",
            "fg": 373,
            "rotates": false
          },
          {
            "id": "broken_tankbot",
            "fg": 374,
            "rotates": false
          },
          {
            "id": "overlay_worn_afs_hev_helmet_on",
            "fg": 375,
            "rotates": false
          },
          {
            "id": "chickenbot_chassis",
            "fg": 376,
            "rotates": false
          },
          {
            "id": "tankbot_chassis",
            "fg": 377,
            "rotates": false
          },
          {
            "id": "t_lichenyum",
            "fg": 378,
            "bg": 370,
            "rotates": false
          },
          {
            "id": "t_lichen_harvested",
            "fg": 379,
            "bg": 370,
            "rotates": false
          },
          {
            "id": "t_tree_lichen",
            "fg": 380,
            "bg": 370,
            "rotates": false
          },
          {
            "id": "t_tree_worm",
            "fg": 381,
            "bg": 370,
            "rotates": false
          },
          {
            "id": "t_tree_xeno",
            "fg": 382,
            "bg": 370,
            "rotates": false
          },
          {
            "id": "t_tree_xenoinfested",
            "fg": 383,
            "bg": 370,
            "rotates": false
          },
          {
            "id": "f_geo_vent",
            "fg": 384,
            "rotates": false
          },
          {
            "id": "t_afs_space_ship_hatch_o",
            "fg": 385
          },
          {
            "id": "mon_chickenbot",
            "fg": 386,
            "rotates": false
          },
          {
            "id": "mon_tankbot",
            "fg": 387,
            "rotates": false
          },
          {
            "id": "mon_afs_headless_horror",
            "fg": 388,
            "rotates": false
          },
          {
            "id": "corpse_mon_afs_headless_horror",
            "fg": 389,
            "rotates": false
          },
          {
            "id": "mon_zombie_oliphant",
            "fg": 390,
            "rotates": false
          },
          {
            "id": "corpse_mon_zombie_oliphant",
            "fg": 391,
            "rotates": false
          },
          {
            "id": [
              "afs_augmentation_clinic_n1",
              "afs_augmentation_clinic_n2",
              "afs_augmentation_clinic_n3",
              "afs_augmentation_clinic_n4"
            ],
            "fg": [
              392,
              393,
              394,
              395
            ],
            "rotates": true
          },
          {
            "id": [
              "afs_augmentation_clinic_n2",
              "afs_augmentation_clinic_n3",
              "afs_augmentation_clinic_n4"
            ],
            "fg": [
              396,
              397,
              398,
              399
            ],
            "bg": 400,
            "rotates": true
          }
        ],
        "//": "range 369 to 415",
        "sprite_width": 64,
        "sprite_height": 80,
        "sprite_offset_x": -16,
        "sprite_offset_y": -48
      }
    ],
    "id": "54e69a79-8ee9-4c7e-9df4-1f0a94697e25"
  }
]