[
  {
    "type": "mapgen",
    "om_terrain": "estate_2icb",
    "//": "second floor, inner corner B",
    "weight": 0,
    "method": "json",
    "object": {
      "fill_ter": "t_floor",
      "rows": [
        "####################=...",
        "####################w...",
        "####################w...",
        "####################w...",
        "####################=...",
        "####################=---",
        "####################=...",
        "####################w...",
        "####################w...",
        "####################=...",
        "####################=---",
        "####################w   ",
        "####################w   ",
        "####################=---",
        "####################=...",
        "####################w...",
        "####################w...",
        "####################=...",
        "##################===---",
        "##################=.....",
        "=www===ww==ww==ww==.....",
        ".....|....|  |....|.....",
        ".....|....|  |....|.....",
        ".....|....|  |....|....."
      ],
      "palettes": [
        "estate",
        "multistory_house",
        "upper_level"
      ]
    },
    "id": "b8b6422a-fdf2-45ba-972f-a0924e9e6f81"
  }
]