[
  {
    "type": "mapgen",
    "om_terrain": "estate_2be",
    "//": "second floor, bottom edge",
    "weight": 99,
    "method": "json",
    "object": {
      "fill_ter": "t_floor",
      "rows": [
        ".....|....|  |....|.....",
        ".....|-----  --+--|.....",
        ".....|>>     |....+.....",
        "==ww==>>     |....==ww==",
        "#####=       |....=#####",
        "#####=       |....=#####",
        "#####==www=ww=www==#####",
        "########################",
        "########################",
        "########################",
        "########################",
        "########################",
        "########################",
        "########################",
        "########################",
        "########################",
        "########################",
        "########################",
        "########################",
        "########################",
        "########################",
        "########################",
        "########################",
        "########################"
      ],
      "palettes": [
        "estate",
        "multistory_house",
        "upper_level"
      ]
    },
    "id": "7f9a650a-41a7-4969-90b2-652a73ed92c4"
  }
]