[
  {
    "type": "mapgen",
    "om_terrain": "estate_1broc",
    "//": "first floor, bottom right outer corner",
    "weight": 99,
    "method": "json",
    "object": {
      "fill_ter": "t_floor",
      "rows": [
        "...=####################",
        "...w####################",
        "..p=####################",
        "=w==####################",
        "########################",
        "########################",
        "########################",
        "########################",
        "########################",
        "########################",
        "########################",
        "########################",
        "########################",
        "########################",
        "########################",
        "########################",
        "########################",
        "########################",
        "########################",
        "########################",
        "########################",
        "########################",
        "########################",
        "########################"
      ],
      "palettes": [
        "estate",
        "multistory_house",
        "ground_level"
      ],
      "terrain": {
        "k": "t_shrub"
      }
    },
    "id": "8a65a402-85a3-4b06-86e8-c20b0aa84812"
  }
]