[
  {
    "type": "mapgen",
    "om_terrain": "estate_mid",
    "//": "any floor, middle area",
    "weight": 99,
    "method": "json",
    "object": {
      "fill_ter": "t_floor",
      "rows": [
        "....d|....|  |X...|.....",
        "...dd|....|  |.X.X|c.c..",
        "..---------  |X...|.....",
        ".d|          +....+..c..",
        "dd|          |XXXX|.PP..",
        "--|  -------------------",
        "..|  |bbbbbbbbbbbbbbbbbb",
        "..+  |..................",
        "..|  |,,bbbbbbbbbbb.....",
        ".d|  |..................",
        "---  |..bbbbbbbb..------",
        "     |............+     ",
        "     |............+     ",
        "--+---..bbbbbbbb..|  ---",
        "..................|  |TT",
        ".bbbbbbbbbbbb.....|  |..",
        "................cT|  +..",
        "...bbbbbbbbbb...TT|  |..",
        "--+----------------  |--",
        "....p|d.BB|          |..",
        ".....|..BB|          +..",
        ".....+....|  ---+-----..",
        ".....|...M|  |d...|WM...",
        ".....|....|  |....|....."
      ],
      "rotation": [
        0,
        3
      ],
      "palettes": [
        "estate",
        "multistory_house"
      ]
    },
    "id": "0874e37e-a360-4d4a-92fb-41cb8128f115"
  }
]