[
  {
    "type": "mapgen",
    "om_terrain": "estate_mid",
    "//": "any floor, middle area",
    "weight": 99,
    "method": "json",
    "object": {
      "fill_ter": "t_floor",
      "rows": [
        ".....|....|  |....|d....",
        ".....|....|  |b...|d....",
        "....L|b.b.|  |b...|.....",
        ".....|b.b.|  |b...+.....",
        "..L.L|b.b.|  |b...|.ddd.",
        "-+----b.b.-++-b...------",
        "..b...b.b.|.............",
        "..b.b.b.b.|D............",
        "..b.b.b.b.|D.c......c...",
        "....b...b.|DDDD....DDD..",
        "----------------++------",
        "                        ",
        "                        ",
        "----------+-+-----+-----",
        "dd....p|Y.....Y|s,,|T...",
        ".....BB|.......|,,,|Tc..",
        ".....BB|.......|,,,---..",
        "......p|.......|&,,+.|p.",
        "--+----1.......1----+---",
        ".................p|.....",
        "..................|.....",
        "..................|Dc...",
        ".....--+---++|....|D....",
        ".....|...X|  |....|....."
      ],
      "rotation": [
        0,
        3
      ],
      "palettes": [
        "estate",
        "multistory_house"
      ]
    },
    "id": "bf973b5c-1c7b-4754-a168-045f77a438cc"
  }
]