[
  {
    "type": "mapgen",
    "om_terrain": "estate_1icd",
    "//": "first floor, inner corner D",
    "weight": 99,
    "method": "json",
    "object": {
      "fill_ter": "t_floor",
      "rows": [
        ".....|....+  |b...|...TT",
        ".....|BB..|  |b...|...TT",
        ".AAA.|BB..|  |b...+..c..",
        "=www===ww==++==ww==.....",
        "##################=p....",
        "##################===+--",
        "####################=...",
        "####################w...",
        "####################w...",
        "####################=ddd",
        "####################=---",
        "####################+   ",
        "####################+   ",
        "####################=-+-",
        "####################=M..",
        "####################w...",
        "####################w...",
        "####################=M..",
        "####################=---",
        "####################=N..",
        "####################w..A",
        "####################w..A",
        "####################w..A",
        "####################=..."
      ],
      "palettes": [
        "estate",
        "multistory_house",
        "ground_level"
      ],
      "terrain": {
        "k": "t_shrub"
      }
    },
    "id": "d7c204dc-7170-46a6-9e48-a1984ced6348"
  }
]