[
  {
    "type": "mapgen",
    "om_terrain": "estate_2te",
    "//": "second floor, top edge. ",
    "weight": 99,
    "method": "json",
    "object": {
      "fill_ter": "t_floor",
      "rows": [
        "########################",
        "########################",
        "########################",
        "########################",
        "########################",
        "########################",
        "########################",
        "########################",
        "########################",
        "########################",
        "########################",
        "########################",
        "########################",
        "########################",
        "########################",
        "########################",
        "########################",
        "#####==www=ww=www==#####",
        "#####=p..........p=#####",
        "#####=....--------=#####",
        "==ww==....|     >>==ww==",
        "DDiii|....|     >>|TTc..",
        ".c..i|....|  -----|TT...",
        ".....|....|  |....+....."
      ],
      "palettes": [
        "estate",
        "multistory_house",
        "upper_level"
      ]
    },
    "id": "915e4c8b-1bf4-43e5-89c2-df3de6845cec"
  }
]