[
  {
    "type": "mapgen",
    "om_terrain": "estate_1te",
    "//": "first floor, top edge. ",
    "weight": 99,
    "method": "json",
    "object": {
      "fill_ter": "t_floor",
      "rows": [
        "########################",
        "########################",
        "########################",
        "########################",
        "########################",
        "########################",
        "########################",
        "########################",
        "########################",
        "########################",
        "########################",
        "########################",
        "########################",
        "########################",
        "########################",
        "########################",
        "########################",
        "#####==www=++=www==#####",
        "#####=Y          Y=#####",
        "#####=            =#####",
        "=ww===<<        >>===ww=",
        "d..BB|<<        >>|bbbbb",
        "...BB|-----  --+--|b....",
        ".....|....|  |...d|b...."
      ],
      "palettes": [
        "estate",
        "multistory_house",
        "ground_level"
      ],
      "terrain": {
        "k": "t_shrub"
      }
    },
    "id": "d7ce8b1c-0b75-4165-b07c-b0ff6c32fecd"
  }
]