[
  {
    "type": "mapgen",
    "om_terrain": "estate_2icb",
    "//": "second floor, inner corner B",
    "weight": 99,
    "method": "json",
    "object": {
      "fill_ter": "t_floor",
      "rows": [
        "####################=...",
        "####################wT..",
        "####################wTc.",
        "####################wT..",
        "####################=N..",
        "####################=---",
        "####################=p..",
        "####################w...",
        "####################w...",
        "####################=p..",
        "####################=-+-",
        "####################w   ",
        "####################w   ",
        "####################=---",
        "####################=bbb",
        "####################w...",
        "####################w...",
        "####################=bbb",
        "##################===---",
        "##################=.....",
        "=www===ww==ww==ww==...c.",
        "....i|XXXx|  |d..d|.TTT.",
        "..c..|....+  +....+.TTT.",
        ".DDD.|....|  |....|....."
      ],
      "palettes": [
        "estate",
        "multistory_house",
        "upper_level"
      ]
    },
    "id": "6016e44e-d2ed-4ec7-8c93-ab8f15ddb3b0"
  }
]