[
  {
    "type": "mapgen",
    "om_terrain": "estate_2icd",
    "//": "second floor, inner corner D",
    "weight": 99,
    "method": "json",
    "object": {
      "fill_ter": "t_floor",
      "rows": [
        ".....|....|  |....|.....",
        ".....+....+  +....-----.",
        "b....|TTTT|  |p......a|.",
        "==ww===ww==ww==ww==...|.",
        "##################=a..|.",
        "##################===.--",
        "####################=...",
        "####################w...",
        "####################w...",
        "####################=p..",
        "####################=-+-",
        "####################w   ",
        "####################w   ",
        "####################=-+-",
        "####################=...",
        "####################w...",
        "####################w..a",
        "####################=N.a",
        "####################=---",
        "####################=BB.",
        "####################wBB.",
        "####################w...",
        "####################=d..",
        "####################=..."
      ],
      "palettes": [
        "estate",
        "multistory_house",
        "upper_level"
      ]
    },
    "id": "ff18778e-d05f-49fb-bfa7-a01a93587bfe"
  }
]