[
  {
    "type": "mapgen",
    "om_terrain": "estate_mid",
    "//": "any floor, middle area",
    "weight": 99,
    "method": "json",
    "object": {
      "fill_ter": "t_floor",
      "rows": [
        "...TT|BB..|  |...b|c....",
        "..cTT|BB.d|  |...b|...c.",
        "..------+--  |...b|L....",
        "..+          |...b|....c",
        "..|          |....|L....",
        "--|  ---------....---+--",
        ".b|  |............|d....",
        "..|  |N...A.......|M....",
        "..|  |N...A.....c.|M....",
        ".b|  |.........PPP|d....",
        "---  -------------------",
        "                        ",
        "                        ",
        "---                  ---",
        ".d|                  |d.",
        ".d|j                j|..",
        ".d|j                j|..",
        ".d|j                j|..",
        "--|j                j|+-",
        ".d|                  |..",
        ".d|Y jjjjj    jjjjj Y|a.",
        ".d---------  ---------a.",
        ".....+..bb|  |.LLL|AAA..",
        ".....|....|  +....|....."
      ],
      "rotation": [
        0,
        3
      ],
      "palettes": [
        "estate",
        "multistory_house"
      ]
    },
    "id": "73c13c7e-2c67-4ef0-bc9b-2e805d79e597"
  }
]