[
  {
    "type": "mapgen",
    "om_terrain": "estate_mid",
    "//": "any floor, middle area",
    "weight": 99,
    "method": "json",
    "object": {
      "fill_ter": "t_floor",
      "rows": [
        "....c|....|  |....|b....",
        ".c..c|....|  |XX..+b....",
        ".....|p...+  |XX..|b....",
        "..c-+-----|  |-----.....",
        "...|.....L|  |N.......bb",
        "--+|......|  |......----",
        "...|.D...L|  |......|LL.",
        "...|cD....|  |.....a|l..",
        "...|.D....+  +......|...",
        "bbb|.....L|  |p..AAA|...",
        "----------|  ---------+-",
        "      |ss,|             ",
        "      |,,,+             ",
        "----  |,,,------+-------",
        ".WW|  |&,,+,l|....TAAAT.",
        "...|  -------|..........",
        "...|         |BB........",
        "...|         |BB........",
        "--+--------  |------+---",
        "....M|X.XX|  |W..d|b.bb.",
        ".....|X...+  |..BB|b.bb.",
        "....M|-+--|  +..BB|.....",
        "....M|...X|  |....|b.bb.",
        ".....|X...|  |....|b.bb."
      ],
      "rotation": [
        0,
        3
      ],
      "palettes": [
        "estate",
        "multistory_house"
      ]
    },
    "id": "7bf892be-5315-4a8a-89c1-0ee7944e6043"
  }
]