[
  {
    "type": "mapgen",
    "om_terrain": "estate_1tloc",
    "//": "first floor, top left outer corner",
    "weight": 99,
    "method": "json",
    "object": {
      "fill_ter": "t_floor",
      "rows": [
        "########################",
        "########################",
        "##kkkkkkkkkkkkkkkkkkkkkk",
        "##k#####################",
        "##k#####################",
        "##k#####################",
        "##k#####################",
        "##k#####################",
        "##k#####################",
        "##k#####################",
        "##k#####################",
        "##k#####################",
        "##k#####################",
        "##k#####################",
        "##k#####################",
        "##k#####################",
        "##k#####################",
        "##k#####################",
        "##k#####################",
        "##k#####################",
        "##k#################==w=",
        "##k#################=W..",
        "##k#################w...",
        "##k#################=..."
      ],
      "palettes": [
        "estate",
        "multistory_house",
        "ground_level"
      ],
      "terrain": {
        "k": "t_shrub"
      }
    },
    "id": "de2d1613-ab52-48c4-bb5e-950208d465c2"
  }
]