[
  {
    "type": "mapgen",
    "om_terrain": "estate_1be",
    "//": "first floor, bottom edge",
    "weight": 99,
    "method": "json",
    "object": {
      "fill_ter": "t_floor",
      "rows": [
        ".....|....|  |....|.....",
        "...|+|--+-1  1----|L....",
        "...|l|>>        <<|LL...",
        "=ww===>>        <<===ww=",
        "#####=            =#####",
        "#####=    1  1    =#####",
        "#####==www=++=www==#####",
        "########################",
        "########################",
        "########################",
        "########################",
        "########################",
        "########################",
        "########################",
        "########################",
        "########################",
        "########################",
        "########################",
        "########################",
        "########################",
        "########################",
        "########################",
        "########################",
        "########################"
      ],
      "palettes": [
        "estate",
        "multistory_house",
        "ground_level"
      ],
      "terrain": {
        "k": "t_shrub"
      }
    },
    "id": "2c98a18b-ba68-47c4-a95e-5d3b9f3a56b8"
  }
]