[
  {
    "type": "mapgen",
    "om_terrain": "estate_2icd",
    "//": "second floor, inner corner D",
    "weight": 99,
    "method": "json",
    "object": {
      "fill_ter": "t_floor",
      "rows": [
        ".....|....|  |....|.....",
        ".c...+....+  +..BB|...a.",
        "TTT..|p..p|  |..BB|.a...",
        "==ww===ww==ww==ww==....a",
        "##################=NN...",
        "##################===-+-",
        "####################=p..",
        "####################w...",
        "####################w...",
        "####################=p..",
        "####################=-+-",
        "####################w   ",
        "####################w   ",
        "####################=-+-",
        "####################=d..",
        "####################w...",
        "####################wBB.",
        "####################=BB.",
        "####################=---",
        "####################=...",
        "####################w.TT",
        "####################w.TT",
        "####################=...",
        "####################=..."
      ],
      "palettes": [
        "estate",
        "multistory_house",
        "upper_level"
      ]
    },
    "id": "aa18cd03-31a7-4b9e-bbc1-4a146b504e85"
  }
]