[
  {
    "type": "mapgen",
    "om_terrain": "estate_2ica",
    "//": "second floor, inner corner A.",
    "weight": 99,
    "method": "json",
    "object": {
      "fill_ter": "t_floor",
      "rows": [
        "...=####################",
        "..Dw####################",
        ".cDw####################",
        "..Dw####################",
        "...=####################",
        "-+-=####################",
        "..d=####################",
        "...w####################",
        "...w####################",
        "..d=####################",
        "-+-=####################",
        "   w####################",
        "   w####################",
        "---=####################",
        "..p=####################",
        "...w####################",
        "...w####################",
        "...=####################",
        "--+===##################",
        "d|   =##################",
        ".--- ==ww==ww==ww===www=",
        ".BB|         |...D|W....",
        ".BB--------  +..dD|W....",
        "....d|d...|  |...D|....."
      ],
      "palettes": [
        "estate",
        "multistory_house",
        "upper_level"
      ]
    },
    "id": "afea536b-81f9-4752-a282-1b0c4f5d5464"
  }
]