[
  {
    "type": "mapgen",
    "om_terrain": "estate_umid",
    "//": "underground, mid. ",
    "weight": 99,
    "method": "json",
    "object": {
      "fill_ter": "t_concrete_floor",
      "rows": [
        "##########=,,=##########",
        "##########=,,=##########",
        "##########=,,=##########",
        "##########=,,=##########",
        "##########=,,=##########",
        "##########=,,=##########",
        "##########=,,=##########",
        "##########=,,=##########",
        "##########=,,=##########",
        "##########=,,=##########",
        "##########=,,=##########",
        "===========,,===========",
        ",,,,,,,,,,,,,,,,,,,,,,,,",
        ",,,,,,,,,,,,,,,,,,,,,,,,",
        "===========,,===========",
        "##########=,,=##########",
        "##########=,,=##########",
        "##########=,,=##########",
        "##########=,,=##########",
        "##########=,,=##########",
        "##########=,,=##########",
        "##########=,,=##########",
        "##########=,,=##########",
        "##########=,,=##########"
      ],
      "palettes": [
        "estate",
        "multistory_house",
        "lower_level"
      ],
      "terrain": {
        "k": "t_shrub"
      }
    },
    "id": "e9108899-4efc-467f-8c62-796b30792bb6"
  }
]