[
  {
    "type": "mapgen",
    "om_terrain": "estate_1icc",
    "//": "first floor, inner corner C",
    "weight": 99,
    "method": "json",
    "object": {
      "fill_ter": "t_floor",
      "rows": [
        ".....|....|  |....|b..BB",
        ".....+....|  +..BB|...BB",
        "....i|6DDD|  |N.BB|.....",
        "....i==ww==++==ww===www=",
        ".iiii=##################",
        "---===##################",
        "...=####################",
        "T..w####################",
        "T..w####################",
        "...w####################",
        "---=####################",
        "   +####################",
        "   +####################",
        "---=####################",
        "..p=####################",
        "...w####################",
        "...w####################",
        "..p=####################",
        "---=####################",
        "..p=####################",
        "...w####################",
        "...w####################",
        "...w####################",
        "...=####################"
      ],
      "palettes": [
        "estate",
        "multistory_house",
        "ground_level"
      ],
      "terrain": {
        "k": "t_shrub"
      }
    },
    "id": "964ccb62-360d-4118-a273-b2953877e07a"
  }
]