[
  {
    "type": "mapgen",
    "om_terrain": "estate_2tloc",
    "//": "second floor, top left outer corner",
    "weight": 99,
    "method": "json",
    "object": {
      "fill_ter": "t_floor",
      "rows": [
        "########################",
        "########################",
        "########################",
        "########################",
        "########################",
        "########################",
        "########################",
        "########################",
        "########################",
        "########################",
        "########################",
        "########################",
        "########################",
        "########################",
        "########################",
        "########################",
        "########################",
        "########################",
        "########################",
        "########################",
        "####################==w=",
        "####################=W..",
        "####################w...",
        "####################=..."
      ],
      "palettes": [
        "estate",
        "multistory_house",
        "upper_level"
      ]
    },
    "id": "fdc2e140-94c3-4145-a29b-d018e0252643"
  }
]