[
  {
    "type": "mapgen",
    "om_terrain": "estate_1icc",
    "//": "first floor, inner corner C",
    "weight": 0,
    "method": "json",
    "object": {
      "fill_ter": "t_floor",
      "rows": [
        ".....|....|  |....|.....",
        ".....|....|  |....|.....",
        ".....|....|  |....|.....",
        ".....==ww==++==ww===www=",
        ".....=##################",
        "---===##################",
        "...=####################",
        "...w####################",
        "...w####################",
        "...w####################",
        "---=####################",
        "   +####################",
        "   +####################",
        "---=####################",
        "...=####################",
        "...w####################",
        "...w####################",
        "...=####################",
        "---=####################",
        "...=####################",
        "...w####################",
        "...w####################",
        "...w####################",
        "...=####################"
      ],
      "palettes": [
        "estate",
        "multistory_house",
        "ground_level"
      ],
      "terrain": {
        "k": "t_shrub"
      }
    },
    "id": "fb486951-1d6b-4011-812e-b8062da6b56c"
  }
]