[
  {
    "type": "mapgen",
    "om_terrain": "estate_1icc",
    "//": "first floor, inner corner C",
    "weight": 99,
    "method": "json",
    "object": {
      "fill_ter": "t_floor",
      "rows": [
        ".....|....|  |....|.....",
        ".AAA.|...a|  +.c..|..cc.",
        ".A...|N..a|  |....+.....",
        ".A...==ww==++==ww===www=",
        "....N=##################",
        "---===##################",
        "..N=####################",
        "...w####################",
        "...w####################",
        ".c.w####################",
        "---=####################",
        "   +####################",
        "   +####################",
        "-+-=####################",
        "...=####################",
        "...w####################",
        ".BBw####################",
        ".BB=####################",
        "---=####################",
        "dd.=####################",
        ".ddw####################",
        "...w####################",
        "...w####################",
        "..d=####################"
      ],
      "palettes": [
        "estate",
        "multistory_house",
        "ground_level"
      ],
      "terrain": {
        "k": "t_shrub"
      }
    },
    "id": "7c11faee-7649-444c-85ee-e2f807c03d1c"
  }
]