[
  {
    "type": "mapgen",
    "om_terrain": "estate_mid",
    "//": "any floor, middle area",
    "weight": 100,
    "method": "json",
    "object": {
      "fill_ter": "t_floor",
      "rows": [
        "BB...|....|  |....|.....",
        "BB...|--+-|  |...d|d....",
        ".....|d..d|  |....|.....",
        ".....|-----  |....+.....",
        ".....|pWp|   |BB..|.ddd.",
        "--+---...|   |BB..|-----",
        "...AAA...|  -------ii...",
        ".........|  |p..........",
        ".........+  +...........",
        ".AAA.....|  |p..6DDD6...",
        "----------  ------------",
        "                        ",
        "                        ",
        "-+--         ---+-------",
        "...|------   |..........",
        "..c|Sg,,&|   |..........",
        "..c|,,,,,|   |M....BB...",
        "...|~~,,,+   |W....BB...",
        "--+|~~,,M|   -----------",
        "...-------|       +.....",
        ".cTTT|x.x.|  ------...c.",
        "..TTT|...x|  |dddd|..TT.",
        "..c..|--+-|  |....+..TT.",
        ".....|....|  |....|....."
      ],
      "rotation": [
        0,
        3
      ],
      "palettes": [
        "estate",
        "multistory_house"
      ]
    },
    "id": "18584fac-be29-4674-979e-1e73d06ab4a0"
  }
]