[
  {
    "type": "mapgen",
    "om_terrain": "estate_mid",
    "//": "any floor, middle area",
    "weight": 99,
    "method": "json",
    "object": {
      "fill_ter": "t_floor",
      "rows": [
        ".....|...b|  |....|.....",
        ".....|...b|  |XXXX|.....",
        ".....|...b|  ------.....",
        "....N|....|       +.....",
        "...N--....|       +...Md",
        "--+--N...a|-+-----------",
        "..........|S,,s|bb......",
        "..........|,,,s|b..TT...",
        "....A.....+,,,,|b..TTc..",
        "....A....N|,,,&|bb......",
        "--------------------+---",
        "                        ",
        "                        ",
        "--+--------------++-----",
        "......c6|-j...........bb",
        ".....c6|-j..............",
        "....c6|-j...............",
        "...c6|-j................",
        "------j..............j--",
        "....................j-|.",
        "...................j-|L.",
        "..................j-|L..",
        ".....------++------|L...",
        ".....|d..d|  |dd.d|....."
      ],
      "rotation": [
        0,
        3
      ],
      "palettes": [
        "estate",
        "multistory_house"
      ]
    },
    "id": "ef8e488a-5ff0-4afd-8a1a-48168e706141"
  }
]