[
  {
    "type": "mapgen",
    "om_terrain": "estate_2icc",
    "//": "second floor, inner corner C",
    "weight": 99,
    "method": "json",
    "object": {
      "fill_ter": "t_floor",
      "rows": [
        "AAAA.|....|  |..BB|b....",
        "A....|....+  +..BB|b....",
        "A....|BB.d|  |...d|bbbbb",
        "A...N==ww==ww==ww===www=",
        "...NN=##################",
        "-+-===##################",
        "..p=####################",
        "...w####################",
        "...w####################",
        "..p=####################",
        "-+-=####################",
        "   w####################",
        "   w####################",
        "-+-=####################",
        "..c=####################",
        "...w####################",
        "...w####################",
        "..c=####################",
        "---=####################",
        "bbb=####################",
        "...w####################",
        "...w####################",
        "...w####################",
        "...=####################"
      ],
      "palettes": [
        "estate",
        "multistory_house",
        "upper_level"
      ]
    },
    "id": "57ec636a-f52c-4307-9eff-59edc87c59ad"
  }
]