[
  {
    "type": "mapgen",
    "om_terrain": "estate_2le",
    "//": "second floor, left edge",
    "weight": 99,
    "method": "json",
    "object": {
      "fill_ter": "t_floor",
      "rows": [
        "####################=...",
        "####################=..c",
        "####################w...",
        "####################wY..",
        "####################=...",
        "#################====---",
        "#################=  >>|d",
        "#################w  >>|.",
        "#################w    +.",
        "#################=    |.",
        "#################=-++---",
        "#################w      ",
        "#################w      ",
        "#################=----+-",
        "#################=W.....",
        "#################w......",
        "#################wBB....",
        "#################=BB....",
        "#################====-+-",
        "####################=...",
        "####################=...",
        "####################wn..",
        "####################wn..",
        "####################=..."
      ],
      "palettes": [
        "estate",
        "multistory_house",
        "upper_level"
      ]
    },
    "id": "5397ebb9-6c08-4f4f-b490-6411d305e813"
  }
]