[
  {
    "type": "mapgen",
    "om_terrain": "estate_1te",
    "//": "first floor, top edge. ",
    "weight": 99,
    "method": "json",
    "object": {
      "fill_ter": "t_floor",
      "rows": [
        "########################",
        "########################",
        "########################",
        "########################",
        "########################",
        "########################",
        "########################",
        "########################",
        "########################",
        "########################",
        "########################",
        "########################",
        "########################",
        "########################",
        "########################",
        "########################",
        "########################",
        "#####==www=++=www==#####",
        "#####=Y          Y=#####",
        "#####=            =#####",
        "=ww===<<        >>===ww=",
        "...bb|<<        >>|TTT..",
        "....b|-----  -----|TTT..",
        ".....+..dd|  +...d|..c.."
      ],
      "palettes": [
        "estate",
        "multistory_house",
        "ground_level"
      ],
      "terrain": {
        "k": "t_shrub"
      }
    },
    "id": "584febf7-1a50-4414-8801-02e6fefb1cf4"
  }
]