[
  {
    "type": "mapgen",
    "om_terrain": "estate_1bloc",
    "//": "first floor, bottom left outer corner",
    "weight": 99,
    "method": "json",
    "object": {
      "fill_ter": "t_floor",
      "rows": [
        "##k#################=...",
        "##k#################w...",
        "##k#################=d..",
        "##k#################==w=",
        "##k#####################",
        "##k#####################",
        "##k#####################",
        "##k#####################",
        "##k#####################",
        "##k#####################",
        "##k#####################",
        "##k#####################",
        "##k#####################",
        "##k#####################",
        "##k#####################",
        "##k#####################",
        "##k#####################",
        "##k#####################",
        "##k#####################",
        "##k#####################",
        "##k#####################",
        "kkkkkkkkkkkkkkkkkkkkkkkk",
        "########################",
        "########################"
      ],
      "palettes": [
        "estate",
        "multistory_house",
        "ground_level"
      ],
      "terrain": {
        "k": "t_shrub"
      }
    },
    "id": "f7e8d503-43dc-4900-b12a-ebaf27035934"
  }
]