[
  {
    "type": "mapgen",
    "om_terrain": "estate_mid",
    "//": "any floor, middle area",
    "weight": 99,
    "method": "json",
    "object": {
      "fill_ter": "t_floor",
      "rows": [
        ".....|....|  |....|.....",
        ".....+....|  +..---.....",
        "..------+--  ---|Y......",
        "..|          +..........",
        "bb|          +..........",
        "--|       --------------",
        ".M|       |6DDD|l..l|d..",
        "..|       |.c..|l..l|d..",
        "..+       |....|l..l|d..",
        "..|       |...i|l..l|d..",
        "---       --+----+------",
        "                        ",
        "                        ",
        "-+---+-----+--       ---",
        "..p|,,,,|Dc..|       |p.",
        "...|s,,&|D...|       +..",
        "...------...B|       +..",
        "...+d|d.+...B|       |p.",
        "-+------------       |--",
        ".....+               |Y.",
        ".....+               +..",
        ".....|-+---  ---------..",
        "....D|...o|  |CCCC|Y....",
        "...cD|....|  |....|....."
      ],
      "rotation": [
        0,
        3
      ],
      "palettes": [
        "estate",
        "multistory_house"
      ]
    },
    "id": "cc0fb08a-39c8-48b5-91ab-bd44e7d31438"
  }
]