[
  {
    "type": "mapgen",
    "om_terrain": "estate_2tloc",
    "//": "second floor, top left outer corner",
    "weight": 0,
    "method": "json",
    "object": {
      "fill_ter": "t_floor",
      "rows": [
        "########################",
        "########################",
        "########################",
        "########################",
        "########################",
        "########################",
        "########################",
        "########################",
        "########################",
        "########################",
        "########################",
        "########################",
        "########################",
        "########################",
        "########################",
        "########################",
        "########################",
        "########################",
        "########################",
        "########################",
        "####################==w=",
        "####################=...",
        "####################w...",
        "####################=..."
      ],
      "palettes": [
        "estate",
        "multistory_house",
        "upper_level"
      ]
    },
    "id": "70c5792a-2834-4917-89f2-c613c0ad73cc"
  }
]