[
  {
    "type": "mapgen",
    "om_terrain": "estate_ure",
    "//": "underground, right edge",
    "weight": 100,
    "method": "json",
    "object": {
      "fill_ter": "t_concrete_floor",
      "rows": [
        "########################",
        "########################",
        "########################",
        "########################",
        "########################",
        "#====###################",
        "#=<<=###################",
        "#=<<=###################",
        "#=++=###################",
        "#=,,=###################",
        "#=,,=###################",
        "==,,=###################",
        ",,,,=###################",
        ",,,,=###################",
        "=====###################",
        "########################",
        "########################",
        "########################",
        "########################",
        "########################",
        "########################",
        "########################",
        "########################",
        "########################"
      ],
      "palettes": [
        "estate",
        "multistory_house",
        "lower_level"
      ],
      "terrain": {
        "k": "t_shrub"
      }
    },
    "id": "674830cf-87bd-4509-bfa7-9f19c07c0109"
  }
]