[
  {
    "type": "mapgen",
    "om_terrain": "estate_1icb",
    "//": "first floor, inner corner B",
    "weight": 99,
    "method": "json",
    "object": {
      "fill_ter": "t_floor",
      "rows": [
        "####################=b..",
        "####################w...",
        "####################w...",
        "####################w...",
        "####################=AAA",
        "####################=---",
        "####################=p..",
        "####################w...",
        "####################w...",
        "####################=d..",
        "####################=---",
        "####################+   ",
        "####################+   ",
        "####################=-+-",
        "####################=...",
        "####################w...",
        "####################w...",
        "####################=ddd",
        "##################===---",
        "##################=Y..j.",
        "=www===ww==++==ww==.....",
        ".DDD.|N..a|  |a..N|j....",
        "..c..+....|  +....|.....",
        ".....|....|  |....|....."
      ],
      "palettes": [
        "estate",
        "multistory_house",
        "ground_level"
      ],
      "terrain": {
        "k": "t_shrub"
      }
    },
    "id": "572f327f-4fc5-4ef9-8e8c-e66060ab13d8"
  }
]