[
  {
    "type": "mapgen",
    "om_terrain": "estate_mid",
    "//": "any floor, middle area",
    "weight": 99,
    "method": "json",
    "object": {
      "fill_ter": "t_floor",
      "rows": [
        ".....|....|  |....|.....",
        "....W|....|  |p...+.....",
        "..------+--  ---------..",
        "..|                  |..",
        "..+                  +..",
        "--|  --------------  |--",
        "..|  |RRRRCCCCUUUU|  |..",
        "..|  |............|  |c.",
        "..+  |C..........C|  |TT",
        ".p|  |o..CCCoCC..o|  |TT",
        "---  |o..CCoCCC..o|  ---",
        "     |C..........C|     ",
        "     |............|     ",
        "---  +..TT....TT..|  ---",
        ".d|  |..TT....TT..|  |d.",
        ".d|  |..TT....TT..|  |BB",
        ".d|  |..TT....TT..|  |BB",
        ".d|  |R..........R|  |..",
        "--|  ------++------  |+-",
        ".d|                  |..",
        "..+                  +..",
        "..-----+---  ---------..",
        "...BB|p..p|  |XXX.+.....",
        "...BB|....|  |....|....."
      ],
      "rotation": [
        0,
        3
      ],
      "palettes": [
        "estate",
        "multistory_house"
      ]
    },
    "id": "cd8294e5-fd3d-4dec-aeef-16b4295abc33"
  }
]