[
  {
    "type": "mapgen",
    "om_terrain": "estate_1le",
    "//": "first floor, left edge",
    "weight": 99,
    "method": "json",
    "object": {
      "fill_ter": "t_floor",
      "rows": [
        "##k#################=...",
        "##k#################w...",
        "##k#################w.BB",
        "##k#################=.BB",
        "##k#################=M..",
        "##k##############====---",
        "##k##############=  >>|.",
        "##k##############w  >>|.",
        "##k##############w    +.",
        "##k##############w    |.",
        "##k#############Y=    --",
        "##k##############+      ",
        "##k##############+      ",
        "##k#############Y=    --",
        "##k##############w    |.",
        "##k##############w    |.",
        "##k##############w  <<|.",
        "##k##############=  <<|.",
        "##k##############====--+",
        "##k#################=.b.",
        "##k#################=bb.",
        "##k#################w...",
        "##k#################w...",
        "##k#################=bb."
      ],
      "palettes": [
        "estate",
        "multistory_house",
        "ground_level"
      ],
      "terrain": {
        "k": "t_shrub"
      }
    },
    "id": "8b73d05d-efe9-454b-950a-1edd8a2d77cc"
  }
]