[
  {
    "type": "mapgen",
    "om_terrain": "estate_mid",
    "//": "any floor, middle area",
    "weight": 99,
    "method": "json",
    "object": {
      "fill_ter": "t_floor",
      "rows": [
        "....d|.XXX|  |..BB|BB...",
        "....d|X..X|  |d.BB|BB...",
        "..------+--  ---------..",
        "..+                  +..",
        "..|                  |bb",
        "--|  1------------1  |--",
        "dd|  |..MMM..1..1.|  |d.",
        "..|  +........BB..|  +..",
        "..|  +........BB..|  |..",
        "..|  |..ddd..1..1.|  |d.",
        "---  1------------1  ---",
        "                        ",
        "                        ",
        "---  --------------  ---",
        ".p|  |bbbbbbbbbbbb|  |XX",
        "..|  |b..........b|  |..",
        "..+  |b..........b|  +..",
        ".p|  |bbbbb..bbbbb|  |X.",
        "--|  ------++------  |--",
        "..|                  |..",
        "..|                  |..",
        "..-----+---  ---------..",
        "..ddd|...M|  |Dc..+.....",
        ".....|....|  |D...|....."
      ],
      "rotation": [
        0,
        3
      ],
      "palettes": [
        "estate",
        "multistory_house"
      ]
    },
    "id": "19fce5a7-f773-44ba-8d32-fbf0f24724d6"
  }
]