[
  {
    "type": "mapgen",
    "om_terrain": "estate_2icb",
    "//": "second floor, inner corner B",
    "weight": 99,
    "method": "json",
    "object": {
      "fill_ter": "t_floor",
      "rows": [
        "####################=...",
        "####################w.Z.",
        "####################w...",
        "####################w.Z.",
        "####################=...",
        "####################=---",
        "####################=ppp",
        "####################w...",
        "####################w...",
        "####################=ppp",
        "####################=---",
        "####################w   ",
        "####################w   ",
        "####################=-+-",
        "####################=...",
        "####################w...",
        "####################w...",
        "####################=...",
        "##################===---",
        "##################=bbbbb",
        "=www===ww==ww==ww==.....",
        ".a..N|BB.M|       +.....",
        ".....|BB..+  --+--|....c",
        "..a..|....|  |l..l|..c.."
      ],
      "palettes": [
        "estate",
        "multistory_house",
        "upper_level"
      ]
    },
    "id": "fb864677-c635-473c-a6fe-a423e66b0d1b"
  }
]