[
  {
    "type": "mapgen",
    "om_terrain": "estate_mid",
    "//": "any floor, middle area",
    "weight": 99,
    "method": "json",
    "object": {
      "fill_ter": "t_floor",
      "rows": [
        ".....|....+  |....|.....",
        ".....+....|  |....|bbbb.",
        ".L---------  ---------b.",
        "..|                  |b.",
        ".L|                  |b.",
        "--|  1------------1  |--",
        "..|  |Yp........pp|  |..",
        "..|  |p....c.....p|  +..",
        ".X|  |.....TT.....|  |..",
        ".X|  |.....TT.....|  |p.",
        "---  |....cTT.....|  ---",
        "     |N....TT.....+     ",
        "     |N...cTTc....+     ",
        "+--  |N....TT.....|  ---",
        "..|  |.....TTc....|  |..",
        "..|  |.....TT.....|  |..",
        "..|  |p....c.....p|  |..",
        "..|  |pp........pp|  +..",
        "--|  1------------1  |--",
        ".b|                  |dd",
        ".b|                  +..",
        ".b-----+---  ---------..",
        ".bbbb|....|  |ddd.+.d..d",
        "....b|....|  |....|..d.."
      ],
      "rotation": [
        0,
        3
      ],
      "palettes": [
        "estate",
        "multistory_house"
      ]
    },
    "id": "ec7e03e9-b4df-4625-afff-5d8bd14ecefe"
  }
]