[
  {
    "type": "mapgen",
    "om_terrain": "estate_mid",
    "//": "any floor, middle area",
    "weight": 99,
    "method": "json",
    "object": {
      "fill_ter": "t_floor",
      "rows": [
        ".....|d..d|  |...d|.....",
        ".c...|--+--  +...d|.....",
        ".....|Y      |...M|p....",
        ".....+       |+------...",
        ".....|       |..W$|d|p..",
        "--+---       ------+----",
        "....a|           j|....c",
        ".....|            |.....",
        ".....+            +.....",
        "AAA..|            |p....",
        "------            ------",
        "                        ",
        "                        ",
        "--+--------       ------",
        "......a..N|       |...c.",
        "..........|       +.....",
        "..........|       |BB...",
        "..........|      j|BB...",
        "--+---p..p|  -----------",
        "b...N|-++-|  |,,,,,,,|..",
        ".....|d..d|  +,,,,|,&|..",
        ".....|-----  |,ss,|---..",
        ".....+...c|  |----|.....",
        ".....|....|  +...c|....."
      ],
      "rotation": [
        0,
        3
      ],
      "palettes": [
        "estate",
        "multistory_house"
      ]
    },
    "id": "8cb33b34-b7fe-48e1-a57a-ea65d2ad10a2"
  }
]