[
  {
    "type": "mapgen",
    "om_terrain": "estate_2tloc",
    "//": "second floor, top left outer corner",
    "weight": 99,
    "method": "json",
    "object": {
      "fill_ter": "t_floor",
      "rows": [
        "########################",
        "########################",
        "########################",
        "########################",
        "########################",
        "########################",
        "########################",
        "########################",
        "########################",
        "########################",
        "########################",
        "########################",
        "########################",
        "########################",
        "########################",
        "########################",
        "########################",
        "########################",
        "########################",
        "########################",
        "####################==w=",
        "####################=BB.",
        "####################wBB.",
        "####################=..."
      ],
      "palettes": [
        "estate",
        "multistory_house",
        "upper_level"
      ]
    },
    "id": "7c7e388f-83f6-4e36-baf0-10a9be34d374"
  }
]