[
  {
    "type": "mapgen",
    "om_terrain": "estate_mid",
    "//": "any floor, middle area",
    "weight": 99,
    "method": "json",
    "object": {
      "fill_ter": "t_floor",
      "rows": [
        ".....|....|  |...M|b....",
        "...A.|--+-|  +....|b....",
        "...A.|...p|  |.ddW|.....",
        ".AAA.|A...|  ------.....",
        ".....|A...|       +...bb",
        "--+---A...|  ---+-------",
        "...aa|....+  |...T|DDD..",
        ".....|a..a|  |..cT|.c...",
        ".....|....|  |....|.....",
        ".|-|b|--N--  -|b|-|L|-|.",
        "--j---j---Y  Y---j---j--",
        "                        ",
        "                        ",
        "--j---j---Y  Y---j---j--",
        ".|-|L|-|L|-  -|S|-|&|-|.",
        "..........|  |s,,,,,|...",
        ".....c....|  |s,,,~~|N..",
        "....DDD6.p|  +,,,,~~|..b",
        "--+-------|  |-+--------",
        "...TT|S,,&|  |ll|$+bbbbb",
        "...TT|,,,,|  |----|b....",
        "..cTT|s,,,|  +...d|b.bb.",
        "...TT|--+-|  |..BB|b.bb.",
        "..cTT|d..d|  |..BB|b...."
      ],
      "rotation": [
        0,
        3
      ],
      "palettes": [
        "estate",
        "multistory_house"
      ]
    },
    "id": "cf5dd4c8-0b5c-4c89-a448-8dd2b695c4e5"
  }
]