[
  {
    "type": "mapgen",
    "om_terrain": "estate_2troc",
    "//": "second floor, top right outer corner",
    "weight": 99,
    "method": "json",
    "object": {
      "fill_ter": "t_floor",
      "rows": [
        "########################",
        "########################",
        "########################",
        "########################",
        "########################",
        "########################",
        "########################",
        "########################",
        "########################",
        "########################",
        "########################",
        "########################",
        "########################",
        "########################",
        "########################",
        "########################",
        "########################",
        "########################",
        "########################",
        "########################",
        "=w==####################",
        ".TT=####################",
        ".TTw####################",
        "...=####################"
      ],
      "palettes": [
        "estate",
        "multistory_house",
        "upper_level"
      ]
    },
    "id": "5bb0eca4-1713-47b9-9fe0-e4d3de71a177"
  }
]