[
  {
    "type": "mapgen",
    "om_terrain": "estate_2be",
    "//": "second floor, bottom edge",
    "weight": 99,
    "method": "json",
    "object": {
      "fill_ter": "t_floor",
      "rows": [
        ".....|...d|  |d...+.....",
        "...BB|-----  -----|..c..",
        "...BB|>>     |SS~~|.PPP.",
        "==ww==>>     +,,,,==ww==",
        "#####=       |,,,,=#####",
        "#####=Y     Y|s,,&=#####",
        "#####==www=ww=www==#####",
        "########################",
        "########################",
        "########################",
        "########################",
        "########################",
        "########################",
        "########################",
        "########################",
        "########################",
        "########################",
        "########################",
        "########################",
        "########################",
        "########################",
        "########################",
        "########################",
        "########################"
      ],
      "palettes": [
        "estate",
        "multistory_house",
        "upper_level"
      ]
    },
    "id": "9719b7dd-50ad-4fe2-8769-494e35ab527d"
  }
]