[
  {
    "type": "mapgen",
    "om_terrain": "estate_mid",
    "//": "any floor, middle area",
    "weight": 99,
    "method": "json",
    "object": {
      "fill_ter": "t_floor",
      "rows": [
        "...a.|....|  |...d|c....",
        ".....|....+  |....|.....",
        "..AAA|LLLL|  |....1.....",
        ".....|-----  |..........",
        ".....+       |..........",
        "--+-----+-----.......1--",
        "...DD6|l.l|p............",
        ".c...D|l.l|N............",
        ".....D|l.l|N............",
        "DD6DD6|l.l|p.........bbb",
        "--------------++--------",
        "                        ",
        "                        ",
        "----+---+--  ---+-------",
        ".....|,,,s|  |Y....bbbbb",
        "..---|,,,s|  |..........",
        "..|&,|,,,,|  |..........",
        ".d|,,+,,~~|  |........bb",
        "----------|  |....--+---",
        "....i|llll|  |....|...d.",
        "....i|....+  |d...|.....",
        "..c.i|----|  |d...|BB...",
        ".DDDi|.dd.|  |d...|BB...",
        "....i|....|  |d...|d...."
      ],
      "rotation": [
        0,
        3
      ],
      "palettes": [
        "estate",
        "multistory_house"
      ]
    },
    "id": "d16dc3c4-40c0-4abb-8b9f-57c5a0f32d3e"
  }
]