[
  {
    "type": "mapgen",
    "om_terrain": "estate_mid",
    "//": "any floor, middle area",
    "weight": 99,
    "method": "json",
    "object": {
      "fill_ter": "t_floor",
      "rows": [
        ".....|....+  |....|.....",
        ".....|....|  |XXXX|W....",
        "..--+-----1++1--------..",
        "..|..................|..",
        "..|..................+..",
        "-+|..................|--",
        "..|...1..........1...|..",
        "..|..................|L.",
        "..|..................|L.",
        "dd|..................|..",
        "--1..................1-+",
        "  +..................+  ",
        "  +..................+  ",
        "+-1..................1--",
        "..|..................|d.",
        ".d|..................|d.",
        ".d|..................|d.",
        ".d|..................|d.",
        "--|..1............1..|-+",
        "dd|..................|..",
        ".d|..................|..",
        ".d--+-----1++1-----+--..",
        ".....|....|  |....|...W.",
        ".....|....|  |....|....."
      ],
      "rotation": [
        0,
        3
      ],
      "palettes": [
        "estate",
        "multistory_house"
      ]
    },
    "id": "aeaef74e-51d3-4ffc-b080-c14ff97faec3"
  }
]