[
  {
    "type": "mapgen",
    "om_terrain": "estate_mid",
    "//": "any floor, middle area",
    "weight": 99,
    "method": "json",
    "object": {
      "fill_ter": "t_floor",
      "rows": [
        ".....|....|  |....|.....",
        "....a|--+--  |BB..|.TT..",
        ".....+       |BB..|.TT..",
        "....---+-+-  |....+.TT..",
        "....+l|l|l|  |p...|.....",
        "--+--------  -----------",
        ".p..W|Y          Y|PPP..",
        ".....|            |.c...",
        ".....+  j j  j j  +.....",
        ".p..W|            |.....",
        "-----1  j j  j j  1-----",
        "                        ",
        "                        ",
        "--+--1  j j  j j  1-----",
        "....p|            |a....",
        ".....|  j j  j j  |a....",
        ".....|            |--+-.",
        ".....|Y           |d|d|.",
        "---..1-+---  -----1+----",
        ".T|......p|  |~,,&|.....",
        ".T|p......|  +,,,s|.....",
        ".T----....|  |,,,,|..c..",
        ".TTTT|....|  |-++-|...TT",
        ".....|....|  |....|...TT"
      ],
      "rotation": [
        0,
        3
      ],
      "palettes": [
        "estate",
        "multistory_house"
      ]
    },
    "id": "d1dac697-602e-443c-b4aa-e13ca8b16c8b"
  }
]