[
  {
    "type": "mapgen",
    "om_terrain": "estate_2icd",
    "//": "second floor, inner corner D",
    "weight": 99,
    "method": "json",
    "object": {
      "fill_ter": "t_floor",
      "rows": [
        ".....|....|  |....|.....",
        ".....+....+  +....|.....",
        "....W|p..p|  |d..d|-+-..",
        "==ww===ww==ww==ww==..|..",
        "##################=l.|bb",
        "##################===---",
        "####################=BB.",
        "####################wBB.",
        "####################w...",
        "####################=...",
        "####################=-+-",
        "####################w   ",
        "####################w   ",
        "####################=-+-",
        "####################=...",
        "####################w...",
        "####################w...",
        "####################=nnn",
        "####################=---",
        "####################=N..",
        "####################w...",
        "####################w...",
        "####################=...",
        "####################=..."
      ],
      "palettes": [
        "estate",
        "multistory_house",
        "upper_level"
      ]
    },
    "id": "107805cd-c28f-4e60-bc52-b6fb9b0e65b2"
  }
]