[
  {
    "type": "mapgen",
    "om_terrain": "estate_mid",
    "//": "any floor, middle area",
    "weight": 99,
    "method": "json",
    "object": {
      "fill_ter": "t_floor",
      "rows": [
        "....b|....|  |...L|.....",
        "....b|....|  |....|d.BB.",
        "..-----++--  |...L|..BB.",
        "..+          +....|.....",
        "..|          |.L.L|.....",
        "--|  ---------------+---",
        ".X|  |L.....nnnn........",
        ".X|  |..................",
        "..+  |..55..............",
        ".X|  |..55...55....AAA..",
        "---  +..55...55...------",
        "     |.......55...+     ",
        "     |............+     ",
        "------............|  ---",
        "............55....|  |d.",
        "......555...55....|  |..",
        "......555...55....|  +..",
        ".................L|  |..",
        "--------+----------  |--",
        "..L.L|A...|          |..",
        ".....|A..T|          +..",
        "....L|A...|  ---+-----..",
        ".c...|....|  |p..p|aa...",
        "DDD..|....|  |....|....."
      ],
      "rotation": [
        0,
        3
      ],
      "palettes": [
        "estate",
        "multistory_house"
      ]
    },
    "id": "e51e935a-a660-406c-be04-8285aba3071c"
  }
]