[
  {
    "type": "mapgen",
    "om_terrain": "estate_1icd",
    "//": "first floor, inner corner D",
    "weight": 99,
    "method": "json",
    "object": {
      "fill_ter": "t_floor",
      "rows": [
        "....b|....|  |....|a....",
        "....b|B...+  +..BB|.....",
        "b...b|B...|  |..BB|.....",
        "=www===ww==++==ww==N....",
        "##################=NN...",
        "##################===-+-",
        "####################=d..",
        "####################w...",
        "####################w...",
        "####################=ddd",
        "####################=---",
        "####################+   ",
        "####################+   ",
        "####################=-+-",
        "####################=...",
        "####################wD..",
        "####################wDc.",
        "####################=D..",
        "####################=---",
        "####################=N..",
        "####################w...",
        "####################w..a",
        "####################w...",
        "####################=..."
      ],
      "palettes": [
        "estate",
        "multistory_house",
        "ground_level"
      ],
      "terrain": {
        "k": "t_shrub"
      }
    },
    "id": "4109d615-a6fb-4b60-b9fe-e8a63673b1a3"
  }
]