[
  {
    "result": "fire_lance",
    "type": "recipe",
    "category": "CC_WEAPON",
    "subcategory": "CSC_WEAPON_RANGED",
    "skill_used": "fabrication",
    "difficulty": 3,
    "skills_required": [
      "gun",
      1
    ],
    "time": 12000,
    "reversible": true,
    "book_learn": [
      [
        "textbook_armschina",
        3
      ]
    ],
    "qualities": [
      {
        "id": "SAW_M_FINE",
        "level": 1
      },
      {
        "id": "SCREW_FINE",
        "level": 1
      }
    ],
    "components": [
      [
        [
          "qiang",
          1
        ]
      ],
      [
        [
          "pipe",
          1
        ]
      ],
      [
        [
          "scrap",
          1
        ]
      ]
    ],
    "id": "5b7c2533-523f-40c6-ba9d-a68277d4f049"
  }
]