[
  {
    "type": "region_overlay",
    "regions": [
      "all"
    ],
    "city": {
      "houses": {
        "railroad_city": 0
      }
    },
    "id": "904f70c2-b279-422e-867a-eb649458bc12"
  }
]