[
  {
    "type": "mapgen",
    "om_terrain": "refugee_tower_1cybrc",
    "//": "courtyard or parking lot, bottom right corner",
    "weight": 250,
    "method": "json",
    "object": {
      "fill_ter": "t_pavement",
      "rows": [
        "===#####PPPPPPPPPPP##===",
        "=#######PPPPPPPPPPP####=",
        "=#######PPPPPPPPPPP####=",
        "########                ",
        "########                ",
        "#####                   ",
        "#####                   ",
        "#####                   ",
        "PPP                     ",
        "PPP                     ",
        "PPP                     ",
        "PPP                     ",
        "PPP                     ",
        "PPP       v             ",
        "PPP                     ",
        "PPP                     ",
        "###                     ",
        "###                     ",
        "###                     ",
        "###                     ",
        "###                     ",
        "=##                     ",
        "=##                     ",
        "===                     "
      ],
      "rotation": 2,
      "palettes": [
        "tri_tower",
        "ground_level"
      ],
      "terrain": {
        "9": "t_card_reader_broken",
        "P": "t_pavement",
        "y": "t_pavement_y"
      },
      "vehicles": {
        "v": {
          "vehicle": "suburban_home",
          "chance": 10
        }
      }
    },
    "id": "8490bb06-dc34-4106-8ae4-69b3635574fe"
  }
]