[
  {
    "type": "mapgen",
    "om_terrain": "refugee_tower_4trc",
    "//": "top right corner, fourth story and even levels",
    "weight": 250,
    "method": "json",
    "object": {
      "fill_ter": "t_floor",
      "rows": [
        "########################",
        "########################",
        "########################",
        "#######==ww=====ww==ww==",
        "#######=..BB|d+..BB|BB==",
        "#####===....|-|....|BB==",
        "#####===....+d|....|....",
        "###=====+------+----....",
        "###=.a.............+....",
        "###=......-------+----++",
        "###w...A.Z|s.&|S|....|dd",
        "###w...A..+.....|....|--",
        "###w...A..|..@|~|BB..+.d",
        "###=n.....--------------",
        "###=nn.......!..........",
        "###=--....---|..........",
        "###2.g...@|RU|..=======[",
        "###2.g......C|..=====Mee",
        "###2.g..TT..C|..==<<<Mee",
        "###2.g..TT..s|..!.<<<Mee",
        "###2.g......o|..!.<<<Mee",
        "###2.g..c...C|..=MMMMMMM",
        "###2.+......U|..=eeeeM==",
        "###===-------|..]eeeeM=="
      ],
      "rotation": 1,
      "palettes": [
        "tri_tower",
        "upper_level",
        "refugee_tower_stuff"
      ],
      "npcs": {
        "@": {
          "class": "refugee"
        },
        "z": {
          "class": "mutant_refugee"
        },
        "Z": {
          "class": "talented_refugee"
        }
      }
    },
    "id": "87dad6f7-487c-4d95-b9ad-9d3b24532b69"
  }
]