[
  {
    "type": "mapgen",
    "om_terrain": "refugee_tower_4blc",
    "//": "bottom left corner, fourth story and even levels",
    "weight": 250,
    "method": "json",
    "object": {
      "fill_ter": "t_floor",
      "rows": [
        "########################",
        "########################",
        "########################",
        "#######==ww=====ww==ww==",
        "#######=..BB|d+..BB|BB==",
        "#####===....|-|....|BB==",
        "#####===....+d|....|....",
        "###=====+------+----....",
        "###=.a.............+....",
        "###=......-------+----++",
        "###w...A..|s.&|S|....|dd",
        "###w...A..+.....|....|--",
        "###w..@A..|...|~|BB..+.d",
        "###=n.....--------------",
        "###=nn.......!..........",
        "###=--....---|..........",
        "###2.g....|RU|..=======[",
        "###2.g......C|..=====Mee",
        "###2.g..TT..C|..==<<<Mee",
        "###2.g..TT..s|..!.<<<Mee",
        "###2.g......o|..!.<<<Mee",
        "###2.g..c...C|..=MMMMMMM",
        "###2.+......U|..=eeeeM==",
        "###===-------|..]eeeeM=="
      ],
      "rotation": 3,
      "palettes": [
        "tri_tower",
        "upper_level",
        "refugee_tower_stuff"
      ],
      "npcs": {
        "@": {
          "class": "refugee"
        },
        "z": {
          "class": "mutant_refugee"
        },
        "Z": {
          "class": "talented_refugee"
        }
      }
    },
    "id": "4341e695-524a-4b2d-bcde-66cb357ba52a"
  }
]