[
  {
    "type": "mapgen",
    "om_terrain": "refugee_tower_1yre",
    "//": "yard, right edge",
    "weight": 250,
    "method": "json",
    "object": {
      "fill_ter": "t_grass",
      "rows": [
        "########################",
        "########vv##############",
        "########################",
        "################vv######",
        "########################",
        "########################",
        "####vv##################",
        "########################",
        "################vv######",
        "########################",
        "########################",
        "########################",
        "########################",
        "########################",
        "########################",
        "########################",
        "########################",
        "########################",
        "########################",
        "########################",
        "########################",
        "##====================##",
        "##=##7#7###7##7###7##=##",
        "##=##################=##"
      ],
      "rotation": 1,
      "palettes": [
        "tri_tower",
        "ground_level"
      ],
      "terrain": {
        "7": [
          "t_tree_apple",
          "t_grass",
          "t_grass",
          "t_grass"
        ]
      },
      "furniture": {
        "Y": "f_sign"
      },
      "vehicles": {
        "v": {
          "vehicle": "suburban_home",
          "chance": 5
        }
      },
      "npcs": {
        "z": {
          "class": "refugee"
        },
        "Z": {
          "class": "mutant_refugee"
        },
        "@": {
          "class": "talented_refugee"
        }
      }
    },
    "id": "a37ecda7-eb29-45fa-89a9-e99cd3108bb2"
  }
]