[
  {
    "type": "mapgen",
    "om_terrain": "refugee_tower_1ybe",
    "//": "yard, bottom edge",
    "weight": 250,
    "method": "json",
    "object": {
      "fill_ter": "t_grass",
      "rows": [
        "########################",
        "########################",
        "########################",
        "########################",
        "########################",
        "########################",
        "########v###############",
        "########################",
        "########################",
        "########################",
        "########################",
        "########################",
        "########################",
        "########################",
        "########################",
        "########################",
        "########################",
        "########################",
        "########################",
        "########################",
        "############v###########",
        "##====================##",
        "##=###7##########7###=##",
        "##=##################=##"
      ],
      "rotation": 2,
      "palettes": [
        "tri_tower",
        "ground_level"
      ],
      "terrain": {
        "7": "t_tree",
        "v": "t_grass"
      },
      "furniture": {
        "Y": "f_sign"
      },
      "vehicles": {
        "v": {
          "vehicle": "suburban_home",
          "chance": 2
        }
      },
      "npcs": {
        "z": {
          "class": "refugee"
        },
        "Z": {
          "class": "mutant_refugee"
        },
        "@": {
          "class": "talented_refugee"
        }
      }
    },
    "id": "7cc70b1a-3c71-4360-b242-8a5d044c26e8"
  }
]