[
  {
    "type": "mapgen",
    "om_terrain": "refugee_tower_3brc",
    "//": "bottom right corner, third and odd level floors.",
    "weight": 250,
    "method": "json",
    "object": {
      "fill_ter": "t_floor",
      "rows": [
        "########################",
        "########################",
        "########################",
        "#######==ww=====ww==ww==",
        "#######=..BB|d+..BB|BB==",
        "#####===....|-|....|BB==",
        "#####===....+d|....|....",
        "###=====+------+----....",
        "###=.a.............+....",
        "###=......-------+----++",
        "###w...A..|s.&|S|....|dd",
        "###w...A..+.....|.z..|--",
        "###w...A..|@..|~|BB..+.d",
        "###=n.....--------------",
        "###=nn.......!..........",
        "###=--....---|..........",
        "###2.g....|RU|..===!!==[",
        "###2.g......C|..===@.Mee",
        "###2.g..TT..C|..==<<<Mee",
        "###2.g..TT..s|..==<<<Mee",
        "###2.g......o|..==<<<Mee",
        "###2.g..c...C|..=MMMMMMM",
        "###2.+......U|..=eeeeM==",
        "###===-------|..]eeeeM=="
      ],
      "rotation": 2,
      "palettes": [
        "tri_tower",
        "upper_level",
        "refugee_tower_stuff"
      ],
      "npcs": {
        "@": {
          "class": "refugee"
        },
        "z": {
          "class": "mutant_refugee"
        },
        "Z": {
          "class": "talented_refugee"
        }
      }
    },
    "id": "7cc48df8-4572-494e-a4cf-f8fff120ee7c"
  }
]