[
  {
    "type": "monstergroup",
    "name": "GROUP_TURRET",
    "default": "mon_turret_9mm",
    "monsters": [
      {
        "monster": "mon_turret_beanbag",
        "freq": 30,
        "cost_multiplier": 1
      },
      {
        "monster": "mon_turret_teargas",
        "freq": 30,
        "cost_multiplier": 1
      },
      {
        "monster": "mon_turret_9mm",
        "freq": 40,
        "cost_multiplier": 1
      },
      {
        "monster": "mon_turret_shot",
        "freq": 20,
        "cost_multiplier": 1
      },
      {
        "monster": "mon_milturret_556",
        "freq": 40,
        "cost_multiplier": 1
      },
      {
        "monster": "mon_milturret_308",
        "freq": 20,
        "cost_multiplier": 1
      },
      {
        "monster": "mon_milturret_50bmg",
        "freq": 10,
        "cost_multiplier": 1
      },
      {
        "monster": "mon_milturret_40mm",
        "freq": 5,
        "cost_multiplier": 1
      },
      {
        "monster": "mon_milturret_8x40mm",
        "freq": 20,
        "cost_multiplier": 1
      },
      {
        "monster": "mon_milturret_needle",
        "freq": 20,
        "cost_multiplier": 1
      },
      {
        "monster": "mon_milturret_flame",
        "freq": 5,
        "cost_multiplier": 1
      },
      {
        "monster": "mon_advturret_laser",
        "freq": 20,
        "cost_multiplier": 1
      },
      {
        "monster": "mon_advturret_plasma",
        "freq": 5,
        "cost_multiplier": 1
      },
      {
        "monster": "mon_advturret_acid",
        "freq": 20,
        "cost_multiplier": 1
      },
      {
        "monster": "mon_advturret_lightning",
        "freq": 5,
        "cost_multiplier": 1
      },
      {
        "monster": "mon_advturret_emp",
        "freq": 10,
        "cost_multiplier": 1
      },
      {
        "monster": "mon_turret_rifle",
        "freq": 0,
        "cost_multiplier": 0
      },
      {
        "monster": "mon_turret_bmg",
        "freq": 0,
        "cost_multiplier": 0
      }
    ],
    "id": "GROUP_TURRET"
  }
]