[
  {
    "id": "num_avatar_mutation_threshold_alpha",
    "type": "event_statistic",
    "stat_type": "count",
    "event_transformation": "avatar_mutation_threshold_alpha"
  },
  {
    "id": "avatar_mutation_threshold_alpha",
    "type": "event_transformation",
    "event_type": "crosses_mutation_threshold",
    "value_constraints": { "category": { "equals": "ALPHA" } },
    "drop_fields": [ "category" ]
  },
  {
    "id": "num_avatar_mutation_threshold_bear",
    "type": "event_statistic",
    "stat_type": "count",
    "event_transformation": "avatar_mutation_threshold_bear"
  },
  {
    "id": "avatar_mutation_threshold_bear",
    "type": "event_transformation",
    "event_type": "crosses_mutation_threshold",
    "value_constraints": { "category": { "equals": "URSINE" } },
    "drop_fields": [ "category" ]
  },
  {
    "id": "num_avatar_mutation_threshold_beast",
    "type": "event_statistic",
    "stat_type": "count",
    "event_transformation": "avatar_mutation_threshold_beast"
  },
  {
    "id": "avatar_mutation_threshold_beast",
    "type": "event_transformation",
    "event_type": "crosses_mutation_threshold",
    "value_constraints": { "category": { "equals": "BEAST" } },
    "drop_fields": [ "category" ]
  },
  {
    "id": "num_avatar_mutation_threshold_bird",
    "type": "event_statistic",
    "stat_type": "count",
    "event_transformation": "avatar_mutation_threshold_bird"
  },
  {
    "id": "avatar_mutation_threshold_bird",
    "type": "event_transformation",
    "event_type": "crosses_mutation_threshold",
    "value_constraints": { "category": { "equals": "BIRD" } },
    "drop_fields": [ "category" ]
  },
  {
    "id": "num_avatar_mutation_threshold_cattle",
    "type": "event_statistic",
    "stat_type": "count",
    "event_transformation": "avatar_mutation_threshold_cattle"
  },
  {
    "id": "avatar_mutation_threshold_cattle",
    "type": "event_transformation",
    "event_type": "crosses_mutation_threshold",
    "value_constraints": { "category": { "equals": "CATTLE" } },
    "drop_fields": [ "category" ]
  },
  {
    "id": "num_avatar_mutation_threshold_cephalopod",
    "type": "event_statistic",
    "stat_type": "count",
    "event_transformation": "avatar_mutation_threshold_cephalopod"
  },
  {
    "id": "avatar_mutation_threshold_cephalopod",
    "type": "event_transformation",
    "event_type": "crosses_mutation_threshold",
    "value_constraints": { "category": { "equals": "CEPHALOPOD" } },
    "drop_fields": [ "category" ]
  },
  {
    "id": "num_avatar_mutation_threshold_chimera",
    "type": "event_statistic",
    "stat_type": "count",
    "event_transformation": "avatar_mutation_threshold_chimera"
  },
  {
    "id": "avatar_mutation_threshold_chimera",
    "type": "event_transformation",
    "event_type": "crosses_mutation_threshold",
    "value_constraints": { "category": { "equals": "CHIMERA" } },
    "drop_fields": [ "category" ]
  },
  {
    "id": "num_avatar_mutation_threshold_feline",
    "type": "event_statistic",
    "stat_type": "count",
    "event_transformation": "avatar_mutation_threshold_feline"
  },
  {
    "id": "avatar_mutation_threshold_feline",
    "type": "event_transformation",
    "event_type": "crosses_mutation_threshold",
    "value_constraints": { "category": { "equals": "FELINE" } },
    "drop_fields": [ "category" ]
  },
  {
    "id": "num_avatar_mutation_threshold_fey",
    "type": "event_statistic",
    "stat_type": "count",
    "event_transformation": "avatar_mutation_threshold_fey"
  },
  {
    "id": "avatar_mutation_threshold_fey",
    "type": "event_transformation",
    "event_type": "crosses_mutation_threshold",
    "value_constraints": { "category": { "equals": "ELFA" } },
    "drop_fields": [ "category" ]
  },
  {
    "id": "num_avatar_mutation_threshold_fish",
    "type": "event_statistic",
    "stat_type": "count",
    "event_transformation": "avatar_mutation_threshold_fish"
  },
  {
    "id": "avatar_mutation_threshold_fish",
    "type": "event_transformation",
    "event_type": "crosses_mutation_threshold",
    "value_constraints": { "category": { "equals": "FISH" } },
    "drop_fields": [ "category" ]
  },
  {
    "id": "num_avatar_mutation_threshold_insect",
    "type": "event_statistic",
    "stat_type": "count",
    "event_transformation": "avatar_mutation_threshold_insect"
  },
  {
    "id": "avatar_mutation_threshold_insect",
    "type": "event_transformation",
    "event_type": "crosses_mutation_threshold",
    "value_constraints": { "category": { "equals": "INSECT" } },
    "drop_fields": [ "category" ]
  },
  {
    "id": "num_avatar_mutation_threshold_lizard",
    "type": "event_statistic",
    "stat_type": "count",
    "event_transformation": "avatar_mutation_threshold_lizard"
  },
  {
    "id": "avatar_mutation_threshold_lizard",
    "type": "event_transformation",
    "event_type": "crosses_mutation_threshold",
    "value_constraints": { "category": { "equals": "LIZARD" } },
    "drop_fields": [ "category" ]
  },
  {
    "id": "num_avatar_mutation_threshold_medical",
    "type": "event_statistic",
    "stat_type": "count",
    "event_transformation": "avatar_mutation_threshold_medical"
  },
  {
    "id": "avatar_mutation_threshold_medical",
    "type": "event_transformation",
    "event_type": "crosses_mutation_threshold",
    "value_constraints": { "category": { "equals": "MEDICAL" } },
    "drop_fields": [ "category" ]
  },
  {
    "id": "num_avatar_mutation_threshold_mouse",
    "type": "event_statistic",
    "stat_type": "count",
    "event_transformation": "avatar_mutation_threshold_mouse"
  },
  {
    "id": "avatar_mutation_threshold_mouse",
    "type": "event_transformation",
    "event_type": "crosses_mutation_threshold",
    "value_constraints": { "category": { "equals": "MOUSE" } },
    "drop_fields": [ "category" ]
  },
  {
    "id": "num_avatar_mutation_threshold_mycus",
    "type": "event_statistic",
    "stat_type": "count",
    "event_transformation": "avatar_mutation_threshold_mycus"
  },
  {
    "id": "avatar_mutation_threshold_mycus",
    "type": "event_transformation",
    "event_type": "crosses_mycus_threshold",
    "value_constraints": { "character": { "equals_statistic": "avatar_id" } },
    "drop_fields": [ "character" ]
  },
  {
    "id": "num_avatar_mutation_threshold_plant",
    "type": "event_statistic",
    "stat_type": "count",
    "event_transformation": "avatar_mutation_threshold_plant"
  },
  {
    "id": "avatar_mutation_threshold_plant",
    "type": "event_transformation",
    "event_type": "crosses_mutation_threshold",
    "value_constraints": { "category": { "equals": "PLANT" } },
    "drop_fields": [ "category" ]
  },
  {
    "id": "num_avatar_mutation_threshold_rat",
    "type": "event_statistic",
    "stat_type": "count",
    "event_transformation": "avatar_mutation_threshold_rat"
  },
  {
    "id": "avatar_mutation_threshold_rat",
    "type": "event_transformation",
    "event_type": "crosses_mutation_threshold",
    "value_constraints": { "category": { "equals": "RAT" } },
    "drop_fields": [ "category" ]
  },
  {
    "id": "num_avatar_mutation_threshold_raptor",
    "type": "event_statistic",
    "stat_type": "count",
    "event_transformation": "avatar_mutation_threshold_raptor"
  },
  {
    "id": "avatar_mutation_threshold_raptor",
    "type": "event_transformation",
    "event_type": "crosses_mutation_threshold",
    "value_constraints": { "category": { "equals": "RAPTOR" } },
    "drop_fields": [ "category" ]
  },
  {
    "id": "num_avatar_mutation_threshold_slime",
    "type": "event_statistic",
    "stat_type": "count",
    "event_transformation": "avatar_mutation_threshold_slime"
  },
  {
    "id": "avatar_mutation_threshold_slime",
    "type": "event_transformation",
    "event_type": "crosses_mutation_threshold",
    "value_constraints": { "category": { "equals": "SLIME" } },
    "drop_fields": [ "category" ]
  },
  {
    "id": "num_avatar_mutation_threshold_spider",
    "type": "event_statistic",
    "stat_type": "count",
    "event_transformation": "avatar_mutation_threshold_spider"
  },
  {
    "id": "avatar_mutation_threshold_spider",
    "type": "event_transformation",
    "event_type": "crosses_mutation_threshold",
    "value_constraints": { "category": { "equals": "SPIDER" } },
    "drop_fields": [ "category" ]
  },
  {
    "id": "num_avatar_mutation_threshold_troglobite",
    "type": "event_statistic",
    "stat_type": "count",
    "event_transformation": "avatar_mutation_threshold_troglobite"
  },
  {
    "id": "avatar_mutation_threshold_troglobite",
    "type": "event_transformation",
    "event_type": "crosses_mutation_threshold",
    "value_constraints": { "category": { "equals": "TROGLOBITE" } },
    "drop_fields": [ "category" ]
  },
  {
    "id": "num_avatar_mutation_threshold_wolf",
    "type": "event_statistic",
    "stat_type": "count",
    "event_transformation": "avatar_mutation_threshold_wolf"
  },
  {
    "id": "avatar_mutation_threshold_wolf",
    "type": "event_transformation",
    "event_type": "crosses_mutation_threshold",
    "value_constraints": { "category": { "equals": "LUPINE" } },
    "drop_fields": [ "category" ]
  },
  {
    "id": "num_gains_archery",
    "type": "event_statistic",
    "stat_type": "count",
    "event_transformation": "avatar_gains_archery",
    "description": { "str_sp": "archery skill level up." }
  },
  {
    "id": "avatar_gains_archery",
    "type": "event_transformation",
    "event_type": "gains_skill_level",
    "value_constraints": { "character": { "equals_statistic": "avatar_id" }, "skill": { "equals": "archery" } },
    "drop_fields": [ "character", "skill" ]
  },
  {
    "id": "num_gains_barter",
    "type": "event_statistic",
    "stat_type": "count",
    "event_transformation": "avatar_gains_barter",
    "description": { "str_sp": "bartering skill level up." }
  },
  {
    "id": "avatar_gains_barter",
    "type": "event_transformation",
    "event_type": "gains_skill_level",
    "value_constraints": { "character": { "equals_statistic": "avatar_id" }, "skill": { "equals": "barter" } },
    "drop_fields": [ "character", "skill" ]
  },
  {
    "id": "num_gains_bashing",
    "type": "event_statistic",
    "stat_type": "count",
    "event_transformation": "avatar_gains_bashing",
    "description": { "str_sp": "bashing weapons skill level up." }
  },
  {
    "id": "avatar_gains_bashing",
    "type": "event_transformation",
    "event_type": "gains_skill_level",
    "value_constraints": { "character": { "equals_statistic": "avatar_id" }, "skill": { "equals": "bashing" } },
    "drop_fields": [ "character", "skill" ]
  },
  {
    "id": "num_gains_computer",
    "type": "event_statistic",
    "stat_type": "count",
    "event_transformation": "avatar_gains_computer",
    "description": { "str_sp": "computers skill level up." }
  },
  {
    "id": "avatar_gains_computer",
    "type": "event_transformation",
    "event_type": "gains_skill_level",
    "value_constraints": { "character": { "equals_statistic": "avatar_id" }, "skill": { "equals": "computer" } },
    "drop_fields": [ "character", "skill" ]
  },
  {
    "id": "num_gains_cooking",
    "type": "event_statistic",
    "stat_type": "count",
    "event_transformation": "avatar_gains_cooking",
    "description": { "str_sp": "cooking skill level up." }
  },
  {
    "id": "avatar_gains_cooking",
    "type": "event_transformation",
    "event_type": "gains_skill_level",
    "value_constraints": { "character": { "equals_statistic": "avatar_id" }, "skill": { "equals": "cooking" } },
    "drop_fields": [ "character", "skill" ]
  },
  {
    "id": "num_gains_cutting",
    "type": "event_statistic",
    "stat_type": "count",
    "event_transformation": "avatar_gains_cutting",
    "description": { "str_sp": "cutting weapons skill level up." }
  },
  {
    "id": "avatar_gains_cutting",
    "type": "event_transformation",
    "event_type": "gains_skill_level",
    "value_constraints": { "character": { "equals_statistic": "avatar_id" }, "skill": { "equals": "cutting" } },
    "drop_fields": [ "character", "skill" ]
  },
  {
    "id": "num_gains_dodge",
    "type": "event_statistic",
    "stat_type": "count",
    "event_transformation": "avatar_gains_dodge",
    "description": { "str_sp": "dodging skill level up." }
  },
  {
    "id": "avatar_gains_dodge",
    "type": "event_transformation",
    "event_type": "gains_skill_level",
    "value_constraints": { "character": { "equals_statistic": "avatar_id" }, "skill": { "equals": "dodge" } },
    "drop_fields": [ "character", "skill" ]
  },
  {
    "id": "num_gains_driving",
    "type": "event_statistic",
    "stat_type": "count",
    "event_transformation": "avatar_gains_driving",
    "description": { "str_sp": "driving skill level up." }
  },
  {
    "id": "avatar_gains_driving",
    "type": "event_transformation",
    "event_type": "gains_skill_level",
    "value_constraints": { "character": { "equals_statistic": "avatar_id" }, "skill": { "equals": "driving" } },
    "drop_fields": [ "character", "skill" ]
  },
  {
    "id": "num_gains_electronics",
    "type": "event_statistic",
    "stat_type": "count",
    "event_transformation": "avatar_gains_electronics",
    "description": { "str_sp": "electronics skill level up." }
  },
  {
    "id": "avatar_gains_electronics",
    "type": "event_transformation",
    "event_type": "gains_skill_level",
    "value_constraints": { "character": { "equals_statistic": "avatar_id" }, "skill": { "equals": "electronics" } },
    "drop_fields": [ "character", "skill" ]
  },
  {
    "id": "num_gains_fabrication",
    "type": "event_statistic",
    "stat_type": "count",
    "event_transformation": "avatar_gains_fabrication",
    "description": { "str_sp": "fabrication skill level up." }
  },
  {
    "id": "avatar_gains_fabrication",
    "type": "event_transformation",
    "event_type": "gains_skill_level",
    "value_constraints": { "character": { "equals_statistic": "avatar_id" }, "skill": { "equals": "fabrication" } },
    "drop_fields": [ "character", "skill" ]
  },
  {
    "id": "num_gains_firstaid",
    "type": "event_statistic",
    "stat_type": "count",
    "event_transformation": "avatar_gains_firstaid",
    "description": { "str_sp": "first aid skill level up." }
  },
  {
    "id": "avatar_gains_firstaid",
    "type": "event_transformation",
    "event_type": "gains_skill_level",
    "value_constraints": { "character": { "equals_statistic": "avatar_id" }, "skill": { "equals": "firstaid" } },
    "drop_fields": [ "character", "skill" ]
  },
  {
    "id": "num_gains_gun",
    "type": "event_statistic",
    "stat_type": "count",
    "event_transformation": "avatar_gains_gun",
    "description": { "str_sp": "marksmanship skill level up." }
  },
  {
    "id": "avatar_gains_gun",
    "type": "event_transformation",
    "event_type": "gains_skill_level",
    "value_constraints": { "character": { "equals_statistic": "avatar_id" }, "skill": { "equals": "gun" } },
    "drop_fields": [ "character", "skill" ]
  },
  {
    "id": "num_gains_launcher",
    "type": "event_statistic",
    "stat_type": "count",
    "event_transformation": "avatar_gains_launcher",
    "description": { "str_sp": "launchers skill level up." }
  },
  {
    "id": "avatar_gains_launcher",
    "type": "event_transformation",
    "event_type": "gains_skill_level",
    "value_constraints": { "character": { "equals_statistic": "avatar_id" }, "skill": { "equals": "launcher" } },
    "drop_fields": [ "character", "skill" ]
  },
  {
    "id": "num_gains_mechanics",
    "type": "event_statistic",
    "stat_type": "count",
    "event_transformation": "avatar_gains_mechanics",
    "description": { "str_sp": "mechanics skill level up." }
  },
  {
    "id": "avatar_gains_mechanics",
    "type": "event_transformation",
    "event_type": "gains_skill_level",
    "value_constraints": { "character": { "equals_statistic": "avatar_id" }, "skill": { "equals": "mechanics" } },
    "drop_fields": [ "character", "skill" ]
  },
  {
    "id": "num_gains_melee",
    "type": "event_statistic",
    "stat_type": "count",
    "event_transformation": "avatar_gains_melee",
    "description": { "str_sp": "melee skill level up." }
  },
  {
    "id": "avatar_gains_melee",
    "type": "event_transformation",
    "event_type": "gains_skill_level",
    "value_constraints": { "character": { "equals_statistic": "avatar_id" }, "skill": { "equals": "melee" } },
    "drop_fields": [ "character", "skill" ]
  },
  {
    "id": "num_gains_pistol",
    "type": "event_statistic",
    "stat_type": "count",
    "event_transformation": "avatar_gains_pistol",
    "description": { "str_sp": "handguns skill level up." }
  },
  {
    "id": "avatar_gains_pistol",
    "type": "event_transformation",
    "event_type": "gains_skill_level",
    "value_constraints": { "character": { "equals_statistic": "avatar_id" }, "skill": { "equals": "pistol" } },
    "drop_fields": [ "character", "skill" ]
  },
  {
    "id": "num_gains_rifle",
    "type": "event_statistic",
    "stat_type": "count",
    "event_transformation": "avatar_gains_rifle",
    "description": { "str_sp": "rifles skill level up." }
  },
  {
    "id": "avatar_gains_rifle",
    "type": "event_transformation",
    "event_type": "gains_skill_level",
    "value_constraints": { "character": { "equals_statistic": "avatar_id" }, "skill": { "equals": "rifle" } },
    "drop_fields": [ "character", "skill" ]
  },
  {
    "id": "num_gains_shotgun",
    "type": "event_statistic",
    "stat_type": "count",
    "event_transformation": "avatar_gains_shotgun",
    "description": { "str_sp": "shotguns skill level up." }
  },
  {
    "id": "avatar_gains_shotgun",
    "type": "event_transformation",
    "event_type": "gains_skill_level",
    "value_constraints": { "character": { "equals_statistic": "avatar_id" }, "skill": { "equals": "shotgun" } },
    "drop_fields": [ "character", "skill" ]
  },
  {
    "id": "num_gains_smg",
    "type": "event_statistic",
    "stat_type": "count",
    "event_transformation": "avatar_gains_smg",
    "description": { "str_sp": "submachine guns skill level up." }
  },
  {
    "id": "avatar_gains_smg",
    "type": "event_transformation",
    "event_type": "gains_skill_level",
    "value_constraints": { "character": { "equals_statistic": "avatar_id" }, "skill": { "equals": "smg" } },
    "drop_fields": [ "character", "skill" ]
  },
  {
    "id": "num_gains_speech",
    "type": "event_statistic",
    "stat_type": "count",
    "event_transformation": "avatar_gains_speech",
    "description": { "str_sp": "speech skill level up." }
  },
  {
    "id": "avatar_gains_speech",
    "type": "event_transformation",
    "event_type": "gains_skill_level",
    "value_constraints": { "character": { "equals_statistic": "avatar_id" }, "skill": { "equals": "speech" } },
    "drop_fields": [ "character", "skill" ]
  },
  {
    "id": "num_gains_stabbing",
    "type": "event_statistic",
    "stat_type": "count",
    "event_transformation": "avatar_gains_stabbing",
    "description": { "str_sp": "piercing weapons skill level up." }
  },
  {
    "id": "avatar_gains_stabbing",
    "type": "event_transformation",
    "event_type": "gains_skill_level",
    "value_constraints": { "character": { "equals_statistic": "avatar_id" }, "skill": { "equals": "stabbing" } },
    "drop_fields": [ "character", "skill" ]
  },
  {
    "id": "num_gains_survival",
    "type": "event_statistic",
    "stat_type": "count",
    "event_transformation": "avatar_gains_survival",
    "description": { "str_sp": "survival skill level up." }
  },
  {
    "id": "avatar_gains_survival",
    "type": "event_transformation",
    "event_type": "gains_skill_level",
    "value_constraints": { "character": { "equals_statistic": "avatar_id" }, "skill": { "equals": "survival" } },
    "drop_fields": [ "character", "skill" ]
  },
  {
    "id": "num_gains_swimming",
    "type": "event_statistic",
    "stat_type": "count",
    "event_transformation": "avatar_gains_swimming",
    "description": { "str_sp": "swimming skill level up." }
  },
  {
    "id": "avatar_gains_swimming",
    "type": "event_transformation",
    "event_type": "gains_skill_level",
    "value_constraints": { "character": { "equals_statistic": "avatar_id" }, "skill": { "equals": "swimming" } },
    "drop_fields": [ "character", "skill" ]
  },
  {
    "id": "num_gains_tailor",
    "type": "event_statistic",
    "stat_type": "count",
    "event_transformation": "avatar_gains_tailor",
    "description": { "str_sp": "tailoring skill level up." }
  },
  {
    "id": "avatar_gains_tailor",
    "type": "event_transformation",
    "event_type": "gains_skill_level",
    "value_constraints": { "character": { "equals_statistic": "avatar_id" }, "skill": { "equals": "tailor" } },
    "drop_fields": [ "character", "skill" ]
  },
  {
    "id": "num_gains_throw",
    "type": "event_statistic",
    "stat_type": "count",
    "event_transformation": "avatar_gains_throw",
    "description": { "str_sp": "throwing skill level up." }
  },
  {
    "id": "avatar_gains_throw",
    "type": "event_transformation",
    "event_type": "gains_skill_level",
    "value_constraints": { "character": { "equals_statistic": "avatar_id" }, "skill": { "equals": "throw" } },
    "drop_fields": [ "character", "skill" ]
  },
  {
    "id": "num_gains_traps",
    "type": "event_statistic",
    "stat_type": "count",
    "event_transformation": "avatar_gains_traps",
    "description": { "str_sp": "trapping skill level up." }
  },
  {
    "id": "avatar_gains_traps",
    "type": "event_transformation",
    "event_type": "gains_skill_level",
    "value_constraints": { "character": { "equals_statistic": "avatar_id" }, "skill": { "equals": "traps" } },
    "drop_fields": [ "character", "skill" ]
  },
  {
    "id": "num_gains_unarmed",
    "type": "event_statistic",
    "stat_type": "count",
    "event_transformation": "avatar_gains_unarmed",
    "description": { "str_sp": "unarmed skill level up." }
  },
  {
    "id": "avatar_gains_unarmed",
    "type": "event_transformation",
    "event_type": "gains_skill_level",
    "value_constraints": { "character": { "equals_statistic": "avatar_id" }, "skill": { "equals": "unarmed" } },
    "drop_fields": [ "character", "skill" ]
  }
]
