[
  {
    "type": "mapgen",
    "method": "json",
    "weight": 100,
    "om_terrain": [
      "dks_shelter"
    ],
    "object": {
      "fill_ter": "t_floor",
      "rows": [
        "    !!!!!!!!!!!!!!!!    ",
        "    `!!!!`!!!!`!!!!`    ",
        "    `!!!!`!!!!`!!!!`    ",
        "    `!!!!`!!!!`!!!!`    ",
        "    `!!!!`!!!!`!!!!`    ",
        "    `!!!!`!!!!`!!!!`    ",
        "    `!!!!`!!!!`!!!!`    ",
        "    &&&&&&&&&&&&&&&&    ",
        "    |----:-++-:----|    ",
        "    |.............6|    ",
        "    |..............|    ",
        "    |..............|    ",
        "    |..............|    ",
        "    :..............:    ",
        "    |..............|    ",
        "    |......>>......|    ",
        "    |......>>......|    ",
        "    |..............|    ",
        "    :..............:    ",
        "    |..............|    ",
        "    |..............|    ",
        "    |||............|    ",
        "    |*=...........6|    ",
        "    |----:--+-:----|4   "
      ],
      "palettes": [
        "shelter"
      ],
      "place_nested": [
        {
          "chunks": [
            [
              "dks_shelter_nest_base",
              25
            ],
            [
              "dks_shelter_nest_used",
              45
            ],
            [
              "dks_shelter_nest_vandalized",
              30
            ]
          ],
          "x": 0,
          "y": 0
        }
      ]
    },
    "id": "fd0b0cd9-b373-4a27-ae36-9abf306d53be"
  },
  {
    "type": "mapgen",
    "method": "json",
    "weight": 100,
    "om_terrain": [
      "dks_shelter_1"
    ],
    "object": {
      "fill_ter": "t_floor",
      "rows": [
        "    !!!!!!!!!!!!!!!!    ",
        "    `!!!!`!!!!`!!!!`    ",
        "    `!!!!`!!!!`!!!!`    ",
        "    `!!!!`!!!!`!!!!`    ",
        "    `!!!!`!!!!`!!!!`    ",
        "    `!!!!`!!!!`!!!!`    ",
        "    `!!!!`!!!!`!!!!`    ",
        "    &&&|---++---|&&&    ",
        "       |........|       ",
        "    |-:|........|       ",
        "    |...........|:-|    ",
        "    |.............6|    ",
        "    |..............|    ",
        "    :..............:    ",
        "    |..............|    ",
        "    |..............|    ",
        "    |........|||...|    ",
        "    |.-----..|*=...|    ",
        "    :........|||...:    ",
        "    |..........|-+-|    ",
        "    |..........|...|    ",
        "    |..........|>..|    ",
        "    |..........|>..|4   ",
        "    |----:--+-:----|    "
      ],
      "palettes": [
        "shelter"
      ],
      "place_nested": [
        {
          "chunks": [
            [
              "dks_shelter_1_nest_base",
              25
            ],
            [
              "dks_shelter_1_nest_used",
              45
            ],
            [
              "dks_shelter_1_nest_vandalized",
              30
            ]
          ],
          "x": 0,
          "y": 0
        }
      ]
    },
    "id": "dec0529f-7028-49b4-9ed4-e53f59e8020d"
  },
  {
    "type": "mapgen",
    "method": "json",
    "weight": 100,
    "om_terrain": [
      "dks_shelter_2"
    ],
    "object": {
      "fill_ter": "t_floor",
      "rows": [
        "    `!!!!`!!!!`!!!!`    ",
        "    `!!!!`!!!!`!!!!`    ",
        "    `!!!!`!!!!`!!!!`    ",
        "    `!!!!`!!!!`!!!!`    ",
        "    `!!!!`!!!!`!!!!`    ",
        "    &&&&&&&&&&&&&&&&    ",
        "           |-:-++-:-|   ",
        "   ||------|........|   ",
        "   |*|..............|   ",
        "   |.=..............|   ",
        "  |--|.............--|  ",
        "  |..................|  ",
        "  :..................:  ",
        "  |..................|  ",
        "  |.......|--|.......|  ",
        "  |........>>........|  ",
        "  |........>>........|  ",
        "  :.......|--|.......:  ",
        "  |..................|  ",
        "  |..................|  ",
        "  |--..............--|  ",
        "   |................|4  ",
        "   |--------|.......|   ",
        "            |-:-+-:-|   "
      ],
      "palettes": [
        "shelter"
      ],
      "place_nested": [
        {
          "chunks": [
            [
              "dks_shelter_2_nest_base",
              25
            ],
            [
              "dks_shelter_2_nest_used",
              45
            ],
            [
              "dks_shelter_2_nest_vandalized",
              30
            ]
          ],
          "x": 0,
          "y": 0
        }
      ],
      "computers": {
        "6": {
          "name": "Evac shelter computer",
          "options": [
            {
              "name": "Emergency Message",
              "action": "emerg_mess"
            },
            {
              "name": "Disable External Power",
              "action": "complete_disable_external_power"
            }
          ]
        }
      }
    },
    "id": "5cbc2a4e-7916-4a0c-aab0-7f95d35ec23e"
  },
  {
    "type": "mapgen",
    "method": "json",
    "nested_mapgen_id": "dks_shelter_nest_base",
    "object": {
      "mapgensize": [
        24,
        24
      ],
      "rows": [
        "                        ",
        "                        ",
        "                        ",
        "                        ",
        "                        ",
        "                        ",
        "                        ",
        "                        ",
        "                        ",
        "     llll      c  6     ",
        "      b b b    c        ",
        "      b b b    c        ",
        "      b b b    c        ",
        "      b b b             ",
        "                        ",
        "                        ",
        "                        ",
        "                        ",
        "      b b b             ",
        "      b b b    c        ",
        "      b b b    c        ",
        "        b b    c        ",
        "               c  6     ",
        "                        "
      ],
      "palettes": [
        "shelter"
      ],
      "terrain": {
        "6": "t_console",
        " ": "t_null"
      },
      "furniture": {
        "b": "f_bench",
        "c": "f_cupboard",
        "l": "f_locker",
        "S": "f_sink",
        "%": "f_trashcan"
      },
      "computers": {
        "6": {
          "name": "Evac shelter computer",
          "options": [
            {
              "name": "Emergency Message",
              "action": "emerg_mess"
            },
            {
              "name": "Disable External Power",
              "action": "complete_disable_external_power"
            }
          ]
        }
      },
      "items": {
        "l": {
          "item": "SUS_evac_shelter_locker",
          "chance": 75
        },
        "c": {
          "item": "SUS_evac_shelter_cabinet",
          "chance": 50
        }
      }
    },
    "id": "feba6661-7586-4f8e-9cf8-456707410f6f"
  },
  {
    "type": "mapgen",
    "method": "json",
    "nested_mapgen_id": "dks_shelter_nest_used",
    "object": {
      "mapgensize": [
        24,
        24
      ],
      "rows": [
        "                        ",
        "                        ",
        "                        ",
        "                        ",
        "                        ",
        "                        ",
        "                        ",
        "                        ",
        "    |||||:|++|:|||||    ",
        "    |llll......c..6|    ",
        "    |.b.b.b....c...|    ",
        "    |.b.b.b....c...|    ",
        "    |.b.b.b....c...|    ",
        "    :.b.b.b........:    ",
        "    |..............|    ",
        "    |..............|    ",
        "    |..............|    ",
        "    |..............|    ",
        "    :.b.b.b........:    ",
        "    |.b.b.b....c...|    ",
        "    |.b.b.b....c...|    ",
        "    |||.b.b....c...|    ",
        "    | =........c..x|    ",
        "    |||||:||+|:|||||    "
      ],
      "palettes": [
        "shelter"
      ],
      "terrain": {
        "6": "t_console",
        "x": "t_console_broken",
        "=": "t_door_locked_interior",
        ":": "t_window_domestic",
        "+": "t_door_c"
      },
      "furniture": {
        "b": "f_bench",
        "c": "f_cupboard",
        "l": "f_locker",
        "S": "f_sink",
        "%": "f_trashcan"
      },
      "computers": {
        "6": {
          "name": "Evac shelter computer",
          "options": [
            {
              "name": "Emergency Message",
              "action": "emerg_mess"
            },
            {
              "name": "Disable External Power",
              "action": "complete_disable_external_power"
            }
          ]
        }
      },
      "items": {
        "l": {
          "item": "SUS_evac_shelter_locker_used",
          "chance": 75
        },
        "c": {
          "item": "SUS_evac_shelter_cabinet_used",
          "chance": 50
        },
        "b": [
          {
            "item": "shelter_supplies",
            "chance": 2
          },
          {
            "item": "trash",
            "chance": 2
          }
        ],
        ".": [
          {
            "item": "shelter_supplies",
            "chance": 1
          },
          {
            "item": "trash",
            "chance": 1
          },
          {
            "item": "trash_forest",
            "chance": 1
          }
        ]
      },
      "nested": {
        "|": {
          "chunks": [
            [
              "dks_shelter_graffiti",
              10
            ],
            [
              "null",
              90
            ]
          ]
        }
      }
    },
    "id": "838d21c0-be3d-457d-8f73-04c1f5b424ea"
  },
  {
    "type": "mapgen",
    "method": "json",
    "nested_mapgen_id": "dks_shelter_nest_vandalized",
    "object": {
      "mapgensize": [
        24,
        24
      ],
      "rows": [
        "                        ",
        "                        ",
        "                        ",
        "                        ",
        "                        ",
        "                        ",
        "                        ",
        "                        ",
        "    |||||:|++|:|||||    ",
        "    |llll......c..6|    ",
        "    |.b.b.b....c...|    ",
        "    |.b.b.b....c...|    ",
        "    |.b.b.b....c...|    ",
        "    :.b.b.b........:    ",
        "    |..............|    ",
        "    |..............|    ",
        "    |..............|    ",
        "    |..............|    ",
        "    :.b.b.b........:    ",
        "    |.b.b.b....c...|    ",
        "    |.b.b.b....c...|    ",
        "    |||.b.b....c...|    ",
        "    | =........c..6|    ",
        "    |||||:||+|:|||||    "
      ],
      "palettes": [
        "shelter"
      ],
      "terrain": {
        "6": "t_console_broken",
        ":": [
          "t_window_frame",
          "t_window_no_curtains"
        ],
        "+": [
          "t_door_c",
          "t_door_b"
        ],
        "=": [
          "t_door_b",
          "t_door_locked_interior",
          "t_door_c",
          "t_door_o"
        ]
      },
      "furniture": {
        "b": "f_bench",
        "c": "f_cupboard",
        "l": [
          [
            "f_locker",
            2
          ],
          "f_wreckage"
        ],
        "S": "f_sink",
        "%": "f_trashcan"
      },
      "items": {
        "l": {
          "item": "shelter_supplies",
          "chance": 40
        },
        "c": [
          {
            "item": "trash",
            "chance": 1
          },
          {
            "item": "softdrugs",
            "chance": 2
          },
          {
            "item": "shelter_supplies",
            "chance": 10
          }
        ],
        "b": [
          {
            "item": "softdrugs",
            "chance": 2
          },
          {
            "item": "shelter_supplies",
            "chance": 1
          },
          {
            "item": "trash",
            "chance": 1
          }
        ],
        ".": [
          {
            "item": "trash",
            "chance": 1
          },
          {
            "item": "trash_forest",
            "chance": 1
          }
        ]
      },
      "nested": {
        "|": {
          "chunks": [
            [
              "dks_shelter_graffiti",
              5
            ],
            [
              "dks_general_graffiti",
              20
            ],
            [
              "null",
              75
            ]
          ]
        }
      }
    },
    "id": "0654f5b2-2124-4d3f-9075-018f2ec888ec"
  },
  {
    "type": "mapgen",
    "method": "json",
    "nested_mapgen_id": "dks_shelter_1_nest_base",
    "object": {
      "mapgensize": [
        24,
        24
      ],
      "rows": [
        "                        ",
        "                        ",
        "                        ",
        "                        ",
        "                        ",
        "                        ",
        "                        ",
        "                        ",
        "                        ",
        "                        ",
        "                        ",
        "      bbbbb     c 6     ",
        "                c       ",
        "      bbbbb     c       ",
        "                cc      ",
        "      bbbbb             ",
        "            l           ",
        "            l           ",
        "            l           ",
        "      b b b   c         ",
        "      b b b   c   l     ",
        "      b b b   c   l     ",
        "                  l     ",
        "                        "
      ],
      "palettes": [
        "shelter"
      ],
      "terrain": {
        "6": "t_console",
        " ": "t_null"
      },
      "furniture": {
        "b": "f_bench",
        "c": "f_cupboard",
        "l": "f_locker",
        "S": "f_sink",
        "%": "f_trashcan"
      },
      "items": {
        "l": {
          "item": "SUS_evac_shelter_locker",
          "chance": 70
        },
        "c": {
          "item": "SUS_evac_shelter_cabinet",
          "chance": 50
        }
      },
      "computers": {
        "6": {
          "name": "Evac shelter computer",
          "options": [
            {
              "name": "Emergency Message",
              "action": "emerg_mess"
            },
            {
              "name": "Disable External Power",
              "action": "complete_disable_external_power"
            }
          ]
        }
      }
    },
    "id": "8db8ea95-381d-4edd-a15b-6064ab9d4587"
  },
  {
    "type": "mapgen",
    "method": "json",
    "nested_mapgen_id": "dks_shelter_1_nest_used",
    "object": {
      "mapgensize": [
        24,
        24
      ],
      "rows": [
        "                        ",
        "                        ",
        "                        ",
        "                        ",
        "                        ",
        "                        ",
        "                        ",
        "       ||||++||||       ",
        "       |........|       ",
        "    ||:|........|       ",
        "    |...........|:||    ",
        "    |.bbbbb.....c.6|    ",
        "    |...........c..|    ",
        "    :.bbbbb.....c..:    ",
        "    |...........cc.|    ",
        "    |.bbbbb........|    ",
        "    |.......l|||...|    ",
        "    |.-----.l| =...|    ",
        "    :.......l|||...:    ",
        "    |.b.b.b...c|-+-|    ",
        "    |.b.b.b...c|..l|    ",
        "    |.b.b.b...c|..l|    ",
        "    |..........|..l|    ",
        "    |||||:||+|:|||||    "
      ],
      "palettes": [
        "shelter"
      ],
      "terrain": {
        "-": "t_wall_w",
        "x": "t_console_broken",
        ":": [
          "t_window_frame",
          "t_window"
        ],
        "+": [
          "t_door_c",
          "t_door_b"
        ],
        "=": [
          "t_door_b",
          "t_door_locked_interior",
          "t_door_c",
          "t_door_o"
        ]
      },
      "furniture": {
        "b": "f_bench",
        "c": "f_cupboard",
        "l": "f_locker",
        "S": "f_sink",
        "%": "f_trashcan"
      },
      "computers": {
        "6": {
          "name": "Evac shelter computer",
          "options": [
            {
              "name": "Emergency Message",
              "action": "emerg_mess"
            },
            {
              "name": "Disable External Power",
              "action": "complete_disable_external_power"
            }
          ]
        }
      },
      "items": {
        "l": {
          "item": "SUS_evac_shelter_locker_used",
          "chance": 70
        },
        "c": {
          "item": "SUS_evac_shelter_cabinet_used",
          "chance": 50
        },
        "b": [
          {
            "item": "shelter_supplies",
            "chance": 2
          },
          {
            "item": "trash",
            "chance": 2
          }
        ],
        ".": [
          {
            "item": "shelter_supplies",
            "chance": 1
          },
          {
            "item": "trash",
            "chance": 1
          }
        ]
      },
      "nested": {
        "|": {
          "chunks": [
            [
              "dks_shelter_graffiti",
              10
            ],
            [
              "null",
              90
            ]
          ]
        }
      }
    },
    "id": "c67e0673-be74-4f78-9787-10a51feb322b"
  },
  {
    "type": "mapgen",
    "method": "json",
    "nested_mapgen_id": "dks_shelter_1_nest_vandalized",
    "object": {
      "mapgensize": [
        24,
        24
      ],
      "rows": [
        "                        ",
        "                        ",
        "                        ",
        "                        ",
        "                        ",
        "                        ",
        "                        ",
        "       ||||++||||       ",
        "       |........|       ",
        "    ||:|........|       ",
        "    |...........|:||    ",
        "    |.bbbbb.....c.6|    ",
        "    |...........c..|    ",
        "    :.bbbbb.....c..:    ",
        "    |...........cc.|    ",
        "    |.bbbbb........|    ",
        "    |.......l|||...|    ",
        "    |.-----.l| =...|    ",
        "    :.......l|||...:    ",
        "    |.b.b.b...c|-+-|    ",
        "    |.b.b.b...c|..l|    ",
        "    |.b.b.b...c|..l|    ",
        "    |..........|..l|    ",
        "    |||||:||+|:|||||    "
      ],
      "palettes": [
        "shelter"
      ],
      "terrain": {
        "6": "t_console_broken",
        "-": "t_wall_w",
        ":": [
          "t_window_frame",
          "t_window"
        ],
        "+": [
          "t_door_c",
          "t_door_b"
        ],
        "=": [
          "t_door_b",
          "t_door_locked_interior",
          "t_door_c",
          "t_door_o"
        ]
      },
      "furniture": {
        "b": "f_bench",
        "c": "f_cupboard",
        "l": [
          [
            "f_locker",
            2
          ],
          "f_wreckage"
        ],
        "S": "f_sink",
        "%": "f_trashcan"
      },
      "items": {
        "l": {
          "item": "shelter_supplies",
          "chance": 40
        },
        "c": [
          {
            "item": "trash",
            "chance": 1
          },
          {
            "item": "softdrugs",
            "chance": 2
          },
          {
            "item": "shelter_supplies",
            "chance": 10
          }
        ],
        "b": [
          {
            "item": "softdrugs",
            "chance": 2
          },
          {
            "item": "shelter_supplies",
            "chance": 1
          },
          {
            "item": "trash",
            "chance": 1
          }
        ],
        ".": [
          {
            "item": "trash",
            "chance": 1
          },
          {
            "item": "trash_forest",
            "chance": 1
          }
        ]
      },
      "nested": {
        "|": {
          "chunks": [
            [
              "dks_shelter_graffiti",
              5
            ],
            [
              "dks_general_graffiti",
              20
            ],
            [
              "null",
              75
            ]
          ]
        }
      }
    },
    "id": "80ed24ba-1303-46ba-8da9-f8c77d3e4578"
  },
  {
    "type": "mapgen",
    "method": "json",
    "nested_mapgen_id": "dks_shelter_2_nest_base",
    "object": {
      "mapgensize": [
        24,
        24
      ],
      "rows": [
        "                        ",
        "                        ",
        "                        ",
        "                        ",
        "                        ",
        "                        ",
        "                        ",
        "            %      l    ",
        "      cccc6        l    ",
        "                   l    ",
        "                        ",
        "   b     bbbbb   b  b   ",
        "   b  b          b  b   ",
        "   b  b   llll   b  b   ",
        "   b  b          b  b   ",
        "   b  b          b  b   ",
        "   b  b          b  b   ",
        "   b  b          b  b   ",
        "   b  b   llll   b  b   ",
        "   b  b          b  b   ",
        "          bbbb          ",
        "                   6    ",
        "                   c    ",
        "                        "
      ],
      "palettes": [
        "shelter"
      ],
      "terrain": {
        " ": "t_null"
      },
      "furniture": {
        "b": "f_bench",
        "c": "f_cupboard",
        "l": "f_locker",
        "S": "f_sink",
        "%": "f_trashcan"
      },
      "items": {
        "l": {
          "item": "SUS_evac_shelter_locker",
          "chance": 70
        },
        "c": {
          "item": "SUS_evac_shelter_cabinet",
          "chance": 50
        }
      }
    },
    "id": "8fd383e8-d465-4c48-98fd-b4ee676b8634"
  },
  {
    "type": "mapgen",
    "method": "json",
    "nested_mapgen_id": "dks_shelter_2_nest_used",
    "object": {
      "mapgensize": [
        24,
        24
      ],
      "rows": [
        "                        ",
        "                        ",
        "                        ",
        "                        ",
        "                        ",
        "                        ",
        "           ||:|++|:||   ",
        "   |||||||||%......l|   ",
        "   |*|cccc6........l|   ",
        "   |.=.............l|   ",
        "  |--|.............|||  ",
        "  |b.....bbbbb...b..b|  ",
        "  :b..b..........b..b:  ",
        "  |b..b...llll...b..b|  ",
        "  |b..b...|--|...b..b|  ",
        "  |b..b..........b..b|  ",
        "  |b..b..........b..b|  ",
        "  :b..b...|--|...b..b:  ",
        "  |b..b...llll...b..b|  ",
        "  |b..b..........b..b|  ",
        "  |--.....bbbb.....|||  ",
        "   |l..............x|   ",
        "   ||||||||||......c|   ",
        "            ||:|+|:||   "
      ],
      "palettes": [
        "shelter"
      ],
      "terrain": {
        "-": "t_wall_w",
        "x": "t_console_broken"
      },
      "furniture": {
        "b": "f_bench",
        "c": "f_cupboard",
        "l": "f_locker",
        "S": "f_sink",
        "%": "f_trashcan"
      },
      "computers": {
        "6": {
          "name": "Evac shelter computer",
          "options": [
            {
              "name": "Emergency Message",
              "action": "emerg_mess"
            },
            {
              "name": "Disable External Power",
              "action": "complete_disable_external_power"
            }
          ]
        }
      },
      "items": {
        "l": {
          "item": "SUS_evac_shelter_locker_used",
          "chance": 70
        },
        "c": {
          "item": "SUS_evac_shelter_cabinet_used",
          "chance": 50
        },
        "%": [
          {
            "item": "shelter_supplies",
            "chance": 15,
            "repeat": [
              1,
              2
            ]
          },
          {
            "item": "trash",
            "chance": 25,
            "repeat": [
              1,
              3
            ]
          }
        ],
        "b": [
          {
            "item": "shelter_supplies",
            "chance": 2
          },
          {
            "item": "trash",
            "chance": 2
          }
        ],
        ".": [
          {
            "item": "shelter_supplies",
            "chance": 1
          },
          {
            "item": "trash",
            "chance": 1
          }
        ]
      },
      "nested": {
        "|": {
          "chunks": [
            [
              "dks_shelter_graffiti",
              10
            ],
            [
              "null",
              90
            ]
          ]
        }
      }
    },
    "id": "e73296f6-69ce-415b-86af-7f5f0fe3e8a1"
  },
  {
    "type": "mapgen",
    "method": "json",
    "nested_mapgen_id": "dks_shelter_2_nest_vandalized",
    "object": {
      "mapgensize": [
        24,
        24
      ],
      "rows": [
        "                        ",
        "                        ",
        "                        ",
        "                        ",
        "                        ",
        "                        ",
        "           ||:|++|:||   ",
        "   |||||||||%......l|   ",
        "   |*|cccc6........l|   ",
        "   |.=.............l|   ",
        "  |--|.............|||  ",
        "  |b.....bbbbb...b..b|  ",
        "  :b..b..........b..b:  ",
        "  |b..b...llll...b..b|  ",
        "  |b..b...|--|...b..b|  ",
        "  |b..b..........b..b|  ",
        "  |b..b..........b..b|  ",
        "  :b..b...|--|...b..b:  ",
        "  |b..b..........b..b|  ",
        "  |b..b..........b..b|  ",
        "  |--.....bbbb.....|||  ",
        "   |l..............x|   ",
        "   ||||||||||......c|   ",
        "            ||:|+|:||   "
      ],
      "palettes": [
        "shelter"
      ],
      "terrain": {
        "6": [
          "t_console",
          "t_console_broken"
        ],
        "-": "t_wall_w",
        ":": [
          "t_window_frame",
          "t_window"
        ],
        "+": [
          "t_door_c",
          "t_door_b"
        ],
        "=": [
          "t_door_b",
          "t_door_locked_interior",
          "t_door_c",
          "t_door_o"
        ]
      },
      "furniture": {
        "b": "f_bench",
        "c": "f_cupboard",
        "l": [
          [
            "f_locker",
            2
          ],
          "f_wreckage"
        ],
        "S": "f_sink",
        "%": "f_trashcan"
      },
      "items": {
        "l": {
          "item": "shelter_supplies",
          "chance": 40
        },
        "c": [
          {
            "item": "trash",
            "chance": 1
          },
          {
            "item": "softdrugs",
            "chance": 2
          },
          {
            "item": "shelter_supplies",
            "chance": 10
          }
        ],
        "b": [
          {
            "item": "softdrugs",
            "chance": 2
          },
          {
            "item": "shelter_supplies",
            "chance": 1
          },
          {
            "item": "trash",
            "chance": 1
          }
        ],
        ".": [
          {
            "item": "trash",
            "chance": 1
          },
          {
            "item": "trash_forest",
            "chance": 1
          }
        ]
      },
      "nested": {
        "|": {
          "chunks": [
            [
              "dks_shelter_graffiti",
              5
            ],
            [
              "dks_general_graffiti",
              20
            ],
            [
              "null",
              75
            ]
          ]
        }
      }
    },
    "id": "e651c907-f3cc-4777-8086-3ff024670d08"
  },
  {
    "type": "mapgen",
    "method": "json",
    "nested_mapgen_id": "dks_shelter_graffiti",
    "object": {
      "mapgensize": [
        1,
        1
      ],
      "place_graffiti": [
        {
          "x": 0,
          "y": 0,
          "snippet": "dks_shelter_graffiti_snippets"
        }
      ]
    },
    "id": "68fba67a-2105-49e3-be39-f695fc80a499"
  },
  {
    "type": "mapgen",
    "method": "json",
    "nested_mapgen_id": "dks_general_graffiti",
    "object": {
      "mapgensize": [
        1,
        1
      ],
      "place_graffiti": [
        {
          "x": 0,
          "y": 0,
          "snippet": "dks_general_graffiti_snippets"
        }
      ]
    },
    "id": "48ec63ed-4443-4b8f-8b84-69f31d83cbcb"
  },
  {
    "type": "overmap_special",
    "id": "Evac Shelter",
    "copy-from": "Evac Shelter",
    "overmaps": [
      {
        "point": [
          0,
          0,
          0
        ],
        "overmap": "dks_shelter_north"
      },
      {
        "point": [
          0,
          0,
          -1
        ],
        "overmap": "shelter_under_north"
      },
      {
        "point": [
          0,
          0,
          1
        ],
        "overmap": "shelter_roof_north"
      }
    ]
  },
  {
    "type": "overmap_special",
    "id": "Evac Shelter 1",
    "copy-from": "Evac Shelter 1",
    "overmaps": [
      {
        "point": [
          0,
          0,
          0
        ],
        "overmap": "dks_shelter_1_north"
      },
      {
        "point": [
          0,
          0,
          -1
        ],
        "overmap": "shelter_under_north"
      },
      {
        "point": [
          0,
          0,
          1
        ],
        "overmap": "shelter_roof_1_north"
      }
    ]
  },
  {
    "type": "overmap_special",
    "id": "Evac Shelter 2",
    "copy-from": "Evac Shelter 2",
    "overmaps": [
      {
        "point": [
          0,
          0,
          0
        ],
        "overmap": "dks_shelter_2_north"
      },
      {
        "point": [
          0,
          0,
          -1
        ],
        "overmap": "shelter_under_north"
      },
      {
        "point": [
          0,
          0,
          1
        ],
        "overmap": "shelter_roof_2_north"
      }
    ]
  },
  {
    "type": "start_location",
    "id": "sloc_dks_shelter",
    "name": "Shelter",
    "terrain": [
      "dks_shelter",
      "dks_shelter_1",
      "dks_shelter_2"
    ]
  },
  {
    "type": "overmap_terrain",
    "id": "dks_shelter",
    "copy-from": "shelter"
  },
  {
    "type": "overmap_terrain",
    "copy-from": "shelter_1",
    "id": "dks_shelter_1"
  },
  {
    "type": "overmap_terrain",
    "copy-from": "shelter_2",
    "id": "dks_shelter_2"
  },
  {
    "type": "recipe_group",
    "id": "all_faction_base_types",
    "building_type": "NONE",
    "recipes": [
      {
        "id": "faction_base_modular_hub_field_0",
        "description": "Field Camp",
        "om_terrains": [
          "field"
        ]
      },
      {
        "id": "faction_base_firestation_0",
        "description": "Firestation Base",
        "om_terrains": [
          "fire_station"
        ]
      },
      {
        "id": "faction_base_shelter_0",
        "description": "Evac Shelter Base",
        "om_terrains": [
          "dks_shelter"
        ]
      },
      {
        "id": "faction_base_shelter_1_0",
        "description": "Evac Shelter Base",
        "om_terrains": [
          "dks_shelter_1"
        ]
      }
    ]
  }
]