[
  {
    "type": "region_overlay",
    "regions": [
      "all"
    ],
    "city": {
      "houses": {
        "urban_7_house_garden": 30,
        "urban_8_house_brick_garden": 30,
        "urban_9_house_garage_loft": 30,
        "urban_10_house_brick_pool": 30,
        "urban_11_house_brick": 30,
        "urban_12_house": 30,
        "urban_15_house": 30,
        "urban_16_house_ranch": 30,
        "urban_17_house_ranch": 30,
        "urban_18_victorian": 30,
        "urban_19_victorian": 30,
        "urban_20_duplex": 30,
        "urban_21_house": 30,
        "urban_22_house_pool": 30,
        "urban_40_house": 30
      },
      "shops": {
        "urban_23_dense_office_theater": 300,
        "urban_24_dense_bank_house": 300,
        "urban_25_dense_diner_apt": 300,
        "urban_26_dense_club": 300,
        "urban_27_dense_barber_apt": 300,
        "urban_28_dense_cafe_laundry": 300,
        "urban_29_dense_row": 400,
        "urban_30_dense_subway": 1000,
        "urban_31_police_station": 200,
        "urban_32_fire_station": 200,
        "urban_33_hotel": 200,
        "urban_34_school": 100,
        "urban_35_hospital": 300,
        "urban_36_projects": 300,
        "urban_37_office_tower_beehive": 150,
        "urban_38_bar_hardware_house": 300,
        "urban_39_market_subway_newspaper": 1000,
        "urban_41_library": 100
      }
    },
    "id": "26061d83-3464-409e-b0b4-b06c7553330f"
  }
]