[
  {
    "type": "MONSTER_FACTION",
    "name": "very_small_predator",
    "base_faction": "cat",
    "by_mood": [
      "small_animal",
      "cat",
      "very_small_predator"
    ],
    "hate": [
      "vermin"
    ],
    "id": "very_small_predator"
  },
  {
    "type": "MONSTER_FACTION",
    "name": "small_predator",
    "base_faction": "small_animal",
    "by_mood": [
      "small_predator",
      "cat",
      "eoraptor"
    ],
    "hate": [
      "small_animal",
      "very_small_predator"
    ],
    "id": "small_predator"
  },
  {
    "type": "MONSTER_FACTION",
    "name": "medium_predator",
    "base_faction": "wolf",
    "by_mood": [
      "wolf",
      "medium_predator",
      "zombie_aquatic",
      "vermin"
    ],
    "id": "medium_predator"
  },
  {
    "type": "MONSTER_FACTION",
    "name": "predator_dino",
    "base_faction": "animal",
    "neutral": [
      "small_animal",
      "fish"
    ],
    "by_mood": [
      "predator_dino",
      "animal",
      "zombie_aquatic"
    ],
    "hate": [
      "herbivore",
      "zombie",
      "human"
    ],
    "id": "predator_dino"
  },
  {
    "type": "MONSTER_FACTION",
    "name": "herbivore_young",
    "base_faction": "small_animal",
    "neutral": [
      "small_animal",
      "herbivore"
    ],
    "friendly": [
      "herbivore_dino"
    ],
    "id": "herbivore_young"
  },
  {
    "type": "MONSTER_FACTION",
    "name": "herbivore_dino",
    "base_faction": "herbivore",
    "neutral": [
      "herbivore",
      "small_animal"
    ],
    "friendly": [
      "herbivore_young"
    ],
    "hate": [
      "plant"
    ],
    "id": "herbivore_dino"
  },
  {
    "type": "MONSTER_FACTION",
    "name": "insectivore_young",
    "base_faction": "small_animal",
    "neutral": [
      "small_animal"
    ],
    "friendly": [
      "insectivore_dino"
    ],
    "id": "insectivore_young"
  },
  {
    "type": "MONSTER_FACTION",
    "name": "insectivore_dino",
    "base_faction": "very_small_predator",
    "neutral": [
      "herbivore"
    ],
    "friendly": [
      "insectivore_young"
    ],
    "hate": [
      "insect"
    ],
    "id": "insectivore_dino"
  },
  {
    "type": "MONSTER_FACTION",
    "name": "very_small_mixed",
    "base_faction": "very_small_predator",
    "neutral": [
      "fishing_dino",
      "zombie_aquatic",
      "mixed_dino"
    ],
    "by_mood": [
      "very_small_mixed",
      "small_fisher"
    ],
    "hate": [
      "fish",
      "vermin"
    ],
    "id": "very_small_mixed"
  },
  {
    "type": "MONSTER_FACTION",
    "name": "small_fisher",
    "base_faction": "fish",
    "neutral": [
      "fishing_dino",
      "zombie_aquatic",
      "mixed_dino"
    ],
    "by_mood": [
      "small_fisher",
      "very_small_mixed"
    ],
    "hate": [
      "fish"
    ],
    "id": "small_fisher"
  },
  {
    "type": "MONSTER_FACTION",
    "name": "small_mixed",
    "base_faction": "small_predator",
    "neutral": [
      "fishing_dino",
      "zombie_aquatic",
      "mixed_dino"
    ],
    "by_mood": [
      "small_mixed",
      "small_fisher"
    ],
    "hate": [
      "fish",
      "vermin"
    ],
    "id": "small_mixed"
  },
  {
    "type": "MONSTER_FACTION",
    "name": "medium_mixed",
    "base_faction": "big_cat",
    "by_mood": [
      "big_cat",
      "medium_mixed",
      "vermin",
      "aquatic_predator"
    ],
    "hate": [
      "fish"
    ],
    "id": "medium_mixed"
  },
  {
    "type": "MONSTER_FACTION",
    "name": "medium_fisher",
    "base_faction": "aquatic_predator",
    "by_mood": [
      "small_fisher",
      "medium_fisher",
      "aquatic_predator"
    ],
    "id": "medium_fisher"
  },
  {
    "type": "MONSTER_FACTION",
    "name": "mixed_dino",
    "base_faction": "gator",
    "neutral": [
      "small_animal",
      "small_fisher"
    ],
    "hate": [
      "herbivore",
      "zombie",
      "human",
      "gator",
      "aquatic_predator"
    ],
    "by_mood": [
      "mixed_dino",
      "predator_dino",
      "herbivore_dino",
      "fishing_dino"
    ],
    "id": "mixed_dino"
  },
  {
    "type": "MONSTER_FACTION",
    "name": "fishing_dino",
    "base_faction": "aquatic_predator",
    "by_mood": [
      "fishing_dino",
      "mixed_dino",
      "aquatic_predator"
    ],
    "neutral": [
      "small_animal",
      "small_fisher"
    ],
    "hate": [
      "gator"
    ],
    "id": "fishing_dino"
  },
  {
    "type": "MONSTER_FACTION",
    "name": "compsognathus",
    "base_faction": "small_predator",
    "friendly": [
      "compsognathus_hatchling"
    ],
    "id": "compsognathus"
  },
  {
    "type": "MONSTER_FACTION",
    "name": "compsognathus_hatchling",
    "base_faction": "very_small_predator",
    "friendly": [
      "compsognathus"
    ],
    "id": "compsognathus_hatchling"
  },
  {
    "type": "MONSTER_FACTION",
    "name": "spinosaurus",
    "base_faction": "fishing_dino",
    "friendly": [
      "spinosaurus_juvenile",
      "spinosaurus_hatchling"
    ],
    "by_mood": [
      "spinosaurus"
    ],
    "id": "spinosaurus"
  },
  {
    "type": "MONSTER_FACTION",
    "name": "spinosaurus_juvenile",
    "base_faction": "medium_fisher",
    "friendly": [
      "spinosaurus",
      "spinosaurus_hatchling"
    ],
    "id": "spinosaurus_juvenile"
  },
  {
    "type": "MONSTER_FACTION",
    "name": "spinosaurus_hatchling",
    "base_faction": "small_fisher",
    "friendly": [
      "spinosaurus",
      "spinosaurus_juvenile"
    ],
    "id": "spinosaurus_hatchling"
  },
  {
    "type": "MONSTER_FACTION",
    "name": "torvosaurus",
    "base_faction": "predator_dino",
    "friendly": [
      "torvosaurus_juvenile",
      "torvosaurus_hatchling"
    ],
    "id": "torvosaurus"
  },
  {
    "type": "MONSTER_FACTION",
    "name": "torvosaurus_juvenile",
    "base_faction": "small_predator",
    "friendly": [
      "torvosaurus",
      "torvosaurus_hatchling"
    ],
    "id": "torvosaurus_juvenile"
  },
  {
    "type": "MONSTER_FACTION",
    "name": "torvosaurus_hatchling",
    "base_faction": "very_small_predator",
    "friendly": [
      "torvosaurus",
      "torvosaurus_juvenile"
    ],
    "id": "torvosaurus_hatchling"
  },
  {
    "type": "MONSTER_FACTION",
    "name": "allosaurus",
    "base_faction": "predator_dino",
    "friendly": [
      "allosaurus_juvenile",
      "allosaurus_hatchling"
    ],
    "id": "allosaurus"
  },
  {
    "type": "MONSTER_FACTION",
    "name": "allosaurus_juvenile",
    "base_faction": "small_predator",
    "friendly": [
      "allosaurus",
      "allosaurus_hatchling"
    ],
    "id": "allosaurus_juvenile"
  },
  {
    "type": "MONSTER_FACTION",
    "name": "allosaurus_hatchling",
    "base_faction": "very_small_predator",
    "friendly": [
      "allosaurus",
      "allosaurus_juvenile"
    ],
    "id": "allosaurus_hatchling"
  },
  {
    "type": "MONSTER_FACTION",
    "name": "acrocanthosaurus",
    "base_faction": "predator_dino",
    "friendly": [
      "acrocanthosaurus_juvenile",
      "acrocanthosaurus_hatchling"
    ],
    "by_mood": [
      "acrocanthosaurus"
    ],
    "id": "acrocanthosaurus"
  },
  {
    "type": "MONSTER_FACTION",
    "name": "acrocanthosaurus_juvenile",
    "base_faction": "small_predator",
    "friendly": [
      "acrocanthosaurus",
      "acrocanthosaurus_hatchling"
    ],
    "id": "acrocanthosaurus_juvenile"
  },
  {
    "type": "MONSTER_FACTION",
    "name": "acrocanthosaurus_hatchling",
    "base_faction": "very_small_predator",
    "friendly": [
      "acrocanthosaurus",
      "acrocanthosaurus_juvenile"
    ],
    "id": "acrocanthosaurus_hatchling"
  },
  {
    "type": "MONSTER_FACTION",
    "name": "siats",
    "base_faction": "predator_dino",
    "friendly": [
      "siats_juvenile",
      "siats_hatchling"
    ],
    "by_mood": [
      "siats"
    ],
    "id": "siats"
  },
  {
    "type": "MONSTER_FACTION",
    "name": "siats_juvenile",
    "base_faction": "small_predator",
    "friendly": [
      "siats",
      "siats_hatchling"
    ],
    "id": "siats_juvenile"
  },
  {
    "type": "MONSTER_FACTION",
    "name": "siats_hatchling",
    "base_faction": "very_small_predator",
    "friendly": [
      "siats",
      "siats_juvenile"
    ],
    "id": "siats_hatchling"
  },
  {
    "type": "MONSTER_FACTION",
    "name": "dryptosaurus",
    "base_faction": "predator_dino",
    "friendly": [
      "dryptosaurus_juvenile",
      "dryptosaurus_hatchling"
    ],
    "by_mood": [
      "dryptosaurus"
    ],
    "id": "dryptosaurus"
  },
  {
    "type": "MONSTER_FACTION",
    "name": "dryptosaurus_juvenile",
    "base_faction": "small_predator",
    "friendly": [
      "dryptosaurus",
      "dryptosaurus_hatchling"
    ],
    "id": "dryptosaurus_juvenile"
  },
  {
    "type": "MONSTER_FACTION",
    "name": "dryptosaurus_hatchling",
    "base_faction": "very_small_predator",
    "friendly": [
      "dryptosaurus",
      "dryptosaurus_juvenile"
    ],
    "id": "dryptosaurus_hatchling"
  },
  {
    "type": "MONSTER_FACTION",
    "name": "appalachiosaurus",
    "base_faction": "predator_dino",
    "friendly": [
      "appalachiosaurus_juvenile",
      "appalachiosaurus_hatchling"
    ],
    "by_mood": [
      "appalachiosaurus"
    ],
    "id": "appalachiosaurus"
  },
  {
    "type": "MONSTER_FACTION",
    "name": "appalachiosaurus_juvenile",
    "base_faction": "small_predator",
    "friendly": [
      "appalachiosaurus",
      "appalachiosaurus_hatchling"
    ],
    "id": "appalachiosaurus_juvenile"
  },
  {
    "type": "MONSTER_FACTION",
    "name": "appalachiosaurus_hatchling",
    "base_faction": "very_small_predator",
    "friendly": [
      "appalachiosaurus",
      "appalachiosaurus_juvenile"
    ],
    "id": "appalachiosaurus_hatchling"
  },
  {
    "type": "MONSTER_FACTION",
    "name": "gorgosaurus",
    "base_faction": "predator_dino",
    "friendly": [
      "gorgosaurus_juvenile",
      "gorgosaurus_hatchling"
    ],
    "by_mood": [
      "gorgosaurus"
    ],
    "id": "gorgosaurus"
  },
  {
    "type": "MONSTER_FACTION",
    "name": "gorgosaurus_juvenile",
    "base_faction": "small_predator",
    "friendly": [
      "gorgosaurus",
      "gorgosaurus_hatchling"
    ],
    "id": "gorgosaurus_juvenile"
  },
  {
    "type": "MONSTER_FACTION",
    "name": "gorgosaurus_hatchling",
    "base_faction": "very_small_predator",
    "friendly": [
      "gorgosaurus",
      "gorgosaurus_juvenile"
    ],
    "id": "gorgosaurus_hatchling"
  },
  {
    "type": "MONSTER_FACTION",
    "name": "albertosaurus",
    "base_faction": "predator_dino",
    "friendly": [
      "albertosaurus_juvenile",
      "albertosaurus_hatchling"
    ],
    "by_mood": [
      "albertosaurus"
    ],
    "id": "albertosaurus"
  },
  {
    "type": "MONSTER_FACTION",
    "name": "albertosaurus_juvenile",
    "base_faction": "small_predator",
    "friendly": [
      "albertosaurus",
      "albertosaurus_hatchling"
    ],
    "id": "albertosaurus_juvenile"
  },
  {
    "type": "MONSTER_FACTION",
    "name": "albertosaurus_hatchling",
    "base_faction": "very_small_predator",
    "friendly": [
      "albertosaurus",
      "albertosaurus_juvenile"
    ],
    "id": "albertosaurus_hatchling"
  },
  {
    "type": "MONSTER_FACTION",
    "name": "nanuqsaurus",
    "base_faction": "predator_dino",
    "hate": [
      "animal",
      "zombie",
      "human"
    ],
    "friendly": [
      "nanuqsaurus_juvenile",
      "nanuqsaurus_hatchling"
    ],
    "by_mood": [
      "nanuqsaurus"
    ],
    "id": "nanuqsaurus"
  },
  {
    "type": "MONSTER_FACTION",
    "name": "nanuqsaurus_juvenile",
    "base_faction": "small_predator",
    "friendly": [
      "nanuqsaurus",
      "nanuqsaurus_hatchling"
    ],
    "id": "nanuqsaurus_juvenile"
  },
  {
    "type": "MONSTER_FACTION",
    "name": "nanuqsaurus_hatchling",
    "base_faction": "very_small_predator",
    "friendly": [
      "nanuqsaurus",
      "nanuqsaurus_juvenile"
    ],
    "id": "nanuqsaurus_hatchling"
  },
  {
    "type": "MONSTER_FACTION",
    "name": "daspletosaurus",
    "base_faction": "predator_dino",
    "hate": [
      "animal",
      "zombie",
      "human"
    ],
    "friendly": [
      "daspletosaurus_juvenile",
      "daspletosaurus_hatchling"
    ],
    "by_mood": [
      "daspletosaurus"
    ],
    "id": "daspletosaurus"
  },
  {
    "type": "MONSTER_FACTION",
    "name": "daspletosaurus_juvenile",
    "base_faction": "small_predator",
    "friendly": [
      "daspletosaurus",
      "daspletosaurus_hatchling"
    ],
    "id": "daspletosaurus_juvenile"
  },
  {
    "type": "MONSTER_FACTION",
    "name": "daspletosaurus_hatchling",
    "base_faction": "very_small_predator",
    "friendly": [
      "daspletosaurus",
      "daspletosaurus_juvenile"
    ],
    "id": "daspletosaurus_hatchling"
  },
  {
    "type": "MONSTER_FACTION",
    "name": "tyrannosaurus",
    "base_faction": "predator_dino",
    "hate": [
      "animal",
      "zombie",
      "human"
    ],
    "friendly": [
      "tyrannosaurus_juvenile",
      "tyrannosaurus_hatchling"
    ],
    "by_mood": [
      "tyrannosaurus"
    ],
    "id": "tyrannosaurus"
  },
  {
    "type": "MONSTER_FACTION",
    "name": "tyrannosaurus_juvenile",
    "base_faction": "small_predator",
    "friendly": [
      "tyrannosaurus",
      "tyrannosaurus_hatchling"
    ],
    "id": "tyrannosaurus_juvenile"
  },
  {
    "type": "MONSTER_FACTION",
    "name": "tyrannosaurus_hatchling",
    "base_faction": "very_small_predator",
    "friendly": [
      "tyrannosaurus",
      "tyrannosaurus_juvenile"
    ],
    "id": "tyrannosaurus_hatchling"
  },
  {
    "type": "MONSTER_FACTION",
    "name": "saurornitholestes",
    "base_faction": "small_predator",
    "friendly": [
      "saurornitholestes_hatchling"
    ],
    "id": "saurornitholestes"
  },
  {
    "type": "MONSTER_FACTION",
    "name": "saurornitholestes_hatchling",
    "base_faction": "very_small_predator",
    "friendly": [
      "saurornitholestes"
    ],
    "id": "saurornitholestes_hatchling"
  },
  {
    "type": "MONSTER_FACTION",
    "name": "velociraptor",
    "base_faction": "small_predator",
    "friendly": [
      "velociraptor_hatchling"
    ],
    "id": "velociraptor"
  },
  {
    "type": "MONSTER_FACTION",
    "name": "velociraptor_hatchling",
    "base_faction": "very_small_predator",
    "friendly": [
      "velociraptor"
    ],
    "id": "velociraptor_hatchling"
  },
  {
    "type": "MONSTER_FACTION",
    "name": "deinonychus",
    "base_faction": "medium_predator",
    "hate": [
      "herbivore",
      "zombie",
      "human"
    ],
    "friendly": [
      "deinonychus_juvenile",
      "deinonychus_hatchling"
    ],
    "id": "deinonychus"
  },
  {
    "type": "MONSTER_FACTION",
    "name": "deinonychus_juvenile",
    "base_faction": "small_predator",
    "friendly": [
      "deinonychus",
      "deinonychus_hatchling"
    ],
    "id": "deinonychus_juvenile"
  },
  {
    "type": "MONSTER_FACTION",
    "name": "deinonychus_hatchling",
    "base_faction": "very_small_predator",
    "friendly": [
      "deinonychus",
      "deinonychus_juvenile"
    ],
    "id": "deinonychus_hatchling"
  },
  {
    "type": "MONSTER_FACTION",
    "name": "utahraptor",
    "base_faction": "predator_dino",
    "friendly": [
      "utahraptor_juvenile",
      "utahraptor_hatchling"
    ],
    "id": "utahraptor"
  },
  {
    "type": "MONSTER_FACTION",
    "name": "utahraptor_juvenile",
    "base_faction": "small_predator",
    "friendly": [
      "utahraptor",
      "utahraptor_hatchling"
    ],
    "id": "utahraptor_juvenile"
  },
  {
    "type": "MONSTER_FACTION",
    "name": "utahraptor_hatchling",
    "base_faction": "very_small_predator",
    "friendly": [
      "utahraptor",
      "utahraptor_juvenile"
    ],
    "id": "utahraptor_hatchling"
  },
  {
    "type": "MONSTER_FACTION",
    "name": "dromaeosaurus",
    "base_faction": "small_predator",
    "friendly": [
      "dromaeosaurus_hatchling"
    ],
    "id": "dromaeosaurus"
  },
  {
    "type": "MONSTER_FACTION",
    "name": "dromaeosaurus_hatchling",
    "base_faction": "very_small_predator",
    "friendly": [
      "dromaeosaurus"
    ],
    "id": "dromaeosaurus_hatchling"
  },
  {
    "type": "MONSTER_FACTION",
    "name": "stenonychosaurus",
    "base_faction": "small_predator",
    "friendly": [
      "stenonychosaurus_hatchling"
    ],
    "id": "stenonychosaurus"
  },
  {
    "type": "MONSTER_FACTION",
    "name": "stenonychosaurus_hatchling",
    "base_faction": "very_small_predator",
    "friendly": [
      "stenonychosaurus"
    ],
    "id": "stenonychosaurus_hatchling"
  },
  {
    "type": "MONSTER_FACTION",
    "name": "dimorphodon",
    "base_faction": "small_fisher",
    "id": "dimorphodon"
  },
  {
    "type": "MONSTER_FACTION",
    "name": "pteranodon",
    "base_faction": "medium_fisher",
    "friendly": [
      "pteranodon_young"
    ],
    "id": "pteranodon"
  },
  {
    "type": "MONSTER_FACTION",
    "name": "pteranodon_young",
    "base_faction": "small_fisher",
    "friendly": [
      "pteranodon"
    ],
    "id": "pteranodon_young"
  },
  {
    "type": "MONSTER_FACTION",
    "name": "quetzalcoatlus",
    "base_faction": "medium_mixed",
    "friendly": [
      "quetzalcoatlus_hatchling",
      "quetzalcoatlus_juvenile"
    ],
    "id": "quetzalcoatlus"
  },
  {
    "type": "MONSTER_FACTION",
    "name": "quetzalcoatlus_juvenile",
    "base_faction": "small_mixed",
    "friendly": [
      "quetzalcoatlus",
      "quetzalcoatlus_hatchling"
    ],
    "id": "quetzalcoatlus_juvenile"
  },
  {
    "type": "MONSTER_FACTION",
    "name": "quetzalcoatlus_hatchling",
    "base_faction": "very_small_mixed",
    "friendly": [
      "quetzalcoatlus",
      "quetzalcoatlus_juvenile"
    ],
    "id": "quetzalcoatlus_hatchling"
  },
  {
    "type": "MONSTER_FACTION",
    "name": "anzu",
    "base_faction": "medium_mixed",
    "friendly": [
      "anzu_hatchling",
      "anzu_juvenile"
    ],
    "id": "anzu"
  },
  {
    "type": "MONSTER_FACTION",
    "name": "anzu_juvenile",
    "base_faction": "small_mixed",
    "friendly": [
      "anzu",
      "anzu_hatchling"
    ],
    "id": "anzu_juvenile"
  },
  {
    "type": "MONSTER_FACTION",
    "name": "anzu_hatchling",
    "base_faction": "very_small_mixed",
    "friendly": [
      "anzu",
      "anzu_juvenile"
    ],
    "id": "anzu_hatchling"
  },
  {
    "type": "MONSTER_FACTION",
    "name": "eoraptor",
    "//": "omnivore",
    "base_faction": "very_small_predator",
    "id": "eoraptor"
  },
  {
    "type": "MONSTER_FACTION",
    "name": "coelophysis",
    "base_faction": "small_predator",
    "friendly": [
      "coelophysis_hatchling"
    ],
    "id": "coelophysis"
  },
  {
    "type": "MONSTER_FACTION",
    "name": "coelophysis_hatchling",
    "base_faction": "very_small_predator",
    "friendly": [
      "coelophysis"
    ],
    "id": "coelophysis_hatchling"
  },
  {
    "type": "MONSTER_FACTION",
    "name": "dilophosaurus",
    "base_faction": "mixed_dino",
    "friendly": [
      "dilophosaurus_juvenile",
      "dilophosaurus_hatchling"
    ],
    "id": "dilophosaurus"
  },
  {
    "type": "MONSTER_FACTION",
    "name": "dilophosaurus_juvenile",
    "base_faction": "small_mixed",
    "friendly": [
      "dilophosaurus",
      "dilophosaurus_hatchling"
    ],
    "id": "dilophosaurus_juvenile"
  },
  {
    "type": "MONSTER_FACTION",
    "name": "dilophosaurus_hatchling",
    "base_faction": "very_small_mixed",
    "friendly": [
      "dilophosaurus",
      "dilophosaurus_juvenile"
    ],
    "id": "dilophosaurus_hatchling"
  },
  {
    "type": "MONSTER_FACTION",
    "name": "mosasaurus",
    "base_faction": "mixed_dino",
    "friendly": [
      "mosasaurus_juvenile",
      "mosasaurus_hatchling"
    ],
    "by_mood": [
      "mosasaurus"
    ],
    "id": "mosasaurus"
  },
  {
    "type": "MONSTER_FACTION",
    "name": "mosasaurus_juvenile",
    "base_faction": "small_mixed",
    "friendly": [
      "mosasaurus",
      "mosasaurus_hatchling"
    ],
    "id": "mosasaurus_juvenile"
  },
  {
    "type": "MONSTER_FACTION",
    "name": "mosasaurus_hatchling",
    "base_faction": "very_small_mixed",
    "friendly": [
      "mosasaurus",
      "mosasaurus_juvenile"
    ],
    "id": "mosasaurus_hatchling"
  },
  {
    "type": "MONSTER_FACTION",
    "name": "ceratosaurus",
    "base_faction": "mixed_dino",
    "friendly": [
      "ceratosaurus_juvenile",
      "ceratosaurus_hatchling"
    ],
    "by_mood": [
      "fish"
    ],
    "id": "ceratosaurus"
  },
  {
    "type": "MONSTER_FACTION",
    "name": "ceratosaurus_juvenile",
    "base_faction": "small_predator",
    "friendly": [
      "ceratosaurus",
      "ceratosaurus_hatchling"
    ],
    "id": "ceratosaurus_juvenile"
  },
  {
    "type": "MONSTER_FACTION",
    "name": "ceratosaurus_hatchling",
    "base_faction": "very_small_predator",
    "friendly": [
      "ceratosaurus",
      "ceratosaurus_juvenile"
    ],
    "id": "ceratosaurus_hatchling"
  },
  {
    "type": "MONSTER_FACTION",
    "name": "qianzhousaurus",
    "base_faction": "predator_dino",
    "friendly": [
      "qianzhousaurus_juvenile",
      "qianzhousaurus_hatchling"
    ],
    "id": "qianzhousaurus"
  },
  {
    "type": "MONSTER_FACTION",
    "name": "qianzhousaurus_juvenile",
    "base_faction": "small_predator",
    "friendly": [
      "qianzhousaurus",
      "qianzhousaurus_hatchling"
    ],
    "id": "qianzhousaurus_juvenile"
  },
  {
    "type": "MONSTER_FACTION",
    "name": "qianzhousaurus_hatchling",
    "base_faction": "very_small_predator",
    "friendly": [
      "qianzhousaurus",
      "qianzhousaurus_juvenile"
    ],
    "id": "qianzhousaurus_hatchling"
  },
  {
    "type": "MONSTER_FACTION",
    "name": "small_animal",
    "base_faction": "animal",
    "by_mood": "small_predator",
    "neutral": [
      "predator_dino",
      "mixed_dino",
      "fishing_dino",
      "insectivore_young",
      "herbivore_young",
      "herbivore_dino"
    ],
    "id": "small_animal"
  },
  {
    "type": "MONSTER_FACTION",
    "name": "herbivore",
    "base_faction": "animal",
    "neutral": [
      "small_animal",
      "herbivore_dino",
      "insectivore_dino",
      "herbivore_young"
    ],
    "id": "herbivore"
  },
  {
    "type": "MONSTER_FACTION",
    "name": "cat",
    "base_faction": "small_predator",
    "by_mood": [
      "small_predator",
      "very_small_predator"
    ],
    "id": "cat"
  },
  {
    "type": "MONSTER_FACTION",
    "name": "zombie_aquatic",
    "friendly": [
      "blob",
      "cult",
      "zombie"
    ],
    "neutral": [
      "small_animal",
      "insect",
      "small_fisher"
    ],
    "by_mood": [
      "bee",
      "mixed_dino"
    ],
    "id": "zombie_aquatic"
  },
  {
    "type": "MONSTER_FACTION",
    "name": "fish",
    "base_faction": "animal",
    "by_mood": [
      "mixed_dino",
      "aquatic_predator",
      "small_mixed",
      "small_fisher",
      "very_small_mixed"
    ],
    "id": "fish"
  }
]