[
  {
    "//": "Pred nests in forest_water same freq as dermatik nest",
    "type": "region_overlay",
    "regions": [
      "all"
    ],
    "map_extras": {
      "forest_water": {
        "chance": 20,
        "extras": {
          "mx_mass_grave_dino": 30,
          "mx_nest_acrocanthosaurus": 30,
          "mx_nest_albertosaurus": 30,
          "mx_nest_allosaurus": 30,
          "mx_nest_ceratosaurus": 30,
          "mx_nest_daspletosaurus": 30,
          "mx_nest_deinonychus": 30,
          "mx_nest_dilophosaurus": 30,
          "mx_nest_dromaeosaurus": 30,
          "mx_nest_siats": 30,
          "mx_nest_stenonychosaurus": 30,
          "mx_nest_torvosaurus": 30,
          "mx_nest_tyrannosaurus": 30,
          "mx_nest_utahraptor": 30,
          "mx_nest_velociraptor": 1
        }
      },
      "forest": {
        "chance": 20,
        "extras": {
          "mx_nest_gallimimus": 30,
          "mx_nest_struthiomimus": 30,
          "mx_nest_ornithomimus": 30,
          "mx_nest_anchisaurus": 30,
          "mx_nest_ankylosaurus": 30,
          "mx_nest_camptosaurus": 30,
          "mx_nest_corythosaurus": 30,
          "mx_nest_dryosaurus": 30,
          "mx_nest_euoplocephalus": 30,
          "mx_nest_hadrosaurus": 30,
          "mx_nest_hesperosaurus": 30,
          "mx_nest_hypacrosaurus": 30,
          "mx_nest_issi": 30,
          "mx_nest_lambeosaurus": 30,
          "mx_nest_maiasaura": 30,
          "mx_nest_nanosaurus": 30,
          "mx_nest_scolosaurus": 30,
          "mx_nest_pachycephalosaurus": 30,
          "mx_nest_parasaurolophus": 30,
          "mx_nest_sarahsaurus": 30,
          "mx_nest_stegosaurus": 30,
          "mx_nest_tenontosaurus": 30,
          "mx_nest_thescelosaurus": 30,
          "mx_nest_triceratops": 30
        }
      }
    },
    "city": {
      "parks": {
        "dinozoo": 25
      }
    },
    "id": "83400b7c-b27a-47e3-9250-482e7ec15e30"
  }
]