[
  {
    "type": "region_overlay",
    "regions": [
      "all"
    ],
    "overmap_feature_flag_settings": {
      "whitelist": [
        "CLASSIC"
      ]
    },
    "id": "f3997912-0ade-4899-9c9f-76589cec848d"
  },
  {
    "type": "MONSTER_WHITELIST",
    "mode": "EXCLUSIVE",
    "categories": [
      "CLASSIC",
      "WILDLIFE"
    ],
    "id": "bcd3746c-281f-49a9-b102-d1eb25ba3640"
  },
  {
    "type": "EXTERNAL_OPTION",
    "name": "DISABLE_ROBOT_RESPONSE",
    "stype": "bool",
    "value": true,
    "id": "DISABLE_ROBOT_RESPONSE"
  },
  {
    "type": "region_overlay",
    "regions": [
      "all"
    ],
    "map_extras": {
      "forest": {
        "chance": 20,
        "extras": {
          "mx_portal": 0,
          "mx_portal_in": 0,
          "mx_spider": 0
        }
      },
      "forest_thick": {
        "chance": 20,
        "extras": {
          "mx_portal": 0,
          "mx_portal_in": 0,
          "mx_shia": 0,
          "mx_spider": 0,
          "mx_jabberwock": 0
        }
      },
      "forest_water": {
        "chance": 20,
        "extras": {
          "mx_portal": 0,
          "mx_portal_in": 0,
          "mx_spider": 0
        }
      },
      "field": {
        "chance": 90,
        "extras": {
          "mx_portal": 0,
          "mx_portal_in": 0
        }
      },
      "road": {
        "chance": 75,
        "extras": {
          "mx_portal": 0,
          "mx_portal_in": 0
        }
      },
      "build": {
        "chance": 90,
        "extras": {
          "mx_house_spider": 0,
          "mx_house_wasp": 0,
          "mx_portal": 0,
          "mx_portal_in": 0
        }
      },
      "marloss": {
        "chance": 0,
        "extras": {
          "mx_marloss_pilgrimage": 0
        }
      },
      "subway": {
        "chance": 75,
        "extras": {
          "mx_portal": 0,
          "mx_portal_in": 0
        }
      }
    },
    "id": "23a0187a-9ffa-4297-8f1d-91cd20197903"
  }
]