[
  {
    "type": "ITEM_BLACKLIST",
    "items": [
      "mask_lsurvivor",
      "mask_survivor",
      "mask_hsurvivor",
      "survivor_belt",
      "mask_survivorxl",
      "survivor_vest",
      "survivor_runner_pack",
      "survivor_pack",
      "survivor_rucksack",
      "survivor_duffel_bag",
      "trenchcoat_survivor",
      "pants_survivor",
      "lsurvivor_suit",
      "survivor_suit",
      "hsurvivor_suit",
      "wsurvivor_suit",
      "boots_wsurvivor",
      "gloves_wsurvivor",
      "hood_wsurvivor",
      "mask_wsurvivor",
      "mask_wsurvivorxl",
      "fsurvivor_suit",
      "boots_fsurvivor",
      "gloves_fsurvivor",
      "hood_fsurvivor",
      "mask_fsurvivor",
      "mask_fsurvivorxl",
      "h20survivor_suit",
      "boots_h20survivor",
      "gloves_h20survivor",
      "hood_h20survivor",
      "boots_lsurvivor",
      "boots_survivor",
      "boots_hsurvivor",
      "gloves_lsurvivor",
      "gloves_survivor",
      "gloves_hsurvivor",
      "gloves_survivor_fingerless",
      "hood_lsurvivor",
      "hood_survivor",
      "helmet_survivor",
      "helmet_hsurvivor",
      "xlsurvivor_suit",
      "xlhsurvivor_suit",
      "gloves_xlsurvivor",
      "boots_xlsurvivor",
      "hood_xlsurvivor",
      "helmet_xlsurvivor",
      "mask_h20survivor",
      "mask_h20survivor_on",
      "mask_h20survivorxl",
      "mask_h20survivorxl_on",
      "sleeveless_trenchcoat_survivor",
      "sleeveless_duster_survivor",
      "duster_survivor",
      "survivor_belt_notools",
      "survivor_goggles",
      "survivor_light",
      "survivor_light_on",
      "wearable_atomic_light",
      "wearable_atomic_light_off",
      "lsurvivor_pants",
      "lsurvivor_armor"
    ],
    "id": "657b259a-0a4d-4b00-804b-7cf63c3ed17e"
  }
]