[
  {
    "type": "mapgen",
    "method": "json",
    "om_terrain": [
      "s_lightindustry_01"
    ],
    "object": {
      "fill_ter": "t_concrete_floor",
      "rows": [
        "   khhhhhhhhhhklllllllll",
        "lllkhhhhhhhhhhklllllllll",
        "lllkhhhhhhhhhhklllllllll",
        "lllkhhhhhhhhhhklllllllll",
        "lllkhhhhhhhhhhklllllllll",
        "lllkhhhhhhhhhhkmmmlmmmll",
        "lllkhhhhhhhhhhaafaaafaal",
        "lll hhhhhhhhhhazzzaDAzal",
        "kkkkhchhhhhhhhaiAiaiizal",
        "lllaaabbbbbagaaiiiiiiiaa",
        "mmma cu   u   aiiiiiiiEa",
        "afaa  u   u   fiAAAAiiAf",
        "CCC   u   u   aizzzzizza",
        "CC    u   u   fiAAAAiaaa",
        "      u   u   aiiiiiiiza",
        "      uuuuu   giiiiiiAzf",
        "         wy   aiiiiiiiEa",
        "deda     rs   aBiDiaagaa",
        "o oa         waagaiaiiza",
        "o oa wq      qajjaiaiAza",
        "o oa     tx   apnaiaiiza",
        "o oa wq      vaaaagaafaa",
        "o oa         valkkkkklll",
        "afaaaafaaaafaaalkkkkklll"
      ],
      "terrain": {
        "a": "t_wall",
        "b": "t_door_metal_locked",
        "c": "t_gates_mech_control",
        "d": "t_chainfence_h",
        "e": "t_chaingate_l",
        "f": "t_window",
        "g": "t_door_c",
        "h": "t_pavement",
        "i": "t_floor",
        "j": "t_linoleum_gray",
        "k": "t_sidewalk",
        "l": [
          "t_grass",
          "t_grass",
          "t_grass",
          "t_dirt"
        ],
        "m": "t_shrub",
        "o": "t_concrete_floor",
        "q": "t_ind_press",
        "r": "t_ind_mixer",
        "s": "t_ind_furnace",
        "t": "t_ind_drill",
        "u": "t_metal_floor",
        "v": "t_machinery_old",
        "w": "t_machinery_electronic",
        "x": "t_machinery_light",
        "y": "t_machinery_heavy",
        "n": "t_linoleum_gray",
        "p": "t_linoleum_gray",
        "z": "t_floor",
        "A": "t_floor",
        "B": "t_floor",
        "C": "t_concrete_floor",
        "D": "t_floor",
        "E": "t_floor"
      },
      "furniture": {
        "o": "f_rack",
        "p": "f_sink",
        "z": "f_table",
        "A": "f_chair",
        "B": "f_trashcan",
        "C": "f_crate_c",
        "D": "f_locker",
        "E": "f_bookcase"
      },
      "toilets": {
        "n": {}
      },
      "place_loot": [
        {
          "group": "vehicle_scrapped",
          "chance": 60,
          "repeat": [
            10
          ],
          "x": [
            5,
            12
          ],
          "y": [
            11,
            21
          ]
        },
        {
          "group": "office",
          "chance": 60,
          "repeat": [
            2
          ],
          "x": [
            21,
            21
          ],
          "y": [
            7,
            8
          ]
        },
        {
          "group": "office",
          "chance": 60,
          "repeat": [
            2
          ],
          "x": [
            15,
            17
          ],
          "y": [
            7,
            7
          ]
        },
        {
          "group": "office",
          "chance": 60,
          "repeat": [
            2
          ],
          "x": [
            21,
            22
          ],
          "y": [
            12,
            12
          ]
        },
        {
          "group": "office",
          "chance": 60,
          "repeat": [
            2
          ],
          "x": [
            22,
            22
          ],
          "y": [
            14,
            15
          ]
        },
        {
          "group": "office",
          "chance": 60,
          "repeat": [
            2
          ],
          "x": [
            22,
            22
          ],
          "y": [
            18,
            20
          ]
        },
        {
          "group": "textbooks",
          "chance": 60,
          "repeat": [
            2
          ],
          "x": [
            22,
            22
          ],
          "y": [
            16,
            16
          ]
        },
        {
          "group": "textbooks",
          "chance": 60,
          "repeat": [
            2
          ],
          "x": [
            22,
            22
          ],
          "y": [
            10,
            10
          ]
        },
        {
          "group": "cleaning_bulk",
          "chance": 60,
          "repeat": [
            2
          ],
          "x": [
            17,
            17
          ],
          "y": [
            17,
            17
          ]
        },
        {
          "group": "office_mess",
          "chance": 60,
          "repeat": [
            5
          ],
          "x": [
            15,
            20
          ],
          "y": [
            16,
            9
          ]
        },
        {
          "group": "office_mess",
          "chance": 60,
          "repeat": [
            2
          ],
          "x": [
            20,
            21
          ],
          "y": [
            18,
            20
          ]
        },
        {
          "group": "tools_blacksmith",
          "chance": 60,
          "repeat": [
            4
          ],
          "x": [
            2,
            2
          ],
          "y": [
            22,
            20
          ]
        },
        {
          "group": "tools_mechanic",
          "chance": 60,
          "repeat": [
            2
          ],
          "x": [
            2,
            2
          ],
          "y": [
            18,
            19
          ]
        },
        {
          "group": "tools_home",
          "chance": 60,
          "repeat": [
            4
          ],
          "x": [
            0,
            0
          ],
          "y": [
            18,
            20
          ]
        },
        {
          "group": "power_tools",
          "chance": 60,
          "repeat": [
            3
          ],
          "x": [
            0,
            0
          ],
          "y": [
            21,
            22
          ]
        },
        {
          "group": "vehicle_scrapped",
          "chance": 60,
          "repeat": [
            3
          ],
          "x": [
            0,
            0
          ],
          "y": [
            12,
            12
          ]
        },
        {
          "group": "vehicle_scrapped",
          "chance": 60,
          "repeat": [
            3
          ],
          "x": [
            1,
            1
          ],
          "y": [
            12,
            12
          ]
        },
        {
          "group": "vehicle_scrapped",
          "chance": 60,
          "repeat": [
            3
          ],
          "x": [
            2,
            2
          ],
          "y": [
            12,
            12
          ]
        },
        {
          "group": "tools_construction",
          "chance": 60,
          "repeat": [
            3
          ],
          "x": [
            0,
            0
          ],
          "y": [
            13,
            13
          ]
        },
        {
          "group": "tools_construction",
          "chance": 60,
          "repeat": [
            3
          ],
          "x": [
            1,
            1
          ],
          "y": [
            13,
            13
          ]
        }
      ],
      "place_vehicles": [
        {
          "vehicle": "cube_van",
          "x": [
            7,
            7
          ],
          "y": [
            2,
            2
          ],
          "chance": 80,
          "rotation": 270
        }
      ]
    },
    "id": "62077cb9-1485-4594-af7c-433870b0d416"
  }
]