[
  {
    "type": "recipe",
    "result": "gffish_sandwich",
    "category": "CC_FOOD",
    "subcategory": "CSC_FOOD_MEAT",
    "skill_used": "cooking",
    "difficulty": 1,
    "time": 4000,
    "autolearn": true,
    "qualities": [
      {
        "id": "CUT",
        "level": 1
      }
    ],
    "components": [
      [
        [
          "fish_cooked",
          1
        ],
        [
          "fish_fried",
          1
        ]
      ],
      [
        [
          "cornbread",
          2
        ]
      ],
      [
        [
          "pickle",
          1
        ],
        [
          "veggy_pickled",
          1
        ],
        [
          "onion",
          1
        ],
        [
          "irradiated_onion",
          1
        ],
        [
          "can_tomato",
          1
        ],
        [
          "irradiated_tomato",
          1
        ],
        [
          "tomato",
          1
        ]
      ],
      [
        [
          "ketchup",
          1
        ],
        [
          "mustard",
          1
        ],
        [
          "horseradish",
          1
        ],
        [
          "mayonnaise",
          1
        ],
        [
          "bacon",
          2
        ],
        [
          "seasoning_salt",
          15
        ],
        [
          "soysauce",
          1
        ]
      ]
    ],
    "id": "344943a5-ab5e-4270-babe-cfbb754dba75"
  },
  {
    "type": "recipe",
    "result": "gfsandwich_veggy",
    "category": "CC_FOOD",
    "subcategory": "CSC_FOOD_VEGGI",
    "skill_used": "cooking",
    "time": 3000,
    "autolearn": true,
    "qualities": [
      {
        "id": "CUT",
        "level": 1
      }
    ],
    "components": [
      [
        [
          "cornbread",
          2
        ]
      ],
      [
        [
          "veggy_cooked",
          1
        ],
        [
          "veggy_wild_cooked",
          1
        ],
        [
          "veggy_salted",
          1
        ],
        [
          "celery",
          1
        ],
        [
          "irradiated_celery",
          1
        ],
        [
          "cabbage",
          1
        ],
        [
          "irradiated_cabbage",
          1
        ],
        [
          "sauerkraut",
          1
        ],
        [
          "tomato",
          1
        ],
        [
          "can_tomato",
          1
        ],
        [
          "irradiated_pumpkin",
          1
        ],
        [
          "onion",
          1
        ],
        [
          "irradiated_onion",
          1
        ],
        [
          "broccoli",
          1
        ],
        [
          "irradiated_tomato",
          1
        ],
        [
          "irradiated_broccoli",
          1
        ],
        [
          "rehydrated_veggy",
          1
        ],
        [
          "morel_cooked",
          1
        ],
        [
          "mushroom_cooked",
          1
        ],
        [
          "sauerkraut_onions",
          1
        ],
        [
          "pickle",
          1
        ],
        [
          "veggy_canned",
          1
        ],
        [
          "beans_cooked",
          1
        ],
        [
          "irradiated_carrot",
          1
        ],
        [
          "irradiated_zucchini",
          1
        ],
        [
          "irradiated_lettuce",
          1
        ],
        [
          "carrot",
          1
        ],
        [
          "zucchini",
          1
        ],
        [
          "lettuce",
          1
        ],
        [
          "pine_nuts",
          1
        ],
        [
          "morel_fried",
          1
        ],
        [
          "veggy_aspic",
          1
        ],
        [
          "dahlia_baked",
          1
        ],
        [
          "irradiated_cucumber",
          1
        ],
        [
          "cucumber",
          1
        ],
        [
          "veggy_pickled",
          1
        ],
        [
          "cooked_cattail_stalk",
          1
        ],
        [
          "cooked_pumpkin",
          1
        ],
        [
          "potato_baked",
          1
        ],
        [
          "irradiated_potato",
          1
        ],
        [
          "can_tomato",
          1
        ],
        [
          "dandelion_cooked",
          1
        ]
      ]
    ],
    "id": "fa78dbd4-a82b-4221-bd5c-116310a723bc"
  },
  {
    "type": "recipe",
    "result": "gfgranola",
    "category": "CC_FOOD",
    "subcategory": "CSC_FOOD_OTHER",
    "skill_used": "cooking",
    "difficulty": 3,
    "time": 45000,
    "autolearn": true,
    "tools": [
      [
        [
          "surface_heat",
          20,
          "LIST"
        ]
      ]
    ],
    "components": [
      [
        [
          "oats",
          4
        ]
      ],
      [
        [
          "honeycomb",
          1
        ],
        [
          "con_milk",
          1
        ],
        [
          "honey_bottled",
          4
        ],
        [
          "honey_glassed",
          4
        ],
        [
          "sugar",
          40
        ],
        [
          "syrup",
          4
        ],
        [
          "beet_syrup",
          4
        ]
      ],
      [
        [
          "sweet_fruit_like",
          1,
          "LIST"
        ],
        [
          "jam_fruit",
          1
        ],
        [
          "chocolate",
          1
        ],
        [
          "candy",
          3
        ],
        [
          "candy2",
          3
        ],
        [
          "choco_coffee_beans",
          5
        ]
      ]
    ],
    "id": "8ff1b0a5-743c-40cc-8a1d-19864aa47840"
  },
  {
    "type": "recipe",
    "result": "gfsandwich_t",
    "category": "CC_FOOD",
    "subcategory": "CSC_FOOD_MEAT",
    "skill_used": "cooking",
    "time": 3000,
    "autolearn": true,
    "qualities": [
      {
        "id": "CUT",
        "level": 1
      }
    ],
    "components": [
      [
        [
          "cornbread",
          2
        ]
      ],
      [
        [
          "meat_cooked",
          1
        ],
        [
          "lunchmeat",
          4
        ],
        [
          "bologna",
          5
        ],
        [
          "bacon",
          2
        ],
        [
          "fried_spam",
          2
        ],
        [
          "sausage",
          1
        ]
      ]
    ],
    "id": "bbf6bf18-db7b-4468-be79-e25c6604e2fd"
  },
  {
    "type": "recipe",
    "result": "gfsandwich_pb",
    "category": "CC_FOOD",
    "subcategory": "CSC_FOOD_VEGGI",
    "skill_used": "cooking",
    "time": 4000,
    "autolearn": true,
    "qualities": [
      {
        "id": "CUT",
        "level": 1
      }
    ],
    "components": [
      [
        [
          "cornbread",
          2
        ]
      ],
      [
        [
          "peanutbutter",
          1
        ],
        [
          "peanutbutter_imitation",
          1
        ]
      ]
    ],
    "id": "eab4e952-e386-458c-b49f-90d3b5e2e568"
  },
  {
    "type": "recipe",
    "result": "gfsandwich_pbj",
    "category": "CC_FOOD",
    "subcategory": "CSC_FOOD_VEGGI",
    "skill_used": "cooking",
    "time": 4000,
    "autolearn": true,
    "qualities": [
      {
        "id": "CUT",
        "level": 1
      }
    ],
    "components": [
      [
        [
          "cornbread",
          2
        ]
      ],
      [
        [
          "jam_fruit",
          1
        ]
      ],
      [
        [
          "peanutbutter",
          1
        ],
        [
          "peanutbutter_imitation",
          1
        ]
      ]
    ],
    "id": "4bf3e169-b2dd-413f-b3bd-a00160cfc279"
  },
  {
    "type": "recipe",
    "result": "gfsandwich_pbh",
    "category": "CC_FOOD",
    "subcategory": "CSC_FOOD_VEGGI",
    "skill_used": "cooking",
    "time": 4000,
    "autolearn": true,
    "qualities": [
      {
        "id": "CUT",
        "level": 1
      }
    ],
    "components": [
      [
        [
          "cornbread",
          2
        ]
      ],
      [
        [
          "honeycomb",
          2
        ],
        [
          "honey_bottled",
          2
        ],
        [
          "honey_glassed",
          2
        ]
      ],
      [
        [
          "peanutbutter",
          1
        ],
        [
          "peanutbutter_imitation",
          1
        ]
      ]
    ],
    "id": "2b36644e-e28e-4ab7-ab39-b2c3f5ef6b82"
  },
  {
    "type": "recipe",
    "result": "gfsandwich_pbm",
    "category": "CC_FOOD",
    "subcategory": "CSC_FOOD_VEGGI",
    "skill_used": "cooking",
    "time": 4000,
    "autolearn": true,
    "qualities": [
      {
        "id": "CUT",
        "level": 1
      }
    ],
    "components": [
      [
        [
          "cornbread",
          2
        ]
      ],
      [
        [
          "syrup",
          1
        ]
      ],
      [
        [
          "peanutbutter",
          1
        ],
        [
          "peanutbutter_imitation",
          1
        ]
      ]
    ],
    "id": "f670f4ef-a38c-4359-84a7-3bcedd49c0af"
  },
  {
    "type": "recipe",
    "result": "lfhickory_nut_ambrosia",
    "category": "CC_FOOD",
    "subcategory": "CSC_FOOD_DRINKS",
    "skill_used": "cooking",
    "difficulty": 5,
    "time": 48000,
    "book_learn": [
      [
        "family_cookbook",
        5
      ],
      [
        "survival_book",
        3
      ],
      [
        "textbook_survival",
        3
      ]
    ],
    "qualities": [
      {
        "id": "COOK",
        "level": 3
      },
      {
        "id": "BOIL",
        "level": 2
      }
    ],
    "tools": [
      [
        [
          "surface_heat",
          5,
          "LIST"
        ]
      ]
    ],
    "components": [
      [
        [
          "hickory_nut",
          4
        ]
      ],
      [
        [
          "con_milk",
          1
        ]
      ],
      [
        [
          "honeycomb",
          1
        ],
        [
          "honey_bottled",
          4
        ],
        [
          "honey_glassed",
          4
        ],
        [
          "sugar",
          20
        ],
        [
          "syrup",
          2
        ],
        [
          "beet_syrup",
          2
        ]
      ],
      [
        [
          "water",
          1
        ],
        [
          "water_clean",
          1
        ]
      ]
    ],
    "id": "dd6f1cb9-3fbb-48a2-8ca0-755c713a4fc8"
  },
  {
    "type": "recipe",
    "result": "cornmeal",
    "category": "CC_FOOD",
    "subcategory": "CSC_FOOD_OTHER",
    "skill_used": "cooking",
    "difficulty": 2,
    "time": 45000,
    "autolearn": true,
    "batch_time_factors": [
      83,
      3
    ],
    "tools": [
      [
        [
          "surface_heat",
          5,
          "LIST"
        ]
      ],
      [
        [
          "rock_quern",
          -1
        ],
        [
          "clay_quern",
          -1
        ]
      ]
    ],
    "components": [
      [
        [
          "corn",
          2
        ],
        [
          "irradiated_corn",
          2
        ],
        [
          "buckwheat",
          2
        ],
        [
          "acorns_cooked",
          2
        ],
        [
          "dry_rice",
          6
        ],
        [
          "starch",
          2
        ]
      ]
    ],
    "id": "dd1c2d7d-2384-4a33-ab28-0208fa966414"
  },
  {
    "type": "recipe",
    "result": "gfjohnnycake",
    "category": "CC_FOOD",
    "subcategory": "CSC_FOOD_BREAD",
    "skill_used": "cooking",
    "difficulty": 1,
    "time": 14000,
    "batch_time_factors": [
      50,
      4
    ],
    "autolearn": true,
    "qualities": [
      {
        "id": "COOK",
        "level": 2
      }
    ],
    "tools": [
      [
        [
          "surface_heat",
          8,
          "LIST"
        ]
      ]
    ],
    "components": [
      [
        [
          "cooking_oil",
          1
        ],
        [
          "cooking_oil2",
          1
        ]
      ],
      [
        [
          "cornmeal",
          1
        ]
      ]
    ],
    "id": "338b8fc7-6eb2-4ff0-88ea-04c744e7a8ca"
  },
  {
    "type": "recipe",
    "result": "gffruit_pancakes",
    "category": "CC_FOOD",
    "subcategory": "CSC_FOOD_VEGGI",
    "skill_used": "cooking",
    "difficulty": 3,
    "time": 12000,
    "autolearn": true,
    "qualities": [
      {
        "id": "COOK",
        "level": 2
      }
    ],
    "tools": [
      [
        [
          "surface_heat",
          8,
          "LIST"
        ]
      ]
    ],
    "components": [
      [
        [
          "cornmeal",
          1
        ]
      ],
      [
        [
          "milk",
          1
        ],
        [
          "milk_powder",
          1
        ],
        [
          "con_milk",
          1
        ]
      ],
      [
        [
          "eggs_small_dry",
          1,
          "LIST"
        ]
      ],
      [
        [
          "syrup",
          1
        ]
      ],
      [
        [
          "cooking_oil",
          1
        ],
        [
          "cooking_oil2",
          1
        ]
      ],
      [
        [
          "water",
          1
        ],
        [
          "water_clean",
          1
        ]
      ],
      [
        [
          "sweet_fruit_like",
          1,
          "LIST"
        ],
        [
          "jam_fruit",
          1
        ]
      ]
    ],
    "id": "16c87469-d6b9-4bec-9e66-d1d949cc7d1c"
  },
  {
    "type": "recipe",
    "result": "lffruit_pancakes",
    "category": "CC_FOOD",
    "subcategory": "CSC_FOOD_VEGGI",
    "skill_used": "cooking",
    "difficulty": 3,
    "time": 12000,
    "autolearn": true,
    "qualities": [
      {
        "id": "COOK",
        "level": 2
      }
    ],
    "tools": [
      [
        [
          "surface_heat",
          8,
          "LIST"
        ]
      ]
    ],
    "components": [
      [
        [
          "flour",
          1
        ]
      ],
      [
        [
          "can_coconut",
          1
        ],
        [
          "rice_milk",
          1
        ]
      ],
      [
        [
          "eggs_small_dry",
          1,
          "LIST"
        ]
      ],
      [
        [
          "syrup",
          1
        ]
      ],
      [
        [
          "cooking_oil",
          1
        ],
        [
          "cooking_oil2",
          1
        ]
      ],
      [
        [
          "water",
          1
        ],
        [
          "water_clean",
          1
        ]
      ],
      [
        [
          "sweet_fruit_like",
          1,
          "LIST"
        ],
        [
          "jam_fruit",
          1
        ]
      ]
    ],
    "id": "50845a10-04ec-465b-896b-b55ddaf3c55e"
  },
  {
    "type": "recipe",
    "result": "gflffruit_pancakes",
    "category": "CC_FOOD",
    "subcategory": "CSC_FOOD_VEGGI",
    "skill_used": "cooking",
    "difficulty": 3,
    "time": 12000,
    "autolearn": true,
    "qualities": [
      {
        "id": "COOK",
        "level": 2
      }
    ],
    "tools": [
      [
        [
          "surface_heat",
          8,
          "LIST"
        ]
      ]
    ],
    "components": [
      [
        [
          "cornmeal",
          1
        ]
      ],
      [
        [
          "can_coconut",
          1
        ],
        [
          "rice_milk",
          1
        ]
      ],
      [
        [
          "eggs_small_dry",
          1,
          "LIST"
        ]
      ],
      [
        [
          "syrup",
          1
        ]
      ],
      [
        [
          "cooking_oil",
          1
        ],
        [
          "cooking_oil2",
          1
        ]
      ],
      [
        [
          "water",
          1
        ],
        [
          "water_clean",
          1
        ]
      ],
      [
        [
          "sweet_fruit_like",
          1,
          "LIST"
        ],
        [
          "jam_fruit",
          1
        ]
      ]
    ],
    "id": "fa0feba8-433e-4e6b-b393-1bcfc4baca63"
  },
  {
    "type": "recipe",
    "result": "gfchoc_pancakes",
    "category": "CC_FOOD",
    "subcategory": "CSC_FOOD_BREAD",
    "skill_used": "cooking",
    "difficulty": 3,
    "time": 12000,
    "autolearn": true,
    "qualities": [
      {
        "id": "COOK",
        "level": 2
      }
    ],
    "tools": [
      [
        [
          "surface_heat",
          8,
          "LIST"
        ]
      ]
    ],
    "components": [
      [
        [
          "cornmeal",
          1
        ]
      ],
      [
        [
          "milk",
          1
        ],
        [
          "milk_powder",
          1
        ],
        [
          "con_milk",
          1
        ],
        [
          "can_coconut",
          1
        ],
        [
          "rice_milk",
          1
        ]
      ],
      [
        [
          "eggs_small_dry",
          1,
          "LIST"
        ]
      ],
      [
        [
          "syrup",
          1
        ]
      ],
      [
        [
          "cooking_oil",
          1
        ],
        [
          "cooking_oil2",
          1
        ]
      ],
      [
        [
          "water",
          1
        ],
        [
          "water_clean",
          1
        ]
      ],
      [
        [
          "chocolate",
          1
        ],
        [
          "choc_drink",
          2
        ]
      ]
    ],
    "id": "d9162ad5-15ec-409c-85f0-9b451a2d5637"
  },
  {
    "type": "recipe",
    "result": "gffrenchtoast",
    "category": "CC_FOOD",
    "subcategory": "CSC_FOOD_BREAD",
    "skill_used": "cooking",
    "difficulty": 3,
    "time": 12000,
    "autolearn": true,
    "qualities": [
      {
        "id": "COOK",
        "level": 2
      }
    ],
    "tools": [
      [
        [
          "surface_heat",
          8,
          "LIST"
        ]
      ]
    ],
    "components": [
      [
        [
          "milk",
          1
        ],
        [
          "con_milk",
          1
        ],
        [
          "can_coconut",
          1
        ],
        [
          "rice_milk",
          1
        ]
      ],
      [
        [
          "eggs_small_dry",
          1,
          "LIST"
        ]
      ],
      [
        [
          "cinnamon",
          20
        ]
      ],
      [
        [
          "cornbread",
          2
        ]
      ]
    ],
    "id": "d633c679-4c18-4341-9ab0-171a97fca7da"
  },
  {
    "type": "recipe",
    "result": "gflffrenchtoast",
    "category": "CC_FOOD",
    "subcategory": "CSC_FOOD_BREAD",
    "skill_used": "cooking",
    "difficulty": 3,
    "time": 12000,
    "autolearn": true,
    "qualities": [
      {
        "id": "COOK",
        "level": 2
      }
    ],
    "tools": [
      [
        [
          "surface_heat",
          8,
          "LIST"
        ]
      ]
    ],
    "components": [
      [
        [
          "can_coconut",
          1
        ],
        [
          "rice_milk",
          1
        ]
      ],
      [
        [
          "eggs_small_dry",
          1,
          "LIST"
        ]
      ],
      [
        [
          "cinnamon",
          20
        ]
      ],
      [
        [
          "cornmeal",
          2
        ]
      ]
    ],
    "id": "0a681220-f22d-4af2-9780-9e3fcc81bfde"
  },
  {
    "type": "recipe",
    "result": "gfbiscuit",
    "category": "CC_FOOD",
    "subcategory": "CSC_FOOD_BREAD",
    "skill_used": "cooking",
    "difficulty": 2,
    "time": 28000,
    "batch_time_factors": [
      50,
      4
    ],
    "autolearn": true,
    "qualities": [
      {
        "id": "COOK",
        "level": 2
      }
    ],
    "tools": [
      [
        [
          "surface_heat",
          8,
          "LIST"
        ]
      ]
    ],
    "components": [
      [
        [
          "cornmeal",
          2
        ]
      ],
      [
        [
          "milk",
          1
        ],
        [
          "con_milk",
          1
        ],
        [
          "can_coconut",
          1
        ],
        [
          "cooking_oil",
          1
        ],
        [
          "cooking_oil2",
          1
        ],
        [
          "rice_milk",
          1
        ]
      ]
    ],
    "id": "97646d86-7dd2-4f31-a0d3-87c4876b50df"
  },
  {
    "type": "recipe",
    "result": "gfpie",
    "category": "CC_FOOD",
    "subcategory": "CSC_FOOD_VEGGI",
    "skill_used": "cooking",
    "difficulty": 3,
    "time": 25000,
    "autolearn": true,
    "qualities": [
      {
        "id": "COOK",
        "level": 2
      }
    ],
    "tools": [
      [
        [
          "surface_heat",
          6,
          "LIST"
        ]
      ]
    ],
    "components": [
      [
        [
          "cornmeal",
          2
        ]
      ],
      [
        [
          "sweet_fruit_like",
          1,
          "LIST"
        ]
      ],
      [
        [
          "sugar",
          5
        ],
        [
          "syrup",
          1
        ],
        [
          "beet_syrup",
          1
        ],
        [
          "molasses",
          1
        ]
      ],
      [
        [
          "water",
          1
        ],
        [
          "water_clean",
          1
        ]
      ]
    ],
    "id": "e4d9b370-e9b3-40c4-a750-9b3860e2f6f1"
  },
  {
    "type": "recipe",
    "result": "gfpie_veggy",
    "category": "CC_FOOD",
    "subcategory": "CSC_FOOD_VEGGI",
    "skill_used": "cooking",
    "difficulty": 3,
    "time": 25000,
    "autolearn": true,
    "qualities": [
      {
        "id": "COOK",
        "level": 2
      }
    ],
    "tools": [
      [
        [
          "surface_heat",
          6,
          "LIST"
        ]
      ]
    ],
    "components": [
      [
        [
          "cornmeal",
          2
        ]
      ],
      [
        [
          "broccoli",
          2
        ],
        [
          "irradiated_broccoli",
          2
        ],
        [
          "tomato",
          2
        ],
        [
          "irradiated_tomato",
          2
        ],
        [
          "pumpkin",
          2
        ],
        [
          "irradiated_pumpkin",
          2
        ],
        [
          "zucchini",
          2
        ],
        [
          "irradiated_zucchini",
          2
        ],
        [
          "celery",
          2
        ],
        [
          "irradiated_celery",
          2
        ],
        [
          "cabbage",
          2
        ],
        [
          "irradiated_cabbage",
          2
        ],
        [
          "sauerkraut",
          4
        ],
        [
          "potato",
          2
        ],
        [
          "irradiated_potato",
          2
        ],
        [
          "onion",
          2
        ],
        [
          "irradiated_onion",
          2
        ],
        [
          "carrot",
          12
        ],
        [
          "irradiated_carrot",
          12
        ],
        [
          "veggy",
          2
        ],
        [
          "dry_veggy",
          2
        ],
        [
          "rehydrated_veggy",
          2
        ],
        [
          "veggy_wild",
          2
        ],
        [
          "plant_sac",
          6
        ],
        [
          "dandelion_cooked",
          2
        ],
        [
          "wild_herbs",
          40
        ]
      ],
      [
        [
          "water",
          1
        ],
        [
          "water_clean",
          1
        ]
      ]
    ],
    "id": "68f1bc79-85c4-42d6-b89d-f1fe19483d2d"
  },
  {
    "type": "recipe",
    "result": "gfpie_meat",
    "category": "CC_FOOD",
    "subcategory": "CSC_FOOD_MEAT",
    "skill_used": "cooking",
    "difficulty": 3,
    "time": 25000,
    "autolearn": true,
    "qualities": [
      {
        "id": "COOK",
        "level": 2
      }
    ],
    "tools": [
      [
        [
          "surface_heat",
          6,
          "LIST"
        ]
      ]
    ],
    "components": [
      [
        [
          "cornmeal",
          2
        ]
      ],
      [
        [
          "meat",
          1
        ],
        [
          "rehydrated_meat",
          1
        ],
        [
          "dry_meat",
          1
        ],
        [
          "meat_canned",
          1
        ],
        [
          "can_chicken",
          1
        ],
        [
          "fish",
          2
        ],
        [
          "rehydrated_fish",
          2
        ],
        [
          "dry_fish",
          2
        ],
        [
          "fish_canned",
          2
        ],
        [
          "can_tuna",
          2
        ]
      ],
      [
        [
          "water",
          1
        ],
        [
          "water_clean",
          1
        ]
      ]
    ],
    "id": "551094a3-7be2-496c-a989-f03001524ba4"
  },
  {
    "type": "recipe",
    "result": "gfpie_maple",
    "category": "CC_FOOD",
    "subcategory": "CSC_FOOD_SNACK",
    "skill_used": "cooking",
    "difficulty": 3,
    "time": 25000,
    "autolearn": true,
    "qualities": [
      {
        "id": "BOIL",
        "level": 2
      },
      {
        "id": "COOK",
        "level": 2
      }
    ],
    "tools": [
      [
        [
          "surface_heat",
          6,
          "LIST"
        ]
      ]
    ],
    "components": [
      [
        [
          "cornmeal",
          2
        ]
      ],
      [
        [
          "milk",
          1
        ],
        [
          "milk_powder",
          1
        ],
        [
          "con_milk",
          1
        ]
      ],
      [
        [
          "syrup",
          5
        ]
      ],
      [
        [
          "water",
          1
        ],
        [
          "water_clean",
          1
        ]
      ]
    ],
    "id": "79dbe52f-2d76-4d71-b5b8-da20e5723f1f"
  },
  {
    "type": "recipe",
    "result": "gfpizza_veggy",
    "category": "CC_FOOD",
    "subcategory": "CSC_FOOD_VEGGI",
    "skill_used": "cooking",
    "difficulty": 3,
    "time": 20000,
    "book_learn": [
      [
        "cookbook_italian",
        2
      ]
    ],
    "qualities": [
      {
        "id": "COOK",
        "level": 2
      }
    ],
    "tools": [
      [
        [
          "surface_heat",
          8,
          "LIST"
        ]
      ]
    ],
    "components": [
      [
        [
          "cornmeal",
          2
        ]
      ],
      [
        [
          "veggy",
          2
        ],
        [
          "veggy_wild",
          2
        ],
        [
          "veggy_salted",
          2
        ],
        [
          "celery",
          2
        ],
        [
          "irradiated_celery",
          2
        ],
        [
          "cabbage",
          2
        ],
        [
          "irradiated_cabbage",
          2
        ],
        [
          "sauerkraut",
          4
        ],
        [
          "tomato",
          2
        ],
        [
          "can_tomato",
          2
        ],
        [
          "pumpkin",
          2
        ],
        [
          "irradiated_pumpkin",
          2
        ],
        [
          "onion",
          2
        ],
        [
          "irradiated_onion",
          2
        ],
        [
          "broccoli",
          1
        ],
        [
          "irradiated_tomato",
          2
        ],
        [
          "irradiated_broccoli",
          1
        ],
        [
          "rehydrated_veggy",
          2
        ],
        [
          "mushroom",
          2
        ],
        [
          "dry_mushroom",
          2
        ],
        [
          "morel_cooked",
          2
        ],
        [
          "mushroom_cooked",
          2
        ],
        [
          "dry_veggy",
          2
        ]
      ],
      [
        [
          "sauce_pesto",
          1
        ],
        [
          "sauce_red",
          1
        ],
        [
          "seasoning_italian",
          5
        ],
        [
          "wild_herbs",
          10
        ]
      ],
      [
        [
          "water",
          1
        ],
        [
          "water_clean",
          1
        ]
      ]
    ],
    "id": "4e00bd47-433c-47ee-a4a1-88abb75993da"
  },
  {
    "type": "recipe",
    "result": "gfpizza_cheese",
    "category": "CC_FOOD",
    "subcategory": "CSC_FOOD_OTHER",
    "skill_used": "cooking",
    "difficulty": 3,
    "time": 20000,
    "book_learn": [
      [
        "cookbook_italian",
        2
      ]
    ],
    "qualities": [
      {
        "id": "COOK",
        "level": 2
      }
    ],
    "tools": [
      [
        [
          "surface_heat",
          8,
          "LIST"
        ]
      ]
    ],
    "components": [
      [
        [
          "cornmeal",
          2
        ]
      ],
      [
        [
          "cheese",
          2
        ],
        [
          "can_cheese",
          2
        ],
        [
          "cheese_hard",
          2
        ]
      ],
      [
        [
          "sauce_pesto",
          1
        ],
        [
          "sauce_red",
          1
        ],
        [
          "seasoning_italian",
          5
        ],
        [
          "wild_herbs",
          10
        ]
      ],
      [
        [
          "water",
          1
        ],
        [
          "water_clean",
          1
        ]
      ]
    ],
    "id": "04da5640-9cfd-4b0e-89fa-3216ddfacef6"
  },
  {
    "type": "recipe",
    "result": "gfpizza_meat",
    "category": "CC_FOOD",
    "subcategory": "CSC_FOOD_MEAT",
    "skill_used": "cooking",
    "difficulty": 3,
    "time": 20000,
    "book_learn": [
      [
        "cookbook_italian",
        2
      ]
    ],
    "qualities": [
      {
        "id": "COOK",
        "level": 2
      }
    ],
    "tools": [
      [
        [
          "surface_heat",
          8,
          "LIST"
        ]
      ]
    ],
    "components": [
      [
        [
          "cornmeal",
          2
        ]
      ],
      [
        [
          "meat",
          2
        ],
        [
          "meat_canned",
          2
        ],
        [
          "can_chicken",
          2
        ],
        [
          "meat_salted",
          2
        ],
        [
          "rehydrated_meat",
          2
        ],
        [
          "dry_meat",
          2
        ],
        [
          "fish",
          3
        ],
        [
          "fish_canned",
          3
        ],
        [
          "can_tuna",
          3
        ],
        [
          "salted_fish",
          3
        ],
        [
          "rehydrated_fish",
          3
        ],
        [
          "dry_fish",
          3
        ]
      ],
      [
        [
          "sauce_red",
          1
        ],
        [
          "seasoning_italian",
          5
        ],
        [
          "wild_herbs",
          10
        ]
      ],
      [
        [
          "water",
          1
        ],
        [
          "water_clean",
          1
        ]
      ]
    ],
    "id": "3e0c9634-c2ec-467d-9d09-65f9faf72cad"
  },
  {
    "type": "recipe",
    "result": "gfcheeseburger",
    "category": "CC_FOOD",
    "subcategory": "CSC_FOOD_MEAT",
    "skill_used": "cooking",
    "difficulty": 3,
    "time": 9000,
    "autolearn": true,
    "qualities": [
      {
        "id": "CUT",
        "level": 1
      },
      {
        "id": "COOK",
        "level": 2
      }
    ],
    "tools": [
      [
        [
          "surface_heat",
          10,
          "LIST"
        ]
      ]
    ],
    "components": [
      [
        [
          "meat",
          1
        ]
      ],
      [
        [
          "cornbread",
          2
        ]
      ],
      [
        [
          "cheese",
          2
        ],
        [
          "cheese_hard",
          2
        ],
        [
          "can_cheese",
          1
        ]
      ],
      [
        [
          "pickle",
          1
        ],
        [
          "veggy_pickled",
          1
        ],
        [
          "irradiated_onion",
          1
        ],
        [
          "onion",
          1
        ],
        [
          "can_tomato",
          1
        ],
        [
          "irradiated_tomato",
          1
        ],
        [
          "tomato",
          1
        ]
      ],
      [
        [
          "ketchup",
          1
        ],
        [
          "mustard",
          1
        ],
        [
          "horseradish",
          1
        ],
        [
          "mayonnaise",
          1
        ],
        [
          "bacon",
          2
        ],
        [
          "seasoning_salt",
          15
        ],
        [
          "soysauce",
          1
        ],
        [
          "sauerkraut",
          1
        ]
      ]
    ],
    "id": "c7b0dc5d-eecc-4986-bc0a-41a276491680"
  },
  {
    "type": "recipe",
    "result": "gfhamburger",
    "category": "CC_FOOD",
    "subcategory": "CSC_FOOD_MEAT",
    "skill_used": "cooking",
    "difficulty": 3,
    "time": 8000,
    "autolearn": true,
    "qualities": [
      {
        "id": "CUT",
        "level": 1
      },
      {
        "id": "COOK",
        "level": 2
      }
    ],
    "tools": [
      [
        [
          "surface_heat",
          10,
          "LIST"
        ]
      ]
    ],
    "components": [
      [
        [
          "meat",
          1
        ]
      ],
      [
        [
          "cornbread",
          2
        ]
      ],
      [
        [
          "pickle",
          1
        ],
        [
          "veggy_pickled",
          1
        ],
        [
          "irradiated_onion",
          1
        ],
        [
          "onion",
          1
        ],
        [
          "can_tomato",
          1
        ],
        [
          "irradiated_tomato",
          1
        ],
        [
          "tomato",
          1
        ]
      ],
      [
        [
          "ketchup",
          1
        ],
        [
          "mustard",
          1
        ],
        [
          "horseradish",
          1
        ],
        [
          "mayonnaise",
          1
        ],
        [
          "bacon",
          2
        ],
        [
          "seasoning_salt",
          15
        ],
        [
          "soysauce",
          1
        ],
        [
          "sauerkraut",
          1
        ]
      ]
    ],
    "id": "3492760d-29b3-4002-ae24-247097211a41"
  },
  {
    "type": "recipe",
    "result": "gfsloppyjoe",
    "category": "CC_FOOD",
    "subcategory": "CSC_FOOD_MEAT",
    "skill_used": "cooking",
    "difficulty": 1,
    "time": 8000,
    "autolearn": true,
    "qualities": [
      {
        "id": "CUT",
        "level": 1
      },
      {
        "id": "COOK",
        "level": 2
      }
    ],
    "tools": [
      [
        [
          "surface_heat",
          10,
          "LIST"
        ]
      ]
    ],
    "components": [
      [
        [
          "cornbread",
          2
        ]
      ],
      [
        [
          "sauce_red",
          1
        ],
        [
          "irradiated_tomato",
          2
        ],
        [
          "can_tomato",
          1
        ],
        [
          "tomato",
          2
        ]
      ],
      [
        [
          "meat",
          1
        ],
        [
          "rehydrated_meat",
          1
        ],
        [
          "dry_meat",
          1
        ],
        [
          "meat_canned",
          1
        ],
        [
          "can_chicken",
          2
        ]
      ]
    ],
    "id": "715174d4-b972-4c88-8a18-0d79559866f5"
  },
  {
    "type": "recipe",
    "result": "gfblt",
    "category": "CC_FOOD",
    "subcategory": "CSC_FOOD_MEAT",
    "skill_used": "cooking",
    "difficulty": 2,
    "time": 6000,
    "autolearn": true,
    "qualities": [
      {
        "id": "CUT",
        "level": 1
      },
      {
        "id": "COOK",
        "level": 2
      }
    ],
    "tools": [
      [
        [
          "surface_heat",
          10,
          "LIST"
        ]
      ]
    ],
    "components": [
      [
        [
          "cornbread",
          2
        ]
      ],
      [
        [
          "bacon",
          1
        ]
      ],
      [
        [
          "lettuce",
          1
        ],
        [
          "irradiated_lettuce",
          1
        ]
      ],
      [
        [
          "can_tomato",
          1
        ],
        [
          "irradiated_tomato",
          1
        ],
        [
          "tomato",
          1
        ]
      ]
    ],
    "id": "6f7b83d2-3c42-4ab3-ab9a-62450509a28f"
  },
  {
    "type": "recipe",
    "result": "gfsweetbread",
    "category": "CC_FOOD",
    "subcategory": "CSC_FOOD_MEAT",
    "difficulty": 4,
    "skill_used": "cooking",
    "time": 40000,
    "autolearn": true,
    "//": "the cooking oil isn't supposed to be expended since you can recycle it after frying the sweetbreads",
    "batch_time_factors": [
      67,
      5
    ],
    "qualities": [
      {
        "id": "CUT",
        "level": 1
      },
      {
        "id": "BOIL",
        "level": 2
      },
      {
        "id": "COOK",
        "level": 2
      }
    ],
    "tools": [
      [
        [
          "surface_heat",
          7,
          "LIST"
        ]
      ],
      [
        [
          "frying_oil",
          7,
          "LIST"
        ]
      ]
    ],
    "components": [
      [
        [
          "offal",
          1
        ]
      ],
      [
        [
          "water",
          1
        ],
        [
          "water_clean",
          1
        ]
      ],
      [
        [
          "salt_water",
          1
        ],
        [
          "saline",
          5
        ],
        [
          "salt",
          10
        ]
      ],
      [
        [
          "vinegar",
          1
        ],
        [
          "lemon",
          1
        ],
        [
          "irradiated_lemon",
          1
        ]
      ],
      [
        [
          "cornmeal",
          1
        ]
      ]
    ],
    "id": "52ef58df-d5fa-4ea6-ad8c-5c3b3cc84211"
  },
  {
    "type": "recipe",
    "result": "gfsandwich_cheese_grilled",
    "category": "CC_FOOD",
    "subcategory": "CSC_FOOD_SNACK",
    "skill_used": "cooking",
    "time": 5000,
    "autolearn": true,
    "qualities": [
      {
        "id": "COOK",
        "level": 1
      }
    ],
    "tools": [
      [
        [
          "surface_heat",
          3,
          "LIST"
        ]
      ]
    ],
    "components": [
      [
        [
          "gfsandwich_cheese",
          1
        ]
      ]
    ],
    "id": "25879042-8e3d-405f-8d9d-af804c1c6659"
  },
  {
    "type": "recipe",
    "result": "gfsandwich_deluxe",
    "category": "CC_FOOD",
    "subcategory": "CSC_FOOD_MEAT",
    "skill_used": "cooking",
    "difficulty": 2,
    "time": 7500,
    "autolearn": true,
    "qualities": [
      {
        "id": "CUT",
        "level": 1
      }
    ],
    "components": [
      [
        [
          "meat_cooked",
          1
        ],
        [
          "lunchmeat",
          4
        ],
        [
          "bologna",
          5
        ],
        [
          "fish_cooked",
          1
        ],
        [
          "bacon",
          2
        ],
        [
          "meat_salted",
          2
        ],
        [
          "fried_spam",
          2
        ],
        [
          "rehydrated_meat",
          2
        ],
        [
          "fish_smoked",
          1
        ],
        [
          "meat_smoked",
          1
        ],
        [
          "sausage",
          1
        ],
        [
          "can_herring",
          1
        ],
        [
          "can_chicken",
          1
        ],
        [
          "can_salmon",
          1
        ],
        [
          "can_tuna",
          1
        ],
        [
          "can_sardine",
          1
        ],
        [
          "can_clams",
          1
        ],
        [
          "meat_canned",
          1
        ],
        [
          "rehydrated_fish",
          2
        ],
        [
          "fish_pickled",
          1
        ],
        [
          "meat_pickled",
          1
        ],
        [
          "cracklins",
          2
        ],
        [
          "meat_aspic",
          2
        ]
      ],
      [
        [
          "cornbread",
          2
        ]
      ],
      [
        [
          "cheese",
          2
        ],
        [
          "cheese_hard",
          2
        ],
        [
          "can_cheese",
          2
        ]
      ],
      [
        [
          "veggy_cooked",
          1
        ],
        [
          "veggy_wild_cooked",
          1
        ],
        [
          "veggy_salted",
          1
        ],
        [
          "celery",
          1
        ],
        [
          "irradiated_celery",
          1
        ],
        [
          "cabbage",
          1
        ],
        [
          "irradiated_cabbage",
          1
        ],
        [
          "sauerkraut",
          1
        ],
        [
          "tomato",
          1
        ],
        [
          "can_tomato",
          1
        ],
        [
          "irradiated_pumpkin",
          1
        ],
        [
          "onion",
          1
        ],
        [
          "irradiated_onion",
          1
        ],
        [
          "broccoli",
          1
        ],
        [
          "irradiated_tomato",
          1
        ],
        [
          "irradiated_broccoli",
          1
        ],
        [
          "rehydrated_veggy",
          1
        ],
        [
          "morel_cooked",
          1
        ],
        [
          "mushroom_cooked",
          1
        ],
        [
          "sauerkraut_onions",
          1
        ],
        [
          "pickle",
          1
        ],
        [
          "veggy_canned",
          1
        ],
        [
          "beans_cooked",
          1
        ],
        [
          "irradiated_carrot",
          1
        ],
        [
          "irradiated_zucchini",
          1
        ],
        [
          "irradiated_lettuce",
          1
        ],
        [
          "carrot",
          1
        ],
        [
          "zucchini",
          1
        ],
        [
          "lettuce",
          1
        ],
        [
          "pine_nuts",
          1
        ],
        [
          "morel_fried",
          1
        ],
        [
          "veggy_aspic",
          1
        ],
        [
          "dahlia_baked",
          1
        ],
        [
          "irradiated_cucumber",
          1
        ],
        [
          "cucumber",
          1
        ],
        [
          "veggy_pickled",
          1
        ],
        [
          "cooked_cattail_stalk",
          1
        ],
        [
          "cooked_pumpkin",
          1
        ],
        [
          "potato_baked",
          1
        ],
        [
          "irradiated_potato",
          1
        ],
        [
          "can_tomato",
          1
        ],
        [
          "dandelion_cooked",
          1
        ]
      ],
      [
        [
          "ketchup",
          1
        ],
        [
          "mustard",
          1
        ],
        [
          "horseradish",
          1
        ],
        [
          "mayonnaise",
          1
        ],
        [
          "seasoning_salt",
          5
        ],
        [
          "soysauce",
          1
        ]
      ]
    ],
    "id": "bed7ac74-66d8-421c-8702-3595fd10a25d"
  },
  {
    "type": "recipe",
    "result": "gfsandwich_cucumber",
    "category": "CC_FOOD",
    "subcategory": "CSC_FOOD_SNACK",
    "skill_used": "cooking",
    "time": 1500,
    "autolearn": true,
    "qualities": [
      {
        "id": "CUT",
        "level": 1
      }
    ],
    "components": [
      [
        [
          "cornbread",
          2
        ]
      ],
      [
        [
          "cucumber",
          1
        ],
        [
          "irradiated_cucumber",
          1
        ]
      ],
      [
        [
          "mayonnaise",
          1
        ],
        [
          "mustard",
          1
        ],
        [
          "horseradish",
          2
        ],
        [
          "seasoning_salt",
          5
        ]
      ]
    ],
    "id": "ed26a75d-3287-4097-a556-473e0e2f6bc9"
  },
  {
    "type": "recipe",
    "result": "gfsandwich_jam",
    "category": "CC_FOOD",
    "subcategory": "CSC_FOOD_VEGGI",
    "skill_used": "cooking",
    "time": 1500,
    "autolearn": true,
    "qualities": [
      {
        "id": "CUT",
        "level": 1
      }
    ],
    "components": [
      [
        [
          "cornbread",
          2
        ]
      ],
      [
        [
          "jam_fruit",
          1
        ]
      ]
    ],
    "id": "23cd8e0d-a897-412d-98d1-96176bede959"
  },
  {
    "type": "recipe",
    "result": "gfsandwich_honey",
    "category": "CC_FOOD",
    "subcategory": "CSC_FOOD_SNACK",
    "skill_used": "cooking",
    "time": 1500,
    "autolearn": true,
    "qualities": [
      {
        "id": "CUT",
        "level": 1
      }
    ],
    "components": [
      [
        [
          "cornbread",
          2
        ]
      ],
      [
        [
          "honeycomb",
          1
        ],
        [
          "honey_bottled",
          1
        ]
      ]
    ],
    "id": "d1edf6a9-e436-4904-b637-762f22d4c41a"
  },
  {
    "type": "recipe",
    "result": "gfsandwich_sauce",
    "category": "CC_FOOD",
    "subcategory": "CSC_FOOD_SNACK",
    "skill_used": "cooking",
    "time": 1500,
    "autolearn": true,
    "qualities": [
      {
        "id": "CUT",
        "level": 1
      }
    ],
    "components": [
      [
        [
          "cornbread",
          2
        ]
      ],
      [
        [
          "mayonnaise",
          1
        ],
        [
          "ketchup",
          1
        ],
        [
          "sauce_pesto",
          1
        ],
        [
          "sauce_red",
          1
        ],
        [
          "mustard",
          1
        ]
      ]
    ],
    "id": "59359e84-3cf7-44b6-a0bc-3c7d844bd44c"
  },
  {
    "type": "recipe",
    "result": "gfwaffles",
    "category": "CC_FOOD",
    "subcategory": "CSC_FOOD_BREAD",
    "skill_used": "cooking",
    "difficulty": 3,
    "time": 12000,
    "autolearn": true,
    "tools": [
      [
        [
          "surface_heat",
          8,
          "LIST"
        ]
      ],
      [
        [
          "waffleiron",
          -1
        ]
      ]
    ],
    "components": [
      [
        [
          "cornmeal",
          1
        ]
      ],
      [
        [
          "milk",
          1
        ],
        [
          "milk_powder",
          1
        ],
        [
          "con_milk",
          1
        ]
      ],
      [
        [
          "eggs_small_dry",
          1,
          "LIST"
        ]
      ],
      [
        [
          "syrup",
          1
        ]
      ],
      [
        [
          "sugar",
          15
        ]
      ],
      [
        [
          "cooking_oil",
          1
        ],
        [
          "cooking_oil2",
          1
        ]
      ],
      [
        [
          "water",
          1
        ],
        [
          "water_clean",
          1
        ]
      ]
    ],
    "id": "6bd9b194-fc04-425f-977d-a0eb15b736a5"
  },
  {
    "type": "recipe",
    "result": "gflfwaffles",
    "category": "CC_FOOD",
    "subcategory": "CSC_FOOD_BREAD",
    "skill_used": "cooking",
    "difficulty": 3,
    "time": 12000,
    "autolearn": true,
    "tools": [
      [
        [
          "surface_heat",
          8,
          "LIST"
        ]
      ],
      [
        [
          "waffleiron",
          -1
        ]
      ]
    ],
    "components": [
      [
        [
          "cornmeal",
          1
        ]
      ],
      [
        [
          "can_coconut",
          1
        ],
        [
          "rice_milk",
          1
        ]
      ],
      [
        [
          "eggs_small_dry",
          1,
          "LIST"
        ]
      ],
      [
        [
          "syrup",
          1
        ]
      ],
      [
        [
          "sugar",
          15
        ]
      ],
      [
        [
          "cooking_oil",
          1
        ],
        [
          "cooking_oil2",
          1
        ]
      ],
      [
        [
          "water",
          1
        ],
        [
          "water_clean",
          1
        ]
      ]
    ],
    "id": "90713f49-8e4c-4bcd-8682-33a523779c4b"
  },
  {
    "type": "recipe",
    "result": "lfwaffles",
    "category": "CC_FOOD",
    "subcategory": "CSC_FOOD_BREAD",
    "skill_used": "cooking",
    "difficulty": 3,
    "time": 12000,
    "autolearn": true,
    "tools": [
      [
        [
          "surface_heat",
          8,
          "LIST"
        ]
      ],
      [
        [
          "waffleiron",
          -1
        ]
      ]
    ],
    "components": [
      [
        [
          "flour",
          1
        ]
      ],
      [
        [
          "can_coconut",
          1
        ],
        [
          "rice_milk",
          1
        ]
      ],
      [
        [
          "eggs_small_dry",
          1,
          "LIST"
        ]
      ],
      [
        [
          "syrup",
          1
        ]
      ],
      [
        [
          "sugar",
          15
        ]
      ],
      [
        [
          "cooking_oil",
          1
        ],
        [
          "cooking_oil2",
          1
        ]
      ],
      [
        [
          "water",
          1
        ],
        [
          "water_clean",
          1
        ]
      ]
    ],
    "id": "c991730a-2de7-401b-a118-f3ae844fbfaf"
  },
  {
    "type": "recipe",
    "result": "gffruit_waffles",
    "category": "CC_FOOD",
    "subcategory": "CSC_FOOD_VEGGI",
    "skill_used": "cooking",
    "difficulty": 3,
    "time": 12000,
    "autolearn": true,
    "tools": [
      [
        [
          "surface_heat",
          8,
          "LIST"
        ]
      ],
      [
        [
          "waffleiron",
          -1
        ]
      ]
    ],
    "components": [
      [
        [
          "cornmeal",
          1
        ]
      ],
      [
        [
          "milk",
          1
        ],
        [
          "milk_powder",
          1
        ],
        [
          "con_milk",
          1
        ]
      ],
      [
        [
          "eggs_small_dry",
          1,
          "LIST"
        ]
      ],
      [
        [
          "syrup",
          1
        ]
      ],
      [
        [
          "sugar",
          15
        ]
      ],
      [
        [
          "cooking_oil",
          1
        ],
        [
          "cooking_oil2",
          1
        ]
      ],
      [
        [
          "water",
          1
        ],
        [
          "water_clean",
          1
        ]
      ],
      [
        [
          "sweet_fruit_like",
          1,
          "LIST"
        ],
        [
          "jam_fruit",
          1
        ]
      ]
    ],
    "id": "6216acf6-5929-436e-ad41-10f5c2f3ad3a"
  },
  {
    "type": "recipe",
    "result": "gflffruit_waffles",
    "category": "CC_FOOD",
    "subcategory": "CSC_FOOD_VEGGI",
    "skill_used": "cooking",
    "difficulty": 3,
    "time": 12000,
    "autolearn": true,
    "tools": [
      [
        [
          "surface_heat",
          8,
          "LIST"
        ]
      ],
      [
        [
          "waffleiron",
          -1
        ]
      ]
    ],
    "components": [
      [
        [
          "cornmeal",
          1
        ]
      ],
      [
        [
          "can_coconut",
          1
        ],
        [
          "rice_milk",
          1
        ]
      ],
      [
        [
          "eggs_small_dry",
          1,
          "LIST"
        ]
      ],
      [
        [
          "syrup",
          1
        ]
      ],
      [
        [
          "sugar",
          15
        ]
      ],
      [
        [
          "cooking_oil",
          1
        ],
        [
          "cooking_oil2",
          1
        ]
      ],
      [
        [
          "water",
          1
        ],
        [
          "water_clean",
          1
        ]
      ],
      [
        [
          "sweet_fruit_like",
          1,
          "LIST"
        ],
        [
          "jam_fruit",
          1
        ]
      ]
    ],
    "id": "b7de7bef-3b95-4979-a6a5-83a972b280ca"
  },
  {
    "type": "recipe",
    "result": "gfchoc_waffles",
    "category": "CC_FOOD",
    "subcategory": "CSC_FOOD_BREAD",
    "skill_used": "cooking",
    "difficulty": 3,
    "time": 12000,
    "autolearn": true,
    "tools": [
      [
        [
          "surface_heat",
          8,
          "LIST"
        ]
      ],
      [
        [
          "waffleiron",
          -1
        ]
      ]
    ],
    "components": [
      [
        [
          "cornmeal",
          1
        ]
      ],
      [
        [
          "milk",
          1
        ],
        [
          "milk_powder",
          1
        ],
        [
          "con_milk",
          1
        ],
        [
          "can_coconut",
          1
        ],
        [
          "rice_milk",
          1
        ]
      ],
      [
        [
          "eggs_small_dry",
          1,
          "LIST"
        ]
      ],
      [
        [
          "syrup",
          1
        ]
      ],
      [
        [
          "cooking_oil",
          1
        ],
        [
          "cooking_oil2",
          1
        ]
      ],
      [
        [
          "sugar",
          15
        ]
      ],
      [
        [
          "water",
          1
        ],
        [
          "water_clean",
          1
        ]
      ],
      [
        [
          "chocolate",
          1
        ],
        [
          "choc_drink",
          2
        ]
      ]
    ],
    "id": "923a85c7-5c81-403f-b39b-df8a1a4c8e95"
  },
  {
    "result": "rice_milk",
    "byproducts": [
      [
        "starch"
      ]
    ],
    "type": "recipe",
    "id_suffix": "with_from_food_processor",
    "category": "CC_FOOD",
    "subcategory": "CSC_FOOD_OTHER",
    "skill_used": "cooking",
    "difficulty": 3,
    "time": 21250,
    "autolearn": true,
    "batch_time_factors": [
      83,
      3
    ],
    "result_mult": 2,
    "tools": [
      [
        [
          "food_processor",
          20
        ]
      ]
    ],
    "components": [
      [
        [
          "dry_rice",
          1
        ]
      ],
      [
        [
          "water",
          2
        ],
        [
          "water_clean",
          2
        ]
      ]
    ],
    "id": "e9cde477-29ec-45b2-903f-f4b0217b23b1"
  },
  {
    "result": "coconut_water",
    "type": "recipe",
    "id_suffix": "with_from_food_processor",
    "category": "CC_FOOD",
    "subcategory": "CSC_FOOD_OTHER",
    "skill_used": "cooking",
    "difficulty": 3,
    "time": 21250,
    "autolearn": true,
    "batch_time_factors": [
      83,
      3
    ],
    "result_mult": 2,
    "tools": [
      [
        [
          "food_processor",
          20
        ]
      ]
    ],
    "components": [
      [
        [
          "coconut",
          1
        ]
      ],
      [
        [
          "water",
          1
        ],
        [
          "water_clean",
          1
        ]
      ]
    ],
    "id": "ae414610-92fb-433d-9132-243b832cb4de"
  },
  {
    "result": "jar_cream_coconut",
    "type": "recipe",
    "id_suffix": "jarred",
    "category": "CC_FOOD",
    "subcategory": "CSC_FOOD_MEAT",
    "skill_used": "cooking",
    "difficulty": 4,
    "time": 20000,
    "batch_time_factors": [
      83,
      5
    ],
    "autolearn": true,
    "container": "jar_glass_sealed",
    "result_mult": 1,
    "qualities": [
      {
        "id": "CUT",
        "level": 1
      },
      {
        "id": "COOK",
        "level": 3
      }
    ],
    "tools": [
      [
        [
          "surface_heat",
          10,
          "LIST"
        ]
      ]
    ],
    "components": [
      [
        [
          "water",
          1
        ],
        [
          "water_clean",
          1
        ]
      ],
      [
        [
          "jar_glass",
          1
        ]
      ],
      [
        [
          "coconut",
          1
        ]
      ]
    ],
    "id": "162ae5f1-05a9-4d05-9f97-0fd3d9ab4050"
  },
  {
    "result": "can_coconut",
    "type": "recipe",
    "id_suffix": "canned",
    "category": "CC_FOOD",
    "subcategory": "CSC_FOOD_MEAT",
    "skill_used": "cooking",
    "difficulty": 5,
    "time": 24000,
    "batch_time_factors": [
      83,
      5
    ],
    "autolearn": true,
    "contained": true,
    "qualities": [
      {
        "id": "SAW_M",
        "level": 1
      },
      {
        "id": "HAMMER",
        "level": 1
      },
      {
        "id": "CUT",
        "level": 1
      },
      {
        "id": "COOK",
        "level": 3
      }
    ],
    "tools": [
      [
        [
          "surface_heat",
          10,
          "LIST"
        ]
      ],
      [
        [
          "can_sealer",
          -1
        ]
      ]
    ],
    "components": [
      [
        [
          "canister_empty",
          1
        ],
        [
          "can_food_unsealed",
          1
        ]
      ],
      [
        [
          "scrap",
          1
        ]
      ],
      [
        [
          "water",
          1
        ],
        [
          "water_clean",
          1
        ]
      ],
      [
        [
          "coconut",
          1
        ]
      ]
    ],
    "id": "0376f294-99ef-4473-89d7-796adcc7b7b1"
  },
  {
    "result": "rice_flour",
    "type": "recipe",
    "category": "CC_FOOD",
    "subcategory": "CSC_FOOD_OTHER",
    "skill_used": "cooking",
    "difficulty": 2,
    "time": 45000,
    "autolearn": true,
    "batch_time_factors": [
      83,
      3
    ],
    "flags": [
      "BLIND_EASY"
    ],
    "tools": [
      [
        [
          "rock_quern",
          -1
        ],
        [
          "clay_quern",
          -1
        ]
      ]
    ],
    "components": [
      [
        [
          "dry_rice",
          6
        ]
      ]
    ],
    "id": "9ed2f9b2-ea95-49c8-85bb-69ce34699fb7"
  },
  {
    "result": "rice_flour",
    "type": "recipe",
    "id_suffix": "with_from_food_processor",
    "category": "CC_FOOD",
    "subcategory": "CSC_FOOD_OTHER",
    "skill_used": "cooking",
    "difficulty": 2,
    "time": 11250,
    "autolearn": true,
    "batch_time_factors": [
      83,
      3
    ],
    "tools": [
      [
        [
          "food_processor",
          20
        ]
      ]
    ],
    "components": [
      [
        [
          "dry_rice",
          6
        ]
      ]
    ],
    "id": "14de3003-bd61-406e-92ab-1f5a672a1d46"
  },
  {
    "result": "cornmeal",
    "type": "recipe",
    "id_suffix": "with_from_food_processor",
    "category": "CC_FOOD",
    "subcategory": "CSC_FOOD_OTHER",
    "skill_used": "cooking",
    "difficulty": 2,
    "time": 11250,
    "autolearn": true,
    "batch_time_factors": [
      83,
      3
    ],
    "tools": [
      [
        [
          "food_processor",
          20
        ]
      ]
    ],
    "components": [
      [
        [
          "corn",
          2
        ],
        [
          "buckwheat",
          2
        ],
        [
          "acorns_cooked",
          2
        ],
        [
          "oats",
          2
        ],
        [
          "starch",
          2
        ]
      ]
    ],
    "id": "3dba0060-ca8f-42ec-ba3f-d655ed52f3ce"
  },
  {
    "result": "cornmeal",
    "type": "recipe",
    "category": "CC_FOOD",
    "subcategory": "CSC_FOOD_OTHER",
    "skill_used": "cooking",
    "difficulty": 2,
    "time": 45000,
    "autolearn": true,
    "batch_time_factors": [
      83,
      3
    ],
    "flags": [
      "BLIND_EASY"
    ],
    "tools": [
      [
        [
          "rock_quern",
          -1
        ],
        [
          "clay_quern",
          -1
        ]
      ]
    ],
    "components": [
      [
        [
          "buckwheat",
          2
        ],
        [
          "acorns_cooked",
          2
        ],
        [
          "oats",
          2
        ],
        [
          "starch",
          2
        ]
      ]
    ],
    "id": "9abf413c-570a-426e-94b5-837b3c2b4f05"
  }
]