[
  {
    "id": "m203",
    "type": "MIGRATION",
    "replace": "grenade_under",
    "unrolled_id_group": "m203"
  },
  {
    "id": "m320_mod",
    "type": "MIGRATION",
    "replace": "grenade_under",
    "unrolled_id_group": "m203"
  },
  {
    "id": "pipe_launcher40mm",
    "type": "MIGRATION",
    "replace": "grenade_under",
    "unrolled_id_group": "m203"
  },
  {
    "id": "m320_mod_mod",
    "type": "MIGRATION",
    "replace": "grenade_under_mod",
    "unrolled_id_group": "m320_mod_mod"
  },
  {
    "id": "m203_mod",
    "type": "MIGRATION",
    "replace": "grenade_under_mod",
    "unrolled_id_group": "m320_mod_mod"
  },
  {
    "id": "masterkey",
    "type": "MIGRATION",
    "replace": "shotgun_under",
    "unrolled_id_group": "masterkey"
  },
  {
    "id": "rm121aux",
    "type": "MIGRATION",
    "replace": "shotgun_under",
    "unrolled_id_group": "masterkey"
  },
  {
    "id": "u_shotgun",
    "type": "MIGRATION",
    "replace": "shotgun_under",
    "unrolled_id_group": "masterkey"
  },
  {
    "id": "masterkey_mod",
    "type": "MIGRATION",
    "replace": "shotgun_under_mod",
    "unrolled_id_group": "masterkey_mod"
  },
  {
    "id": "rm121aux_mod",
    "type": "MIGRATION",
    "replace": "shotgun_under_mod",
    "unrolled_id_group": "masterkey_mod"
  },
  {
    "id": "u_shotgun_mod",
    "type": "MIGRATION",
    "replace": "shotgun_under_mod",
    "unrolled_id_group": "masterkey_mod"
  }
]