[
  {
    "method": "json",
    "om_terrain": [
      [
        "hotel_tower_1_3",
        "hotel_tower_1_2",
        "hotel_tower_1_1"
      ]
    ],
    "type": "mapgen",
    "weight": 250,
    "object": {
      "fill_ter": "t_pavement",
      "rows": [
        " sssssssssssssssssssssssss________sssss________sssssssssssssssssssssssss",
        " s_____,_____,_____,_____,________s'''s________,_____,_____,_____,_____s",
        " s_____,_____,_____,_____,________s'''s________,_____,_____,_____,_____s",
        " s_____,_V___,_____,_V___,________s'''s________,_V___,_____,_V___,_____s",
        " s_____,_____,_____,_____,________s'''s________,_____,_____,_____,_____s",
        " s_____,_____,_____,_____,________sssss________,_____,_____,_____,_____s",
        " s_____,_____,_____,_____,_____________________,_____,_____,_____,_____s",
        " s_____________________________________________________________________s",
        " s_____________________________________________________________________s",
        " s_____________________________________________________________________s",
        " s_____________________________________________________________________s",
        " s_____________________________________________________________________s",
        " s_____,_____,_____,_____,_____________________,_____,_____,_____,_____s",
        " s___V_,_____,___V_,_____,________sssss________,_____,_V___,_____,_V___s",
        " s_____,_____,_____,_____,________s'''s________,_____,_____,_____,_____s",
        " s_____,_____,_____,_____,________s'''s________,_____,_____,_____,_____s",
        " s_____,_____,_____,_____,________s'''s________,_____,_____,_____,_____s",
        " s_____,_____,_____,_____,________s'''s________,_____,_____,_____,_____s",
        " sssssssssssssssssssssssss________s'''s________sssssssssssssssssssssssss",
        " sssssssssssssssssssssssss________s'''s________sssssssssssssssssssssssss",
        " s_____,_____,_____,_____,________s'''s________,_____,_____,_____,_____s",
        " s_____,_____,_____,_____,________s'''s________,_____,_____,_____,_____s",
        " s_____,_____,_____,_____,________sssss________,_____,_____,_____,_____s",
        " s_____,_____,_____,_____,_____________________,_____,_____,_____,_____s"
      ],
      "palettes": [
        "hotel_tower_palette.json"
      ],
      "vehicles": {
        "V": {
          "vehicle": "suburban_home",
          "chance": 50,
          "rotation": 270
        }
      },
      "terrain": {
        "V": "t_pavement"
      },
      "place_monsters": [
        {
          "monster": "GROUP_ZOMBIE",
          "x": [
            0,
            23
          ],
          "y": [
            0,
            23
          ],
          "chance": 2
        },
        {
          "monster": "GROUP_ZOMBIE",
          "x": [
            24,
            47
          ],
          "y": [
            0,
            23
          ],
          "chance": 2
        },
        {
          "monster": "GROUP_ZOMBIE",
          "x": [
            48,
            71
          ],
          "y": [
            0,
            23
          ],
          "chance": 2
        }
      ]
    },
    "id": "c2ad5282-05a5-4894-9284-00580ae15619"
  },
  {
    "method": "json",
    "om_terrain": [
      [
        "hotel_tower_1_6",
        "hotel_tower_1_5",
        "hotel_tower_1_4"
      ]
    ],
    "type": "mapgen",
    "weight": 250,
    "object": {
      "fill_ter": "t_floor",
      "rows": [
        " s_____,_____,_____,_____,_____________________,_____,_____,_____,_____s",
        " s_____,_____,_____,_____,_____________________,_____,_____,_____,_____s",
        " s_____________________________________________________________________s",
        " s_____________________________________________________________________s",
        " s_____________________________________________________________________s",
        " s_____________________________________________________________________s",
        " s_____________________________________________________________________s",
        " s___________________________sssssssssssssss___________________________s",
        " s_____,_____,_____,_____,_sssssssssssssssssss_,_____,_____,_____,_____s",
        " s_____,_____,_____,_____,sssssssssssssssssssss,_____,_V___,_____,_____s",
        " s_____,_____,_____,_____,ssssss%HHGGGHH%ssssss,_____,_____,_____,_____s",
        " s_____,___v_,_____,_____,sssss%%^.....^%%sssss,_____,_____,_____,___v_s",
        " s_____,_____,_____,_____,ssss%%^......Yc%%ssss,_____,_____,_____,_____s",
        " s_____,_____,_____,_____,sss%%^.......YcD%%sss,_____,_____,_____,_____s",
        " ssssssssssssssssssssssssssssH^........YcxDHssssssssssssssssssssssssssss",
        " ssssssssssssssssssssssssssssH..........ch.Hssssssssssssssssssssssssssss",
        " s'''''''''''''''''''''''''''H.j.t......c..H'''''''''''''''''''''''''''s",
        " s'''''''''''''''''''''''''''H.j.t......ch.H'''''''''''''''''''''''''''s",
        " s''''''''''T'''''T'''''''T''H.j........c..H''T'''''''T'''''T''''''''''s",
        " s'''''''''''''''''''''''''''%.jjj......c.L%'''''''''''''''''''''''''''s",
        " s''''%%www%%%www%%%www%%%www%%.........%+%%www%%%www%%%www%%%www%%''''s",
        " s''''%...Ld|....d|....d|....d|...........|d..ht|d....|d..L.|d....%''''s",
        " s''''%c..BB|o..BB|c.LBB|c..BB|h.........h|BB..h|BB..o|BB..c|BB..c%''''s",
        " s''''%c..BB|c..BB|o..BB|c.LBB|t.........t|BB..c|BB..c|BB..o|BB..o%''''s"
      ],
      "palettes": [
        "hotel_tower_palette.json"
      ],
      "terrain": {
        "V": "t_pavement",
        "w": "t_window_domestic",
        "x": "t_console_broken"
      },
      "furniture": {
        "D": "f_desk"
      },
      "items": {
        "B": {
          "item": "bed",
          "chance": 50
        },
        "L": {
          "item": "hotel_luggage",
          "chance": 50
        },
        "c": {
          "item": "magazines",
          "chance": 15
        },
        "d": {
          "item": "book_hotel_tower_bible",
          "chance": 2
        },
        "o": {
          "item": "hotel_coffee_bar",
          "chance": 50
        }
      },
      "vehicles": {
        "V": {
          "vehicle": "suburban_home",
          "chance": 60,
          "rotation": 270
        },
        "v": {
          "vehicle": "suburban_home",
          "chance": 60,
          "rotation": 90
        }
      },
      "place_monsters": [
        {
          "monster": "GROUP_ZOMBIE",
          "x": [
            7,
            23
          ],
          "y": [
            0,
            23
          ]
        },
        {
          "monster": "GROUP_ZOMBIE",
          "x": [
            24,
            47
          ],
          "y": [
            7,
            23
          ],
          "repeat": 2
        },
        {
          "monster": "GROUP_ZOMBIE",
          "x": [
            49,
            65
          ],
          "y": [
            0,
            23
          ]
        }
      ]
    },
    "id": "964349c3-77d3-43b4-b3ed-099257feca45"
  },
  {
    "method": "json",
    "om_terrain": [
      [
        "hotel_tower_flr2_1_6",
        "hotel_tower_flr2_1_5",
        "hotel_tower_flr2_1_4"
      ]
    ],
    "type": "mapgen",
    "weight": 250,
    "object": {
      "fill_ter": "t_floor",
      "rows": [
        "************************************************************************",
        "************************************************************************",
        "************************************************************************",
        "************************************************************************",
        "************************************************************************",
        "************************************************************************",
        "************************************************************************",
        "************************************************************************",
        "************************************************************************",
        "************************************************************************",
        "********************************111111111*******************************",
        "*******************************11111011111******************************",
        "******************************1111100011111*****************************",
        "*****************************111110000011111****************************",
        "*****************************111100000001111****************************",
        "*****************************111000000000111****************************",
        "*****************************111000000000111****************************",
        "*****************************111000000000111****************************",
        "*****************************111000000000111****************************",
        "*****************************111111111111111****************************",
        "******%%www%%%www%%%www%%%www%%H%%HHHHH%%H%%www%%%www%%%www%%%www%%*****",
        "******%...Ld|....d|....d|....d|^...^^....^|d..ht|d....|d..L.|d....%*****",
        "******%c..BB|o..BB|c.LBB|c..BB|h.........h|BB..h|BB..o|BB..c|BB..c%*****",
        "******%c..BB|c..BB|o..BBXc.LBB|t.........t|BB..cXBB..c|BB..o|BB..o%*****"
      ],
      "palettes": [
        "hotel_tower_palette.json"
      ],
      "terrain": {
        "w": "t_window_domestic",
        "x": "t_console_broken"
      },
      "furniture": {
        "D": "f_desk"
      },
      "items": {
        "B": {
          "item": "bed",
          "chance": 50
        },
        "L": {
          "item": "hotel_luggage",
          "chance": 50
        },
        "c": {
          "item": "magazines",
          "chance": 15
        },
        "d": {
          "item": "book_hotel_tower_bible",
          "chance": 2
        },
        "o": {
          "item": "hotel_coffee_bar",
          "chance": 50
        }
      },
      "place_monsters": [
        {
          "monster": "GROUP_ZOMBIE",
          "x": [
            7,
            23
          ],
          "y": [
            21,
            23
          ]
        },
        {
          "monster": "GROUP_ZOMBIE",
          "x": [
            24,
            47
          ],
          "y": [
            21,
            23
          ],
          "repeat": 2
        },
        {
          "monster": "GROUP_ZOMBIE",
          "x": [
            49,
            65
          ],
          "y": [
            21,
            23
          ]
        }
      ]
    },
    "id": "54f42c20-e096-477c-ace0-23c3292e333d"
  },
  {
    "method": "json",
    "om_terrain": [
      [
        "hotel_tower_flr3_1_6",
        "hotel_tower_flr3_1_5",
        "hotel_tower_flr3_1_4"
      ]
    ],
    "type": "mapgen",
    "weight": 250,
    "object": {
      "fill_ter": "t_floor",
      "rows": [
        "************************************************************************",
        "************************************************************************",
        "************************************************************************",
        "************************************************************************",
        "************************************************************************",
        "************************************************************************",
        "************************************************************************",
        "************************************************************************",
        "************************************************************************",
        "************************************************************************",
        "************************************************************************",
        "************************************************************************",
        "************************************************************************",
        "************************************************************************",
        "************************************************************************",
        "************************************************************************",
        "************************************************************************",
        "************************************************************************",
        "************************************************************************",
        "************************************************************************",
        "******%%www%%%www%%%www%%%www%%%H%%HHH%%H%%%www%%%www%%%www%%%www%%*****",
        "******%...Ld|....d|....d|....d|^.........^|d..ht|d....|d..L.|d....%*****",
        "******%c..BB|o..BB|c.LBB|c..BB|h.........h|BB..h|BB..o|BB..c|BB..c%*****",
        "******%c..BB|c..BB|o..BB|c.LBB|t.........t|BB..c|BB..c|BB..o|BB..o%*****"
      ],
      "palettes": [
        "hotel_tower_palette.json"
      ],
      "terrain": {
        "w": "t_window_domestic",
        "x": "t_console_broken"
      },
      "furniture": {
        "D": "f_desk"
      },
      "items": {
        "B": {
          "item": "bed",
          "chance": 50
        },
        "L": {
          "item": "hotel_luggage",
          "chance": 50
        },
        "c": {
          "item": "magazines",
          "chance": 15
        },
        "d": {
          "item": "book_hotel_tower_bible",
          "chance": 2
        },
        "o": {
          "item": "hotel_coffee_bar",
          "chance": 50
        }
      },
      "place_monsters": [
        {
          "monster": "GROUP_ZOMBIE",
          "x": [
            7,
            23
          ],
          "y": [
            21,
            23
          ]
        },
        {
          "monster": "GROUP_ZOMBIE",
          "x": [
            24,
            47
          ],
          "y": [
            21,
            23
          ],
          "repeat": 2
        },
        {
          "monster": "GROUP_ZOMBIE",
          "x": [
            49,
            65
          ],
          "y": [
            21,
            23
          ]
        }
      ]
    },
    "id": "aa7f3317-61e7-4a8a-bae9-c9fe46748d83"
  },
  {
    "method": "json",
    "om_terrain": [
      [
        "hotel_tower_flr4_1_6",
        "hotel_tower_flr4_1_5",
        "hotel_tower_flr4_1_4"
      ]
    ],
    "type": "mapgen",
    "weight": 250,
    "object": {
      "fill_ter": "t_floor",
      "rows": [
        "************************************************************************",
        "************************************************************************",
        "************************************************************************",
        "************************************************************************",
        "************************************************************************",
        "************************************************************************",
        "************************************************************************",
        "************************************************************************",
        "************************************************************************",
        "************************************************************************",
        "************************************************************************",
        "************************************************************************",
        "************************************************************************",
        "************************************************************************",
        "************************************************************************",
        "************************************************************************",
        "************************************************************************",
        "************************************************************************",
        "************************************************************************",
        "************************************************************************",
        "******%%www%%%www%%%www%%%www%%%H%%HHH%%H%%%www%%%www%%%www%%%www%%*****",
        "******%...Ld|....d|....d|....d|^.........^|d..ht|d....|d..L.|d....%*****",
        "******%c..BB|o..BB|c.LBB|c..BB|h.........h|BB..h|BB..o|BB..c|BB..c%*****",
        "******%c..BB|c..BB|o..BB|c.LBB|t.........t|BB..c|BB..c|BB..o|BB..o%*****"
      ],
      "palettes": [
        "hotel_tower_palette.json"
      ],
      "terrain": {
        "w": "t_window_domestic",
        "x": "t_console_broken"
      },
      "furniture": {
        "D": "f_desk"
      },
      "items": {
        "B": {
          "item": "bed",
          "chance": 50
        },
        "L": {
          "item": "hotel_luggage",
          "chance": 50
        },
        "c": {
          "item": "magazines",
          "chance": 15
        },
        "d": {
          "item": "book_hotel_tower_bible",
          "chance": 2
        },
        "o": {
          "item": "hotel_coffee_bar",
          "chance": 50
        }
      },
      "place_monsters": [
        {
          "monster": "GROUP_ZOMBIE",
          "x": [
            7,
            23
          ],
          "y": [
            21,
            23
          ]
        },
        {
          "monster": "GROUP_ZOMBIE",
          "x": [
            24,
            47
          ],
          "y": [
            21,
            23
          ],
          "repeat": 2
        },
        {
          "monster": "GROUP_ZOMBIE",
          "x": [
            49,
            65
          ],
          "y": [
            21,
            23
          ]
        }
      ]
    },
    "id": "b5288ec2-770c-465b-a255-effae2511d15"
  },
  {
    "method": "json",
    "om_terrain": [
      [
        "hotel_tower_roof_1_6",
        "hotel_tower_roof_1_5",
        "hotel_tower_roof_1_4"
      ]
    ],
    "type": "mapgen",
    "weight": 250,
    "object": {
      "fill_ter": "t_flat_roof",
      "rows": [
        "                                                                        ",
        "                                                                        ",
        "                                                                        ",
        "                                                                        ",
        "                                                                        ",
        "                                                                        ",
        "                                                                        ",
        "                                                                        ",
        "                                                                        ",
        "                                                                        ",
        "                                                                        ",
        "                                                                        ",
        "                                                                        ",
        "                                                                        ",
        "                                                                        ",
        "                                                                        ",
        "                                                                        ",
        "                                                                        ",
        "                                                                        ",
        "                                                                        ",
        "      |222222222222222222222222222222222222222222222222222222222223     ",
        "      |...........................................................3     ",
        "      |...........................................................3     ",
        "      |...........................................................3     "
      ],
      "palettes": [
        "roof_palette"
      ]
    },
    "id": "ab9e2662-cd57-4ced-a98c-071495602e26"
  },
  {
    "method": "json",
    "om_terrain": [
      [
        "hotel_tower_1_9",
        "hotel_tower_1_8",
        "hotel_tower_1_7"
      ]
    ],
    "type": "mapgen",
    "weight": 250,
    "object": {
      "fill_ter": "t_floor",
      "rows": [
        " s''''%o....|c....|c....|c....|t.........t|d...c|....c|....c|....c%''''s",
        " s''''%....h|...Lh|....h|....h|h.........h|BB..c|h...L|h....|h....%''''s",
        " s''''%...ht|...ht|...ht|...ht|^.........^|BB...|th...|th...|th...%''''s",
        " s''''%..|--|..|--|..|--|..|--|---|...|---|--|..|--|..|--|..|--|..%''''s",
        " s''''%..+.S|..+.S|..+.S|..+.S|888G...|x88|S.+..|S.+..|S.+..|S.+..%''''s",
        " s'''4%..|.&|..|.&|..|.&|..|.&|888G...G888|&.|..|&.|..|&.|..|&.|..%4'''s",
        " s'%%%%..|bb|..|bb|..|bb|..|bb|88x|...G888|bb|..|bb|..|bb|..|bb|..%%%%'s",
        " s'%<>%-7|--|-7|--|-7|--|-7|--|---|...|---|--|7-|--|7-|--|7-|--|7-%><%'s",
        " ss%..%...........................................................%..%ss",
        " ss=..+...........................................................+..=ss",
        " ss%..%^..........................................................%..%ss",
        "   %UF%-7|--|-7|--|-7|--|-7|--|-7|--|--|7-|--|7-|--|7-|--|7-|--|7-%UF%  ",
        "   %%%%..|bb|..|bb|..|bb|..|bb|..|bb|bb|..|bb|..|bb|..|bb|..|bb|..%%%%  ",
        "      %..|.&|..|.&|..|.&|..|.&|..|.&|&.|..|&.|..|&.|..|&.|..|&.|..%     ",
        "      %..+.S|..+.S|..+.S|..+.S|..+.S|S.+..|S.+..|S.+..|S.+..|S.+..%     ",
        "      %..|--|..|--|..|--|..|--|..|--|--|..|--|..|--|..|--|..|--|..%     ",
        "      %..Lht|..LBB|...ht|...ht|...ht|BB..L|th...|th...|BB...|th...%     ",
        "      %....h|o..BB|....h|....h|....h|BB..c|h....|h....|BB..c|h....%     ",
        "      %c....|c...d|c....|c...L|o....|d...c|....c|....o|dL..c|....o%     ",
        "      %o..BB|c..BB|c..BB|c..BB|c..BB|BB..o|BB..o|BB..c|BB..o|BB..c%     ",
        "      %c..BB|h..BB|o..BB|o..BB|c..BB|BB..h|BB..c|BB..c|BB..h|BB..c%     ",
        "      %....d|th..d|....d|....d|....d|d..ht|d....|dL...|d..ht|d....%     ",
        "      %%www%%%www%%%www%%%www%%%www%%%www%%%www%%%www%%%www%%%www%%     ",
        "                                                                        "
      ],
      "palettes": [
        "hotel_tower_palette.json"
      ],
      "terrain": {
        "+": [
          "t_door_c",
          "t_door_c",
          "t_door_o"
        ],
        "w": "t_window_domestic"
      },
      "toilets": {
        "&": {}
      },
      "items": {
        "B": {
          "item": "bed",
          "chance": 50
        },
        "L": {
          "item": "hotel_luggage",
          "chance": 50
        },
        "c": {
          "item": "magazines",
          "chance": 15
        },
        "d": {
          "item": "book_hotel_tower_bible",
          "chance": 2
        },
        "o": {
          "item": "hotel_coffee_bar",
          "chance": 50
        }
      },
      "item": {
        "S": {
          "item": "towel",
          "chance": 3,
          "amount": [
            1,
            2
          ]
        }
      },
      "place_monsters": [
        {
          "monster": "GROUP_ZOMBIE",
          "x": [
            7,
            23
          ],
          "y": [
            0,
            22
          ],
          "repeat": 2
        },
        {
          "monster": "GROUP_ZOMBIE",
          "x": [
            24,
            47
          ],
          "y": [
            23,
            3
          ],
          "repeat": 2
        },
        {
          "monster": "GROUP_ZOMBIE",
          "x": [
            49,
            65
          ],
          "y": [
            0,
            22
          ],
          "repeat": 2
        }
      ]
    },
    "id": "e44aa2d9-dd71-4799-b16b-833234e5245e"
  },
  {
    "method": "json",
    "om_terrain": [
      [
        "hotel_tower_flr2_1_9",
        "hotel_tower_flr2_1_8",
        "hotel_tower_flr2_1_7"
      ]
    ],
    "type": "mapgen",
    "weight": 250,
    "object": {
      "fill_ter": "t_floor",
      "rows": [
        "******%o....|c....|c....|c....|t.........t|d...c|....c|....c|....c%*****",
        "******%....h|...Lh|....h|....h|h.........h|BB..c|h...L|h....|h....%*****",
        "******%...ht|...ht|...ht|...ht|^.........^|BB...|th...|th...|th...%*****",
        "******%..|--|..|--|..|--|..|--|---|...|---|--|..|--|..|--|..|--|..%*****",
        "******%..+.S|..+.S|..+.S|..+.S|888G...|x88|S.+..|S.+..|S.+..|S.+..%*****",
        "****4*%..|.&|..|.&|..|.&|..|.&|888G...G888|&.|..|&.|..|&.|..|&.|..%*4***",
        "***%%%%..|bb|..|bb|..|bb|..|bb|88x|...G888|bb|..|bb|..|bb|..|bb|..%%%%**",
        "***%><%-7|--|-7|--|-7|--|-7|--|---|...|---|--|7-|--|7-|--|7-|--|7-%<>%**",
        "***H..%...........................................................%..H**",
        "***H..+...........................................................+..H**",
        "***H..%^..........................................................%..H**",
        "***%UF%-7|--|-7|--|-7|--|-7|--|-7|--|--|7-|--|7-|--|7-|--|7-|--|7-%UF%**",
        "***%%%%..|bb|..|bb|..|bb|..|bb|..|bb|bb|..|bb|..|bb|..|bb|..|bb|..%%%%**",
        "******%..|.&|..|.&|..|.&|..|.&|..|.&|&.|..|&.|..|&.|..|&.|..|&.|..%*****",
        "******%..+.S|..+.S|..+.S|..+.S|..+.S|S.+..|S.+..|S.+..|S.+..|S.+..%*****",
        "******%..|--|..|--|..|--|..|--|..|--|--|..|--|..|--|..|--|..|--|..%*****",
        "******%..Lht|..LBB|...ht|...ht|...ht|BB..L|th...|th...|BB...|th...%*****",
        "******%....h|o..BB|....h|....h|....h|BB..c|h....|h....|BB..c|h....%*****",
        "******%c....|c...d|c....|c...L|o....|d...c|....c|....o|dL..c|....o%*****",
        "******%o..BB|c..BB|c..BB|c..BB|c..BB|BB..o|BB..o|BB..c|BB..o|BB..c%*****",
        "******%c..BB|h..BB|o..BB|o..BB|c..BB|BB..h|BB..c|BB..c|BB..h|BB..c%*****",
        "******%....d|th..d|....d|....d|....d|d..ht|d....|dL...|d..ht|d....%*****",
        "******%%www%%%www%%%www%%%www%%%www%%%www%%%www%%%www%%%www%%%www%%*****",
        "************************************************************************"
      ],
      "palettes": [
        "hotel_tower_palette.json"
      ],
      "terrain": {
        "+": [
          "t_door_c",
          "t_door_c",
          "t_door_o"
        ],
        "w": "t_window_domestic"
      },
      "toilets": {
        "&": {}
      },
      "items": {
        "B": {
          "item": "bed",
          "chance": 50
        },
        "L": {
          "item": "hotel_luggage",
          "chance": 50
        },
        "c": {
          "item": "magazines",
          "chance": 15
        },
        "d": {
          "item": "book_hotel_tower_bible",
          "chance": 2
        },
        "o": {
          "item": "hotel_coffee_bar",
          "chance": 50
        }
      },
      "item": {
        "S": {
          "item": "towel",
          "chance": 3,
          "amount": [
            1,
            2
          ]
        }
      },
      "place_monsters": [
        {
          "monster": "GROUP_ZOMBIE",
          "x": [
            7,
            23
          ],
          "y": [
            0,
            22
          ],
          "repeat": 2
        },
        {
          "monster": "GROUP_ZOMBIE",
          "x": [
            24,
            47
          ],
          "y": [
            23,
            3
          ],
          "repeat": 2
        },
        {
          "monster": "GROUP_ZOMBIE",
          "x": [
            49,
            65
          ],
          "y": [
            0,
            22
          ],
          "repeat": 2
        }
      ]
    },
    "id": "964c49d3-d8e0-4151-ae5a-39ba73f83f22"
  },
  {
    "method": "json",
    "om_terrain": [
      [
        "hotel_tower_flr3_1_9",
        "hotel_tower_flr3_1_8",
        "hotel_tower_flr3_1_7"
      ]
    ],
    "type": "mapgen",
    "weight": 250,
    "object": {
      "fill_ter": "t_floor",
      "rows": [
        "******%o....|c....|c....|c....|t.........t|d...c|....c|....c|....c%*****",
        "******%....h|...Lh|....h|....h|h.........h|BB..c|h...L|h....|h....%*****",
        "******%...ht|...ht|...ht|...ht|^.........^|BB...|th...|th...|th...%*****",
        "******%..|--|..|--|..|--|..|--|---|...|---|--|..|--|..|--|..|--|..%*****",
        "******%..+.S|..+.S|..+.S|..+.S|888G...|x88|S.+..|S.+..|S.+..|S.+..%*****",
        "*****4%..|.&|..|.&|..|.&|..|.&|888G...G888|&.|..|&.|..|&.|..|&.|..%4****",
        "***%%%%..|bb|..|bb|..|bb|..|bb|88x|...G888|bb|..|bb|..|bb|..|bb|..%%%%**",
        "***%<>%-7|--|-7|--|-7|--|-7|--|---|...|---|--|7-|--|7-|--|7-|--|7-%><%**",
        "***H..%...........................................................%..H**",
        "***H..+...........................................................+..H**",
        "***H..%^..........................................................%..H**",
        "***%UF%-7|--|-7|--|-7|--|-7|--|-7|--|--|7-|--|7-|--|7-|--|7-|--|7-%UF%**",
        "***%%%%..|bb|..|bb|..|bb|..|bb|..|bb|bb|..|bb|..|bb|..|bb|..|bb|..%%%%**",
        "******%..|.&|..|.&|..|.&|..|.&|..|.&|&.|..|&.|..|&.|..|&.|..|&.|..%*****",
        "******%..+.S|..+.S|..+.S|..+.S|..+.S|S.+..|S.+..|S.+..|S.+..|S.+..%*****",
        "******%..|--|..|--|..|--|..|--|..|--|--|..|--|..|--|..|--|..|--|..%*****",
        "******%..Lht|..LBB|...ht|...ht|...ht|BB..L|th...|th...|BB...|th...%*****",
        "******%....h|o..BB|....h|....h|....h|BB..c|h....|h....|BB..c|h....%*****",
        "******%c....|c...d|c....|c...L|o....|d...c|....c|....o|dL..c|....o%*****",
        "******%o..BB|c..BB|c..BB|c..BB|c..BB|BB..o|BB..o|BB..c|BB..o|BB..c%*****",
        "******%c..BB|h..BB|o..BB|o..BB|c..BB|BB..h|BB..c|BB..c|BB..h|BB..c%*****",
        "******%....d|th..d|....d|....d|....d|d..ht|d....|dL...|d..ht|d....%*****",
        "******%%www%%%www%%%www%%%www%%%www%%%www%%%www%%%www%%%www%%%www%%*****",
        "************************************************************************"
      ],
      "palettes": [
        "hotel_tower_palette.json"
      ],
      "terrain": {
        "+": [
          "t_door_c",
          "t_door_c",
          "t_door_o"
        ],
        "w": "t_window_domestic"
      },
      "toilets": {
        "&": {}
      },
      "items": {
        "B": {
          "item": "bed",
          "chance": 50
        },
        "L": {
          "item": "hotel_luggage",
          "chance": 50
        },
        "c": {
          "item": "magazines",
          "chance": 15
        },
        "d": {
          "item": "book_hotel_tower_bible",
          "chance": 2
        },
        "o": {
          "item": "hotel_coffee_bar",
          "chance": 50
        }
      },
      "item": {
        "S": {
          "item": "towel",
          "chance": 3,
          "amount": [
            1,
            2
          ]
        }
      },
      "place_monsters": [
        {
          "monster": "GROUP_ZOMBIE",
          "x": [
            7,
            23
          ],
          "y": [
            0,
            22
          ],
          "repeat": 2
        },
        {
          "monster": "GROUP_ZOMBIE",
          "x": [
            24,
            47
          ],
          "y": [
            23,
            3
          ],
          "repeat": 2
        },
        {
          "monster": "GROUP_ZOMBIE",
          "x": [
            49,
            65
          ],
          "y": [
            0,
            22
          ],
          "repeat": 2
        }
      ]
    },
    "id": "a76278d5-6ee9-4f52-a32d-0876db3f331d"
  },
  {
    "method": "json",
    "om_terrain": [
      [
        "hotel_tower_flr4_1_9",
        "hotel_tower_flr4_1_8",
        "hotel_tower_flr4_1_7"
      ]
    ],
    "type": "mapgen",
    "weight": 250,
    "object": {
      "fill_ter": "t_floor",
      "rows": [
        "******%o....|c....|c....|c....|t.........t|d...c|....c|....c|....c%*****",
        "******%....h|...Lh|....h|....h|h.........h|BB..c|h...L|h....|h....%*****",
        "******%...ht|...ht|...ht|...ht|^.........^|BB...|th...|th...|th...%*****",
        "******%..|--|..|--|..|--|..|--|---|...|---|--|..|--|..|--|..|--|..%*****",
        "******%..+.S|..+.S|..+.S|..+.S|888G...|x88|S.+..|S.+..|S.+..|S.+..%*****",
        "****4*%..|.&|..|.&|..|.&|..|.&|888G...G888|&.|..|&.|..|&.|..|&.|..%*4***",
        "***%%%%..|bb|..|bb|..|bb|..|bb|88x|...G888|bb|..|bb|..|bb|..|bb|..%%%%**",
        "***%>F%-7|--|-7|--|-7|--|-7|--|---|...|---|--|7-|--|7-|--|7-|--|7-%F>%**",
        "***H.U%...........................................................%U.H**",
        "***H..+...........................................................+..H**",
        "***%7%%^..........................................................%%7%**",
        "***%.<%-7|--|-7|--|-7|--|-7|--|-7|--|--|7-|--|7-|--|7-|--|7-|--|7-%<.%**",
        "***%%%%..|bb|..|bb|..|bb|..|bb|..|bb|bb|..|bb|..|bb|..|bb|..|bb|..%%%%**",
        "******%..|.&|..|.&|..|.&|..|.&|..|.&|&.|..|&.|..|&.|..|&.|..|&.|..%*****",
        "******%..+.S|..+.S|..+.S|..+.S|..+.S|S.+..|S.+..|S.+..|S.+..|S.+..%*****",
        "******%..|--|..|--|..|--|..|--|..|--|--|..|--|..|--|..|--|..|--|..%*****",
        "******%..Lht|..LBB|...ht|...ht|...ht|BB..L|th...|th...|BB...|th...%*****",
        "******%....h|o..BB|....h|....h|....h|BB..c|h....|h....|BB..c|h....%*****",
        "******%c....|c...d|c....|c...L|o....|d...c|....c|....o|dL..c|....o%*****",
        "******%o..BB|c..BB|c..BB|c..BB|c..BB|BB..o|BB..o|BB..c|BB..o|BB..c%*****",
        "******%c..BB|h..BB|o..BB|o..BB|c..BB|BB..h|BB..c|BB..c|BB..h|BB..c%*****",
        "******%....d|th..d|....d|....d|....d|d..ht|d....|dL...|d..ht|d....%*****",
        "******%%www%%%www%%%www%%%www%%%www%%%www%%%www%%%www%%%www%%%www%%*****",
        "************************************************************************"
      ],
      "palettes": [
        "hotel_tower_palette.json"
      ],
      "terrain": {
        "+": [
          "t_door_c",
          "t_door_c",
          "t_door_o"
        ],
        "w": "t_window_domestic"
      },
      "toilets": {
        "&": {}
      },
      "items": {
        "B": {
          "item": "bed",
          "chance": 50
        },
        "L": {
          "item": "hotel_luggage",
          "chance": 50
        },
        "c": {
          "item": "magazines",
          "chance": 15
        },
        "d": {
          "item": "book_hotel_tower_bible",
          "chance": 2
        },
        "o": {
          "item": "hotel_coffee_bar",
          "chance": 50
        }
      },
      "item": {
        "S": {
          "item": "towel",
          "chance": 3,
          "amount": [
            1,
            2
          ]
        }
      },
      "place_monsters": [
        {
          "monster": "GROUP_ZOMBIE",
          "x": [
            7,
            23
          ],
          "y": [
            0,
            22
          ],
          "repeat": 2
        },
        {
          "monster": "GROUP_ZOMBIE",
          "x": [
            24,
            47
          ],
          "y": [
            23,
            3
          ],
          "repeat": 2
        },
        {
          "monster": "GROUP_ZOMBIE",
          "x": [
            49,
            65
          ],
          "y": [
            0,
            22
          ],
          "repeat": 2
        }
      ]
    },
    "id": "399da6aa-aca0-494d-a55f-235f1b5eb5a5"
  },
  {
    "method": "json",
    "om_terrain": [
      [
        "hotel_tower_roof_1_9",
        "hotel_tower_roof_1_8",
        "hotel_tower_roof_1_7"
      ]
    ],
    "type": "mapgen",
    "weight": 250,
    "object": {
      "fill_ter": "t_flat_roof",
      "rows": [
        "      |...........................................................3     ",
        "      |...........................................................3     ",
        "      |...........................................................3     ",
        "      |...........................................................3     ",
        "      |...........................................................3     ",
        "      |...........................................................3     ",
        "   |-5|..%%%%%%%%%%%%%%%%%%%%%%%%%DD%%%%%%%%%%%%%%%%%%%%%%%%%%%%..35-3  ",
        "   |.....%.....................................................%.....3  ",
        "   |.....%.....YYYYY.................................YYYYY.....%.....3  ",
        "   ########....66666.................................66666.....#######  ",
        "   #______+.....................AAAAAA.........................+____H#  ",
        "   #_>_HHH#.....................AAAAAA.........................#___>H#  ",
        "   ########.....................AAAAAA.........................#######  ",
        "      |..%.....66666.................................66666.....%..3     ",
        "      |..%.....YYYYY.................................YYYYY.....%..3     ",
        "      |..%.....................................................%..3     ",
        "      |..%%%%%%%%%%%%%%%%%%%%%%%%%DD%%%%%%%%%%%%%%%%%%%%%%%%%%%%..3     ",
        "      |...........................................................3     ",
        "      |...........................................................3     ",
        "      |...........................................................3     ",
        "      |...........................................................3     ",
        "      |...........................................................3     ",
        "      |-----------------------------------------------------------3     ",
        "                                                                        "
      ],
      "palettes": [
        "roof_palette"
      ],
      "terrain": {
        ">": [
          "t_stairs_down"
        ],
        "#": "t_adobe_brick_wall",
        "_": "t_thconc_floor",
        "+": "t_door_metal_c",
        "D": "t_chaingate_l",
        "%": "t_chainfence",
        "H": "t_generator_broken"
      },
      "furniture": {
        "6": "f_water_heater",
        "7": "f_roof_turbine_vent",
        "Y": "f_standing_tank"
      },
      "liquids": {
        "6": {
          "liquid": "water",
          "amount": [
            0,
            100
          ]
        },
        "Y": {
          "liquid": "water_clean",
          "amount": [
            100,
            1000
          ]
        }
      },
      "place_monsters": [
        {
          "monster": "GROUP_ROOF_ZOMBIE",
          "x": [
            7,
            23
          ],
          "y": [
            0,
            22
          ],
          "repeat": 2
        },
        {
          "monster": "GROUP_ROOF_ZOMBIE",
          "x": [
            24,
            47
          ],
          "y": [
            23,
            3
          ],
          "repeat": 2
        },
        {
          "monster": "GROUP_ROOF_ZOMBIE",
          "x": [
            49,
            65
          ],
          "y": [
            0,
            22
          ],
          "repeat": 2
        }
      ]
    },
    "id": "61bfeaa0-f6cc-485b-96c8-af61a2268365"
  },
  {
    "method": "json",
    "om_terrain": [
      [
        "hotel_tower_b_3",
        "hotel_tower_b_2",
        "hotel_tower_b_1"
      ]
    ],
    "type": "mapgen",
    "weight": 250,
    "object": {
      "fill_ter": "t_thconc_floor",
      "rows": [
        "########################|-----|-----------|-----|#######################",
        "########################|&+...|.rrr...l..l|...+&|#######################",
        "########################|-|..c|..........l|c..|-|#######################",
        "########################|&+..S|---|-+-|---|S..+&|#######################",
        "########################|-|..c|888+..^|x88|c..|-|#######################",
        "########################|.+..S|888+...+888|S..+.|#######################",
        "###|--|#################|&|..c|88x|...+888|c..|&|#################|--|##",
        "###|UF|-----------------|---+-|---|HGH|---|-+---|-----------------|UF|##",
        "###|..|^.............mmmm......................mmmm..............^|..|##",
        "###|..+...........................................................+..|##",
        "###|..|...........................................................|..|##",
        "###|.<|-------++---|...............................|-HHHHHHHH-----|<.|##",
        "###|--|cWWWW......r|m...sssssssssssssssssssssss....|^.............|--|##",
        "######|c..........r|m...s999999999999999999999s....6..E..E..E..E..|#####",
        "######|S..........r|m...s999999999999999999999s....6..............|#####",
        "######|cDDDDrr....r|....s999999999999999999999s....G..E..E..E..E..|#####",
        "######|--------=---|.ssss999999999999999999999s....6..............|#####",
        "######|............|.swwwwww999999999999999999s....6...22222222...|#####",
        "######|...$........|.swwwwww999999999999999999s....6...22222222...|#####",
        "######|...$........|.swwwwwwsssssssssssssssssss....6...22222222...|#####",
        "######|$$$$$PP$$$$.|.swwwwwws......................|..............|#####",
        "######|............|^ssssssss..^rrr^..........mmmm^|...UF.mmm.mmm.|#####",
        "######|------------|-------------------------------|--------------|#####",
        "########################################################################"
      ],
      "palettes": [
        "hotel_tower_palette.json"
      ],
      "set": [
        {
          "point": "trap",
          "id": "tr_rollmat",
          "x": [
            56,
            61
          ],
          "y": 17,
          "repeat": [
            2,
            4
          ]
        },
        {
          "point": "trap",
          "id": "tr_rollmat",
          "x": [
            56,
            61
          ],
          "y": 18,
          "repeat": [
            2,
            4
          ]
        },
        {
          "point": "trap",
          "id": "tr_rollmat",
          "x": [
            56,
            61
          ],
          "y": 19,
          "repeat": [
            2,
            4
          ]
        }
      ],
      "terrain": {
        "=": "t_door_locked_interior",
        ".": "t_thconc_floor",
        "|": "t_concrete_wall",
        "-": "t_concrete_wall"
      },
      "vendingmachines": {
        "U": {
          "item_group": "vending_drink"
        },
        "F": {
          "item_group": "vending_food"
        }
      },
      "items": {
        "l": {
          "item": "cleaning",
          "chance": 60
        }
      },
      "item": {
        "r": {
          "item": "towel",
          "chance": 2,
          "amount": [
            1,
            2
          ]
        }
      },
      "toilets": {
        "&": {}
      },
      "place_monsters": [
        {
          "monster": "GROUP_HOTEL_POOL",
          "x": [
            24,
            46
          ],
          "y": [
            12,
            19
          ],
          "repeat": 2
        },
        {
          "monster": "GROUP_HOTEL_GYM",
          "x": [
            52,
            65
          ],
          "y": [
            12,
            21
          ],
          "repeat": 2
        }
      ]
    },
    "id": "57cf90cd-f5e8-4dfd-bad6-f8c40123cde9"
  },
  {
    "type": "mapgen",
    "method": "json",
    "om_terrain": [
      "hotel_tower_1_5B"
    ],
    "weight": 250,
    "object": {
      "fill_ter": "t_floor",
      "rows": [
        "_,_____________________,",
        "_,_____________________,",
        "________________________",
        "________________________",
        "________________________",
        "________________________",
        "________________________",
        "__sssssssssssssssssssss_",
        "_,sssssssssssssssssssss,",
        "_,sssssssssssssssssssss,",
        "_,sss%HHHGGHHHGGHHH%sss,",
        "_,sssH............^%sss,",
        "_,sssH^............Hsss,",
        "_,sss%cccc.........Hsss,",
        "sssss%LL.c.........Hssss",
        "sssss%...x......hh.%ssss",
        "'''''%h..c......tt.H''''",
        "'''''%D.r%......tt.H''''",
        "''T''%%+%%......hh.H''T'",
        "'''''%^............%''''",
        "%%www%%...........%%www%",
        "%....d|...........|d..ht",
        "%c..BB|h.........h|BB..h",
        "%c.LBB|t.........t|BB..c"
      ],
      "palettes": [
        "hotel_tower_palette.json"
      ],
      "terrain": {
        "+": [
          [
            "t_door_c",
            2
          ],
          "t_door_o"
        ],
        "w": "t_window_domestic",
        "x": "t_console_broken"
      },
      "furniture": {
        "D": "f_desk"
      },
      "items": {
        "B": {
          "item": "bed",
          "chance": 50
        },
        "L": {
          "item": "hotel_luggage",
          "chance": 50
        },
        "c": {
          "item": "magazines",
          "chance": 15
        },
        "d": {
          "item": "book_hotel_tower_bible",
          "chance": 2
        }
      },
      "place_monsters": [
        {
          "monster": "GROUP_ZOMBIE",
          "x": [
            0,
            23
          ],
          "y": [
            7,
            23
          ],
          "repeat": 2
        }
      ],
      "place_vehicles": [
        {
          "vehicle": "luggage_cart",
          "x": [
            10,
            15
          ],
          "y": [
            11,
            19
          ],
          "chance": 80,
          "repeat": [
            1,
            3
          ]
        }
      ]
    },
    "id": "f9862c24-bbb3-482d-9072-aeac60072fb9"
  },
  {
    "type": "mapgen",
    "method": "json",
    "om_terrain": [
      "hotel_tower_flr2_1_5B"
    ],
    "weight": 250,
    "object": {
      "fill_ter": "t_floor",
      "rows": [
        "************************",
        "************************",
        "************************",
        "************************",
        "************************",
        "************************",
        "************************",
        "************************",
        "************************",
        "************************",
        "*****111111111111111****",
        "*****111111111111111****",
        "*****111111111111111****",
        "*****111111111111111****",
        "*****111111111000111****",
        "*****111111111000111****",
        "*****111111111000111****",
        "*****111111111111111****",
        "*****111111111111111****",
        "*****111111111111111****",
        "%%www%%%%H%HHHH%H%%%www%",
        "|....d|...^jjjj^..|d..ht",
        "|c..BB|h.........h|BB..h",
        "|c.LBB|t.........t|BB..c"
      ],
      "palettes": [
        "hotel_tower_palette.json"
      ],
      "terrain": {
        "+": [
          [
            "t_door_c",
            2
          ],
          "t_door_o"
        ],
        "w": "t_window_domestic",
        "x": "t_console_broken"
      },
      "furniture": {
        "D": "f_desk"
      },
      "items": {
        "B": {
          "item": "bed",
          "chance": 50
        },
        "L": {
          "item": "hotel_luggage",
          "chance": 50
        },
        "c": {
          "item": "magazines",
          "chance": 15
        },
        "d": {
          "item": "book_hotel_tower_bible",
          "chance": 2
        }
      },
      "place_monsters": [
        {
          "monster": "GROUP_ZOMBIE",
          "x": [
            7,
            23
          ],
          "y": [
            21,
            23
          ]
        }
      ],
      "place_vehicles": [
        {
          "vehicle": "luggage_cart",
          "x": [
            10,
            15
          ],
          "y": [
            11,
            19
          ],
          "chance": 80,
          "repeat": [
            1,
            3
          ]
        }
      ]
    },
    "id": "1bbaa6c5-eb41-48dd-83e1-d6d63e1cdfb3"
  },
  {
    "type": "mapgen",
    "method": "json",
    "om_terrain": [
      "hotel_tower_1_5C"
    ],
    "weight": 250,
    "object": {
      "fill_ter": "t_floor",
      "rows": [
        "________________________",
        "________________________",
        "________________________",
        "________________________",
        "________________________",
        "__,,,,,,,,,,,,,,,,,,,,,_",
        "___X_____X_____X_____X__",
        "________________________",
        "________________________",
        "________________________",
        "_____________V__________",
        "________________________",
        "________________________",
        "___MMMMMMsssssssMMMMMM__",
        "sssXsssssssssssssssssXss",
        "sssss%%%%HGGHGGH%%%%ssss",
        "'''''%.............%''''",
        "'''''H.............H''''",
        "''T''H....ccccc....H''T'",
        "'''''%^...cDxDc...^%''''",
        "%%www%%......hc...%%www%",
        "|....d|...ccccc...|d..ht",
        "|c..BB|...........|BB..h",
        "|c.LBB|h.........h|BB..c"
      ],
      "palettes": [
        "hotel_tower_palette.json"
      ],
      "terrain": {
        "+": [
          "t_door_c",
          "t_door_c",
          "t_door_o"
        ],
        "G": "t_door_glass_c",
        "w": "t_window_domestic",
        "V": "t_pavement",
        "x": "t_console_broken"
      },
      "furniture": {
        "D": "f_desk"
      },
      "items": {
        "B": {
          "item": "bed",
          "chance": 50
        },
        "L": {
          "item": "hotel_luggage",
          "chance": 50
        },
        "c": {
          "item": "magazines",
          "chance": 15
        },
        "d": {
          "item": "book_hotel_tower_bible",
          "chance": 2
        }
      },
      "place_monsters": [
        {
          "monster": "GROUP_ZOMBIE",
          "x": [
            0,
            23
          ],
          "y": [
            7,
            23
          ],
          "repeat": 2
        }
      ],
      "place_vehicles": [
        {
          "vehicle": "luggage_cart",
          "x": [
            3,
            21
          ],
          "y": [
            16,
            17
          ],
          "chance": 80,
          "repeat": [
            1,
            3
          ]
        }
      ],
      "vehicles": {
        "V": {
          "vehicle": "suburban_home",
          "chance": 30,
          "rotation": 180
        }
      }
    },
    "id": "f195c012-62d4-46fa-b5f1-52d3791c95df"
  },
  {
    "type": "mapgen",
    "method": "json",
    "om_terrain": [
      "hotel_tower_flr2_1_5C"
    ],
    "weight": 250,
    "object": {
      "fill_ter": "t_floor",
      "rows": [
        "************************",
        "************************",
        "************************",
        "************************",
        "************************",
        "************************",
        "***1111111111111111111**",
        "***1000000000000000001**",
        "***1000000000000000001**",
        "***1000000000000000001**",
        "***1000000000000000001**",
        "***1000000000000000001**",
        "***1000000000000000001**",
        "***1000000000000000001**",
        "***1111111111111111111**",
        "*****111111111111111****",
        "*****111111111111111****",
        "*****111111111111111****",
        "*****111111111111111****",
        "*****111111111111111****",
        "%%www%%%H%%HHHH%%H%%www%",
        "|....d|...^jjjj^..|d..ht",
        "|c..BB|h.........h|BB..h",
        "|c.LBB|t.........t|BB..c"
      ],
      "palettes": [
        "hotel_tower_palette.json"
      ],
      "terrain": {
        "+": [
          "t_door_c",
          "t_door_c",
          "t_door_o"
        ],
        "G": "t_door_glass_c",
        "w": "t_window_domestic",
        "x": "t_console_broken"
      },
      "furniture": {
        "D": "f_desk"
      },
      "items": {
        "B": {
          "item": "bed",
          "chance": 50
        },
        "L": {
          "item": "hotel_luggage",
          "chance": 50
        },
        "c": {
          "item": "magazines",
          "chance": 15
        },
        "d": {
          "item": "book_hotel_tower_bible",
          "chance": 2
        }
      },
      "place_monsters": [
        {
          "monster": "GROUP_ZOMBIE",
          "x": [
            7,
            23
          ],
          "y": [
            21,
            23
          ]
        }
      ]
    },
    "id": "a784a765-613f-4dee-bbf9-22da07675a13"
  }
]