[
  {
    "method": "json",
    "om_terrain": "house_23",
    "//": "normal variant",
    "type": "mapgen",
    "weight": 100,
    "object": {
      "fill_ter": "t_floor",
      "rows": [
        "......[.......p.........",
        "...........[...`........",
        "````````````````........",
        "`%..!!.jj.!!...`........",
        "`.##oo####oo#$$=$##o##..",
        "`.#T    s   #G  y#123#..",
        "`%#H    H   ###*o#J 4#..",
        "`.oH l  H    E|  |J O#..",
        "`.oH    H    s|  |J fo..",
        "`.#          E|  |J no..",
        "`.#yxxx             7#..",
        "`.#|||| hhh         Y#..",
        "`.#S--+ fff         6#..",
        "`.#98t| hhh Ty RR  Y6#..",
        "`.#####*###|||+||+|||#..",
        "`......``^#db  T|  dD#^.",
        "`````````!o    I|    o..",
        ".........!o@@ hI|   yo..",
        ".........!o@@   |@  Eo..",
        "..........#s  ED|@I T#..",
        "..........##ooo###oo##..",
        "...........%%%...%.%.%..",
        "...............[........",
        "........................"
      ],
      "palettes": [
        "standard_domestic_palette"
      ],
      "terrain": {
        "8": "t_linoleum_white",
        "%": [
          "t_region_shrub",
          "t_region_shrub_fruit",
          "t_region_shrub_decorative"
        ],
        "[": [
          [
            "t_region_tree_fruit",
            2
          ],
          [
            "t_region_tree_nut",
            2
          ],
          "t_region_tree_shade"
        ],
        "!": "t_region_groundcover_urban",
        "`": "t_concrete",
        "#": "t_rock_wall",
        "-": "t_linoleum_white",
        "Q": "t_linoleum_white",
        "B": "t_linoleum_white",
        "S": "t_linoleum_white",
        "t": "t_linoleum_white",
        "$": "t_screened_porch_wall",
        "=": "t_screen_door_c"
      },
      "furniture": {
        "!": "f_region_flower"
      },
      "place_item": [
        {
          "item": "stereo",
          "x": 4,
          "y": 10,
          "chance": 50
        },
        {
          "item": "television",
          "x": 5,
          "y": 10,
          "chance": 50
        }
      ],
      "place_nested": [
        {
          "chunks": [
            [
              "roof_6x6_garden_4",
              15
            ],
            [
              "roof_6x6_garden_1",
              15
            ],
            [
              "greenhouse_6x6_herbal",
              15
            ],
            [
              "greenhouse_6x6_vegetable",
              15
            ],
            [
              "pond_6x6",
              15
            ],
            [
              "shed_6x6_junk",
              15
            ],
            [
              "shed_6x6_woodworker",
              15
            ],
            [
              "playset_4x4_2",
              15
            ],
            [
              "firepit_5x5_1",
              15
            ],
            [
              "firepit_5x5_2",
              15
            ],
            [
              "playset_4x4_1",
              15
            ]
          ],
          "x": 1,
          "y": 17
        }
      ]
    },
    "id": "661390be-8088-471f-839d-060ef3254f3e"
  },
  {
    "method": "json",
    "om_terrain": "house_23",
    "type": "mapgen",
    "weight": 20,
    "object": {
      "fill_ter": "t_dirt",
      "rows": [
        ".............P.s.d......",
        ".....d.........s........",
        "..d........d...s......d.",
        ".......d.......s..d.....",
        "..||OO|||OO||tttt||O||..",
        "..|_________|tttt|___|..",
        "..|_________|||_O|___|d.",
        "..O___________#__#___O..",
        "..O___________#__#___O..",
        ".d|___________#__#___|..",
        "..|__________________|..",
        "..|####______________|..",
        "..|__________________|..",
        "..|___#______________|..",
        "..||||||_||###_##_###|d.",
        "..........|_____#____|..",
        "...dd.....O_____#____O..",
        "....d.....O_____#____O..",
        ".......d..O_____#____O..",
        ".d........|_____#____|.d",
        "..........||OOO|||OO||..",
        "...................d....",
        "...d.............d.d..d.",
        ".......d................"
      ],
      "terrain": {
        "#": "t_wall_half",
        ".": "t_grass",
        "_": "t_floor",
        "O": "t_window_frame",
        "P": "t_grass",
        "s": "t_sidewalk",
        "d": "t_dirt",
        "t": "t_thconc_floor",
        "|": "t_rock_wall"
      },
      "furniture": {
        "P": "f_mailbox"
      },
      "place_item": [
        {
          "chance": 30,
          "item": "2x4",
          "repeat": 1,
          "x": 11,
          "y": 15
        },
        {
          "chance": 50,
          "item": "2x4",
          "repeat": 1,
          "x": 12,
          "y": 15
        },
        {
          "chance": 50,
          "item": "2x4",
          "repeat": 1,
          "x": 11,
          "y": 16
        },
        {
          "chance": 50,
          "item": "2x4",
          "repeat": 1,
          "x": 12,
          "y": 16
        },
        {
          "chance": 50,
          "item": "2x4",
          "repeat": 1,
          "x": 17,
          "y": 17
        }
      ],
      "place_items": [
        {
          "chance": 20,
          "item": "hardware_trash",
          "x": 6,
          "y": 17
        },
        {
          "chance": 20,
          "item": "hardware_trash",
          "x": 7,
          "y": 13
        },
        {
          "chance": 5,
          "item": "hardware_bulk",
          "x": 20,
          "y": 11
        },
        {
          "chance": 20,
          "item": "hand_tools",
          "x": 11,
          "y": 17
        },
        {
          "chance": 20,
          "item": "hand_tools",
          "x": 20,
          "y": 9
        },
        {
          "chance": 10,
          "item": "trash",
          "x": 14,
          "y": 19
        },
        {
          "chance": 10,
          "item": "trash",
          "x": 4,
          "y": 19
        },
        {
          "chance": 10,
          "item": "trash",
          "x": 20,
          "y": 17
        },
        {
          "chance": 10,
          "item": "trash",
          "x": 4,
          "y": 13
        },
        {
          "chance": 10,
          "item": "trash",
          "x": 20,
          "y": 10
        },
        {
          "chance": 10,
          "item": "trash",
          "x": 6,
          "y": 6
        }
      ]
    },
    "id": "2e33d93b-5f86-4447-ab8e-e70b0f8f7d8b"
  },
  {
    "method": "json",
    "om_terrain": "house_23",
    "type": "mapgen",
    "weight": 40,
    "object": {
      "fill_ter": "t_floor",
      "rows": [
        ".............P.s........",
        "...............s..d..d..",
        ".dd..d.......d.s........",
        "...............s.d......",
        "..||ww||||ww|--t-||w||..",
        "..|_________|tttt|cJc|..",
        "..|_________|||+w|J_{|.d",
        "..w___________#__#J_o|..",
        "..w___________#__#J_&w..",
        "..|___________#__#J_&w..",
        ".d|__________________|..",
        "..|####______________|..",
        "..|&__D______________|..",
        "..|__T#______________|..",
        "d.||||||a||###D##D###|..",
        "..........|_____#____|d.",
        ".....d...dw_____#____w..",
        "..........w_____#____w..",
        "..d.......w_____#____w..",
        "....dd....|_____#____|..",
        "..........||www|||ww||..",
        "..d.....................",
        "..d....d.....d.....d....",
        "...d..................d."
      ],
      "terrain": {
        "+": "t_door_metal_locked",
        "-": "t_fence_h",
        ".": "t_grass",
        "D": "t_door_o",
        "P": "t_grass",
        "_": "t_floor",
        "a": "t_door_c",
        "d": "t_dirt",
        "s": "t_sidewalk",
        "t": "t_thconc_floor",
        "w": "t_window",
        "|": "t_rock_wall",
        "#": "t_wall_w"
      },
      "furniture": {
        "J": "f_counter",
        "&": "f_sink",
        "P": "f_mailbox",
        "T": "f_toilet",
        "c": "f_cupboard",
        "o": "f_oven",
        "{": "f_fridge"
      },
      "place_items": [
        {
          "chance": 10,
          "item": "hardware_bulk",
          "x": 17,
          "y": 16
        },
        {
          "chance": 10,
          "item": "hardware_bulk",
          "x": 17,
          "y": 17
        },
        {
          "chance": 10,
          "item": "hardware_bulk",
          "x": 18,
          "y": 9
        },
        {
          "chance": 10,
          "item": "hand_tools",
          "x": 10,
          "y": 13
        },
        {
          "chance": 10,
          "item": "hand_tools",
          "x": 3,
          "y": 10
        },
        {
          "chance": 10,
          "item": "tools_construction",
          "x": 15,
          "y": 17
        },
        {
          "chance": 10,
          "item": "tools_construction",
          "x": 20,
          "y": [
            12,
            13
          ]
        },
        {
          "chance": 10,
          "item": "tools_construction",
          "x": 4,
          "y": 10
        },
        {
          "chance": 10,
          "item": "hardware_clothing",
          "x": 14,
          "y": 16
        }
      ]
    },
    "id": "7cba007e-ed28-43df-952d-cdf1dcde9857"
  },
  {
    "type": "mapgen",
    "method": "json",
    "om_terrain": "house_23_roof",
    "object": {
      "fill_ter": "t_shingle_flat_roof",
      "rows": [
        "                        ",
        "                        ",
        "                        ",
        "                        ",
        "  |2222222222222222223  ",
        "  |..................3  ",
        "  |..................3  ",
        "  |..&...............3  ",
        "  |..............=...3  ",
        "  |..................3  ",
        "  |..................3  ",
        "  |..................3  ",
        "  |..................3  ",
        "  |..................3  ",
        "  |-------5..........3  ",
        "          |..........5  ",
        "          |..........3  ",
        "          |..........3  ",
        "          |..........3  ",
        "          |..........3  ",
        "          |----------3  ",
        "                        ",
        "                        ",
        "                        "
      ],
      "palettes": [
        "roof_palette"
      ],
      "terrain": {
        ".": "t_shingle_flat_roof"
      }
    },
    "id": "7add5ff2-b39a-4649-b8cc-ca22d888ce84"
  }
]