[
  {
    "type": "mapgen",
    "method": "json",
    "om_terrain": [
      [
        "mall_a_3_roof",
        "mall_a_4_roof",
        "mall_a_5_roof"
      ]
    ],
    "//": "mall_a_4_roof has freight elevators",
    "object": {
      "fill_ter": "t_thconc_floor",
      "rows": [
        "                                                                        ",
        "                                                                        ",
        "                                                                        ",
        "                                                                        ",
        "                                                                        ",
        "                                                                        ",
        "                                                                        ",
        "                                                                        ",
        "                                                                        ",
        "                                                                        ",
        "                                                                        ",
        "                                                                        ",
        "     222222222222|||||||||||||||||||||||||||||||2222222222222222        ",
        "     !...........|_______|xx_____+EEEEE+_zzz_z_|...............4        ",
        "     !...........|zz_z___|x__x___+EEEEE+_____z_1...............4        ",
        "     !...........=_z_z___=_______+EEEEE+_______1...............4        ",
        "     !...........|____z__|P______+EEEEE+__*____1...............4        ",
        "     !...........1__z_z__|P______+ŊEEEŊ+_______1...............4        ",
        "     !...........1___z___|-H+H-__|-----|______3|3..............4        ",
        "     !....)......1___z___|K__S|_______________u|...............4        ",
        "     !...........1___zz__|@__BH_______________u|...............4        ",
        "     !...........1____z__|@_II|_______3____xx__|...............4        ",
        "     !..........3|3___z__|------=-1111---------|...............4        ",
        "     !...........|____________________3________|...............4        "
      ],
      "palettes": [
        "mall_palette_2"
      ],
      "terrain": {
        "1": "t_door_metal_locked",
        "2": "t_gutter_north",
        "3": "t_gates_control_brick",
        "4": "t_gutter_east",
        ".": "t_flat_roof",
        ")": "t_flat_roof",
        " ": "t_open_air",
        "!": "t_gutter_west"
      },
      "items": {
        "z": [
          {
            "item": "kitchen",
            "chance": 20,
            "repeat": [
              1,
              2
            ]
          },
          {
            "item": "allclothes",
            "chance": 10,
            "repeat": [
              1,
              2
            ]
          },
          {
            "item": "livingroom",
            "chance": 20,
            "repeat": [
              1,
              2
            ]
          }
        ]
      },
      "vehicles": {
        "*": {
          "vehicle": "forklift",
          "chance": 50,
          "rotation": 90
        },
        ")": {
          "vehicle": "forklift",
          "chance": 50,
          "rotation": 90
        }
      },
      "place_monsters": [
        {
          "monster": "GROUP_MALL",
          "x": [
            37,
            47
          ],
          "y": [
            14,
            23
          ],
          "density": 0.15
        }
      ]
    },
    "id": "3474b0c7-f43e-4774-bad6-3b6c38704b8e"
  },
  {
    "type": "mapgen",
    "method": "json",
    "om_terrain": [
      [
        "mall_a_10_roof",
        "mall_a_11_roof",
        "mall_a_12_roof",
        "mall_a_13_roof",
        "mall_a_14_roof"
      ]
    ],
    "object": {
      "fill_ter": "t_thconc_floor",
      "rows": [
        "                                                     #...........|_____________________________|...............4        ",
        "                                                     #...........|_____z_______________zz_____3|3..............424      ",
        "                                                     #...........|_____z______zzz_______z__z___1.................4      ",
        "                                                     #...........|zzzz_z______________zz_______1.................4      ",
        "                22222222222222222222222222222222222222...........|_z___z_zzz________________z__1.................4      ",
        "                #................................................|_z_______z__zzz___________z__1...............424      ",
        "                #................................................|_zzz_____________________zz__1...............4        ",
        "                #................................................|_____________________________|...............4        ",
        "                #...............................................ȴ|_PPP_|>>|__________|>>|_PP_PP|ȴ..............4        ",
        "                #................................................|||||||--|++++||++++|||||||=|||...............4        ",
        "                #.........................................................|EEEŊ||ŊEEE|.........................4        ",
        "                #.........................................................|EEEE||EEEE|.........................4        ",
        "                #.........................................................||||||||||||.........................4        ",
        "                #..............................................................................................4        ",
        "                #..........................................................................................42224        ",
        "                #..........................................................................................4            ",
        "                #...........................................................ooooooooo......................4            ",
        "                #...........................................................ooooooooo..........oooooo......4            ",
        "                #...........................................................ooooooooo..........oooooo......4            ",
        "                #...........................................................ooooooooo..........oooooo......4            ",
        "                #...........................................................ooooooooo..........oooooo......4            ",
        "                #...........................................................ooooooooo..........oooooo......4            ",
        "                #...........................................................ooooooooo..........oooooo......4            ",
        "                #...........................................................ooooooooo......................4            "
      ],
      "palettes": [
        "mall_palette_2"
      ],
      "terrain": {
        "1": "t_door_metal_locked",
        "2": "t_gutter_north",
        "3": "t_gates_control_brick",
        "4": "t_gutter_east",
        ".": "t_flat_roof",
        " ": "t_open_air",
        "#": "t_gutter_west",
        "o": "t_glass_roof",
        ">": "t_stairs_down"
      },
      "items": {
        "z": [
          {
            "item": "pasta",
            "chance": 20,
            "repeat": [
              1,
              2
            ]
          },
          {
            "item": "allclothes",
            "chance": 50,
            "repeat": [
              1,
              2
            ]
          },
          {
            "item": "child_items",
            "chance": 20,
            "repeat": [
              1,
              2
            ]
          },
          {
            "item": "cannedfood",
            "chance": 20,
            "repeat": [
              1,
              2
            ]
          },
          {
            "item": "bed",
            "chance": 20,
            "repeat": [
              1,
              2
            ]
          }
        ],
        "P": [
          {
            "item": "jackets",
            "chance": 10
          },
          {
            "item": "bags",
            "chance": 10
          }
        ]
      },
      "place_monsters": [
        {
          "monster": "GROUP_ROOF_ZOMBIE",
          "x": [
            28,
            47
          ],
          "y": [
            6,
            23
          ],
          "density": 0.4
        },
        {
          "monster": "GROUP_ROOF_ZOMBIE",
          "x": [
            51,
            71
          ],
          "y": [
            5,
            23
          ],
          "density": 0.4
        }
      ]
    },
    "id": "4af9a2bd-845b-4aa0-ad49-95bf7c0d005e"
  },
  {
    "type": "mapgen",
    "method": "json",
    "om_terrain": [
      [
        "mall_a_19_roof",
        "mall_a_20_roof",
        "mall_a_21_roof",
        "mall_a_22_roof",
        "mall_a_23_roof",
        "mall_a_24_roof",
        "mall_a_25_roof",
        "mall_a_26_roof"
      ]
    ],
    "object": {
      "fill_ter": "t_flat_roof",
      "rows": [
        "                |...........................................................ooooooooo......................2                                                                                    ",
        "                |...........................................................ooooooooo......................222222222222222222222222222222222222222222222222222222222222222222222223             ",
        "                |...........................................................ooooooooo.............................................................................................3             ",
        "                |...........................................................ooooooooo.............................................................................................3             ",
        "                |...........................................................ooooooooo.............................................................................................323           ",
        "                |...........................................................ooooooooo...............................................................................................3           ",
        "                |...........................................................ooooooooo...............................................................................................3           ",
        "                |...........................................................ooooooooo...............................................................................................3           ",
        "                |...........................................................ooooooooo...............................................................................................3           ",
        "                |...........................................................ooooooooo...............................................................................................3           ",
        "                |...........................................................ooooooooo.............................................................................................3-3           ",
        "                |...........................................................ooooooooo.............................................................................................3             ",
        "                |...........................................................ooooooooo.............................................................................................3             ",
        "                |-------------------------..................................ooooooooo.............................................................................................3             ",
        "                                         |........................................................................................................................................3             ",
        "                                         |........................................................................................................................................3             ",
        "                                         |........................................................................................................................................3             ",
        "                                         |........................................................................................................................................3             ",
        "                                         |....................................................oooooooooooooooooooooo..............................................................3             ",
        "                                         |.......................................ooo..........oooooooooooooooooooooo..............................................................3             ",
        "                                         |......................................ooooo.........oooooooooooooooooooooo..............................................................3             ",
        "                                         |...ooooooooooooooooooooooooo.........ooooooo........oooooooooooooooooooooo..............................................................3             ",
        "                                         |...ooooooooooooooooooooooooo........ooooooooo.......oooooooooooooooooooooo..............................................................3             ",
        "                                         |...ooooooooooooooooooooooooo.......ooooooooooo..........................................................................................3             "
      ],
      "palettes": [
        "roof_palette"
      ],
      "place_monsters": [
        {
          "monster": "GROUP_ROOF_ZOMBIE",
          "x": [
            137,
            143
          ],
          "y": [
            1,
            23
          ],
          "density": 0.4
        }
      ],
      "place_items": [
        {
          "item": "roof_trash",
          "x": [
            17,
            21
          ],
          "y": [
            1,
            12
          ],
          "chance": 50,
          "repeat": [
            1,
            3
          ]
        }
      ]
    },
    "id": "eff8c2af-c381-445b-8e19-6661da03c5f6"
  },
  {
    "type": "mapgen",
    "method": "json",
    "om_terrain": [
      [
        "mall_a_29_roof",
        "mall_a_30_roof",
        "mall_a_31_roof",
        "mall_a_32_roof",
        "mall_a_33_roof",
        "mall_a_34_roof",
        "mall_a_35_roof"
      ]
    ],
    "object": {
      "fill_ter": "t_open_air",
      "rows": [
        "                 |...ooooooooooooooooooooooooo......ooooooooooooo.........................................................................................3             ",
        "                 |...ooooooooooooooooooooooooo......ooooooooooooo...........................................................................ȴ.............3             ",
        "                 |...ooooooooooooooooooooooooo.......ooooooooooo.........................................................................##############...3             ",
        "                 |...ooooooooooooooooooooooooo........ooooooooo..........................................................................#______#ŊEEEE#...3             ",
        "                 |...ooooooooooooooooooooooooo.........ooooooo...........................................................................1______+EEEEE#...3             ",
        "                 |......................................ooooo............................................................................1______+EEEEE#...3             ",
        "                 |.......................................ooo.............................................................................1______+EEEEE#ȴ..3             ",
        "                 |.......................................................................................................................1______#EEEEE#...3             ",
        "                 |..................................................oooo.................................................................1______#######...3             ",
        "                 |..................................................oooo................................................................9#9______>#.......3             ",
        "                 |..................................................oooo.................................................................####+#####.......33            ",
        "                 |..................................................oooo...................................................................................3            ",
        "                 |..................................................oooo...................................................................................3            ",
        "         |22222222..................................................oooo...................................................................................3            ",
        "         |..........................................................oooo..................................................................................33            ",
        "         |..........................................................oooo..................................................................................3             ",
        "         |..........................................................oooo..................................................................................3             ",
        "         |..........................................................oooo..................................................................................3             ",
        "         |..........................................................oooo..................................................................................3             ",
        "         |..........................................................oooo..................................................................................3             ",
        "         |--........................................................oooo..................................................................................3             ",
        "           |........................................................oooo..................................................................................3             ",
        "           |........................................................oooo..................................................................................3             ",
        "           |........................................................oooo..................................................................................3             "
      ],
      "palettes": [
        "roof_palette"
      ],
      "terrain": {
        "1": "t_door_metal_locked",
        "9": "t_gates_control_brick",
        "#": "t_brick_wall",
        "ȴ": "t_gutter_downspout",
        "Ŋ": "t_elevator_control_off",
        "E": "t_elevator",
        "+": "t_door_c",
        ">": "t_stairs_down",
        "_": "t_thconc_floor"
      },
      "place_items": [
        {
          "item": "roof_trash",
          "x": [
            19,
            23
          ],
          "y": [
            0,
            23
          ],
          "chance": 50,
          "repeat": [
            1,
            3
          ]
        }
      ]
    },
    "id": "138d86b0-6ed7-45be-ad1c-149b6167e6de"
  },
  {
    "type": "mapgen",
    "method": "json",
    "om_terrain": [
      [
        "mall_a_38_roof",
        "mall_a_39_roof",
        "mall_a_40_roof",
        "mall_a_41_roof",
        "mall_a_42_roof",
        "mall_a_43_roof",
        "mall_a_44_roof"
      ]
    ],
    "object": {
      "fill_ter": "t_flat_roof",
      "rows": [
        "           |........................................................oooo..................................................................................3             ",
        "           |........................................................oooo..................................................................................3             ",
        "         |2|........................................................oooo..................................................................................3             ",
        "         |..........................................................oooo..................................................................................3             ",
        "         |..........................................................oooo..................................................................................3             ",
        "         |..........................................................oooo..................................................................................3             ",
        "         |................................................................................................................................................3             ",
        "         |................................................................................................................................................33            ",
        "         |.................................................................................................................................................3            ",
        "         |..............................................oooooooo...........................................................................................3            ",
        "         |..............................................oooooooo...........................................................................................3            ",
        "         |..............................................oooooooo..........................................................................................33            ",
        "         |..............................................oooooooo..........................................................................................3             ",
        "         |..............................................oooooooo...oooooooooooooooooooooooooooooooooo.....................................................3             ",
        "         |..............................................oooooooo...oooooooooooooooooooooooooooooooooo.....................................................3             ",
        "         |..............................................oooooooo...oooooooooooooooooooooooooooooooooo.....................................................3             ",
        "         |..............................................oooooooo...oooooooooooooooooooooooooooooooooo.....................................................3             ",
        "         |.........................................................oooooooooooooooooooooooooooooooooo.....................................................3             ",
        "         |.........................................................oooooooooooooooooooooooooooooooooo.....................................................3             ",
        "         |.........................................................oooooooooooooooooooooooooooooooooo.....................................................3             ",
        "         |-|..............................................................................................................................................3             ",
        "           |..............................................................................................................................................3             ",
        "           |..............................................................................................................................................3             ",
        "           |..............................................................................................................................................3             "
      ],
      "palettes": [
        "roof_palette"
      ],
      "place_items": [
        {
          "item": "roof_trash",
          "x": [
            13,
            23
          ],
          "y": [
            0,
            23
          ],
          "chance": 50,
          "repeat": [
            1,
            3
          ]
        }
      ]
    },
    "id": "39329807-c21f-44c0-844a-3483b46eb50e"
  },
  {
    "type": "mapgen",
    "method": "json",
    "om_terrain": [
      [
        "mall_a_47_roof",
        "mall_a_48_roof",
        "mall_a_49_roof",
        "mall_a_50_roof",
        "mall_a_51_roof",
        "mall_a_52_roof",
        "mall_a_53_roof"
      ]
    ],
    "object": {
      "fill_ter": "t_thconc_floor",
      "rows": [
        "           !..............................................................................................................................................%             ",
        "         !2!..............................................................................................).....*....*....................................%             ",
        "         !..........................................................................................)........................oooo.........................%             ",
        "         !............................................3......................................................3...............oooo.........................%             ",
        "         !..............................|||||||||11111||=||..........................................|||11111||=||||||||.....oooo.........................%             ",
        "         !.......................oooo...|___________zz3___|..........................................|_______3_______zz|.....oooo.........................%             ",
        "       !2!.......................oooo...||||||____zzz_____|ȴ.........................................|____________||||||.....oooo.........................%%%           ",
        "       !.........................oooo...|EEEE|____________||||||||||||||||||||||||==||||||||||||||||||____________|EEEE|.....oooo...........................%           ",
        "       !2!.......................oooo...|EEEŊ|z_________________________xxx_________z|z____________z______________|ŊEEE|...................................%%           ",
        "         !.......................oooo...|++++|___z_____________zzzzz______________z|||_z___________z______________|++++|...................................%            ",
        "         !.......................oooo...|___________________z__zz_z________________|>|___________________]_____________|ȴ....oooo....oooooooooooooo........%            ",
        "         !.......................oooo...|___z_______z_______z__zzz_________________|=|____________z____________z_______|.....oooo....oooooooooooooo........%            ",
        "         !..............................|___zz__________________________________________________z_z___________zz_______|.....oooo....oooooooooooooo........%            ",
        "         !..............................|___________________________z___________________________z______________________|.....oooo....oooooooooooooo........%            ",
        "         !.............................ȴ|++++|______z______________________x______________z_z______z_____________||++++|...................................%            ",
        "       !2!..............................|EEEŊ|____________________z_z_____xxxx__________zzz_z____zzz_______]_____>|ŊEEE|...................................%%           ",
        "       !................................|EEEE|____________||||||||||||||||||||||||==||||||||||||||||||___________||EEEE|.....oooo..........................%            ",
        "       !2!..............................||||||_____z______|............4............................ȴ|____________||||||.....oooo..........................%%           ",
        "         !..............................|___z______zz_3___|............0.............................|_______3_______zz|.....oooo.........................%             ",
        "         !..............................|||||||||11111||=||............4.............................|||11111||=||||||||.....oooo.........................%             ",
        "         !............................................3...4............4.....................................3...............oooo.........................%             ",
        "         !................................................44444000044444.....................................................oooo.........................%             ",
        "         !2!........................................................................................................).....................................%             ",
        "           !..............................................................................................................................................%             "
      ],
      "palettes": [
        "mall_palette_2"
      ],
      "terrain": {
        "0": "t_chaingate_c",
        "1": "t_door_metal_locked",
        "2": "t_gutter_north",
        "3": "t_gates_control_brick",
        "4": "t_chainfence",
        ".": "t_flat_roof",
        ")": "t_flat_roof",
        "*": "t_flat_roof",
        "o": "t_glass_roof",
        " ": "t_open_air",
        "!": "t_gutter_west",
        "%": "t_gutter_east",
        ">": "t_stairs_down"
      },
      "place_monsters": [
        {
          "monster": "GROUP_MALL",
          "x": [
            51,
            71
          ],
          "y": [
            1,
            23
          ],
          "density": 0.4
        },
        {
          "monster": "GROUP_MALL",
          "x": [
            75,
            95
          ],
          "y": [
            1,
            23
          ],
          "density": 0.4
        },
        {
          "monster": "GROUP_MALL",
          "x": [
            99,
            119
          ],
          "y": [
            1,
            23
          ],
          "density": 0.4
        }
      ],
      "items": {
        "z": [
          {
            "item": "cannedfood",
            "chance": 50,
            "repeat": [
              1,
              2
            ]
          },
          {
            "item": "allclothes",
            "chance": 10,
            "repeat": [
              1,
              2
            ]
          },
          {
            "item": "livingroom",
            "chance": 20,
            "repeat": [
              1,
              2
            ]
          },
          {
            "item": "consumer_electronics",
            "chance": 50,
            "repeat": [
              1,
              2
            ]
          },
          {
            "item": "sports",
            "chance": 20,
            "repeat": [
              1,
              2
            ]
          },
          {
            "item": "winter",
            "chance": 20,
            "repeat": [
              1,
              2
            ]
          },
          {
            "item": "camping",
            "chance": 20,
            "repeat": [
              1,
              2
            ]
          },
          {
            "item": "alcohol",
            "chance": 20,
            "repeat": [
              1,
              2
            ]
          }
        ]
      },
      "place_items": [
        {
          "item": "roof_trash",
          "x": [
            13,
            23
          ],
          "y": [
            0,
            23
          ],
          "chance": 50,
          "repeat": [
            1,
            3
          ]
        }
      ],
      "vehicles": {
        ")": {
          "vehicle": "golf_cart",
          "chance": 30,
          "rotation": 90
        },
        "*": {
          "vehicle": "golf_cart_4seat",
          "chance": 30,
          "rotation": 180
        },
        "]": {
          "vehicle": "forklift",
          "chance": 30,
          "rotation": 90
        }
      }
    },
    "id": "fba5bb58-d3a3-4122-896a-fa2042657972"
  },
  {
    "type": "mapgen",
    "method": "json",
    "om_terrain": [
      [
        "mall_a_56_roof",
        "mall_a_57_roof",
        "mall_a_58_roof",
        "mall_a_59_roof",
        "mall_a_60_roof",
        "mall_a_61_roof",
        "mall_a_62_roof"
      ]
    ],
    "object": {
      "fill_ter": "t_flat_roof",
      "rows": [
        "           |..............................................................................................................................................3             ",
        "           |..............................................................................................................................................3             ",
        "           |..............................................................................................................................................3             ",
        "           |..............................................................................................................................................3             ",
        "         |2|..............................................................................................................................................3             ",
        "         |................................................................................................................................................3             ",
        "         |................................................................................................................................................3             ",
        "         |................................................................................................................................................3             ",
        "         |................................................................................................................................................3             ",
        "         |...............................................oooooooooooooooooooooo..........ooooooooooooooo...ooooooooooooooo................................3             ",
        "         |...............................................oooooooooooooooooooooo..........ooooooooooooooo...ooooooooooooooo................................3             ",
        "         |...............................................oooooooooooooooooooooo..........ooooooooooooooo...ooooooooooooooo................................3             ",
        "         |...............................................oooooooooooooooooooooo..........ooooooooooooooo...ooooooooooooooo................................3             ",
        "         |................................................................................................................................................3             ",
        "         |................................................................................................................................................3             ",
        "         |........................................................................oooo....................................................................3             ",
        "         |........................................................................oooo....................................................................3             ",
        "         |........................................................................oooo....................................................................3             ",
        "         |........................................................................oooo....................................................................3             ",
        "         |........................................................................oooo....................................................................3             ",
        "         |........................................................................oooo....................................................................3             ",
        "         |........................................................................oooo....................................................................3             ",
        "         |................................................................................................................................................3             ",
        "         |................................................................................................................................................3             "
      ],
      "palettes": [
        "roof_palette"
      ],
      "place_items": [
        {
          "item": "roof_trash",
          "x": [
            11,
            23
          ],
          "y": [
            0,
            23
          ],
          "chance": 50,
          "repeat": [
            1,
            3
          ]
        }
      ],
      "place_monsters": [
        {
          "monster": "GROUP_ROOF_ZOMBIE",
          "x": [
            123,
            143
          ],
          "y": [
            1,
            23
          ],
          "density": 0.4
        }
      ]
    },
    "id": "6f413ae5-96e5-4a3f-945d-a077b65b5104"
  },
  {
    "type": "mapgen",
    "method": "json",
    "om_terrain": [
      [
        "mall_a_65_roof",
        "mall_a_66_roof",
        "mall_a_67_roof",
        "mall_a_68_roof",
        "mall_a_69_roof",
        "mall_a_70_roof",
        "mall_a_71_roof"
      ]
    ],
    "object": {
      "fill_ter": "t_flat_roof",
      "rows": [
        "         |................................................................................................................................................3             ",
        "         |.......................................................................oooooo...................................................................3             ",
        "         |.......................................................................oooooo...................................................................3             ",
        "         |.......................................................................oooooo...................................................................3             ",
        "         |.......................................................................oooooo...................................................................3             ",
        "         |.......................................................................oooooo...................................................................3223          ",
        "         |.......................................................................oooooo......................................................................3          ",
        "         |.......................................................................oooooo......................................................................3          ",
        "         |................................................................................................................................................3--3          ",
        "         |................................................................................................................................................3             ",
        "         |................................................................................................................................................3             ",
        "         |....................................3-----------|...............................................................................................3             ",
        "         |....................................3           |...............................................................................................3             ",
        "         |------------------------------------3           |---------|...3----------------------|...3------------------------------------------------------3             ",
        "                                                                    |...3                      |...3                                                                    ",
        "                                                                    |...3                      |...3                                                                    ",
        "                                                                    |---3                      |---3                                                                    ",
        "                                                                                                                                                                        ",
        "                                                                                                                                                                        ",
        "                                                                                                                                                                        ",
        "                                                                                                                                                                        ",
        "                                                                                                                                                                        ",
        "                                                                                                                                                                        ",
        "                                                                                                                                                                        "
      ],
      "palettes": [
        "roof_palette"
      ],
      "place_items": [
        {
          "item": "roof_trash",
          "x": [
            15,
            23
          ],
          "y": [
            0,
            10
          ],
          "chance": 50,
          "repeat": [
            1,
            3
          ]
        }
      ]
    },
    "id": "11b22291-4319-41c9-8487-ed7351e4b275"
  }
]