[
  {
    "type": "mapgen",
    "method": "json",
    "om_terrain": [
      "s_pizza_parlor"
    ],
    "weight": 1000,
    "object": {
      "//": "Default terrain is floor but some things are outside (tables)",
      "fill_ter": "t_floor",
      "rows": [
        "-||||||||||||||-        ",
        "-FwlwL-P#######-4      Y",
        "-Flwlw#..U.U.U.g        ",
        "-#wlwl@........g        ",
        "-#lwlw#........g        ",
        "-#wlwl{........g        ",
        "-Olwlw{........g        ",
        "-Owlwl{........g        ",
        "-#lwlw{........G        ",
        "-#wlwl#........g        ",
        "-wlwlw#....BB..g        ",
        "-lwlwl#....TT..g        ",
        "-##f###....BB..-       Y",
        "-.............P-rfrrrrrR",
        "-..............-cccccccR",
        "-C.....BB..BB..gccccBccR",
        "-C.....TT..TT..gcccBTBcR",
        "---....BB..BB..gccccBccR",
        "-<+............gcccccccR",
        "---+-..........GccccBccR",
        "-sll-..BB..BB..gcccBTBcR",
        "-lll-..TT..TT..gccccBccR",
        "-tll-..BB..BB.PgcccccccR",
        "-||||||||||||||-rfrrrrrR"
      ],
      "set": [
        {
          "line": "terrain",
          "id": "t_concrete",
          "x": 20,
          "x2": 20,
          "y": 15,
          "y2": 17
        },
        {
          "point": "terrain",
          "id": "t_concrete",
          "x": 21,
          "y": 16
        },
        {
          "point": "terrain",
          "id": "t_concrete",
          "x": 19,
          "y": 16
        },
        {
          "line": "terrain",
          "id": "t_concrete",
          "x": 20,
          "x2": 20,
          "y": 19,
          "y2": 21
        },
        {
          "point": "terrain",
          "id": "t_concrete",
          "x": 21,
          "y": 20
        },
        {
          "point": "terrain",
          "id": "t_concrete",
          "x": 19,
          "y": 20
        }
      ],
      "terrain": {
        "4": "t_gutter_downspout",
        " ": "t_sidewalk",
        "#": "t_linoleum_white",
        "+": [
          [
            "t_door_b",
            20
          ],
          [
            "t_door_frame",
            10
          ],
          [
            "t_door_o",
            70
          ],
          [
            "t_door_c",
            5
          ],
          [
            "t_door_locked_interior",
            3
          ]
        ],
        "-": "t_wall_r",
        ".": "t_floor",
        "F": "t_linoleum_white",
        "G": "t_door_glass_c",
        "L": "t_linoleum_white",
        "O": "t_linoleum_white",
        "R": "t_railing_v",
        "c": "t_concrete",
        "f": "t_fencegate_c",
        "g": "t_wall_glass",
        "l": "t_linoleum_gray",
        "r": "t_railing_h",
        "s": "t_linoleum_gray",
        "t": "t_linoleum_gray",
        "w": "t_linoleum_white",
        "{": "t_linoleum_white",
        "<": "t_ladder_up",
        "|": "t_wall_r",
        "@": "t_console_broken"
      },
      "furniture": {
        "#": "f_counter",
        "B": "f_bench",
        "C": "f_trashcan",
        "F": "f_fridge",
        "H": "f_chair",
        "L": "f_locker",
        "O": "f_woodstove",
        "P": "f_indoor_plant",
        "T": "f_table",
        "U": "f_chair",
        "Y": "f_street_light",
        "s": "f_sink",
        "{": "f_rack"
      },
      "toilets": {
        "t": {}
      },
      "place_items": [
        {
          "item": "pizza_display",
          "x": 6,
          "y": [
            5,
            8
          ],
          "chance": 65,
          "repeat": [
            3,
            4
          ]
        },
        {
          "item": "pizza_kitchen",
          "x": 1,
          "y": [
            3,
            5
          ],
          "chance": 80,
          "repeat": [
            7,
            10
          ]
        },
        {
          "item": "pizza_kitchen",
          "x": 1,
          "y": [
            8,
            9
          ],
          "chance": 82,
          "repeat": [
            7,
            9
          ]
        },
        {
          "item": "pizza_fridge",
          "x": 1,
          "y": [
            1,
            2
          ],
          "chance": 80,
          "repeat": [
            9,
            10
          ]
        },
        {
          "item": "pizza_beer",
          "x": [
            9,
            13
          ],
          "y": 1,
          "chance": 70,
          "repeat": [
            2,
            3
          ]
        },
        {
          "item": "pizza_soda",
          "x": 6,
          "y": [
            9,
            12
          ],
          "chance": 70,
          "repeat": [
            2,
            5
          ]
        },
        {
          "item": "pizza_table",
          "x": [
            11,
            12
          ],
          "y": 11,
          "chance": 25
        },
        {
          "item": "pizza_beer",
          "x": [
            11,
            12
          ],
          "y": 11,
          "chance": 15,
          "repeat": [
            1,
            2
          ]
        },
        {
          "item": "pizza_table",
          "x": [
            7,
            8
          ],
          "y": 16,
          "chance": 25
        },
        {
          "item": "pizza_table",
          "x": [
            11,
            12
          ],
          "y": 16,
          "chance": 23,
          "repeat": [
            1,
            2
          ]
        },
        {
          "item": "pizza_soda",
          "x": [
            11,
            12
          ],
          "y": 16,
          "chance": 15,
          "repeat": [
            1,
            2
          ]
        },
        {
          "item": "pizza_table",
          "x": 20,
          "y": 16,
          "chance": 25
        },
        {
          "item": "pizza_table",
          "x": [
            7,
            8
          ],
          "y": 21,
          "chance": 23,
          "repeat": [
            1,
            2
          ]
        },
        {
          "item": "pizza_beer",
          "x": [
            7,
            8
          ],
          "y": 21,
          "chance": 15,
          "repeat": [
            1,
            2
          ]
        },
        {
          "item": "pizza_table",
          "x": [
            11,
            12
          ],
          "y": 21,
          "chance": 25
        },
        {
          "item": "pizza_table",
          "x": 20,
          "y": 20,
          "chance": 23,
          "repeat": [
            1,
            2
          ]
        },
        {
          "item": "pizza_soda",
          "x": 20,
          "y": 20,
          "chance": 15,
          "repeat": [
            1,
            2
          ]
        },
        {
          "item": "pizza_locker",
          "x": 5,
          "y": 1,
          "chance": 55,
          "repeat": [
            5,
            6
          ]
        },
        {
          "item": "pizza_bathroom",
          "x": [
            2,
            3
          ],
          "y": [
            20,
            22
          ],
          "chance": 37,
          "repeat": [
            1,
            3
          ]
        },
        {
          "item": "pizza_trash",
          "x": 1,
          "y": [
            15,
            16
          ],
          "chance": 50,
          "repeat": [
            7,
            9
          ]
        }
      ]
    },
    "id": "2440b3a7-f346-4f81-aba6-5b1c9ebbd6ba"
  },
  {
    "type": "mapgen",
    "method": "json",
    "om_terrain": "s_pizza_parlor_roof",
    "weight": 200,
    "object": {
      "fill_ter": "t_flat_roof",
      "rows": [
        "|222222222222222        ",
        "|..............5        ",
        "|..............3        ",
        "|..............3        ",
        "|..............3        ",
        "|..............3        ",
        "|..............3        ",
        "|..............3        ",
        "|.&............3        ",
        "|..............3        ",
        "|..............3        ",
        "|..............3        ",
        "|..............3        ",
        "|..............3        ",
        "|.&............3        ",
        "|.A............3        ",
        "|..............3        ",
        "|..............3        ",
        "|>.............3        ",
        "|..............3        ",
        "|..............3        ",
        "|..............3        ",
        "|.=............3        ",
        "----------------        "
      ],
      "terrain": {
        "2": "t_gutter_north",
        "3": "t_gutter_east",
        "5": "t_gutter_drop",
        ".": "t_flat_roof",
        " ": "t_open_air",
        "-": "t_gutter_south",
        "|": "t_gutter_west",
        ">": "t_ladder_down"
      },
      "furniture": {
        "&": "f_roof_turbine_vent",
        "=": "f_vent_pipe",
        "A": "f_air_conditioner"
      },
      "place_items": [
        {
          "item": "roof_trash",
          "x": [
            4,
            13
          ],
          "y": [
            3,
            20
          ],
          "chance": 50,
          "repeat": [
            1,
            3
          ]
        }
      ],
      "place_nested": [
        {
          "chunks": [
            [
              "null",
              20
            ],
            [
              "roof_2x2_utilities_b",
              15
            ],
            [
              "roof_2x2_utilities_c",
              5
            ],
            [
              "roof_2x2_utilities_d",
              20
            ],
            [
              "roof_2x2_utilities",
              20
            ],
            [
              "roof_2x2_golf",
              3
            ],
            [
              "roof_3x3_wine",
              3
            ],
            [
              "roof_4x4_utility_1",
              20
            ]
          ],
          "x": [
            4,
            11
          ],
          "y": [
            5,
            15
          ]
        }
      ]
    },
    "id": "4a897704-032e-479c-9356-b201034d069a"
  },
  {
    "type": "mapgen",
    "method": "json",
    "om_terrain": [
      "s_pizza_parlor_1"
    ],
    "weight": 1000,
    "object": {
      "//": "Default terrain is floor but some things are outside (tables)",
      "fill_ter": "t_floor",
      "rows": [
        "      ************* SS  ",
        "      *SSSSSSSSSSS* SS  ",
        "  SSSSSSbxbSSSbxbSSSSSSS",
        "  S   *SbxbSSSbxbS|gGGg|",
        "  SMM *SSSSSSSSSSS|P..P|",
        "  SMM|||ggggggg||||....|",
        "  SMM|PHTH.C.HTHP.....C|",
        "  S  g............R.HTB|",
        "mmSSSG.RRRRRRRR...R.HTB|",
        "mmSSSGC...........R.HTB|",
        "  SbbgTH.TTTT.....R.HTB|",
        "  Sxx|TH.BBBB.........P|",
        "  Sbb|||||||||...|||||||",
        "  S  Y|Fl{|$l@...QXQXQX|",
        "  S   |FlO|$l#........Q|",
        "  S   |FlO|$l#........X|",
        "  S   |Fl{|ll#..CRRRRRR|",
        "  S   |llllll@...H.H.H.|",
        "  S   |#s#llll...TTTTTB|",
        "|...| |||||+||P..BBBBBB|",
        "|...|   |LLlL|||||||||||",
        "|...DSSSDlllL|W..<|     ",
        "|...|   |||||||D|||     ",
        "|...|                  Y"
      ],
      "terrain": {
        " ": [
          [
            "t_region_groundcover_urban",
            15
          ],
          "t_region_shrub_decorative"
        ],
        "S": "t_sidewalk",
        "*": "t_region_shrub",
        "#": "t_linoleum_white",
        "D": "t_door_locked",
        "+": [
          [
            "t_door_b",
            20
          ],
          [
            "t_door_frame",
            10
          ],
          [
            "t_door_o",
            70
          ],
          [
            "t_door_c",
            5
          ],
          [
            "t_door_locked_interior",
            3
          ]
        ],
        ".": "t_floor",
        "b": "t_sidewalk",
        "F": "t_linoleum_white",
        "G": "t_door_glass_c",
        "L": "t_linoleum_white",
        "O": "t_linoleum_white",
        "R": "t_railing_v",
        "c": "t_concrete",
        "f": "t_fencegate_c",
        "m": "t_sandbox",
        "M": "t_monkey_bars",
        "g": "t_wall_glass",
        "l": "t_linoleum_gray",
        "s": "t_linoleum_gray",
        "t": "t_linoleum_gray",
        "w": "t_linoleum_white",
        "{": "t_linoleum_white",
        "x": "t_sidewalk",
        "<": "t_ladder_up",
        "|": "t_wall_w",
        "@": "t_console_broken"
      },
      "furniture": {
        "#": "f_counter",
        "b": "f_bench",
        "B": "f_sofa",
        "C": "f_trashcan",
        "Q": "f_arcade_machine",
        "X": "f_pinball_machine",
        "$": "f_glass_fridge",
        "F": "f_fridge",
        "H": "f_chair",
        "L": "f_locker",
        "O": "f_oven",
        "P": "f_indoor_plant",
        "T": "f_table",
        "x": "f_table",
        "U": "f_chair",
        "s": "f_sink",
        "W": "f_water_heater",
        "Y": "f_street_light",
        "{": "f_rack"
      },
      "items": {
        "C": {
          "item": "pizza_trash",
          "chance": 50,
          "repeat": [
            7,
            9
          ]
        },
        "F": {
          "item": "pizza_fridge",
          "chance": 80,
          "repeat": [
            9,
            10
          ]
        },
        "{": {
          "item": "pizza_kitchen",
          "chance": 82,
          "repeat": [
            7,
            9
          ]
        },
        "L": {
          "item": "pizza_locker",
          "chance": 55,
          "repeat": [
            5,
            6
          ]
        },
        "$": {
          "item": "pizza_display",
          "chance": 45,
          "repeat": [
            3,
            4
          ]
        },
        "T": {
          "item": "pizza_table",
          "chance": 25
        },
        "c": {
          "item": "pizza_soda",
          "chance": 25
        }
      },
      "place_vehicles": [
        {
          "vehicle": "bicycle",
          "x": [
            1,
            3
          ],
          "y": [
            20,
            23
          ],
          "chance": 35,
          "rotation": 270
        }
      ]
    },
    "id": "db4de182-e5ff-49ed-9951-d1a85a0d43a6"
  },
  {
    "type": "mapgen",
    "method": "json",
    "om_terrain": "s_pizza_parlor_roof_1",
    "weight": 200,
    "object": {
      "fill_ter": "t_tar_flat_roof",
      "rows": [
        "                        ",
        "                        ",
        "                        ",
        "                  222222",
        "                  |:...3",
        "     22222222222222..X.3",
        "     |.................3",
        "     |.................3",
        "     |.................3",
        "     |.................3",
        "     |.................3",
        "     |.................3",
        "     ||................3",
        "      |................3",
        "      |................3",
        "      |.&..............3",
        "      |.A..............3",
        "      |................3",
        "      |................3",
        "..... |-|..............3",
        ".....   |.........||||||",
        ".....   |.....###>#     ",
        ".....   ------#####     ",
        ".....                   "
      ],
      "terrain": {
        "2": "t_gutter_north",
        "3": "t_gutter_east",
        ".": "t_tar_flat_roof",
        " ": "t_open_air",
        "-": "t_gutter_south",
        "|": "t_gutter_west",
        "#": "t_grate",
        ">": "t_ladder_down"
      },
      "furniture": {
        "&": "f_roof_turbine_vent",
        ":": "f_cellphone_booster",
        "X": "f_small_satelitte_dish",
        "A": "f_air_conditioner"
      },
      "place_items": [
        {
          "item": "roof_trash",
          "x": [
            7,
            20
          ],
          "y": [
            7,
            18
          ],
          "chance": 50,
          "repeat": [
            1,
            3
          ]
        }
      ],
      "place_nested": [
        {
          "chunks": [
            [
              "null",
              20
            ],
            [
              "roof_2x2_utilities_b",
              15
            ],
            [
              "roof_2x2_utilities_c",
              5
            ],
            [
              "roof_2x2_utilities_d",
              40
            ],
            [
              "roof_2x2_utilities",
              50
            ],
            [
              "roof_2x2_golf",
              5
            ],
            [
              "roof_3x3_wine",
              5
            ],
            [
              "roof_4x4_utility_1",
              30
            ]
          ],
          "x": [
            7,
            15
          ],
          "y": [
            9,
            13
          ]
        }
      ]
    },
    "id": "9c8550c7-699b-4df1-9c5d-0b2de7dedc44"
  }
]