[
  {
    "type": "mapgen",
    "method": "json",
    "om_terrain": [
      [
        "waiting_area"
      ],
      [
        "waiting_area_roof"
      ]
    ],
    "weight": 250,
    "object": {
      "rotation": [
        3,
        3
      ],
      "fill_ter": "t_floor",
      "rows": [
        "QQQQQQQQ|W|++|W|QQQQQQQf",
        "QQ7QQQQQ|a.....|QQQQQ7Qf",
        "f|||WW|||.....Y|||WW|||f",
        "/|cc..d.^......^.?????|f",
        "/|F..hd...b..b..M....?| ",
        "/|F...x...b..b....nn..W ",
        "/|F.......b..b....nn..W ",
        "/|||+||8..b..b.M.....?| ",
        "s'''''|9.........?????| ",
        "s'''''|||||..|||||||||| ",
        "s'''''|SSi+..+...hCSoe| ",
        "s'''''|iii|^.|Y..hCiiiW ",
        "s'''''|iii||||^.....h.W ",
        "s'''''|+|+|yi+.....hth| ",
        "s'''''|i|i|yi|..F|||||| ",
        "s'''''|T|T|]S|a.F|ddcc| ",
        "/|||+|||||||||..F|.h.x| ",
        "/|lB'''|^.FFF.........W ",
        "/|lB'''+..............W ",
        "/|lB'''|d.h.|.h.c|dh..| ",
        "/|lB'''|dccx|xddc|dccx|f",
        "/||||||||||||||||||||||f",
        "%%%%%%%%%%%%%%%%%%%%%%%f",
        "ffffffffffffffffffffffff",
        "********zzzzzzzz********",
        "********zzzzzzzz********",
        "*5111111zzzzzzzz1111115*",
        "*2zzzzzzzzzzzzzzzzzzzz4*",
        "*2zzzzz(zzzzzzzzzzzzzz4*",
        "*2zzUUzzzzzUUzzzzzUUzz4*",
        "*2zzUUzzzzzUUzzzzzUUzz4*",
        "*2zzzzzzzzzzzzzzzzzzzz4*",
        "*2zzzzzzzzzzzzzzzzzzzz4*",
        "*2zzzzzzzzzzzzzzzzzzzz4*",
        "*2zzzzzzzzzzzzzzzzzzzz4*",
        "*2zzzzzzzzzzzzzzzzzzzz4*",
        "*2zzzzzzzzzzzzzzzzzzzz4*",
        "*2zzzzzzzzzzzzzzzzzzzz4*",
        "*2zzzzzzzzzzzzzzzzzzzz4*",
        "*2zzzzzzzzz[zzzzzzzzzz4*",
        "*2zzzzzzzzzzzzzzzzzzzz4*",
        "*2zzzzzzzzzzzzzzzzzzzz4*",
        "*2zzzzzzzzzzzzzzzzzzzz4*",
        "*2zzzzzzzzzzzzzzzzzzzz4*",
        "*2zzzzzzzzzzzzzzzzzzzz4*",
        "*5333333333333333333335*",
        "************************",
        "************************"
      ],
      "palettes": [
        "airport_palette"
      ],
      "place_monsters": [
        {
          "monster": "GROUP_ZOMBIE",
          "x": [
            4,
            23
          ],
          "y": [
            5,
            23
          ],
          "density": 0.2
        }
      ],
      "place_nested": [
        {
          "chunks": [
            [
              "null",
              0
            ],
            [
              "roof_4x4_utility_1",
              40
            ],
            [
              "roof_2x2_utilities_b",
              15
            ],
            [
              "roof_2x2_utilities_c",
              5
            ],
            [
              "roof_2x2_utilities_d",
              20
            ],
            [
              "roof_2x2_utilities",
              20
            ],
            [
              "roof_4x4_utility_1",
              20
            ]
          ],
          "x": [
            14,
            18
          ],
          "y": [
            32,
            41
          ]
        }
      ],
      "place_vehicles": [
        {
          "vehicle": "golf_cart",
          "x": [
            1,
            3
          ],
          "y": [
            9,
            11
          ],
          "chance": 50,
          "rotation": 180
        },
        {
          "vehicle": "golf_cart",
          "x": [
            1,
            3
          ],
          "y": [
            13,
            15
          ],
          "chance": 50,
          "rotation": 180
        }
      ]
    },
    "id": "e1d093bd-501a-448a-80f0-675d9aab6e55"
  },
  {
    "type": "mapgen",
    "method": "json",
    "om_terrain": [
      [
        "control_tower_0"
      ],
      [
        "control_tower_1"
      ],
      [
        "control_tower_2"
      ],
      [
        "control_tower_roof"
      ]
    ],
    "weight": 250,
    "object": {
      "rotation": [
        3,
        3
      ],
      "fill_ter": "t_floor",
      "rows": [
        "////////// ss /////////f",
        "////////// ss /////////f",
        "           ss        //f",
        "   ssssssssssssssssss//f",
        "   ssssssssssssssssss//f",
        "   ss//Q|||ww|||Q//ss//f",
        "   ss/QQ|.bttb.|QQ/ss//f",
        "   ssQQQ|.bttb.|QQQss//f",
        "   ss|w||.bttb.||w|ss//f",
        "   ss|^F.........^|ss//f",
        "   ss|....||||a...|ss//f",
        "sssss=....+'<|...c|ss//f",
        "sssss=....+''|...c|ss//f",
        "   ss|||||||||+|+||ss//f",
        "   ss|Ti+iiiiii|yy|ss//f",
        "   ss||||+|+|iS||||ss//f",
        "   ssQQQ|i|i|iS|QQQss//f",
        "   ss/QQ|T|T|iS|QQ/ss//f",
        "   ss//Q||||||||Q//ss//f",
        "   ssssssssssssssssss//f",
        "   ssssssssssssssssss//f",
        "///////////////////////f",
        "///////////////////////f",
        "ffffffffffffffffffffffff",
        "************************",
        "************************",
        "************************",
        "************************",
        "************************",
        "********|||ww|||********",
        "********|dxxddc|********",
        "********|dh.h.c|********",
        "*****||||......||||*****",
        "*****|dd...^M|=|FF|*****",
        "*****|xh.Y||||....|*****",
        "*****wc...+'>|.FFFw*****",
        "*****wch..+'<|.FFFw*****",
        "*****|x...||||....|*****",
        "*****|dd...^a|=|FF|*****",
        "*****||||......||||*****",
        "********|d.hh.x|********",
        "********|dxccdd|********",
        "********|||ww|||********",
        "************************",
        "************************",
        "************************",
        "************************",
        "************************",
        "************************",
        "************************",
        "************************",
        "******RRRRRRRRRRRR******",
        "******RssssssssssR******",
        "******Rs|VVVVVV|sR******",
        "***RRRRs|xddccx|sRRRR***",
        "***Rssss|x..h.x|ssssR***",
        "***Rs||||......||||sR***",
        "***RsVFF...Y^...ccVsR***",
        "***RsV....||||...dVsR***",
        "***Rsv....+']|..hdVsR***",
        "***Rsv....+'>|...xVsR***",
        "***RsV....||||...xVsR***",
        "***RsVFF...^a...ddVsR***",
        "***Rs||||......||||sR***",
        "***Rssss|d..h.d|ssssR***",
        "***RRRRs|dxxccd|sRRRR***",
        "******Rs|VVVVVV|sR******",
        "******RssssssssssR******",
        "******RRRRRRRRRRRR******",
        "************************",
        "************************",
        "************************",
        "************************",
        "************************",
        "************************",
        "************************",
        "************************",
        "********21111114********",
        "********2zzzzzz4********",
        "********2zzUUzz4********",
        "*****5112fzUUzz4115*****",
        "*****2)z)fzzzzzzzz4*****",
        "*****2zzzfzzzzzzzz4*****",
        "*****2zzzzzz[zzUUz4*****",
        "*****2zzzzzzzzzUUz4*****",
        "*****2zzzfzzzzzzzz4*****",
        "*****2(z(fzzzzzzzz4*****",
        "*****5332fzUUzz4335*****",
        "********2zzUUzz4********",
        "********2zzzzzz4********",
        "********23333334********",
        "************************",
        "************************",
        "************************",
        "************************",
        "************************"
      ],
      "palettes": [
        "airport_palette"
      ]
    },
    "id": "8c560e0b-3691-47e3-b4cf-1cdb42eed918"
  },
  {
    "type": "mapgen",
    "method": "json",
    "om_terrain": [
      [
        "fuel_station"
      ],
      [
        "fuel_station_roof"
      ]
    ],
    "weight": 250,
    "object": {
      "rotation": [
        3,
        3
      ],
      "fill_ter": "t_floor",
      "rows": [
        "////////////////////////",
        "////////////////////////",
        "fffffffffffffff||w|||w||",
        "sssssssssssfsss|''NNN''|",
        "JsssJsssJssfsss+'''''''w",
        "sssssssssssfsss|'''''''|",
        "sssssssssssffff|'qqq'xx|",
        "sssssssssssssss|=w|N'XX|",
        "___________,,,ssss|N'XX|",
        ",,,,,,,,,,,,_,ssss|N'XX|",
        "___________,,,ssss||||||",
        "___________,_,ssssfssssf",
        "___________,,,ssssfs66sf",
        "___________,_,ssssfs66sf",
        "_,,,,______,,,ssssfssssf",
        "___________,_,ssDD|+||||",
        "___________,,,ssDD|'xxx|",
        "___________,_,ssDD|''''|",
        "___________,,,ssss|''''|",
        ",,,,,,,,,,,,_,ssss=''''w",
        "___________,,,ssss|qqqq|",
        "ssssssssssssssssss||ww||",
        "           ss          f",
        "////////// ss /////////f",
        "************************",
        "************************",
        "***************111111115",
        "***************zzzzzzzz4",
        "***************zzzzzzzz4",
        "***************zzzzzzzz4",
        "***************zzzzzzzz4",
        "***************zzzzzzzz4",
        "******************zzzzz4",
        "******************zzzzz4",
        "******************zzzzz4",
        "************************",
        "************************",
        "************************",
        "************************",
        "******************zzzzz4",
        "******************zzzzz4",
        "******************zzzzz4",
        "******************zzzzz4",
        "******************zzzzz4",
        "******************zzzzz4",
        "******************333335",
        "************************",
        "************************"
      ],
      "palettes": [
        "airport_palette"
      ],
      "place_terrain": [
        {
          "ter": "t_gas_tank",
          "x": 13,
          "y": 4
        }
      ],
      "place_liquids": [
        {
          "liquid": "avgas",
          "x": 13,
          "y": 4,
          "repeat": [
            0,
            100
          ]
        }
      ],
      "gaspumps": {
        "J": {
          "amount": [
            0,
            100
          ]
        }
      },
      "place_monsters": [
        {
          "monster": "GROUP_SMALL_STATION",
          "x": [
            4,
            23
          ],
          "y": [
            5,
            23
          ],
          "density": 0.05
        }
      ],
      "place_loot": [
        {
          "group": "supplies_electronics",
          "x": [
            19,
            22
          ],
          "y": 20,
          "chance": 5,
          "repeat": [
            1,
            3
          ]
        },
        {
          "group": "tools_lighting_industrial",
          "x": [
            19,
            22
          ],
          "y": 20,
          "chance": 5,
          "repeat": [
            1,
            2
          ]
        }
      ]
    },
    "id": "f28be62f-3b57-45ca-ad74-0ad9fdfe2532"
  },
  {
    "type": "mapgen",
    "method": "json",
    "om_terrain": [
      "runway"
    ],
    "weight": 250,
    "object": {
      "rotation": [
        3,
        3
      ],
      "fill_ter": "t_floor",
      "rows": [
        "/%fss_,___________,_ssss",
        "/%fss_,___________,_ssss",
        "/%fss_,___________,_ssss",
        "/%fss_,_____,_____,_ssss",
        "/%fss_,_____,_____,_ssss",
        "/%fss_,_____,_____,_ssss",
        "/%fss_,_____,_____,_ssss",
        "/%fss_,___________,_ssss",
        "/%fss_,___________,_ssss",
        "/%fss_,___________,_ssss",
        "/%fss_,_____,_____,_ssss",
        "/%fss_,_____,_____,_ssss",
        "/%fss_,_____,_____,_ssss",
        "/%fss_,_____,_____,_ssss",
        "/%fss_,___________,_ssss",
        "/%fss_,___________,_ssss",
        "/%fss_,___________,_ssss",
        "/%fss_,_____,_____,_ssss",
        "/%fss_,_____,_____,_ssss",
        "/%fss_,_____,_____,_ssss",
        "/%fss_,_____,_____,_ssss",
        "/%fss_,___________,_ssss",
        "/%fss_,___________,_ssss",
        "/%fss_,___________,_ssss"
      ],
      "palettes": [
        "airport_palette"
      ]
    },
    "id": "e30729fe-9cf7-4fa2-a608-b639fc28568e"
  },
  {
    "type": "mapgen",
    "method": "json",
    "om_terrain": [
      "runway_carts"
    ],
    "weight": 250,
    "object": {
      "rotation": [
        3,
        3
      ],
      "fill_ter": "t_floor",
      "rows": [
        "/%fss_,___________,_ss#Q",
        "/%fss_,___________,_ss#Q",
        "/%fss_,___________,_ss#f",
        "/%fss_,_____,_____,_ss#/",
        "/%fss_,_____,_____,_ss#/",
        "/%fss_,_____,_____,_ss#/",
        "/%fss_,_____,_____,_ss#/",
        "/%fss_,___________,_ss#/",
        "/%fss_,___________,_ssss",
        "/%fss_,___________,_ssss",
        "/%fss_,_____,_____,_ssss",
        "/%fss_,_____,_____,_ssss",
        "/%fss_,_____,_____,_ssss",
        "/%fss_,_____,_____,_ssss",
        "/%fss_,___________,_ssss",
        "/%fss_,___________,_ssss",
        "/%fss_,___________,_ss#/",
        "/%fss_,_____,_____,_ss#/",
        "/%fss_,_____,_____,_ss#/",
        "/%fss_,_____,_____,_ss#/",
        "/%fss_,_____,_____,_ss#/",
        "/%fss_,___________,_ss#/",
        "/%fss_,___________,_ss#/",
        "/%fss_,___________,_ss#f"
      ],
      "palettes": [
        "airport_palette"
      ]
    },
    "id": "deeefc32-3dff-4feb-8d84-8cb8b2fc6cfe"
  },
  {
    "type": "mapgen",
    "method": "json",
    "om_terrain": [
      "runway_fuel2"
    ],
    "weight": 250,
    "object": {
      "rotation": [
        3,
        3
      ],
      "fill_ter": "t_floor",
      "rows": [
        "/%fss_,___________,_ss  ",
        "/%fss_,___________,_ss  ",
        "/%fss_,___________,_ss  ",
        "/%fss_,_____,_____,_ss  ",
        "/%fss_,_____,_____,_ss  ",
        "/%fss_,_____,_____,_ss  ",
        "/%fss_,_____,_____,_ss  ",
        "/%fss_,___________,_ss  ",
        "/%fss_,___________,_ss  ",
        "/%fss_,___________,_ss  ",
        "/%fss_,_____,_____,_ss  ",
        "/%fss_,_____,_____,_ssss",
        "/%fss_,_____,_____,_ssss",
        "/%fss_,_____,_____,_ss  ",
        "/%fss_,___________,_ss  ",
        "/%fss_,___________,_ss  ",
        "/%fss_,___________,_ss  ",
        "/%fss_,_____,_____,_ss  ",
        "/%fss_,_____,_____,_ss  ",
        "/%fss_,_____,_____,_ss  ",
        "/%fss_,_____,_____,_ss  ",
        "/%fss_,___________,_ss  ",
        "/%fss_,___________,_ss  ",
        "/%fss_,___________,_ssff"
      ],
      "palettes": [
        "airport_palette"
      ]
    },
    "id": "7b8fae16-efd9-420e-a052-1d3f8d3769c6"
  },
  {
    "type": "mapgen",
    "method": "json",
    "om_terrain": [
      "runway_wild"
    ],
    "weight": 250,
    "object": {
      "rotation": [
        3,
        3
      ],
      "fill_ter": "t_floor",
      "rows": [
        "/%fss_,___________,_ssf/",
        "/%fss_,___________,_ssf/",
        "/%fss_,___________,_ssf/",
        "/%fss_,_____,_____,_ssf/",
        "/%fss_,_____,_____,_ssf/",
        "/%fss_,_____,_____,_ssf/",
        "/%fss_,_____,_____,_ssf/",
        "/%fss_,___________,_ssf/",
        "/%fss_,___________,_ssf/",
        "/%fss_,___________,_ssf/",
        "/%fss_,_____,_____,_ssf/",
        "/%fss_,_____,_____,_ssf/",
        "/%fss_,_____,_____,_ssf/",
        "/%fss_,_____,_____,_ssf/",
        "/%fss_,___________,_ssf/",
        "/%fss_,___________,_ssf/",
        "/%fss_,___________,_ssf/",
        "/%fss_,_____,_____,_ssf/",
        "/%fss_,_____,_____,_ssf/",
        "/%fss_,_____,_____,_ssf/",
        "/%fss_,_____,_____,_ssf/",
        "/%fss_,___________,_ssf/",
        "/%fss_,___________,_ssf/",
        "/%fss_,___________,_ssf/"
      ],
      "palettes": [
        "airport_palette"
      ]
    },
    "id": "444a908d-887f-4209-9db3-4d2f0cb3fb1b"
  },
  {
    "type": "mapgen",
    "method": "json",
    "om_terrain": [
      "runway_hangar"
    ],
    "weight": 250,
    "object": {
      "rotation": [
        3,
        3
      ],
      "fill_ter": "t_floor",
      "rows": [
        "/%fss_,___________,_ssf/",
        "fffss_,___________,_ssf/",
        "sssss_,___________,_ssf/",
        "sssss_,_____,_____,_ssf/",
        "______,_____,_____,_ssf/",
        ",,,,,,,_____,_____,_ssf/",
        "____________,_____,_ssf/",
        "__________________,_ssf/",
        "__________________,_ssf/",
        "__________________,_ssf/",
        "____________,_____,_ssf/",
        "___,,,,_____,_____,_ssf/",
        "____________,_____,_ssf/",
        "____________,_____,_ssf/",
        "__________________,_ssf/",
        "__________________,_ssf/",
        "__________________,_ssf/",
        ",,,,,,,_____,_____,_ssf/",
        "______,_____,_____,_ssf/",
        "sssss_,_____,_____,_ssf/",
        "sssss_,_____,_____,_ssf/",
        "fffss_,___________,_ssf/",
        "/%fss_,___________,_ssf/",
        "/%fss_,___________,_ssf/"
      ],
      "place_vehicles": [
        {
          "vehicle": "helicopters",
          "chance": 30,
          "fuel": -1,
          "rotation": 180,
          "status": -1,
          "x": 8,
          "y": 12
        }
      ],
      "palettes": [
        "airport_palette"
      ]
    },
    "id": "e648ac68-37d1-4245-acc5-e882005175c7"
  },
  {
    "type": "mapgen",
    "method": "json",
    "om_terrain": [
      "runway_hangar2"
    ],
    "weight": 250,
    "object": {
      "rotation": [
        3,
        3
      ],
      "fill_ter": "t_floor",
      "rows": [
        "/%fss_,___________,_ssff",
        "fffss_,___________,_ssss",
        "sssss_,___________,_ssss",
        "sssss_,_____,_____,_ssss",
        "______,_____,_____,_ssss",
        ",,,,,,,_____,_____,_ssss",
        "____________,_____,_ssss",
        "__________________,_ssss",
        "__________________,_ssss",
        "__________________,_ssss",
        "____________,_____,_ssss",
        "___,,,,_____,_____,_ssss",
        "____________,_____,_ssss",
        "____________,_____,_ssss",
        "__________________,_ssss",
        "__________________,_ssss",
        "__________________,_ssss",
        ",,,,,,,_____,_____,_ssss",
        "______,_____,_____,_ssss",
        "sssss_,_____,_____,_ssss",
        "sssss_,_____,_____,_ssss",
        "fffss_,___________,_ssss",
        "/%fss_,___________,_ssss",
        "/%fss_,___________,_ssss"
      ],
      "palettes": [
        "airport_palette"
      ]
    },
    "id": "8449057b-aa63-4bbf-b057-9f9300eef2c5"
  },
  {
    "type": "mapgen",
    "method": "json",
    "om_terrain": [
      "runway_fuel"
    ],
    "weight": 250,
    "object": {
      "rotation": [
        3,
        3
      ],
      "fill_ter": "t_floor",
      "rows": [
        "/%fss_,___________,_ssf/",
        "/%fss_,___________,_ssf/",
        "/%fss_,___________,_ssff",
        "/%fss_,_____,_____,_ssss",
        "/%fss_,_____,_____,_ssss",
        "/%fss_,_____,_____,_ssss",
        "/%fss_,_____,_____,_ssss",
        "/%fss_,___________,_ssss",
        "/%fss_,___________,_____",
        "/%fss_,___________,,,,,,",
        "/%fss_,_____,___________",
        "/%fss_,_____,___________",
        "/%fss_,_____,___________",
        "/%fss_,_____,___________",
        "/%fss_,___________,,,,__",
        "/%fss_,_________________",
        "/%fss_,_________________",
        "/%fss_,_____,___________",
        "/%fss_,_____,___________",
        "/%fss_,_____,_____,,,,,,",
        "/%fss_,_____,_____,_____",
        "/%fss_,___________,_ssss",
        "/%fss_,___________,_ss  ",
        "/%fss_,___________,_ss  "
      ],
      "palettes": [
        "airport_palette"
      ]
    },
    "id": "0d338f15-6e4d-4541-b9c3-7c89cb38591c"
  },
  {
    "type": "mapgen",
    "method": "json",
    "om_terrain": [
      "runway_start"
    ],
    "weight": 250,
    "object": {
      "rotation": [
        3,
        3
      ],
      "fill_ter": "t_floor",
      "rows": [
        "/%fsssssssssssssssssssf/",
        "/%fsssssssssssssssssssf/",
        "/%fss,,,,,,,,,,,,,,,ssf/",
        "/%fss,_,_,_,_,_,_,_,ssf/",
        "/%fss,,,,,,,,,,,,,,,ssf/",
        "/%fss_,___________,_ssf/",
        "/%fss_,___________,_ssf/",
        "/%fss_,___________,_ssf/",
        "/%fss_,___________,_ssf/",
        "/%fss_,___________,_ssf/",
        "/%fss_,_____,_____,_ssf/",
        "/%fss_,_____,_____,_ssf/",
        "/%fss_,_____,_____,_ssf/",
        "/%fss_,_____,_____,_ssf/",
        "/%fss_,___________,_ssf/",
        "/%fss_,___________,_ssf/",
        "/%fss_,___________,_ssf/",
        "/%fss_,_____,_____,_ssf/",
        "/%fss_,_____,_____,_ssf/",
        "/%fss_,_____,_____,_ssf/",
        "/%fss_,_____,_____,_ssf/",
        "/%fss_,___________,_ssf/",
        "/%fss_,___________,_ssf/",
        "/%fss_,___________,_ssf/"
      ],
      "palettes": [
        "airport_palette"
      ]
    },
    "id": "686b0f0c-26f2-4c31-ac90-ed618d0f5924"
  },
  {
    "type": "mapgen",
    "method": "json",
    "om_terrain": [
      "runway_end"
    ],
    "weight": 250,
    "object": {
      "rotation": [
        3,
        3
      ],
      "fill_ter": "t_floor",
      "rows": [
        "/%fss_,___________,_ssf/",
        "/%fss_,___________,_ssf/",
        "/%fss_,___________,_ssf/",
        "/%fss_,_____,_____,_ssf/",
        "/%fss_,_____,_____,_ssf/",
        "/%fss_,_____,_____,_ssf/",
        "/%fss_,_____,_____,_ssf/",
        "/%fss_,___________,_ssf/",
        "/%fss_,___________,_ssf/",
        "/%fss_,___________,_ssf/",
        "/%fss_,_____,_____,_ssf/",
        "/%fss_,_____,_____,_ssf/",
        "/%fss_,_____,_____,_ssf/",
        "/%fss_,_____,_____,_ssf/",
        "/%fss_,___________,_ssf/",
        "/%fss_,___________,_ssf/",
        "/%fss_,___________,_ssf/",
        "/%fss_,___________,_ssf/",
        "/%fss_,___________,_ssf/",
        "/%fss,,,,,,,,,,,,,,,ssf/",
        "/%fss,_,_,_,_,_,_,_,ssf/",
        "/%fss,,,,,,,,,,,,,,,ssf/",
        "/%fsssssssssssssssssssf/",
        "/%fsssssssssssssssssssf/"
      ],
      "palettes": [
        "airport_palette"
      ]
    },
    "id": "87f65ad1-f37f-425c-b610-b856e9bfd06f"
  },
  {
    "type": "mapgen",
    "method": "json",
    "om_terrain": [
      [
        "airport_lot_0"
      ],
      [
        "airport_lot_1"
      ]
    ],
    "weight": 250,
    "object": {
      "rotation": [
        3,
        3
      ],
      "fill_ter": "t_floor",
      "rows": [
        "ffffffffffffffffffffffff",
        "sssssssssssssssssssssssf",
        "sssssssssssssssssssssssf",
        "ss,,,,,,,,,,,,,,,,,,,ssf",
        "ss,_________________,ssf",
        "ss,_________________,ssf",
        "ss,_________________,ssf",
        "ss,_________________,ssf",
        "ss,_________________,ssf",
        "ss,,,,,,_______,,,,,,ssf",
        "ss,_________________,ssf",
        "ss,_________________,ssf",
        "ss,_________________,ssf",
        "ss,_________________,ssf",
        "ss,_________________,ssf",
        "ss,,,,,,_______,,,,,,ssf",
        "ss,_________________,ssf",
        "ss,_________________,ssf",
        "ss,_________________,ssf",
        "ss,_________________,ssf",
        "ss,_________________,ssf",
        "ss,,,,,,_______,,,,,,ssf",
        "ss,_________________,ssf",
        "ss,_________________,ssf",
        "ss,_________________,ssf",
        "ss,_________________,ssf",
        "ss,_________________,sss",
        "ss,,,,,,_______,,,,,,sss",
        "ss,_____________________",
        "ss,_____________________",
        "ss,_____________________",
        "ss,_____________________",
        "ss,_____________________",
        "ss,,,,,,________________",
        "ss,_____________________",
        "ss,_____________________",
        "ss,_____________________",
        "ss,_____________________",
        "ss,_____________________",
        "ss,,,,,,________________",
        "ss,_____________________",
        "ss,_____________________",
        "ss,_____________________",
        "ss,_____________________",
        "ss,___________________ss",
        "ss,,,,,,,,,,,,,,,,,,,,ss",
        "ssssssssssssssssssssssss",
        "ssssssssssssssssssssssss"
      ],
      "palettes": [
        "airport_palette"
      ],
      "place_monsters": [
        {
          "monster": "GROUP_ZOMBIE",
          "x": [
            4,
            23
          ],
          "y": [
            5,
            23
          ],
          "density": 0.2
        },
        {
          "monster": "GROUP_ZOMBIE",
          "x": [
            4,
            23
          ],
          "y": [
            29,
            47
          ],
          "density": 0.2
        }
      ],
      "place_vehicles": [
        {
          "vehicle": "parkinglotbasic",
          "chance": 30,
          "fuel": -1,
          "rotation": 180,
          "status": 1,
          "x": 5,
          "y": 6
        },
        {
          "vehicle": "parkinglotbasic",
          "chance": 30,
          "fuel": -1,
          "rotation": 180,
          "status": 1,
          "x": 5,
          "y": 12
        },
        {
          "vehicle": "parkinglotbasic",
          "chance": 30,
          "fuel": -1,
          "rotation": 180,
          "status": 1,
          "x": 5,
          "y": 18
        },
        {
          "vehicle": "parkinglotbasic",
          "chance": 30,
          "fuel": -1,
          "rotation": 180,
          "status": 1,
          "x": 5,
          "y": 30
        },
        {
          "vehicle": "parkinglotbasic",
          "chance": 30,
          "fuel": -1,
          "rotation": 180,
          "status": 1,
          "x": 5,
          "y": 36
        },
        {
          "vehicle": "parkinglotbasic",
          "chance": 30,
          "fuel": -1,
          "rotation": 180,
          "status": 1,
          "x": 5,
          "y": 42
        },
        {
          "vehicle": "parkinglotbasic",
          "chance": 30,
          "fuel": -1,
          "rotation": 360,
          "status": 1,
          "x": 16,
          "y": 5
        },
        {
          "vehicle": "parkinglotbasic",
          "chance": 30,
          "fuel": -1,
          "rotation": 360,
          "status": 1,
          "x": 16,
          "y": 11
        },
        {
          "vehicle": "parkinglotbasic",
          "chance": 30,
          "fuel": -1,
          "rotation": 360,
          "status": 1,
          "x": 16,
          "y": 17
        }
      ]
    },
    "id": "128c3f48-985c-4d28-9a96-0029dd287866"
  },
  {
    "type": "mapgen",
    "method": "json",
    "om_terrain": [
      [
        "hangar"
      ],
      [
        "hangar_roof"
      ]
    ],
    "weight": 250,
    "object": {
      "rotation": [
        1,
        1
      ],
      "fill_ter": "t_thconc_floor",
      "rows": [
        "                        ",
        "                        ",
        "f                       ",
        "f////////////////////// ",
        "------ww----ww-------%/ ",
        "-''rrr''kkkk''rrr'''-%/ ",
        "-''''''''''''''''''O-%/ ",
        "''''''''''''''''''OO-%/ ",
        "''''''''''''''''''OOw%/ ",
        "'''''''''''''''''OOOw%/ ",
        "''''''''''''''''''OO-%/ ",
        "'''''''''''''''''''O-%/ ",
        "''''''''''''''''''''-%/ ",
        "''''''''''''''''''''-%/ ",
        "''''''''''''''''''''-%/ ",
        "''''''''''''''''''''w%/ ",
        "''''''''''''''''''''w%/ ",
        "'''''''''''''''''''O-%/ ",
        "-''''''''''''''''OOO-%/ ",
        "-''rrr''kkkk''rrrOOO-%/ ",
        "---------------------%/ ",
        "f////////////////////// ",
        "f                       ",
        "                        ",
        "************************",
        "************************",
        "************************",
        "************************",
        "ZZZZZZZZZZZZZZZZZZZZZ***",
        "ZZZZZZZZZZZZZZZZZZZZZ***",
        "ZZZZZZZZZZZZZZZZZZZZZ***",
        "ZZZZZZZZZZZZZZZZZZZZZ***",
        "ZZZZZZZZZZZZZZZZZZZZZ***",
        "ZZZZZZZZZZZZZZZZZZZZZ***",
        "ZZZZZZZZZZZZZZZZZZZZZ***",
        "ZZZZZZZZZZZZZZZZZZZZZ***",
        "ZZZZZZZZZZZZZZZZZZZZZ***",
        "ZZZZZZZZZZZZZZZZZZZZZ***",
        "ZZZZZZZZZZZZZZZZZZZZZ***",
        "ZZZZZZZZZZZZZZZZZZZZZ***",
        "ZZZZZZZZZZZZZZZZZZZZZ***",
        "ZZZZZZZZZZZZZZZZZZZZZ***",
        "ZZZZZZZZZZZZZZZZZZZZZ***",
        "ZZZZZZZZZZZZZZZZZZZZZ***",
        "ZZZZZZZZZZZZZZZZZZZZZ***",
        "************************",
        "************************",
        "************************"
      ],
      "palettes": [
        "airport_palette"
      ]
    },
    "id": "960097a8-ccf3-4008-b7c2-b1eda378de41"
  },
  {
    "type": "palette",
    "id": "airport_palette",
    "terrain": {
      "1": "t_gutter_north",
      "2": "t_gutter_east",
      "3": "t_gutter_south",
      "4": "t_gutter_west",
      "5": "t_gutter_drop",
      "6": "t_radio_tower",
      "7": "t_region_tree_shade",
      "f": "t_chainfence_v",
      "*": "t_open_air",
      ">": "t_stairs_down",
      "<": "t_stairs_up",
      "[": "t_ladder_down",
      "]": "t_ladder_up",
      "'": "t_thconc_floor",
      "r": "t_thconc_floor",
      "O": "t_thconc_floor",
      "l": "t_thconc_floor",
      "B": "t_thconc_floor",
      "q": "t_thconc_floor",
      ".": "t_floor",
      "i": "t_linoleum_white",
      "S": "t_linoleum_white",
      "T": "t_linoleum_white",
      "e": "t_linoleum_white",
      "o": "t_linoleum_white",
      "C": "t_linoleum_white",
      "y": "t_linoleum_white",
      " ": "t_region_groundcover_urban",
      ",": "t_pavement_y",
      "_": "t_pavement",
      "#": "t_brick_wall",
      "Q": [
        "t_region_groundcover_forest",
        "t_region_shrub_decorative"
      ],
      "%": [
        [
          "t_region_groundcover",
          450
        ],
        [
          "t_region_tree_shade",
          3
        ],
        [
          "t_region_shrub",
          210
        ]
      ],
      "/": [
        [
          "t_region_groundcover",
          850
        ],
        [
          "t_region_tree_shade",
          3
        ],
        [
          "t_region_shrub",
          210
        ]
      ],
      "+": "t_door_c",
      "=": "t_door_locked",
      "R": "t_metal_railing",
      "s": "t_concrete",
      "J": "t_region_groundcover_barren",
      "D": "t_concrete",
      "V": "t_wall_glass",
      "v": "t_door_glass_c",
      "w": "t_window",
      "W": "t_window_domestic",
      "-": "t_wall_metal",
      "|": "t_wall",
      "z": "t_flat_roof",
      "(": "t_flat_roof",
      ")": "t_flat_roof",
      "Z": "t_metal_flat_roof",
      "U": "t_glass_roof",
      "x": "t_console_broken",
      "X": "t_generator_broken",
      "N": [
        "t_machinery_heavy",
        "t_machinery_electronic",
        "t_machinery_light"
      ]
    },
    "furniture": {
      "?": "f_sofa",
      "M": "f_armchair",
      "b": "f_bench",
      "B": "f_bench",
      "c": "f_counter",
      "C": "f_counter",
      "q": "f_counter",
      "Y": "f_rack_coat",
      "d": "f_desk",
      "h": "f_chair",
      "l": "f_locker",
      "n": "f_table",
      "t": "f_table",
      "o": "f_oven",
      "e": "f_fridge",
      "^": [
        "f_indoor_plant",
        "f_indoor_plant_y"
      ],
      "r": "f_rack",
      "k": "f_utility_shelf",
      "S": "f_sink",
      "T": "f_toilet",
      "O": "f_crate_c",
      "a": "f_trashcan",
      "F": "f_filing_cabinet",
      "y": "f_locker",
      ")": "f_cellphone_booster",
      "(": "f_small_satelitte_dish",
      "D": "f_dumpster"
    },
    "items": {
      "d": [
        {
          "item": "office",
          "chance": 40,
          "repeat": [
            1,
            2
          ]
        }
      ],
      "e": [
        {
          "item": "fridge",
          "chance": 70,
          "repeat": [
            1,
            3
          ]
        },
        {
          "item": "fridgesnacks",
          "chance": 70,
          "repeat": [
            1,
            2
          ]
        }
      ],
      "o": {
        "item": "oven",
        "chance": 70
      },
      "y": {
        "item": "cleaning",
        "chance": 60
      },
      "Y": {
        "item": "jackets",
        "chance": 90,
        "repeat": [
          3,
          8
        ]
      },
      "a": {
        "item": "trash",
        "chance": 70,
        "repeat": [
          2,
          5
        ]
      },
      "t": {
        "item": "dining",
        "chance": 40,
        "repeat": [
          1,
          2
        ]
      },
      "F": {
        "item": "file_room",
        "chance": 70,
        "repeat": [
          1,
          2
        ]
      },
      "l": {
        "item": "clothing_work_set",
        "chance": 70
      },
      "r": {
        "item": "mechanics",
        "chance": 30,
        "repeat": [
          1,
          2
        ]
      },
      "k": {
        "item": "mechanics",
        "chance": 40,
        "repeat": [
          1,
          3
        ]
      },
      "D": {
        "item": "trash",
        "chance": 70,
        "repeat": [
          3,
          6
        ]
      },
      "O": [
        {
          "item": "supplies_electronics",
          "chance": 20,
          "repeat": [
            1,
            2
          ]
        },
        {
          "item": "mechanics",
          "chance": 20,
          "repeat": [
            1,
            2
          ]
        }
      ]
    },
    "vendingmachines": {
      "8": {
        "item_group": "vending_drink"
      },
      "9": {
        "item_group": "vending_food"
      }
    },
    "toilets": {
      "T": {}
    }
  }
]