[
  {
    "type": "mapgen",
    "method": "json",
    "nested_mapgen_id": "shelter_nest_base",
    "object": {
      "mapgensize": [
        24,
        24
      ],
      "rows": [
        "                        ",
        "                        ",
        "                        ",
        "                        ",
        "                        ",
        "                        ",
        "                        ",
        "                        ",
        "                        ",
        "     llll      c  6     ",
        "      b b b    c        ",
        "      b b b    c        ",
        "      b b b    c        ",
        "      b b b             ",
        "                        ",
        "                        ",
        "                        ",
        "                        ",
        "      b b b             ",
        "      b b b    c        ",
        "      b b b    c        ",
        "        b b    c        ",
        "               c  6     ",
        "                        "
      ],
      "terrain": {
        "6": "t_console",
        " ": "t_null"
      },
      "furniture": {
        "b": "f_bench",
        "c": "f_cupboard",
        "l": "f_locker",
        "S": "f_sink",
        "%": "f_trashcan"
      },
      "computers": {
        "6": {
          "name": "Evac shelter computer",
          "options": [
            {
              "name": "Emergency Message",
              "action": "emerg_mess"
            },
            {
              "name": "Disable External Power",
              "action": "complete_disable_external_power"
            },
            {
              "name": "Contact Us",
              "action": "emerg_ref_center"
            }
          ]
        }
      },
      "items": {
        "l": {
          "item": "SUS_evac_shelter_locker",
          "chance": 5
        },
        "c": {
          "item": "SUS_evac_shelter_cabinet",
          "chance": 5
        }
      }
    },
    "id": "0d5a2e8b-2ec2-4c2f-8f23-845594f50b9f"
  },
  {
    "type": "mapgen",
    "method": "json",
    "nested_mapgen_id": "shelter_nest_used",
    "object": {
      "mapgensize": [
        24,
        24
      ],
      "rows": [
        "                        ",
        "                        ",
        "                        ",
        "                        ",
        "                        ",
        "                        ",
        "                        ",
        "                        ",
        "    |||||:|++|:|||||    ",
        "    |llll......c..6|    ",
        "    |.b.b.b....c...|    ",
        "    |.b.b.b....c...|    ",
        "    |.b.b.b....c...|    ",
        "    :.b.b.b........:    ",
        "    |..............|    ",
        "    |..............|    ",
        "    |..............|    ",
        "    |..............|    ",
        "    :.b.b.b........:    ",
        "    |.b.b.b....c...|    ",
        "    |.b.b.b....c...|    ",
        "    |||.b.b....c...|    ",
        "    | =........c..x|    ",
        "    |||||:||+|:|||||    "
      ],
      "terrain": {
        "6": "t_console",
        ":": [
          "t_window_frame",
          "t_window_no_curtains"
        ],
        "+": [
          "t_door_c",
          "t_door_b"
        ],
        "=": [
          "t_door_b",
          "t_door_locked_interior",
          "t_door_c",
          "t_door_o"
        ],
        "x": "t_console_broken"
      },
      "furniture": {
        "b": "f_bench",
        "c": "f_cupboard",
        "l": "f_locker",
        "S": "f_sink",
        "%": "f_trashcan"
      },
      "computers": {
        "6": {
          "name": "Evac shelter computer",
          "options": [
            {
              "name": "Emergency Message",
              "action": "emerg_mess"
            },
            {
              "name": "Disable External Power",
              "action": "complete_disable_external_power"
            },
            {
              "name": "Contact Us",
              "action": "emerg_ref_center"
            }
          ]
        }
      },
      "items": {
        "l": {
          "item": "SUS_evac_shelter_locker_used",
          "chance": 5
        },
        "c": {
          "item": "SUS_evac_shelter_cabinet_used",
          "chance": 5
        },
        "b": [
          {
            "item": "shelter_supplies",
            "chance": 2
          },
          {
            "item": "trash",
            "chance": 2
          }
        ],
        ".": [
          {
            "item": "shelter_supplies",
            "chance": 1
          },
          {
            "item": "trash",
            "chance": 1
          },
          {
            "item": "trash_forest",
            "chance": 1
          }
        ]
      },
      "nested": {
        "|": {
          "chunks": [
            [
              "shelter_graffiti",
              10
            ],
            [
              "null",
              90
            ]
          ]
        }
      }
    },
    "id": "ede3bcb4-e7f8-4abc-b47b-248a2c1d6f52"
  },
  {
    "type": "mapgen",
    "method": "json",
    "nested_mapgen_id": "shelter_nest_vandal",
    "object": {
      "mapgensize": [
        24,
        24
      ],
      "rows": [
        "                        ",
        "                        ",
        "                        ",
        "                        ",
        "                        ",
        "                        ",
        "                        ",
        "                        ",
        "    |||||:|++|:|||||    ",
        "    |llll......c..6|    ",
        "    |.b.b.b....c...|    ",
        "    |.b.b.b....c...|    ",
        "    |.b.b.b....c...|    ",
        "    :.b.b.b........:    ",
        "    |..............|    ",
        "    |..............|    ",
        "    |..............|    ",
        "    |..............|    ",
        "    :.b.b.b........:    ",
        "    |.b.b.b....c...|    ",
        "    |.b.b.b....c...|    ",
        "    |||.b.b....c...|    ",
        "    | =........c..6|    ",
        "    |||||:||+|:|||||    "
      ],
      "terrain": {
        "6": "t_console_broken",
        ":": [
          "t_window_frame",
          "t_window_no_curtains"
        ],
        "+": [
          "t_door_c",
          "t_door_b"
        ],
        "=": [
          "t_door_b",
          "t_door_locked_interior",
          "t_door_c",
          "t_door_o"
        ]
      },
      "furniture": {
        "b": "f_bench",
        "c": "f_cupboard",
        "l": [
          [
            "f_locker",
            2
          ],
          "f_wreckage"
        ],
        "S": "f_sink",
        "%": "f_trashcan"
      },
      "items": {
        "l": {
          "item": "shelter_supplies",
          "chance": 5
        },
        "c": [
          {
            "item": "trash",
            "chance": 1
          },
          {
            "item": "softdrugs",
            "chance": 2
          },
          {
            "item": "shelter_supplies",
            "chance": 5
          }
        ],
        "b": [
          {
            "item": "softdrugs",
            "chance": 2
          },
          {
            "item": "shelter_supplies",
            "chance": 1
          },
          {
            "item": "trash",
            "chance": 1
          }
        ],
        ".": [
          {
            "item": "trash",
            "chance": 1
          },
          {
            "item": "trash_forest",
            "chance": 1
          }
        ]
      },
      "nested": {
        "|": {
          "chunks": [
            [
              "shelter_graffiti",
              5
            ],
            [
              "general_graffiti",
              20
            ],
            [
              "null",
              75
            ]
          ]
        }
      }
    },
    "id": "fa604cdb-359c-4506-8cf5-d84f77a151a4"
  },
  {
    "type": "mapgen",
    "method": "json",
    "nested_mapgen_id": "shelter_1_nest_base",
    "object": {
      "mapgensize": [
        24,
        24
      ],
      "rows": [
        "                        ",
        "                        ",
        "                        ",
        "                        ",
        "                        ",
        "                        ",
        "                        ",
        "                        ",
        "                        ",
        "                        ",
        "                        ",
        "      bbbbb     c 6     ",
        "                c       ",
        "      bbbbb     c       ",
        "                cc      ",
        "      bbbbb             ",
        "            l           ",
        "            l           ",
        "            l           ",
        "      b b b   c         ",
        "      b b b   c   l     ",
        "      b b b   c   l     ",
        "                  l     ",
        "                        "
      ],
      "terrain": {
        "6": "t_console",
        " ": "t_null"
      },
      "furniture": {
        "b": "f_bench",
        "c": "f_cupboard",
        "l": "f_locker",
        "S": "f_sink",
        "%": "f_trashcan"
      },
      "items": {
        "l": {
          "item": "SUS_evac_shelter_locker",
          "chance": 5
        },
        "c": {
          "item": "SUS_evac_shelter_cabinet",
          "chance": 5
        }
      },
      "computers": {
        "6": {
          "name": "Evac shelter computer",
          "options": [
            {
              "name": "Emergency Message",
              "action": "emerg_mess"
            },
            {
              "name": "Disable External Power",
              "action": "complete_disable_external_power"
            },
            {
              "name": "Contact Us",
              "action": "emerg_ref_center"
            }
          ]
        }
      }
    },
    "id": "199d24f8-05bd-4bcb-bdcc-bbacf192bc7f"
  },
  {
    "type": "mapgen",
    "method": "json",
    "nested_mapgen_id": "shelter_1_nest_used",
    "object": {
      "mapgensize": [
        24,
        24
      ],
      "rows": [
        "                        ",
        "                        ",
        "                        ",
        "                        ",
        "                        ",
        "                        ",
        "                        ",
        "       ||||++||||       ",
        "       |........|       ",
        "    ||:|........|       ",
        "    |...........|:||    ",
        "    |.bbbbb.....c.6|    ",
        "    |...........c..|    ",
        "    :.bbbbb.....c..:    ",
        "    |...........cc.|    ",
        "    |.bbbbb........|    ",
        "    |.......l|||...|    ",
        "    |.|||||.l| =...|    ",
        "    :.......l|||...:    ",
        "    |.b.b.b...c||+||    ",
        "    |.b.b.b...c|..l|    ",
        "    |.b.b.b...c|..l|    ",
        "    |..........|..l|    ",
        "    |||||:||+|:|||||    "
      ],
      "terrain": {
        "6": "t_console",
        ":": [
          "t_window_frame",
          "t_window"
        ],
        "+": [
          "t_door_c",
          "t_door_b"
        ],
        "=": [
          "t_door_b",
          "t_door_locked_interior",
          "t_door_c",
          "t_door_o"
        ],
        "x": "t_console_broken"
      },
      "furniture": {
        "b": "f_bench",
        "c": "f_cupboard",
        "l": "f_locker",
        "S": "f_sink",
        "%": "f_trashcan"
      },
      "computers": {
        "6": {
          "name": "Evac shelter computer",
          "options": [
            {
              "name": "Emergency Message",
              "action": "emerg_mess"
            },
            {
              "name": "Disable External Power",
              "action": "complete_disable_external_power"
            },
            {
              "name": "Contact Us",
              "action": "emerg_ref_center"
            }
          ]
        }
      },
      "items": {
        "l": {
          "item": "SUS_evac_shelter_locker_used",
          "chance": 5
        },
        "c": {
          "item": "SUS_evac_shelter_cabinet_used",
          "chance": 5
        },
        "b": [
          {
            "item": "shelter_supplies",
            "chance": 2
          },
          {
            "item": "trash",
            "chance": 2
          }
        ],
        ".": [
          {
            "item": "shelter_supplies",
            "chance": 1
          },
          {
            "item": "trash",
            "chance": 1
          }
        ]
      },
      "nested": {
        "|": {
          "chunks": [
            [
              "shelter_graffiti",
              10
            ],
            [
              "null",
              90
            ]
          ]
        }
      }
    },
    "id": "e9b56a47-a232-403f-b5d5-abe465af979d"
  },
  {
    "type": "mapgen",
    "method": "json",
    "nested_mapgen_id": "shelter_1_nest_vandal",
    "object": {
      "mapgensize": [
        24,
        24
      ],
      "rows": [
        "                        ",
        "                        ",
        "                        ",
        "                        ",
        "                        ",
        "                        ",
        "                        ",
        "       ||||++||||       ",
        "       |........|       ",
        "    ||:|........|       ",
        "    |...........|:||    ",
        "    |.bbbbb.....c.6|    ",
        "    |...........c..|    ",
        "    :.bbbbb.....c..:    ",
        "    |...........cc.|    ",
        "    |.bbbbb........|    ",
        "    |.......l|||...|    ",
        "    |.|||||.l| =...|    ",
        "    :.......l|||...:    ",
        "    |.b.b.b...c||+||    ",
        "    |.b.b.b...c|..l|    ",
        "    |.b.b.b...c|..l|    ",
        "    |..........|..l|    ",
        "    |||||:||+|:|||||    "
      ],
      "terrain": {
        "6": "t_console_broken",
        ":": [
          "t_window_frame",
          "t_window"
        ],
        "+": [
          "t_door_c",
          "t_door_b"
        ],
        "=": [
          "t_door_b",
          "t_door_locked_interior",
          "t_door_c",
          "t_door_o"
        ]
      },
      "furniture": {
        "b": "f_bench",
        "c": "f_cupboard",
        "l": [
          [
            "f_locker",
            2
          ],
          "f_wreckage"
        ],
        "S": "f_sink",
        "%": "f_trashcan"
      },
      "items": {
        "l": {
          "item": "shelter_supplies",
          "chance": 5
        },
        "c": [
          {
            "item": "trash",
            "chance": 1
          },
          {
            "item": "softdrugs",
            "chance": 2
          },
          {
            "item": "shelter_supplies",
            "chance": 5
          }
        ],
        "b": [
          {
            "item": "softdrugs",
            "chance": 2
          },
          {
            "item": "shelter_supplies",
            "chance": 1
          },
          {
            "item": "trash",
            "chance": 1
          }
        ],
        ".": [
          {
            "item": "trash",
            "chance": 1
          },
          {
            "item": "trash_forest",
            "chance": 1
          }
        ]
      },
      "nested": {
        "|": {
          "chunks": [
            [
              "shelter_graffiti",
              5
            ],
            [
              "general_graffiti",
              20
            ],
            [
              "null",
              75
            ]
          ]
        }
      }
    },
    "id": "8c7db709-fb16-40c9-8050-d51a91d809df"
  },
  {
    "type": "mapgen",
    "method": "json",
    "nested_mapgen_id": "shelter_2_nest_base",
    "object": {
      "mapgensize": [
        24,
        24
      ],
      "rows": [
        "                        ",
        "                        ",
        "                        ",
        "                        ",
        "                        ",
        "                        ",
        "                        ",
        "            %      l    ",
        "      cccc6        l    ",
        "                   l    ",
        "                        ",
        "   b     bbbbb   b  b   ",
        "   b  b          b  b   ",
        "   b  b   llll   b  b   ",
        "   b  b          b  b   ",
        "   b  b          b  b   ",
        "   b  b          b  b   ",
        "   b  b          b  b   ",
        "   b  b   llll   b  b   ",
        "   b  b          b  b   ",
        "          bbbb          ",
        "                   6    ",
        "                   c    ",
        "                        "
      ],
      "terrain": {
        "6": "t_console",
        " ": "t_null"
      },
      "furniture": {
        "b": "f_bench",
        "c": "f_cupboard",
        "l": "f_locker",
        "S": "f_sink",
        "%": "f_trashcan"
      },
      "computers": {
        "6": {
          "name": "Evac shelter computer",
          "options": [
            {
              "name": "Emergency Message",
              "action": "emerg_mess"
            },
            {
              "name": "Disable External Power",
              "action": "complete_disable_external_power"
            },
            {
              "name": "Contact Us",
              "action": "emerg_ref_center"
            }
          ]
        }
      },
      "items": {
        "l": {
          "item": "SUS_evac_shelter_locker",
          "chance": 5
        },
        "c": {
          "item": "SUS_evac_shelter_cabinet",
          "chance": 5
        }
      }
    },
    "id": "2475a109-9f70-4e7e-b1c3-1391d86e8b37"
  },
  {
    "type": "mapgen",
    "method": "json",
    "nested_mapgen_id": "shelter_2_nest_used",
    "object": {
      "mapgensize": [
        24,
        24
      ],
      "rows": [
        "                        ",
        "                        ",
        "                        ",
        "                        ",
        "                        ",
        "                        ",
        "           ||:|++|:||   ",
        "   |||||||||%......l|   ",
        "   |*|cccc6........l|   ",
        "   |.=.............l|   ",
        "  ||||.............|||  ",
        "  |b.....bbbbb...b..b|  ",
        "  :b..b..........b..b:  ",
        "  |b..b...llll...b..b|  ",
        "  |b..b...||||...b..b|  ",
        "  |b..b..........b..b|  ",
        "  |b..b..........b..b|  ",
        "  :b..b...||||...b..b:  ",
        "  |b..b...llll...b..b|  ",
        "  |b..b..........b..b|  ",
        "  |||.....bbbb.....|||  ",
        "   |l..............x|   ",
        "   ||||||||||......c|   ",
        "            ||:|+|:||   "
      ],
      "terrain": {
        "6": "t_console",
        ":": [
          "t_window_frame",
          "t_window_no_curtains"
        ],
        "+": [
          "t_door_c",
          "t_door_b"
        ],
        "=": [
          "t_door_b",
          "t_door_locked_interior",
          "t_door_c",
          "t_door_o"
        ],
        "*": "t_ladder_up",
        "x": "t_console_broken"
      },
      "furniture": {
        "b": "f_bench",
        "c": "f_cupboard",
        "l": "f_locker",
        "S": "f_sink",
        "%": "f_trashcan"
      },
      "computers": {
        "6": {
          "name": "Evac shelter computer",
          "options": [
            {
              "name": "Emergency Message",
              "action": "emerg_mess"
            },
            {
              "name": "Disable External Power",
              "action": "complete_disable_external_power"
            },
            {
              "name": "Contact Us",
              "action": "emerg_ref_center"
            }
          ]
        }
      },
      "items": {
        "l": {
          "item": "SUS_evac_shelter_locker_used",
          "chance": 5
        },
        "c": {
          "item": "SUS_evac_shelter_cabinet_used",
          "chance": 5
        },
        "%": [
          {
            "item": "shelter_supplies",
            "chance": 5,
            "repeat": [
              1,
              2
            ]
          },
          {
            "item": "trash",
            "chance": 25,
            "repeat": [
              1,
              3
            ]
          }
        ],
        "b": [
          {
            "item": "shelter_supplies",
            "chance": 2
          },
          {
            "item": "trash",
            "chance": 2
          }
        ],
        ".": [
          {
            "item": "shelter_supplies",
            "chance": 1
          },
          {
            "item": "trash",
            "chance": 1
          }
        ]
      },
      "nested": {
        "|": {
          "chunks": [
            [
              "shelter_graffiti",
              10
            ],
            [
              "null",
              90
            ]
          ]
        }
      }
    },
    "id": "dfc510fc-58f9-445a-9d68-61c34eb9839a"
  },
  {
    "type": "mapgen",
    "method": "json",
    "nested_mapgen_id": "shelter_2_nest_vandal",
    "object": {
      "mapgensize": [
        24,
        24
      ],
      "rows": [
        "                        ",
        "                        ",
        "                        ",
        "                        ",
        "                        ",
        "                        ",
        "           ||:|++|:||   ",
        "   |||||||||%......l|   ",
        "   |*|cccc6........l|   ",
        "   |.=.............l|   ",
        "  ||||.............|||  ",
        "  |b.....bbbbb...b..b|  ",
        "  :b..b..........b..b:  ",
        "  |b..b...llll...b..b|  ",
        "  |b..b...||||...b..b|  ",
        "  |b..b..........b..b|  ",
        "  |b..b..........b..b|  ",
        "  :b..b...||||...b..b:  ",
        "  |b..b..........b..b|  ",
        "  |b..b..........b..b|  ",
        "  |||.....bbbb.....|||  ",
        "   |l..............x|   ",
        "   ||||||||||......c|   ",
        "            ||:|+|:||   "
      ],
      "terrain": {
        "6": [
          "t_console",
          "t_console_broken"
        ],
        ":": [
          "t_window_frame",
          "t_window"
        ],
        "+": [
          "t_door_c",
          "t_door_b"
        ],
        "=": [
          "t_door_b",
          "t_door_locked_interior",
          "t_door_c",
          "t_door_o"
        ],
        "*": "t_ladder_up",
        "x": "t_console_broken"
      },
      "furniture": {
        "b": "f_bench",
        "c": "f_cupboard",
        "l": [
          [
            "f_locker",
            2
          ],
          "f_wreckage"
        ],
        "S": "f_sink",
        "%": "f_trashcan"
      },
      "items": {
        "l": {
          "item": "shelter_supplies",
          "chance": 5
        },
        "c": [
          {
            "item": "trash",
            "chance": 1
          },
          {
            "item": "softdrugs",
            "chance": 2
          },
          {
            "item": "shelter_supplies",
            "chance": 5
          }
        ],
        "b": [
          {
            "item": "softdrugs",
            "chance": 2
          },
          {
            "item": "shelter_supplies",
            "chance": 1
          },
          {
            "item": "trash",
            "chance": 1
          }
        ],
        ".": [
          {
            "item": "trash",
            "chance": 1
          },
          {
            "item": "trash_forest",
            "chance": 1
          }
        ]
      },
      "nested": {
        "|": {
          "chunks": [
            [
              "shelter_graffiti",
              5
            ],
            [
              "general_graffiti",
              20
            ],
            [
              "null",
              75
            ]
          ]
        }
      }
    },
    "id": "b21a6776-3596-4223-868e-281b19fabb93"
  },
  {
    "type": "mapgen",
    "method": "json",
    "nested_mapgen_id": "shelter_graffiti",
    "object": {
      "mapgensize": [
        1,
        1
      ],
      "place_graffiti": [
        {
          "x": 0,
          "y": 0,
          "snippet": "shelter_graffiti_snippets"
        }
      ]
    },
    "id": "45a9b599-d89e-449d-bf3a-3b50bd48a40f"
  },
  {
    "type": "mapgen",
    "method": "json",
    "nested_mapgen_id": "general_graffiti",
    "object": {
      "mapgensize": [
        1,
        1
      ],
      "place_graffiti": [
        {
          "x": 0,
          "y": 0,
          "snippet": "general_graffiti_snippets"
        }
      ]
    },
    "id": "2749994c-70b4-425f-977f-db726aba426c"
  }
]