[
  {
    "type": "mapgen",
    "method": "json",
    "om_terrain": [
      "urban_16_1"
    ],
    "weight": 250,
    "object": {
      "fill_ter": "t_floor",
      "rows": [
        ",,,,,,,,,,,,,,,,,,,,,,,,",
        ",,,,,|-----------|,,,,,,",
        ",^,,,|''''''''''r|,,,,,,",
        ",,,,,|''''''''''r|---w-|",
        ",,,,,w'''''''''''|u+ cc|",
        ",,,,,|'''''''''''|-|   1",
        ",,,,,|'''''''''''+ |-+-|",
        ",,,,,w'''''''''''|     |",
        ",,,,,|'''''''''''|--|- |",
        ",,,,,|'''''''''/'|22+   ",
        ",,,,,|-========--|WD|   ",
        ",,,,#,,________qq|--|   ",
        ",,,###,________,,|CCf   ",
        ",,,,#,,________,,|o22   ",
        ",,,,,,,________,,wS2Htth",
        ",,,,,,,________,,|C2Htth",
        ",,^,,,,________,,|      ",
        ",,,,,,,________,,|c   @ ",
        ",,,,,,,________,II    @ ",
        ",,,,#,,________,IF   @@ ",
        ",,,###,________,II      ",
        ",,,,#,,________,,|---ww-",
        ",,,,,,,________,,,,,,,,,",
        ",,,,,,,________,,,,,,,,,"
      ],
      "palettes": [
        "acidia_residential_commercial_palette"
      ],
      "items": {
        " ": {
          "item": "livingroom",
          "chance": 2
        },
        "'": {
          "item": "mechanics",
          "chance": 1
        },
        "@": {
          "item": "magazines",
          "chance": 10
        },
        "C": {
          "item": "kitchen",
          "chance": 25
        },
        "c": {
          "item": "livingroom",
          "chance": 25
        },
        "f": {
          "item": "fridge",
          "chance": 70
        },
        "o": {
          "item": "oven",
          "chance": 30
        },
        "q": {
          "item": "trash",
          "chance": 50
        },
        "r": {
          "item": "home_hw",
          "chance": 60
        },
        "t": {
          "item": "dining",
          "chance": 25
        },
        "u": {
          "item": "cleaning",
          "chance": 50
        }
      },
      "place_monsters": [
        {
          "monster": "GROUP_ZOMBIE",
          "x": [
            1,
            22
          ],
          "y": [
            1,
            22
          ],
          "density": 0.09
        }
      ],
      "place_vehicles": [
        {
          "vehicle": "suburban_home",
          "x": 10,
          "y": 5,
          "chance": 100,
          "rotation": 270
        }
      ]
    },
    "id": "72733d56-4ebd-4c5f-b11e-cfd6c408ed37"
  },
  {
    "type": "mapgen",
    "method": "json",
    "om_terrain": [
      "urban_16_2"
    ],
    "weight": 250,
    "object": {
      "fill_ter": "t_floor",
      "rows": [
        ",,,,,,,,,,,,,,,,,,,,,,,,",
        ",,,,,,,,^,,,,,,,,,,,,,,,",
        ",,,,,,,,,,,,,,,,,,,,,,,,",
        "'''',,,,,,,,,,,,,,#,,,,,",
        "'''',,,,,,,,,,,,,###,,,,",
        "'''',,,,,,,,,,,,,,#,,,,,",
        "''''''''G''''',,,,,,,,,,",
        "'''''''''''''',,,,,,,,,,",
        "-|'''''''''''',,,,,,,,,,",
        " 1'''''''''''',,,,,,,,,,",
        " |-|----|----ww--|,,,,,,",
        " |T|BBCS| d6d   e|,,,,,,",
        " |222222+  h   bb|,,,^,,",
        " |---|--|      bb|,,,,,,",
        " |T2S|r +       e|,,,,,,",
        " |-+-|--|--+-|---|,,,,,,",
        "             |r r|,,,,,,",
        " |-|---+|--|+|-+-|,,,,,,",
        " |r+    |ST|     |,,,,,,",
        " |-|    +22+    b|,,,,,,",
        "   |bbe |BB|e   b|,,,,,,",
        "-1-|--w-|--|--w--|,,,^,,",
        "''',,,,,,,,,,,,,,,,,,,,,",
        ";;;,,,,,,,,,,,,,,,,,,,,,"
      ],
      "palettes": [
        "acidia_residential_commercial_palette"
      ],
      "toilets": {
        "T": {}
      },
      "items": {
        "2": {
          "item": "softdrugs",
          "chance": 10
        },
        " ": {
          "item": "livingroom",
          "chance": 2
        },
        "'": {
          "item": "mechanics",
          "chance": 2
        },
        "C": {
          "item": "cleaning",
          "chance": 10
        },
        "b": {
          "item": "bed",
          "chance": 60
        },
        "c": {
          "item": "livingroom",
          "chance": 25
        },
        "d": {
          "item": "office",
          "chance": 40
        },
        "e": {
          "item": "dresser",
          "chance": 60
        },
        "r": {
          "item": "bedroom",
          "chance": 60
        }
      },
      "place_monsters": [
        {
          "monster": "GROUP_ZOMBIE",
          "x": [
            1,
            22
          ],
          "y": [
            1,
            22
          ],
          "density": 0.09
        }
      ]
    },
    "id": "320e29f5-135a-44f0-a9e4-be89d697db05"
  },
  {
    "type": "mapgen",
    "method": "json",
    "om_terrain": [
      "urban_16_3"
    ],
    "weight": 250,
    "object": {
      "fill_ter": "t_floor",
      "rows": [
        "........................",
        ".....1111111111111......",
        ".....4RRRRRRRRRRR2......",
        ".....4RRRRRRRRRRR1111111",
        ".....4RRRRRRRRRRRRRRRRRR",
        ".....4RRR^RRR&RRRRRRRRRR",
        ".....4RRRRRRRRRRRRRRRRRR",
        ".....4RRRRRRRRRRRRRRRRRR",
        ".....3333333333333RRRRRR",
        ".................4RRRRRR",
        ".................4RRRRRR",
        ".................4RRRRRR",
        ".................4RRRRRR",
        ".................4RRRRRR",
        ".................4RRRRRR",
        ".................4RRRRRR",
        ".................4RRRRRR",
        ".................4RRRRRR",
        "................44RRRRRR",
        "................4RRRRRRR",
        "................44RRRRRR",
        ".................3333333",
        "........................",
        "........................"
      ],
      "palettes": [
        "acidia_residential_commercial_palette"
      ]
    },
    "id": "f4e02fd5-bf0d-4924-9c30-3ae34a9defae"
  },
  {
    "type": "mapgen",
    "method": "json",
    "om_terrain": [
      "urban_16_4"
    ],
    "weight": 250,
    "object": {
      "fill_ter": "t_floor",
      "rows": [
        "........................",
        "........................",
        "........................",
        "1111....................",
        "RRR2....................",
        "RRR2....................",
        "RRR11111111111..........",
        "RRRRRRRRRRRRR2..........",
        "RRRRRRRRRRRRR2..........",
        "RRRRRRRR&RRRR2..........",
        "RRRRRRRRRRRRR11111......",
        "RRRRRRRRRRRRRRRRR2......",
        "RRRRRRRRRRRRRRRRR2......",
        "RRRRRRRRRRRRRRRRR2......",
        "RRRRRRRRRRRRRRRRR2......",
        "RRRRRRRRRRRRRRRRR2......",
        "RRRRRRRRRRRRRRRRR2......",
        "RRRRRRRRRRRRRRRRR2......",
        "RRRRRRRRRRRRRRRRR2......",
        "RRRRRRRRRRRRRRRRR2......",
        "RRRRRRRRR!RRRRRRR2......",
        "333333333333333333......",
        "........................",
        "........................"
      ],
      "palettes": [
        "acidia_residential_commercial_palette"
      ]
    },
    "id": "8085dcd4-f1f1-4364-9bda-c7dbd2e07bd1"
  }
]