[
  {
    "id": "newspapers",
    "type": "item_group",
    "items": [
      [
        "mag_news",
        100
      ],
      [
        "months_old_newspaper",
        50
      ],
      [
        "weeks_old_newspaper",
        100
      ],
      [
        "newest_newspaper",
        300
      ]
    ]
  },
  {
    "type": "mapgen",
    "method": "json",
    "om_terrain": [
      "urban_33_1"
    ],
    "weight": 250,
    "object": {
      "fill_ter": "t_floor",
      "rows": [
        "%%%%%%%%%%%%%%%%%%%%%%%%",
        "%%%%%%%%%%%%%%%%%%%%%%%%",
        "llllllllllllllllllllllll",
        "l'''''''''''''''''''''''",
        "l'zzzzzzzzzzzzzzzzzzzzzz",
        "l'z'''''''''''''''''''''",
        "l'z'llllllllllllllllllll",
        "l'z'l%l    |            ",
        "l'z'l%l    J  3333333333",
        "l'z'l%l>   |  33       3",
        "zzz'l%l----|  33 89998 3",
        "zzz'l%lEEEE|  33 8PPP8 3",
        "zzz'l%lEEEE|  33(8PPP8(3",
        "00}'l%lEEEE|  33(8PPP8(3",
        "l0z'l%lEEEE|  33(8PPP8(3",
        "l0''l%l   6|  33 8PPP8 3",
        "lllllll-|  |  33 89998 3",
        "lCCooCCC|  |  33       3",
        "lC222222J  |  3333333333",
        "lC222222J  |  33        ",
        "lS22C22g|  |  33  lvvvvl",
        "lS22C22g|  |  33  vEEEEl",
        "lC22222g|  |  33  vEEEEl",
        "lC22222g|  |  33  vEEEEl"
      ],
      "palettes": [
        "acidia_commercial_palette"
      ],
      "items": {
        "2": {
          "item": "kitchen",
          "chance": 1
        },
        "3": {
          "item": "traveler",
          "chance": 1
        },
        " ": {
          "item": "traveler",
          "chance": 1
        },
        "'": {
          "item": "sewer",
          "chance": 1
        },
        "(": {
          "item": "traveler",
          "chance": 5
        },
        "C": {
          "item": "kitchen",
          "chance": 25
        },
        "g": {
          "item": "fridge",
          "chance": 70
        },
        "o": {
          "item": "oven",
          "chance": 30
        }
      },
      "place_monsters": [
        {
          "monster": "GROUP_ZOMBIE",
          "x": [
            7,
            22
          ],
          "y": [
            7,
            22
          ],
          "density": 0.5
        }
      ]
    },
    "id": "9b88afb8-b053-439a-8fc5-149488af44b4"
  },
  {
    "type": "mapgen",
    "method": "json",
    "om_terrain": [
      "urban_33_2"
    ],
    "weight": 250,
    "object": {
      "fill_ter": "t_floor",
      "rows": [
        "%%%l''''''''''''''''l%%%",
        "%%%l''''''''''''''''l%%%",
        "llll''''''''''''''''llll",
        "'''$''''''''''''''''v  l",
        "zzz$''''''''''''''''vK l",
        "'''5''''''''''''''''v  l",
        "llll''''''''''''''''l  l",
        "  kl''''''''''''''''l  l",
        "3  v''''''''''''''''l  l",
        "3  v''''''''''''''''l  l",
        "3  v''''''''''''''''l  l",
        "3  l''''''''''''''''v  l",
        "3  v''''''''''''''''vK l",
        "3  v''''''''''''''''v  l",
        "3  v''''''''''''''''l  l",
        "3  l''''''''''''''''l  l",
        "3  v''''''''''''''''l  l",
        "3  v''''''''''''''''l  l",
        "3  v''''''''''''''''l  l",
        "  kl''''''''''''''''v  l",
        "l1ll''''''''''''''''vK l",
        "S rl''''''''''''''''v  l",
        "c rl''''''''''''''''l  l",
        "r rl''''''''''''''''l  l"
      ],
      "palettes": [
        "acidia_commercial_palette"
      ],
      "items": {
        "3": {
          "item": "traveler",
          "chance": 1
        },
        " ": {
          "item": "traveler",
          "chance": 1
        },
        "'": {
          "item": "subway",
          "chance": 1
        },
        "K": {
          "item": "allclothes",
          "chance": 70
        },
        "r": {
          "item": "cleaning",
          "chance": 55
        }
      },
      "place_monsters": [
        {
          "monster": "GROUP_ZOMBIE",
          "x": [
            1,
            17
          ],
          "y": [
            5,
            22
          ],
          "density": 0.5
        }
      ]
    },
    "id": "fe9def94-8885-4116-8793-8b5b1514eb37"
  },
  {
    "type": "mapgen",
    "method": "json",
    "om_terrain": [
      "urban_33_3"
    ],
    "weight": 250,
    "object": {
      "fill_ter": "t_floor",
      "rows": [
        "l---+---|  |  33  l===ll",
        "lu     u|  |  33   333  ",
        "lu     u|  |  33   333  ",
        "lu uuu u|  |  3333333333",
        "l-------|JJ|  3333333333",
        "lW         |            ",
        "lW   C     |            ",
        "lW   W    D|---   ---|  ",
        "lW   W    D| h       |  ",
        "lW   C    D|hth     hv( ",
        "lW        D| h      tv( ",
        "l----|    D|        hv( ",
        "lLLLL|    D|         v( ",
        "l         D| C6C     |  ",
        "lL   |DDDDD|   C     |  ",
        "l--+-|-----|r  *    hv( ",
        "l    |  rrr|r  *    tv( ",
        "l    +     +   *    hv( ",
        "l    |     |g  *     v( ",
        "l>   | CSC |g  C hth |  ",
        "llllllllllllllllllllllll",
        "%%%%%%%%%%%%%%%%%%%%%%%%",
        "%%%%%%%%%%%%%%%%%%%%%%%%",
        "%%%%%%%%%%%%%%%%%%%%%%%%"
      ],
      "palettes": [
        "acidia_commercial_palette"
      ],
      "items": {
        "3": {
          "item": "traveler",
          "chance": 1
        },
        " ": {
          "item": "traveler",
          "chance": 1
        },
        "'": {
          "item": "subway",
          "chance": 1
        },
        "(": {
          "item": "traveler",
          "chance": 5
        },
        "*": {
          "item": "coffee_display",
          "chance": 70
        },
        "D": {
          "item": "allclothes",
          "chance": 70
        },
        "L": {
          "item": "cleaning",
          "chance": 55
        },
        "W": {
          "item": "allclothes",
          "chance": 70
        },
        "g": {
          "item": "vending_drink",
          "chance": 55
        },
        "r": {
          "item": "coffee_display",
          "chance": 70
        },
        "u": {
          "item": "cannedfood",
          "chance": 50
        }
      },
      "place_monsters": [
        {
          "monster": "GROUP_ZOMBIE",
          "x": [
            1,
            10
          ],
          "y": [
            1,
            19
          ],
          "density": 0.25
        },
        {
          "monster": "GROUP_ZOMBIE",
          "x": [
            12,
            22
          ],
          "y": [
            1,
            19
          ],
          "density": 0.5
        }
      ]
    },
    "id": "3b13dfe2-017d-4492-9679-0d1545e2e02d"
  },
  {
    "type": "mapgen",
    "method": "json",
    "om_terrain": [
      "urban_33_4"
    ],
    "weight": 250,
    "object": {
      "fill_ter": "t_floor",
      "rows": [
        "lllllllllllllllllllll  l",
        "    ''''''''''''''''l  l",
        "    ''''''''''''''''l  l",
        "333 ''''''''''''''''v  l",
        "333 ''''''''''''''''vK l",
        " 33 ''''''''''''''''v  l",
        " 33 ''''''''''''''''l  l",
        " 33 ''''''''''''''''l  l",
        " 33 ''''''''''''''''l  l",
        " 33 ''''''''''''''''l  l",
        " 33 ''''''''''''''''l  l",
        " 33 ''''''''''''''''v  l",
        " 33 ''''''''''''''''vK l",
        " 33 ''''''''''''''''v  l",
        " 33 ''''''''''''''''l  l",
        " 33 ''''''''''''''''l+-l",
        " 33 ''''''''''''''''l  l",
        " 33 ''''''''''''''''l  l",
        " 33 ''''''''''''''''l  l",
        "    ''''''''''''''''l >l",
        "llll''''''''''''''''llll",
        "%%%l''''''''''''''''l%%%",
        "%%%llllllllllllllllll%%%",
        "%%%%%%%%%%%%%%%%%%%%%%%%"
      ],
      "palettes": [
        "acidia_commercial_palette"
      ],
      "items": {
        "3": {
          "item": "traveler",
          "chance": 1
        },
        " ": {
          "item": "traveler",
          "chance": 1
        },
        "'": {
          "item": "subway",
          "chance": 1
        },
        "K": {
          "item": "allclothes",
          "chance": 70
        }
      },
      "place_monsters": [
        {
          "monster": "GROUP_ZOMBIE",
          "x": [
            1,
            17
          ],
          "y": [
            1,
            17
          ],
          "density": 0.55
        }
      ]
    },
    "id": "15ed10cd-42e3-4d35-aeb5-0dcd77fbce34"
  },
  {
    "type": "mapgen",
    "method": "json",
    "om_terrain": [
      "urban_33_5"
    ],
    "weight": 250,
    "object": {
      "fill_ter": "t_floor",
      "rows": [
        ";;;;;;;;;;;;;;;;;;;;;;;;",
        ";;;;;;;;;;;;;;;;;;;;;;;;",
        "______llllllllllllllllll",
        "______lrrrr|  |222222222",
        "______l    1  +222222222",
        "______lrCSC|  |2222222|+",
        "____QQl----|  |CSCSCSC|T",
        "____QQl>   |  |-------|-",
        "____QQl    J  |CSCSCSC|T",
        "______l<   |  |2222222|+",
        "____QQl----|  +222222222",
        "____QQl7777|  |222222222",
        "____QQl7777|  |---------",
        "__U___l7777|            ",
        "______l7777|   333333333",
        "______l'''6|-| 333333333",
        "ll===ll''''''| 33  (((  ",
        "l6'''''''''''| 33 899999",
        "l''''''''XXX'| 33 8PPPPP",
        "l'''''''XXXX'| 33 8PPPPP",
        "l''''''''''''| 33 lvvvvl",
        "lr'''''''''''| 33 v7777l",
        "lr'''''''XX''| 33 v7777l",
        "lr'''|-Jwwww-| 33 v7777l"
      ],
      "palettes": [
        "acidia_commercial_palette"
      ],
      "toilets": {
        "T": {}
      },
      "items": {
        "3": {
          "item": "traveler",
          "chance": 1
        },
        " ": {
          "item": "traveler",
          "chance": 1
        },
        "'": {
          "item": "home_hw",
          "chance": 1
        },
        "(": {
          "item": "traveler",
          "chance": 5
        },
        "Q": {
          "item": "trash",
          "chance": 60
        },
        "X": {
          "item": "home_hw",
          "chance": 55
        },
        "_": {
          "item": "trash_cart",
          "chance": 2
        },
        "r": {
          "item": "cleaning",
          "chance": 55
        }
      },
      "place_monsters": [
        {
          "monster": "GROUP_ZOMBIE",
          "x": [
            1,
            22
          ],
          "y": [
            1,
            22
          ],
          "density": 0.35
        }
      ]
    },
    "id": "1b02e6cf-4db5-4de2-a6bb-fe24769dbbf4"
  },
  {
    "type": "mapgen",
    "method": "json",
    "om_terrain": [
      "urban_33_6"
    ],
    "weight": 250,
    "object": {
      "fill_ter": "t_floor",
      "rows": [
        ";;;;;;;;;;''''';;;;;;;;;",
        ";;;;;;;;;;''''';;;;;;;;;",
        "lllllllllllJJllllvvvvlll",
        "22222222k| 33 |ccKcKcc'l",
        "222222222| 33 |-------'l",
        "|+|+|+|+-| 33 1''''''''l",
        "|T|T|T|2T| 33 |'XX''X''l",
        "|-|-|-|--| 33 |------|-l",
        "|T|T|T|2T| 33 |CCCSCC|Ll",
        "|+|+|+|+-| 33 v   A  | l",
        "222222222| 33 J      + l",
        "22222222k| 33 v      | l",
        "---------| 33 |h hLLL|Ll",
        "           33 |----|-|-l",
        "3333333333333 |   >|X''l",
        "3333333333333 J    |''Xl",
        "  (((  33     |    |'''l",
        "999998 33 |---|----|-+-l",
        "PPPPP8 33 |      OOOO Ol",
        "PPPPP8 33 v h c        l",
        "lvvvvl 33 vc6cc     rr l",
        "l7777v 33           rr l",
        "l7777v 33       rr     l",
        "l7777v 33       rr  rr l"
      ],
      "palettes": [
        "acidia_commercial_palette"
      ],
      "toilets": {
        "T": {}
      },
      "items": {
        "3": {
          "item": "traveler",
          "chance": 1
        },
        " ": {
          "item": "traveler",
          "chance": 1
        },
        "'": {
          "item": "home_hw",
          "chance": 1
        },
        "(": {
          "item": "traveler",
          "chance": 5
        },
        "C": {
          "item": "beauty",
          "chance": 30
        },
        "K": {
          "item": "allclothes",
          "chance": 70
        },
        "L": {
          "item": "beauty",
          "chance": 60
        },
        "O": {
          "item": "newspapers",
          "chance": 50
        },
        "X": {
          "item": "home_hw",
          "chance": 55
        },
        "r": {
          "item": "magazines",
          "chance": 55
        }
      },
      "place_monsters": [
        {
          "monster": "GROUP_ZOMBIE",
          "x": [
            1,
            22
          ],
          "y": [
            1,
            22
          ],
          "density": 0.55
        }
      ]
    },
    "id": "8ad841c5-7724-4dfb-8f0c-09c5a4eebca0"
  },
  {
    "type": "mapgen",
    "method": "json",
    "om_terrain": [
      "urban_33_7"
    ],
    "weight": 250,
    "object": {
      "fill_ter": "t_floor",
      "rows": [
        "l''''w   dd6d| 33 l===ll",
        "l''''w     hd| 33  333  ",
        "l''''|       | 333333333",
        "l--1-|-------| 333333333",
        "l    |22222222223 333   ",
        "l    |2222222222C 333k89",
        "lg   |222C22222HC 333(8P",
        "lg  L|C22C222224C 333(8P",
        "lC  c|S22CH2222HC 333(8P",
        "lo  c|r22C222222C 333(8P",
        "lo  L|r22CH2222233333 89",
        "lC  L|r22C22222233333   ",
        "lC   |C22CH22222C 333333",
        "lS   |S22C22222HC 333333",
        "lC   +222CH22224C 333333",
        "l--+-|r22C22222HC 333333",
        "l>   |r22CH2222233333333",
        "l    |r22C22222233333333",
        "l    |222CH22222C llJJlJ",
        "l<   |222C222222C l33333",
        "lllllllllllvvvvllll33333",
        "''''''''''''''''''l33333",
        ";;^;;;;^;;;;^;;;''llJJlJ",
        ";;;;;;;;;;;;;;;;''''''''"
      ],
      "palettes": [
        "acidia_commercial_palette"
      ],
      "items": {
        "3": {
          "item": "traveler",
          "chance": 1
        },
        "4": {
          "item": "dining",
          "chance": 10
        },
        " ": {
          "item": "traveler",
          "chance": 1
        },
        "'": {
          "item": "home_hw",
          "chance": 1
        },
        "(": {
          "item": "traveler",
          "chance": 5
        },
        "C": {
          "item": "dining",
          "chance": 10
        },
        "L": {
          "item": "fast_food",
          "chance": 60
        },
        "O": {
          "item": "newspapers",
          "chance": 50
        },
        "d": {
          "item": "office",
          "chance": 55
        },
        "g": {
          "item": "fridge",
          "chance": 55
        },
        "o": {
          "item": "oven",
          "chance": 30
        },
        "r": {
          "item": "alcohol",
          "chance": 55
        }
      },
      "place_monsters": [
        {
          "monster": "GROUP_ZOMBIE",
          "x": [
            1,
            22
          ],
          "y": [
            1,
            22
          ],
          "density": 0.55
        }
      ]
    },
    "id": "e0959043-250f-4093-ac25-eb79bf15ad2c"
  },
  {
    "type": "mapgen",
    "method": "json",
    "om_terrain": [
      "urban_33_8"
    ],
    "weight": 250,
    "object": {
      "fill_ter": "t_floor",
      "rows": [
        "ll===l 33 v         rr l",
        "  333  33 v            l",
        "333333333 |ggg  OOOOOOOl",
        "333333333 |-------|----l",
        "   333     aa    k|uuuul",
        "98 333 AtA        |    l",
        "P8(333        c   |    l",
        "P8(333        c  c|d   l",
        "P8(3333333333 c  O|6h  l",
        "P8(3333333333 6  c|d   l",
        "98 333c333333 c   |    l",
        "   333c333333 c   1    l",
        "333333c333333 6   |   ul",
        "333333c333333 c   |   ul",
        "333333c333333 c  O|   ul",
        "3333333333333 6  O|-+--l",
        "3333333333333 c  O|   >l",
        "333333        c   |    l",
        "JlJJllA           |    l",
        "33333ltA  cc      |   <l",
        "33333llllvvvvlllllllllll",
        "33333l''''''''''''''''''",
        "JlJJll'';;;^;;;;^;;;;^;;",
        "'''''''';;;;;;;;;;;;;;;;"
      ],
      "palettes": [
        "acidia_commercial_palette"
      ],
      "items": {
        "3": {
          "item": "traveler",
          "chance": 1
        },
        " ": {
          "item": "traveler",
          "chance": 1
        },
        "(": {
          "item": "traveler",
          "chance": 5
        },
        "L": {
          "item": "fast_food",
          "chance": 60
        },
        "O": {
          "item": "bookstore_misc",
          "chance": 50
        },
        "c": {
          "item": "bookstore_misc",
          "chance": 10
        },
        "d": {
          "item": "office",
          "chance": 55
        },
        "g": {
          "item": "vending_drink",
          "chance": 55
        },
        "r": {
          "item": "magazines",
          "chance": 55
        },
        "t": {
          "item": "magazines",
          "chance": 55
        },
        "u": {
          "item": "bookstore_misc",
          "chance": 55
        }
      },
      "place_monsters": [
        {
          "monster": "GROUP_ZOMBIE",
          "x": [
            1,
            22
          ],
          "y": [
            1,
            22
          ],
          "density": 0.55
        }
      ]
    },
    "id": "de24e8af-26c0-4e2d-9369-81c908a3c78c"
  },
  {
    "type": "mapgen",
    "method": "json",
    "om_terrain": [
      "urban_33_9"
    ],
    "weight": 250,
    "object": {
      "fill_ter": "t_floor",
      "rows": [
        "........................",
        "........................",
        "......llllllllllllllllll",
        "......lrrrr|  |k        ",
        "......l    1  |      hh ",
        "......lrCSC|  +     htth",
        "......l----|  +    htttt",
        "......l<   |  |    htttt",
        "......l    J  |     htth",
        "......l>   |  |      hh ",
        "......l----|  |         ",
        "......l7777|  |    hh   ",
        "......l7777|  |   htth  ",
        "......l7777|  |  htttth ",
        "......l7777|  |  htttth ",
        "......l'''6|  |   htth  ",
        "lllllll''''1  +    hh   ",
        "lL'''''''''1  +         ",
        "lL'''''''''|  |         ",
        "l''''''''''|  |k        ",
        "l''''''''''|  |---l----l",
        "lL''''''''L|    Acv7777l",
        "lL''''''''L|     Av7777l",
        "l--1-------|      v7777l"
      ],
      "palettes": [
        "acidia_commercial_palette"
      ],
      "items": {
        "3": {
          "item": "traveler",
          "chance": 1
        },
        " ": {
          "item": "traveler",
          "chance": 1
        },
        "'": {
          "item": "home_hw",
          "chance": 1
        },
        "L": {
          "item": "home_hw",
          "chance": 55
        },
        "r": {
          "item": "cleaning",
          "chance": 55
        },
        "t": {
          "item": "dining",
          "chance": 25
        }
      },
      "place_monsters": [
        {
          "monster": "GROUP_ZOMBIE",
          "x": [
            7,
            22
          ],
          "y": [
            4,
            22
          ],
          "density": 0.35
        }
      ]
    },
    "id": "363256de-d294-4a01-87ae-ae194f87784d"
  },
  {
    "type": "mapgen",
    "method": "json",
    "om_terrain": [
      "urban_33_10"
    ],
    "weight": 250,
    "object": {
      "fill_ter": "t_floor",
      "rows": [
        "..........RRRRR.........",
        "..........RRRRR.........",
        "llllllllllllllllllllllll",
        "             k|SS|T|T|Ll",
        "              |22|+|+| l",
        "              +2222221 l",
        "h      hh     |------| l",
        "h     htth    +2222221 l",
        "     htttth   |22|+|+| l",
        "     htttth   |SS|T|T| l",
        "      htth    |------| l",
        "       hh     1        l",
        "              1   rr   l",
        "     hh       |----|-| l",
        "    htth      |   <|r  l",
        "   htttth     |    |r  l",
        "   htttth     |   >|r  l",
        "    htth      |-J--|-1-l",
        "     hh       |        l",
        "             k|        l",
        "l----l-++--++-|  |-+-|-l",
        "l7777v           |C  +Tl",
        "l7777v           |S  |-l",
        "l7777v          (|S  +Tl"
      ],
      "palettes": [
        "acidia_commercial_palette"
      ],
      "toilets": {
        "T": {}
      },
      "items": {
        "3": {
          "item": "traveler",
          "chance": 1
        },
        " ": {
          "item": "traveler",
          "chance": 1
        },
        "L": {
          "item": "home_hw",
          "chance": 55
        },
        "r": {
          "item": "cleaning",
          "chance": 55
        },
        "t": {
          "item": "dining",
          "chance": 25
        }
      },
      "place_monsters": [
        {
          "monster": "GROUP_ZOMBIE",
          "x": [
            1,
            22
          ],
          "y": [
            3,
            22
          ],
          "density": 0.5
        }
      ]
    },
    "id": "db354e4c-b672-438f-8c54-b1215cd13eae"
  },
  {
    "type": "mapgen",
    "method": "json",
    "om_terrain": [
      "urban_33_11"
    ],
    "weight": 250,
    "object": {
      "fill_ter": "t_floor",
      "rows": [
        "l    cck|         l===ll",
        "l       v          333  ",
        "l   x   v  3333333333333",
        "l  xx   v 33333333333333",
        "l       v 333           ",
        "l       v 33 89999999999",
        "l x     J 33 87777777777",
        "l xxx   v 33 87777777777",
        "l x     J 33 87777777777",
        "l       v 33 87777777777",
        "l       v 33 87777777777",
        "l 2  !  v 33 87777777777",
        "l       v 33 87777777777",
        "l 2  !  v 33 87777777777",
        "l       | 33 87777777777",
        "l----|--| 33 89999999999",
        "l<   |    333           ",
        "l    1    33333333333333",
        "l    |     3333333333333",
        "l>   |k                 ",
        "lllllllllllllllvvvlvvvlv",
        "RRRRRRRRRRRRRRRRRRRRRRRR",
        "................RRRRRRRR",
        "................RRRRRRRR"
      ],
      "palettes": [
        "acidia_commercial_palette"
      ],
      "terrain": {
        "2": "t_linoleum_white",
        " ": "t_linoleum_white",
        "!": "t_linoleum_white"
      },
      "furniture": {
        "2": "f_treadmill",
        "!": "f_ergometer"
      },
      "items": {
        "3": {
          "item": "traveler",
          "chance": 1
        },
        " ": {
          "item": "traveler",
          "chance": 1
        }
      },
      "place_monsters": [
        {
          "monster": "GROUP_ZOMBIE",
          "x": [
            2,
            11
          ],
          "y": [
            1,
            18
          ],
          "density": 0.4
        }
      ]
    },
    "id": "7d5b8158-1e83-4ee3-a010-68c2bd798e93"
  },
  {
    "type": "mapgen",
    "method": "json",
    "om_terrain": [
      "urban_33_12"
    ],
    "weight": 250,
    "object": {
      "fill_ter": "t_floor",
      "rows": [
        "ll===l          (|S  |-l",
        "  333           (|S  +Tl",
        "3333333333333    |S  |-l",
        "33333333333333   |C  +Tl",
        "           333   |-----l",
        "99999999998 33   |C  +Tl",
        "77777777778 33   |S  |-l",
        "77777777778 33  (|S  +Tl",
        "77777777778 33  (|S  |-l",
        "77777777778 33  (|S  +Tl",
        "77777777778 33   |S  |-l",
        "77777777778 33   |C  +Tl",
        "77777777778 33   |-+-|-l",
        "77777777778 33         l",
        "77777777778 33         l",
        "99999999998 33    |-1--l",
        "           333    |   <l",
        "33333333333333    |    l",
        "3333333333333     |    l",
        "              tAAt|   >l",
        "vlvvvlvvvlllllllllllllll",
        "RRRRRRRRRRRRRRRRRRRRRRRR",
        "RRRRRRRR................",
        "RRRRRRRR................"
      ],
      "palettes": [
        "acidia_commercial_palette"
      ],
      "toilets": {
        "T": {}
      },
      "items": {
        "3": {
          "item": "traveler",
          "chance": 1
        },
        " ": {
          "item": "traveler",
          "chance": 1
        },
        "A": {
          "item": "waitingroom",
          "chance": 5
        },
        "t": {
          "item": "waitingroom",
          "chance": 25
        }
      },
      "place_monsters": [
        {
          "monster": "GROUP_ZOMBIE",
          "x": [
            1,
            16
          ],
          "y": [
            1,
            4
          ],
          "density": 0.5
        },
        {
          "monster": "GROUP_ZOMBIE",
          "x": [
            11,
            16
          ],
          "y": [
            5,
            18
          ],
          "density": 0.5
        }
      ]
    },
    "id": "3e8cd7d9-5930-40a1-ab52-2f10bb2b503f"
  },
  {
    "type": "mapgen",
    "method": "json",
    "om_terrain": [
      "urban_33_13"
    ],
    "weight": 250,
    "object": {
      "fill_ter": "t_floor",
      "rows": [
        "........................",
        "........................",
        "......llwwllllwwlllwwlll",
        "......lB22T|           |",
        "......lB222+          e|",
        "......lBCSC|cgSc    bbb|",
        "......l----|--|c    bbb|",
        "......l>   v  |6    bbb|",
        "......l    J  |c      e|",
        "......l<   v  |        |",
        "......l----|  |--1-----|",
        "......lEEEE|            ",
        "......lEEEE|            ",
        "......lEEEE|  |------1-|",
        "......lEEE6|  |tthc6c  |",
        "......l''''|  |tt      |",
        "RRRRRRl''''1  |h       |",
        "RRRRRRl''''1  |   bbb  |",
        "RRRRRRlC'''|  |   bbb  |",
        "RRRRRRlS'''|  |  ebbbe |",
        "RRRRRRlC'''|  |-+-|----|",
        "RRRRRRl''''|  |C2T|7777|",
        "RRRRRRl''''|  |S2B|7777|",
        "RRRRRRlrrrr|  |C2B|7777|"
      ],
      "palettes": [
        "acidia_commercial_palette"
      ],
      "toilets": {
        "T": {}
      },
      "items": {
        "2": {
          "item": "softdrugs",
          "chance": 5
        },
        " ": {
          "item": "traveler",
          "chance": 1
        },
        "'": {
          "item": "home_hw",
          "chance": 1
        },
        "b": {
          "item": "bed",
          "chance": 70
        },
        "c": {
          "item": "bags_trip",
          "chance": 15
        },
        "e": {
          "item": "traveler",
          "chance": 25
        },
        "g": {
          "item": "alcohol",
          "chance": 50
        },
        "r": {
          "item": "cleaning",
          "chance": 55
        }
      },
      "place_monsters": [
        {
          "monster": "GROUP_ZOMBIE",
          "x": [
            7,
            22
          ],
          "y": [
            3,
            22
          ],
          "density": 0.3
        }
      ]
    },
    "id": "54f8e0c4-c553-4430-b75d-aeac88d3d778"
  },
  {
    "type": "mapgen",
    "method": "json",
    "om_terrain": [
      "urban_33_14"
    ],
    "weight": 250,
    "object": {
      "fill_ter": "t_floor",
      "rows": [
        "........................",
        "........................",
        "llwwwlllllllllwwwlllRRRR",
        "       |CST|    httlRRRR",
        "e      |222+     ttlRRRR",
        "bbb   c|BBB|e     hlRRRR",
        "bbb   6|---|bbb   clRRRR",
        "bbb   c|BBB|bbb   6lRRRR",
        "e      +222|bbb   clRRRR",
        "       |CST|e      lRRRR",
        "----1--|---|--|   glRRRR",
        "              1   SlRRRR",
        "              |   clRRRR",
        "---1-------|  |----lRRRR",
        "          e|  v    lRRRR",
        "c       bbb|  J    lRRRR",
        "6       bbb|  v   <lRRRR",
        "c       bbb|  |----lRRRR",
        " htth     e|  | ?? lRRRR",
        " htth      |  |    lRRRR",
        "|----|-|-+-|       lRRRR",
        "|7777|r|22B|       lRRRR",
        "|7777| +22B|  |    lRRRR",
        "|7777|r|TSB|  |ZZ klRRRR"
      ],
      "palettes": [
        "acidia_commercial_palette"
      ],
      "terrain": {
        "?": "t_linoleum_white"
      },
      "toilets": {
        "T": {}
      },
      "items": {
        "2": {
          "item": "softdrugs",
          "chance": 5
        },
        " ": {
          "item": "traveler",
          "chance": 1
        },
        "'": {
          "item": "home_hw",
          "chance": 1
        },
        "?": {
          "item": "vending_drink",
          "chance": 60
        },
        "b": {
          "item": "bed",
          "chance": 70
        },
        "c": {
          "item": "bags_trip",
          "chance": 15
        },
        "e": {
          "item": "traveler",
          "chance": 25
        },
        "g": {
          "item": "alcohol",
          "chance": 50
        },
        "r": {
          "item": "allclothes",
          "chance": 55
        }
      },
      "place_monsters": [
        {
          "monster": "GROUP_ZOMBIE",
          "x": [
            1,
            17
          ],
          "y": [
            3,
            22
          ],
          "density": 0.3
        }
      ]
    },
    "id": "2f6b247b-1321-4e09-8a01-970cac0ea94a"
  },
  {
    "type": "mapgen",
    "method": "json",
    "om_terrain": [
      "urban_33_15"
    ],
    "weight": 250,
    "object": {
      "fill_ter": "t_floor",
      "rows": [
        "RRRRRRl----|  |---|===-|",
        "RRRRRRlBSCT|            ",
        "RRRRRRlB222|            ",
        "RRRRRRl-+--|-|  |---1---",
        "RRRRRRl    c6|  |      c",
        "RRRRRRw     c|  |bbb   6",
        "RRRRRRwbb    |  |bbb   c",
        "RRRRRRlbb    |  |bbb    ",
        "RRRRRRle     |  |e      ",
        "RRRRRRl----1-|  |-------",
        "RRRRRRl                 ",
        "RRRRRRl                 ",
        "RRRRRRl  |---|-------1-|",
        "RRRRRRl  |BSC|   c6c   |",
        "RRRRRRl  |B22+         +",
        "lllllll  |B2T|         |",
        "l     |  |---|c        |",
        "l     1  v  >|S  bbb   |",
        "l     |  J   |g  bbb   |",
        "l<    |  v   |c ebbbe  |",
        "lllllllvvllvlllvvlllvvll",
        "........................",
        "........................",
        "........................"
      ],
      "palettes": [
        "acidia_commercial_palette"
      ],
      "toilets": {
        "T": {}
      },
      "items": {
        "2": {
          "item": "softdrugs",
          "chance": 5
        },
        " ": {
          "item": "traveler",
          "chance": 1
        },
        "'": {
          "item": "home_hw",
          "chance": 1
        },
        "b": {
          "item": "bed",
          "chance": 70
        },
        "c": {
          "item": "bags_trip",
          "chance": 15
        },
        "e": {
          "item": "traveler",
          "chance": 25
        },
        "g": {
          "item": "alcohol",
          "chance": 50
        }
      },
      "place_monsters": [
        {
          "monster": "GROUP_ZOMBIE",
          "x": [
            7,
            22
          ],
          "y": [
            1,
            18
          ],
          "density": 0.3
        }
      ]
    },
    "id": "a4e3f417-45e8-4caf-9f1e-f04d5d448d47"
  },
  {
    "type": "mapgen",
    "method": "json",
    "om_terrain": [
      "urban_33_16"
    ],
    "weight": 250,
    "object": {
      "fill_ter": "t_floor",
      "rows": [
        "|-===|-|---|  |----lRRRR",
        "              |TCSBlRRRR",
        "              |222BlRRRR",
        "|---|-------|-|--+-lRRRR",
        "|BTS|      e|6c    lRRRR",
        "|B22+    bbb|c     wRRRR",
        "|---|c   bbb|    bbwRRRR",
        "+22B|6   bbb|    bblRRRR",
        "|STB|c      |     elRRRR",
        "|---|---1---|-1----lRRRR",
        "                   lRRRR",
        "                   lRRRR",
        "--|-1-------|---|  lRRRR",
        " r|c  c6c   |CSB|  lRRRR",
        " r|S        +22B|  lRRRR",
        " r|g        |T2B|  lllll",
        "--|c        |---|  |   l",
        "r |   bbb   |>  v  1   l",
        "r +   bbb   |   J  |   l",
        "r |  ebbbe  |   v  |  <l",
        "llllvvlllvvlllvllvvlllll",
        "........................",
        "........................",
        "........................"
      ],
      "palettes": [
        "acidia_commercial_palette"
      ],
      "toilets": {
        "T": {}
      },
      "items": {
        "2": {
          "item": "softdrugs",
          "chance": 5
        },
        " ": {
          "item": "traveler",
          "chance": 1
        },
        "'": {
          "item": "home_hw",
          "chance": 1
        },
        "b": {
          "item": "bed",
          "chance": 70
        },
        "c": {
          "item": "bags_trip",
          "chance": 15
        },
        "e": {
          "item": "traveler",
          "chance": 25
        },
        "g": {
          "item": "alcohol",
          "chance": 50
        },
        "r": {
          "item": "allclothes",
          "chance": 55
        }
      },
      "place_monsters": [
        {
          "monster": "GROUP_ZOMBIE",
          "x": [
            1,
            18
          ],
          "y": [
            1,
            19
          ],
          "density": 0.3
        }
      ]
    },
    "id": "022e612d-0de8-4d7b-b958-4445b66a8884"
  },
  {
    "type": "mapgen",
    "method": "json",
    "om_terrain": [
      "urban_33_17"
    ],
    "weight": 250,
    "object": {
      "fill_ter": "t_floor",
      "rows": [
        "........................",
        "........................",
        "......llwwllllwwlllwwlll",
        "......lB22T|   htth    |",
        "......lB222+   htth   e|",
        "......lBCSC|        bbb|",
        "......l----|--|     bbb|",
        "......l<   v  |     bbb|",
        "......v    J  |c      e|",
        "......l>   v  |6       |",
        "......l----|  |c      e|",
        "......l7777|  |     bbb|",
        "......l7777|  |     bbb|",
        "......l7777|  |     bbb|",
        "......l7777|  |       e|",
        "......l'''6|  |        |",
        "......l''''|  |     gSC|",
        "......l''''1  |--1-----|",
        "......l''''1            ",
        "......lLLLL|            ",
        "......l----|-1-|  |----|",
        "......l c6c   S|  |7777|",
        "......w       g|  |7777|",
        "......w     |--|  |7777|"
      ],
      "palettes": [
        "acidia_commercial_palette"
      ],
      "toilets": {
        "T": {}
      },
      "items": {
        "2": {
          "item": "softdrugs",
          "chance": 5
        },
        " ": {
          "item": "traveler",
          "chance": 1
        },
        "'": {
          "item": "home_hw",
          "chance": 1
        },
        "L": {
          "item": "cleaning",
          "chance": 55
        },
        "b": {
          "item": "bed",
          "chance": 70
        },
        "c": {
          "item": "bags_trip",
          "chance": 15
        },
        "e": {
          "item": "traveler",
          "chance": 25
        },
        "g": {
          "item": "alcohol",
          "chance": 50
        }
      },
      "place_monsters": [
        {
          "monster": "GROUP_ZOMBIE",
          "x": [
            7,
            22
          ],
          "y": [
            3,
            22
          ],
          "density": 0.3
        }
      ]
    },
    "id": "b9d46f4c-816b-4238-8702-3c2aba854956"
  },
  {
    "type": "mapgen",
    "method": "json",
    "om_terrain": [
      "urban_33_18"
    ],
    "weight": 250,
    "object": {
      "fill_ter": "t_floor",
      "rows": [
        "........................",
        "........................",
        "llwwwlllllllllwwwlll....",
        "    htt|BBB|    httl....",
        "e   htt|T22+     ttl....",
        "bbb  hh|S22|e     hl....",
        "bbb    |C22|bbb    l....",
        "bbb    |-+-|bbb    l....",
        "e     c|   |bbb    l....",
        "      6|rrr|e     cl....",
        "e     c|---|      6l....",
        "bbb    |r r|e     cl....",
        "bbb    |-+-|bbb    l....",
        "bbb    |22C|bbb    l....",
        "e      +22S|bbb   gl....",
        "       |22T|e     Sl....",
        "CSg    |BBB|      Cl....",
        "----1--|---|----1--l....",
        "                   v....",
        "                   v....",
        "|----|  |---|------l....",
        "|7777|  |STB| ebbbel....",
        "|7777|  |22B|  bbb w....",
        "|7777|  |-+-|  bbb w...."
      ],
      "palettes": [
        "acidia_commercial_palette"
      ],
      "toilets": {
        "T": {}
      },
      "items": {
        "2": {
          "item": "softdrugs",
          "chance": 5
        },
        " ": {
          "item": "traveler",
          "chance": 1
        },
        "'": {
          "item": "home_hw",
          "chance": 1
        },
        "b": {
          "item": "bed",
          "chance": 70
        },
        "c": {
          "item": "bags_trip",
          "chance": 15
        },
        "e": {
          "item": "traveler",
          "chance": 25
        },
        "g": {
          "item": "alcohol",
          "chance": 50
        },
        "r": {
          "item": "allclothes",
          "chance": 55
        }
      },
      "place_monsters": [
        {
          "monster": "GROUP_ZOMBIE",
          "x": [
            1,
            17
          ],
          "y": [
            3,
            22
          ],
          "density": 0.3
        }
      ]
    },
    "id": "3469f5d8-6a77-4505-a0c2-ead118544bae"
  },
  {
    "type": "mapgen",
    "method": "json",
    "om_terrain": [
      "urban_33_19"
    ],
    "weight": 250,
    "object": {
      "fill_ter": "t_floor",
      "rows": [
        "......w bbb +2S|  |===-|",
        "......w bbb |2T|        ",
        "......lebbbe|BB|        ",
        "......l-----|--|---|---|",
        "......lebbbe ebbbe |BTS|",
        "......w bbb   bbb  |B22|",
        "......w bbb   bbb  |-+-|",
        "......w                1",
        "......l    c6c      gSC|",
        "......l------------|---|",
        "......lebbbe ebbbe |BTS|",
        "......w bbb   bbb  |B22|",
        "......w bbb   bbb  |-+-|",
        "......w                1",
        "......w                |",
        "RRRRRRl    c6c      gSC|",
        "RRRRRRl-+|---|---------|",
        "RRRRRRlr |  <v          ",
        "RRRRRRlr |   J          ",
        "RRRRRRlr |  >v          ",
        "RRRRRRlllllvlllvvvlvvvlv",
        "........................",
        "........................",
        "........................"
      ],
      "palettes": [
        "acidia_commercial_palette"
      ],
      "toilets": {
        "T": {}
      },
      "items": {
        "2": {
          "item": "softdrugs",
          "chance": 5
        },
        " ": {
          "item": "traveler",
          "chance": 1
        },
        "'": {
          "item": "home_hw",
          "chance": 1
        },
        "b": {
          "item": "bed",
          "chance": 70
        },
        "c": {
          "item": "bags_trip",
          "chance": 15
        },
        "e": {
          "item": "traveler",
          "chance": 25
        },
        "g": {
          "item": "alcohol",
          "chance": 50
        },
        "r": {
          "item": "allclothes",
          "chance": 55
        }
      },
      "place_monsters": [
        {
          "monster": "GROUP_ZOMBIE",
          "x": [
            7,
            22
          ],
          "y": [
            1,
            18
          ],
          "density": 0.3
        }
      ]
    },
    "id": "da4a618e-c4b9-4246-a21b-ad680767b919"
  },
  {
    "type": "mapgen",
    "method": "json",
    "om_terrain": [
      "urban_33_20"
    ],
    "weight": 250,
    "object": {
      "fill_ter": "t_floor",
      "rows": [
        "|-===|  |          w....",
        "        1          w....",
        "        |CSg   c6c l....",
        "  |---|-|----------l....",
        "  |STB| ebbbe ebbbel....",
        "  |22B|  bbb   bbb w....",
        "  |-+-|  bbb   bbb w....",
        "  1                w....",
        "  |CSg      c6c    l....",
        "  |---|------------l....",
        "  |STB| ebbbe ebbbel....",
        "  |22B|  bbb   bbb w....",
        "  |-+-|  bbb   bbb w....",
        "  1                w....",
        "  |                w....",
        "  |CSg      c6c    lRRRR",
        "  |---------|---|+-lRRRR",
        "            v<  | rlRRRR",
        "            J   | rlRRRR",
        "            v>  | rlRRRR",
        "vvvlvvvlvvvlllvlllllRRRR",
        "........................",
        "........................",
        "........................"
      ],
      "palettes": [
        "acidia_commercial_palette"
      ],
      "toilets": {
        "T": {}
      },
      "items": {
        "2": {
          "item": "softdrugs",
          "chance": 5
        },
        " ": {
          "item": "traveler",
          "chance": 1
        },
        "'": {
          "item": "home_hw",
          "chance": 1
        },
        "b": {
          "item": "bed",
          "chance": 70
        },
        "c": {
          "item": "bags_trip",
          "chance": 15
        },
        "e": {
          "item": "traveler",
          "chance": 25
        },
        "g": {
          "item": "alcohol",
          "chance": 50
        },
        "r": {
          "item": "allclothes",
          "chance": 55
        }
      },
      "place_monsters": [
        {
          "monster": "GROUP_ZOMBIE",
          "x": [
            1,
            18
          ],
          "y": [
            1,
            19
          ],
          "density": 0.3
        }
      ]
    },
    "id": "9141c342-1d36-467d-a096-ccc46a576d6c"
  },
  {
    "type": "mapgen",
    "method": "json",
    "om_terrain": [
      "urban_33_21"
    ],
    "weight": 250,
    "object": {
      "fill_ter": "t_floor",
      "rows": [
        "........................",
        "........................",
        "......llwwllllwwlllwwlll",
        "......lB22T|   htth    |",
        "......lB222+   htth   e|",
        "......lBCSC|        bbb|",
        "......l----|--|     bbb|",
        "......l    v  |     bbb|",
        "......v    J  |c      e|",
        "......l<   v  |6       |",
        "......l----|  |c      e|",
        "......l7777|  |     bbb|",
        "......l7777|  |     bbb|",
        "......l7777|  |     bbb|",
        "......l7777|  |       e|",
        "......l'''6|  |        |",
        "......l''''|  |     gSC|",
        "......l''''1  |--1-----|",
        "......l''''1            ",
        "......lLLLL|            ",
        "......l----|-1-|  |----|",
        "......l c6c   S|  |7777|",
        "......w       g|  |7777|",
        "......w     |--|  |7777|"
      ],
      "palettes": [
        "acidia_commercial_palette"
      ],
      "toilets": {
        "T": {}
      },
      "items": {
        "2": {
          "item": "softdrugs",
          "chance": 5
        },
        " ": {
          "item": "traveler",
          "chance": 1
        },
        "'": {
          "item": "home_hw",
          "chance": 1
        },
        "L": {
          "item": "cleaning",
          "chance": 55
        },
        "b": {
          "item": "bed",
          "chance": 70
        },
        "c": {
          "item": "bags_trip",
          "chance": 15
        },
        "e": {
          "item": "traveler",
          "chance": 25
        },
        "g": {
          "item": "alcohol",
          "chance": 50
        },
        "r": {
          "item": "allclothes",
          "chance": 55
        }
      },
      "place_monsters": [
        {
          "monster": "GROUP_ZOMBIE",
          "x": [
            7,
            22
          ],
          "y": [
            3,
            22
          ],
          "density": 0.3
        }
      ]
    },
    "id": "722bcdb8-243a-4f94-9f2a-b81cbf6257a1"
  },
  {
    "type": "mapgen",
    "method": "json",
    "om_terrain": [
      "urban_33_22"
    ],
    "weight": 250,
    "object": {
      "fill_ter": "t_floor",
      "rows": [
        "........................",
        "........................",
        "llwwwlllllllllwwwlll....",
        "    htt|BBB|    httl....",
        "e   htt|T22+     ttl....",
        "bbb  hh|S22|e     hl....",
        "bbb    |C22|bbb    l....",
        "bbb    |-+-|bbb    l....",
        "e     c|   |bbb    l....",
        "      6|rrr|e     cl....",
        "e     c|---|      6l....",
        "bbb    |r r|e     cl....",
        "bbb    |-+-|bbb    l....",
        "bbb    |22C|bbb    l....",
        "e      +22S|bbb   gl....",
        "       |22T|e     Sl....",
        "CSg    |BBB|      Cl....",
        "----1--|---|----1--l....",
        "                   v....",
        "                   v....",
        "|----|  |---|------l....",
        "|7777|  |STB| ebbbel....",
        "|7777|  |22B|  bbb w....",
        "|7777|  |-+-|  bbb w...."
      ],
      "palettes": [
        "acidia_commercial_palette"
      ],
      "toilets": {
        "T": {}
      },
      "items": {
        "2": {
          "item": "softdrugs",
          "chance": 5
        },
        " ": {
          "item": "traveler",
          "chance": 1
        },
        "'": {
          "item": "home_hw",
          "chance": 1
        },
        "b": {
          "item": "bed",
          "chance": 70
        },
        "c": {
          "item": "bags_trip",
          "chance": 15
        },
        "e": {
          "item": "traveler",
          "chance": 25
        },
        "g": {
          "item": "alcohol",
          "chance": 50
        },
        "r": {
          "item": "allclothes",
          "chance": 55
        }
      },
      "place_monsters": [
        {
          "monster": "GROUP_ZOMBIE",
          "x": [
            1,
            17
          ],
          "y": [
            3,
            22
          ],
          "density": 0.3
        }
      ]
    },
    "id": "2874cbdf-20c6-4408-83ba-2263b2b2d0ec"
  },
  {
    "type": "mapgen",
    "method": "json",
    "om_terrain": [
      "urban_33_23"
    ],
    "weight": 250,
    "object": {
      "fill_ter": "t_floor",
      "rows": [
        "......w bbb +2S|  |===-|",
        "......w bbb |2T|        ",
        "......lebbbe|BB|        ",
        "......l-----|--|---|---|",
        "......lebbbe ebbbe |BTS|",
        "......w bbb   bbb  |B22|",
        "......w bbb   bbb  |-+-|",
        "......w                1",
        "......l    c6c      gSC|",
        "......l------------|---|",
        "......lebbbe ebbbe |BTS|",
        "......w bbb   bbb  |B22|",
        "......w bbb   bbb  |-+-|",
        "......w                1",
        "......w                |",
        "......l    c6c      gSC|",
        "......l-+|---|---------|",
        "......lr |   v          ",
        "......lr |   J          ",
        "......lr |  <v          ",
        "......lllllvlllvvvlvvvlv",
        "........................",
        "........................",
        "........................"
      ],
      "palettes": [
        "acidia_commercial_palette"
      ],
      "toilets": {
        "T": {}
      },
      "items": {
        "2": {
          "item": "softdrugs",
          "chance": 5
        },
        " ": {
          "item": "traveler",
          "chance": 1
        },
        "'": {
          "item": "home_hw",
          "chance": 1
        },
        "b": {
          "item": "bed",
          "chance": 70
        },
        "c": {
          "item": "bags_trip",
          "chance": 15
        },
        "e": {
          "item": "traveler",
          "chance": 25
        },
        "g": {
          "item": "alcohol",
          "chance": 50
        },
        "r": {
          "item": "allclothes",
          "chance": 55
        }
      },
      "place_monsters": [
        {
          "monster": "GROUP_ZOMBIE",
          "x": [
            7,
            22
          ],
          "y": [
            1,
            18
          ],
          "density": 0.3
        }
      ]
    },
    "id": "d6f1608d-5523-46a2-bbc0-0f25c822705a"
  },
  {
    "type": "mapgen",
    "method": "json",
    "om_terrain": [
      "urban_33_24"
    ],
    "weight": 250,
    "object": {
      "fill_ter": "t_floor",
      "rows": [
        "|-===|  |          w....",
        "        1          w....",
        "        |CSg   c6c l....",
        "  |---|-|----------l....",
        "  |STB| ebbbe ebbbel....",
        "  |22B|  bbb   bbb w....",
        "  |-+-|  bbb   bbb w....",
        "  1                w....",
        "  |CSg      c6c    l....",
        "  |---|------------l....",
        "  |STB| ebbbe ebbbel....",
        "  |22B|  bbb   bbb w....",
        "  |-+-|  bbb   bbb w....",
        "  1                w....",
        "  |                w....",
        "  |CSg      c6c    l....",
        "  |---------|---|+-l....",
        "            v>  | rl....",
        "            J   | rl....",
        "            v<  | rl....",
        "vvvlvvvlvvvlllvlllll....",
        "........................",
        "........................",
        "........................"
      ],
      "palettes": [
        "acidia_commercial_palette"
      ],
      "toilets": {
        "T": {}
      },
      "items": {
        "2": {
          "item": "softdrugs",
          "chance": 5
        },
        " ": {
          "item": "traveler",
          "chance": 1
        },
        "'": {
          "item": "home_hw",
          "chance": 1
        },
        "b": {
          "item": "bed",
          "chance": 70
        },
        "c": {
          "item": "bags_trip",
          "chance": 15
        },
        "e": {
          "item": "traveler",
          "chance": 25
        },
        "g": {
          "item": "alcohol",
          "chance": 50
        },
        "r": {
          "item": "allclothes",
          "chance": 55
        }
      },
      "place_monsters": [
        {
          "monster": "GROUP_ZOMBIE",
          "x": [
            1,
            18
          ],
          "y": [
            1,
            19
          ],
          "density": 0.3
        }
      ]
    },
    "id": "5c4b7667-4093-4981-8bea-8ca4f84ea036"
  },
  {
    "type": "mapgen",
    "method": "json",
    "om_terrain": [
      "urban_33_25"
    ],
    "weight": 250,
    "object": {
      "fill_ter": "t_floor",
      "rows": [
        "........................",
        "........................",
        "......899999999999999999",
        "......8;;;;;;;;;;;;;;;;;",
        "......8;,,,;;;;;;;((((;;",
        "......8;,^,;;;;;;;;;;;;;",
        "......8;,,,;;;;;;;;;;;;;",
        "......8;;;;;;;;PPPPPPPPP",
        "......8;;;;;;;PPPPPPPPPP",
        "......8;;(;;;;PPPPPPPPPP",
        "......8;;(;;;;PPPPPPPPPP",
        "......8;;(;;;;PPPPPPPPPP",
        "......8;;(;;;;PPPPPPPPPP",
        "......8;;;;;;;PPPPPPPPPP",
        "......8;;;;;;;;PPPPPPPPP",
        "......8;,,,;;;;;;;;;;;;;",
        "......8;,^,;;;;;;;;;;;;;",
        "......8;,,,;;;;;;;;;;;;;",
        "......8''''';;;;;;;;;;;;",
        "......8'}''';;;;;;;;;;;;",
        "......lllllllvvvvllvvvvl",
        "......l@@@      At|7777|",
        "......l@         A|7777|",
        "......l@ t        |7777|"
      ],
      "palettes": [
        "acidia_commercial_palette"
      ],
      "items": {
        " ": {
          "item": "traveler",
          "chance": 1
        },
        "(": {
          "item": "magazines",
          "chance": 15
        },
        ";": {
          "item": "swimmer_head",
          "chance": 2
        },
        "@": {
          "item": "magazines",
          "chance": 10
        },
        "t": {
          "item": "magazines",
          "chance": 25
        }
      },
      "place_monsters": [
        {
          "monster": "GROUP_ZOMBIE",
          "x": [
            7,
            22
          ],
          "y": [
            3,
            18
          ],
          "density": 0.3
        }
      ]
    },
    "id": "90f2631a-5617-4e11-bb7b-f8770e7212fb"
  },
  {
    "type": "mapgen",
    "method": "json",
    "om_terrain": [
      "urban_33_26"
    ],
    "weight": 250,
    "object": {
      "fill_ter": "t_floor",
      "rows": [
        "........................",
        "........................",
        "99999999999999999998....",
        ";;;;;;;;;;;;;;;;;;;8....",
        ";;;;((((;;;;;;;,,,;8....",
        ";;;;;;;;;;;;;;;,^,;8....",
        ";;;;;;;;;;;;;;;,,,;8....",
        "PPPPPPPPPPP;;;;;;;;8....",
        "PPPPPPPPPPPP;;;;;;;8....",
        "PPPPPPPPPPPP;;;;(;;8....",
        "PPPPPPPPPPPP;;;;(;;8....",
        "PPPPPPPPPPPP;;;;(;;8....",
        "PPPPPPPPPPPP;;;;(;;8....",
        "PPPPPPPPPPPP;;;;;;;8....",
        "PPPPPPPPPPP;;;;;;;;8....",
        ";;;;;;;;;;;;;;;,,,;8....",
        ";;;;;;;;;;;;;;;,^,;8....",
        ";;;;;;;;;;;;;;;,,,;8....",
        ";;;;;;;;;;;;;;;;;;;8....",
        ";;;;;;;;;;;;;;;;;;;8....",
        "lvvvvlvJvlvvvllvvvll....",
        "|7777|333 AtA @@@@@l....",
        "|7777|333         @l....",
        "|7777|333      tt @l...."
      ],
      "palettes": [
        "acidia_commercial_palette"
      ],
      "items": {
        " ": {
          "item": "traveler",
          "chance": 1
        },
        "(": {
          "item": "magazines",
          "chance": 15
        },
        ";": {
          "item": "swimmer_head",
          "chance": 2
        },
        "@": {
          "item": "magazines",
          "chance": 10
        },
        "t": {
          "item": "magazines",
          "chance": 25
        }
      },
      "place_monsters": [
        {
          "monster": "GROUP_ZOMBIE",
          "x": [
            1,
            17
          ],
          "y": [
            3,
            18
          ],
          "density": 0.3
        }
      ]
    },
    "id": "eb3a7bb5-f021-4646-957e-f714ac91c041"
  },
  {
    "type": "mapgen",
    "method": "json",
    "om_terrain": [
      "urban_33_27"
    ],
    "weight": 250,
    "object": {
      "fill_ter": "t_floor",
      "rows": [
        "......l@ t        |===-|",
        "......l           133333",
        "......l           133333",
        "......l dd6    |--|--1--",
        "......l  hd    | u|A    ",
        "......l        + u|t    ",
        "......lO       |--|A    ",
        "......lO       |LL|     ",
        "......lccccc   |  |     ",
        "......l------1-|-1|-+-| ",
        "......luuScg      |r r| ",
        "......l           |---| ",
        "......l  tA       |CSC| ",
        "......l  A       O|222+ ",
        "......l          O|T22| ",
        "......l          O|BBB|c",
        "......l   dd6dd  O|---|6",
        "......l     A     |CSC|c",
        "......l           +222| ",
        "......l           |2T2| ",
        "......lllvvvlvvvllllllll",
        "........................",
        "........................",
        "........................"
      ],
      "palettes": [
        "acidia_commercial_palette"
      ],
      "toilets": {
        "T": {}
      },
      "items": {
        " ": {
          "item": "traveler",
          "chance": 1
        },
        "L": {
          "item": "homeguns",
          "chance": 60
        },
        "O": {
          "item": "homebooks",
          "chance": 50
        },
        "d": {
          "item": "office",
          "chance": 40
        },
        "g": {
          "item": "wines_worthy",
          "chance": 80
        },
        "r": {
          "item": "allclothes",
          "chance": 40
        },
        "t": {
          "item": "magazines",
          "chance": 25
        },
        "u": {
          "item": "bookstore_misc",
          "chance": 60
        }
      },
      "place_monsters": [
        {
          "monster": "GROUP_ZOMBIE",
          "x": [
            7,
            22
          ],
          "y": [
            1,
            18
          ],
          "density": 0.2
        }
      ]
    },
    "id": "3da970b4-2f27-48bc-b70a-4f2121a75112"
  },
  {
    "type": "mapgen",
    "method": "json",
    "om_terrain": [
      "urban_33_28"
    ],
    "weight": 250,
    "object": {
      "fill_ter": "t_floor",
      "rows": [
        "|-===|333          l....",
        "3333333333333333333l....",
        "3333333333333333333l....",
        "-----|-------1--|33l....",
        "2gCSC|CSCg2    A|33l....",
        "2222o|o2222    t|33l....",
        "2CC2C|C2CC2    A|33l....",
        "2222j|j2222     |33l....",
        " hh  |  hh      |33l....",
        " tt O|O tt  |-+-|33l....",
        " tt  |  tt  |r r|33l....",
        " hh  |  hh  |---|33l....",
        " cccc|cccc  |CSC|33l....",
        "     |      +222|33l....",
        "    e|e     |22T|33l....",
        "  bbb|bbb   |BBB|33l....",
        "  bbb|bbb   |---|33l....",
        "  bbb|bbb   |<  v33l....",
        "    e|e     |   J33l....",
        "     |      |   v33l....",
        "vvvvlllvvvvlllvlllll....",
        "........................",
        "........................",
        "........................"
      ],
      "palettes": [
        "acidia_commercial_palette"
      ],
      "toilets": {
        "T": {}
      },
      "items": {
        "2": {
          "item": "softdrugs",
          "chance": 5
        },
        "3": {
          "item": "traveler",
          "chance": 1
        },
        " ": {
          "item": "traveler",
          "chance": 1
        },
        "O": {
          "item": "homebooks",
          "chance": 50
        },
        "b": {
          "item": "bed",
          "chance": 70
        },
        "c": {
          "item": "bags_trip",
          "chance": 15
        },
        "e": {
          "item": "traveler",
          "chance": 25
        },
        "g": {
          "item": "alcohol",
          "chance": 50
        },
        "r": {
          "item": "allclothes",
          "chance": 55
        }
      },
      "place_monsters": [
        {
          "monster": "GROUP_ZOMBIE",
          "x": [
            1,
            18
          ],
          "y": [
            1,
            19
          ],
          "density": 0.3
        }
      ]
    },
    "id": "05e74a46-3e0b-4b5d-ac90-2864e62321a7"
  },
  {
    "type": "mapgen",
    "method": "json",
    "om_terrain": [
      "urban_33_29"
    ],
    "weight": 250,
    "object": {
      "fill_ter": "t_floor",
      "rows": [
        "........................",
        "........................",
        "........................",
        "........................",
        "........................",
        "........................",
        "........................",
        "........................",
        "........................",
        "........................",
        "........................",
        "........................",
        "........................",
        "........................",
        "........................",
        "........................",
        "........................",
        "........................",
        ".......89998............",
        ".......8{008............",
        "......88;;;8999999999999",
        "......8;;;;;;;;;;;;;;;;;",
        "......8;;;;;;;;;;;;;;;;;",
        "......8;;;;;;;;;;;;;;;;;"
      ],
      "palettes": [
        "acidia_commercial_palette"
      ]
    },
    "id": "3e736fee-514a-4441-ae75-0627d3b3a383"
  },
  {
    "type": "mapgen",
    "method": "json",
    "om_terrain": [
      "urban_33_30"
    ],
    "weight": 250,
    "object": {
      "fill_ter": "t_floor",
      "rows": [
        "........................",
        "........................",
        "........................",
        "........................",
        "........................",
        "........................",
        "........................",
        "........................",
        "........................",
        "........................",
        "........................",
        "........................",
        "........................",
        "........................",
        "........................",
        "........................",
        "........................",
        "........................",
        "........................",
        "........................",
        "lvvvvl99999999999998....",
        "l7777l;;;;;;;;;;;;;8....",
        "l7777l;;;;;;;;;;;;;8....",
        "l7777l)))));;;;;;;;8...."
      ],
      "palettes": [
        "acidia_commercial_palette"
      ]
    },
    "id": "d50c2a53-edb2-408e-837e-d60ed6ee8f73"
  },
  {
    "type": "mapgen",
    "method": "json",
    "om_terrain": [
      "urban_33_31"
    ],
    "weight": 250,
    "object": {
      "fill_ter": "t_floor",
      "rows": [
        "......8;;;;;;lllllllv=vl",
        "......8;;;;;;lCCoCj    u",
        "......8;;;;;;vS2222    u",
        "......8;;;;;;vS22CH    u",
        "......8;;;;;;lC22CH     ",
        "......8;;lllllC2222     ",
        "......8;;l T lCCgg2     ",
        "......8;;l   lllllll    ",
        "......llllll+l     1    ",
        "......l BB l       l    ",
        "......v BB         llvvv",
        "......v    lll   lll;;;;",
        "......v  vJl6d    kl;^;;",
        "......v  vsldh     v;;;;",
        "......llJllld      J;;;;",
        "......8;;;;l       v;;;;",
        "......8;;;(v       v;;;;",
        "......8;;;(ve bbb ev;;;;",
        "......8;;;(ve bbb ev;^;;",
        "......8;;;;le bbb el;;;;",
        "......89999llvvvvvll9999",
        "........................",
        "........................",
        "........................"
      ],
      "palettes": [
        "acidia_commercial_palette"
      ],
      "toilets": {
        "T": {}
      },
      "items": {
        "2": {
          "item": "kitchen",
          "chance": 5
        },
        " ": {
          "item": "livingroom",
          "chance": 1
        },
        "C": {
          "item": "kitchen",
          "chance": 25
        },
        "b": {
          "item": "bed",
          "chance": 60
        },
        "d": {
          "item": "office",
          "chance": 40
        },
        "e": {
          "item": "dresser",
          "chance": 60
        },
        "f": {
          "item": "fridge",
          "chance": 70
        },
        "j": {
          "item": "cannedfood",
          "chance": 50
        },
        "o": {
          "item": "oven",
          "chance": 30
        },
        "u": {
          "item": "wines_worthy",
          "chance": 50
        }
      },
      "place_monsters": [
        {
          "monster": "GROUP_ZOMBIE",
          "x": [
            7,
            22
          ],
          "y": [
            1,
            18
          ],
          "density": 0.15
        }
      ]
    },
    "id": "3347be2e-829b-4410-9863-a8e2fca72889"
  },
  {
    "type": "mapgen",
    "method": "json",
    "om_terrain": [
      "urban_33_32"
    ],
    "weight": 250,
    "object": {
      "fill_ter": "t_floor",
      "rows": [
        "ll===llllll;;;;;;;;8....",
        "l     lTCSl;;;;;;;;8....",
        "l     l222l;;;;;;;;8....",
        "lll1llll+llllll;;;;8....",
        "         lL   l;;;;8....",
        "@@       lL   l;;;;8....",
        "@  t @   lll=lllllll....",
        "@ t  @   l   ccOOOOl....",
        "    @@   1         v....",
        "         l         v....",
        "vJvJvvvvll         v....",
        ";;;;;;;;;l  tA     l....",
        ";;;;;;;^;v  A   At v....",
        "PPPPP;;;;v       A v....",
        "PPPPP;;;;v         v....",
        "PPPPP;;;;J         l....",
        "PPPPP;;;;v  d666d  v....",
        "PPPPP;;;;v  d A d  v....",
        ";;;;;;;^;v         v....",
        ";;;;;;;;;lcc     ccl....",
        "999999999llvvvlvvvll....",
        "........................",
        "........................",
        "........................"
      ],
      "palettes": [
        "acidia_commercial_palette"
      ],
      "items": {
        " ": {
          "item": "livingroom",
          "chance": 1
        },
        "@": {
          "item": "magazines",
          "chance": 10
        },
        "L": {
          "item": "jewelry_safe",
          "chance": 90
        },
        "O": {
          "item": "mansion_books",
          "chance": 70
        },
        "c": {
          "item": "art",
          "chance": 25
        },
        "d": {
          "item": "office",
          "chance": 40
        },
        "t": {
          "item": "coffee_table",
          "chance": 25
        }
      },
      "place_monsters": [
        {
          "monster": "GROUP_ZOMBIE",
          "x": [
            1,
            18
          ],
          "y": [
            1,
            19
          ],
          "density": 0.15
        }
      ]
    },
    "id": "85e44f33-1bb3-4394-8cce-3a17df2ebdce"
  },
  {
    "type": "mapgen",
    "method": "json",
    "om_terrain": [
      "urban_33_34"
    ],
    "weight": 250,
    "object": {
      "fill_ter": "t_floor",
      "rows": [
        "........................",
        "........................",
        "........................",
        "........................",
        "........................",
        "........................",
        "........................",
        "........................",
        "........................",
        "........................",
        "........................",
        "........................",
        "........................",
        "........................",
        "........................",
        "........................",
        "........................",
        "........................",
        "........................",
        "........................",
        "RRRRRR..................",
        "RRRRRR..................",
        "RRRRRR..................",
        "RRRRRR.................."
      ],
      "palettes": [
        "acidia_commercial_palette"
      ]
    },
    "id": "63aa98ec-f985-4631-8beb-dc2cfbce2548"
  },
  {
    "type": "mapgen",
    "method": "json",
    "om_terrain": [
      "urban_33_35"
    ],
    "weight": 250,
    "object": {
      "fill_ter": "t_floor",
      "rows": [
        ".............RRRRRRRRRRR",
        ".............RRRRRRRRRRR",
        ".............RRRRRRRRRRR",
        ".............RRRRRRRRRRR",
        ".............RRRRRRRRRRR",
        ".........RRRRRRRRRRRRRRR",
        ".........RRRRRRRRRRRRRRR",
        ".........RRRRRRRRRRRRRRR",
        "......RRRRRRRRRRRRRRRRRR",
        "......RRRRRRRRRRRRRRRRRR",
        "......RRRRRRRRRRRRRRRRRR",
        "......RRRRRRRRRRRRRR....",
        "......RRRRRRRRRRRRRR....",
        "......RRRRRRRRRRRRRR....",
        "......RRRRRRRRRRRRRR....",
        "......RRRRRRRRRRRRRR....",
        "......RRRRRRRRRRRRRR....",
        "......RRRRRRRRRRRRRR....",
        "......RRRRRRRRRRRRRR....",
        "......RRRRRRRRRRRRRR....",
        "......RRRRRRRRRRRRRR....",
        "........................",
        "........................",
        "........................"
      ],
      "palettes": [
        "acidia_commercial_palette"
      ]
    },
    "id": "ca16c77a-a3da-4bcc-aab2-b12d23767222"
  },
  {
    "type": "mapgen",
    "method": "json",
    "om_terrain": [
      "urban_33_36"
    ],
    "weight": 250,
    "object": {
      "fill_ter": "t_floor",
      "rows": [
        "RRRRRRRRRRR.............",
        "RRRRRRRRRRR.............",
        "RRRRRRRRRRR.............",
        "RRRRRRRRRRRRRRR.........",
        "RRRRRRRRRRRRRRR.........",
        "RRRRRRRRRRRRRRR.........",
        "RRRRRRRRRRRRRRRRRRRR....",
        "RRRRRRRRRRRRRRRRRRRR....",
        "RRRRRRRRRRRRRRRRRRRR....",
        "RRRRRRRRRRRRRRRRRRRR....",
        "RRRRRRRRRRRRRRRRRRRR....",
        ".........RRRRRRRRRRR....",
        ".........RRRRRRRRRRR....",
        ".........RRRRRRRRRRR....",
        ".........RRRRRRRRRRR....",
        ".........RRRRRRRRRRR....",
        ".........RRRRRRRRRRR....",
        ".........RRRRRRRRRRR....",
        ".........RRRRRRRRRRR....",
        ".........RRRRRRRRRRR....",
        ".........RRRRRRRRRRR....",
        "........................",
        "........................",
        "........................"
      ],
      "palettes": [
        "acidia_commercial_palette"
      ]
    },
    "id": "58ca7840-f157-4927-8b3a-24754aa7bb95"
  }
]