[
  {
    "type": "mapgen",
    "method": "json",
    "om_terrain": [
      "urban_27_1"
    ],
    "weight": 250,
    "object": {
      "fill_ter": "t_floor",
      "rows": [
        "%%%%%%%%%%zzzzz%%%%%%%%%",
        "%%%%%%%%%%%zzz::%%%%%%%%",
        "%%%%%%%%%%%%zzz::}%%%%%%",
        "%%%%%%%%%%%%%%z:%%%%%%%%",
        "%%%%%%%%%%%%%%z:%%%%%%%%",
        "iiiiiiiiiiiiiiz:iiiiiiii",
        "i>|CWWCDDC''riz:i'''''iy",
        "i'''''''''''riz:i'''''iy",
        "i'''''''''''riz:i'''''ii",
        "iiii'iii'iiiiiz:i'''''i'",
        "i:::::::::::yiz:i'iii'i'",
        "i:::::::::::yiz:i'''''''",
        "i::ii::::ii:y1001''''i''",
        "i:Zii::::ii:Ziz:i'''iii'",
        "i:ZZ::::::::Ziz:i''''i''",
        "i::::::::::::iz:i'''''''",
        "i::::::::::::iz:i'''''''",
        "iZ:ii::::ii::iz:i''''i''",
        "iZ:ii::::ii::iz:i'''iii'",
        "i::::::::::::iz:1''''i''",
        "i:::::::::::iiz:i'''''''",
        "iiiiiiiiiiiiizz:iiiiiiii",
        "%%%%%%%%%%0zzzz:%%%%%%%%",
        "%%%%%%%%%%0zzz00%%%%%%%%"
      ],
      "palettes": [
        "acidia_residential_commercial_palette"
      ],
      "items": {
        "'": {
          "item": "home_hw",
          "chance": 1
        },
        ":": {
          "item": "home_hw",
          "chance": 1
        },
        "C": {
          "item": "cleaning",
          "chance": 10
        },
        "D": {
          "item": "allclothes",
          "chance": 60
        },
        "W": {
          "item": "allclothes",
          "chance": 60
        },
        "r": {
          "item": "cleaning",
          "chance": 60
        }
      },
      "place_monsters": [
        {
          "monster": "GROUP_ZOMBIE",
          "x": [
            1,
            12
          ],
          "y": [
            6,
            20
          ],
          "density": 0.06
        }
      ]
    },
    "id": "ecafafeb-a076-402b-aaa2-c146c2bd22a3"
  },
  {
    "type": "mapgen",
    "method": "json",
    "om_terrain": [
      "urban_27_2"
    ],
    "weight": 250,
    "object": {
      "fill_ter": "t_floor",
      "rows": [
        "%%%%%%%%%%%%%%%%%%%%%%%%",
        "%%%%%%%%%%%%%%%%%%%%%%%%",
        "%%%%%%%%%%%%%%%%%%%%%%%%",
        "%%%%%%%%%%%%%%%%%%%%%%%%",
        "%%%%%%%%%%%%%%%%%%%%%%%%",
        "iiiiiiiiiiiiiiiiiiiiiiii",
        "''''yir'''ŻŻzi'''''''yyi",
        "''''yir''''''''''i'''''i",
        "i'iiiir''''''i''iii''''i",
        "'''''1'''''ZZi'''i'''''i",
        "'''''1'''''ZZi''''''''Ži",
        "'''''iii''iiii''''''''Ž0",
        "'''''i>i'''''''''i'''ZZ~",
        "i'ii1i2iiii'''''iii'''Ž0",
        "''iC22222Ci''''''i''''Ži",
        "''iD22222Wi''''''''''''i",
        "''iD22222Wi''''''''''''i",
        "''iD22222Wi''''''i'''''i",
        "''iD22222Wi'iii'iii''''i",
        "''iC22222Ci''''''i'''''i",
        "''iCC222CCi''''''''''yyi",
        "iiiiiiiiiiiiiiiiiiiiiiii",
        "%%%%%%%%%%%%%%%%%%%%%%%%",
        "%%%%%%%%%%%%%%%%%%%%%%%%"
      ],
      "palettes": [
        "acidia_residential_commercial_palette"
      ],
      "items": {
        ":": {
          "item": "home_hw",
          "chance": 1
        },
        "C": {
          "item": "cleaning",
          "chance": 10
        },
        "D": {
          "item": "allclothes",
          "chance": 60
        },
        "W": {
          "item": "allclothes",
          "chance": 60
        },
        "r": {
          "item": "cleaning",
          "chance": 60
        }
      },
      "place_monsters": [
        {
          "monster": "GROUP_ZOMBIE",
          "x": [
            3,
            9
          ],
          "y": [
            14,
            20
          ],
          "density": 0.12
        }
      ]
    },
    "id": "796ca858-02fd-41ac-8696-a9c7c57a33b6"
  },
  {
    "type": "mapgen",
    "method": "json",
    "om_terrain": [
      "urban_27_3"
    ],
    "weight": 250,
    "object": {
      "fill_ter": "t_floor",
      "rows": [
        ",,,,,,,,,,,,,Nnnnnnnnnnn",
        ",,,,,,,,,,,,,N;;;;;;;;;;",
        ",,,,,,,^,,,,,N;;;U;;;;;;",
        ",,,,,,,,,,,,,;;;;;;;;;QQ",
        ",,,,,,,,,,qq,N;;;;;;;;QQ",
        "iiiiYiiiiiiiii;;iiiYiiii",
        "i<|    d6d LLi;;i bbO|  ",
        "i +     h    !;;i bb |  ",
        "i>|rr        iq;i    +  ",
        "iiiiiiii1iiiiiq;i----|  ",
        "iC2222222222ri;;i    +  ",
        "iS2H22222222ri;;Y    |  ",
        "iC2222222222ri;;i  bb|  ",
        "iS2H22222222ri;;iiiiiiii",
        "iC2222222222ri;;i bbe|  ",
        "iS2H222222222i;;i bb |  ",
        "iC22222222CC6i;;Y    +  ",
        "iC22222222222i;;i----|  ",
        "i222222222222i;;ibb  +  ",
        "i222222222222inni    |  ",
        "iHH222HHiiJiii;;ibb  |  ",
        "iiivvviii'''';;;iiiYiiii",
        ";;;;;;;;;;;;;;;;,,###,,,",
        ";;;;;;;;;;;;;;;;;;;;;;;;"
      ],
      "palettes": [
        "acidia_residential_commercial_palette"
      ],
      "items": {
        "2": {
          "item": "beauty",
          "chance": 2
        },
        " ": {
          "item": "livingroom",
          "chance": 2
        },
        ";": {
          "item": "trash",
          "chance": 1
        },
        "C": {
          "item": "beauty",
          "chance": 25
        },
        "H": {
          "item": "magazines",
          "chance": 30
        },
        "L": {
          "item": "home_hw",
          "chance": 60
        },
        "O": {
          "item": "alcohol",
          "chance": 60
        },
        "Q": {
          "item": "trash",
          "chance": 50
        },
        "b": {
          "item": "bed",
          "chance": 60
        },
        "d": {
          "item": "office",
          "chance": 40
        },
        "e": {
          "item": "dresser",
          "chance": 60
        },
        "q": {
          "item": "trash",
          "chance": 50
        },
        "r": {
          "item": "beauty",
          "chance": 60
        }
      },
      "place_monsters": [
        {
          "monster": "GROUP_ZOMBIE",
          "x": [
            1,
            22
          ],
          "y": [
            1,
            22
          ],
          "density": 0.25
        }
      ]
    },
    "id": "e290b71d-b6c3-46f6-9336-1d67f01ccb28"
  },
  {
    "type": "mapgen",
    "method": "json",
    "om_terrain": [
      "urban_27_4"
    ],
    "weight": 250,
    "object": {
      "fill_ter": "t_floor",
      "rows": [
        "nnnnnnnnnnnnnnnnnnnnnnnN",
        ";;;;;;;;;;;;;;;;;;;;;;;N",
        ";;;;;;;;;;;;;;;;;;;;;;;N",
        "Q;;;'''''''';;;QQQ;;;;;N",
        "Q;;;''''''}';;;QQQ;;;;;N",
        "iiYiii''''iiiYiiiiiiYiii",
        " CSoCii11iiCoSC   |    i",
        " 222Cik   iC222   |    i",
        "   2fi    if2     +    i",
        "A A  1    1       |----i",
        "ttt  i    i       +    i",
        "     i    i       |    i",
        "ccc  i<|  i       |    i",
        "iiiiii-|  iiiiiiiiiiiiii",
        "c6c  i>|  i6cc    |ebbei",
        "     i    ic   @  | bb i",
        "htth 1    1    @  +    i",
        "htth i    i   @@  |----i",
        "   2fi    if2     +  bbi",
        " 222Ci    iC222   |e   i",
        " CSoCii11iiCoSC   |e bbi",
        "iiYiii''''iiiYiiiiiiYiii",
        ",###;'''''';###,,,,###,,",
        ";;;;;;;;;;;;;;;;;;;;;;;;"
      ],
      "palettes": [
        "acidia_residential_commercial_palette"
      ],
      "items": {
        "2": {
          "item": "cleaning",
          "chance": 1
        },
        " ": {
          "item": "livingroom",
          "chance": 1
        },
        ";": {
          "item": "trash",
          "chance": 1
        },
        "@": {
          "item": "magazines",
          "chance": 10
        },
        "A": {
          "item": "livingroom",
          "chance": 15
        },
        "C": {
          "item": "kitchen",
          "chance": 25
        },
        "H": {
          "item": "magazines",
          "chance": 30
        },
        "Q": {
          "item": "trash",
          "chance": 50
        },
        "b": {
          "item": "bed",
          "chance": 60
        },
        "c": {
          "item": "livingroom",
          "chance": 25
        },
        "d": {
          "item": "office",
          "chance": 40
        },
        "e": {
          "item": "dresser",
          "chance": 60
        },
        "f": {
          "item": "snacks",
          "chance": 70
        },
        "o": {
          "item": "oven",
          "chance": 30
        },
        "r": {
          "item": "beauty",
          "chance": 60
        },
        "t": {
          "item": "dining",
          "chance": 25
        }
      },
      "place_monsters": [
        {
          "monster": "GROUP_ZOMBIE",
          "x": [
            1,
            22
          ],
          "y": [
            1,
            22
          ],
          "density": 0.25
        }
      ]
    },
    "id": "381757cc-78cc-423f-88bf-94e1461c674e"
  },
  {
    "type": "mapgen",
    "method": "json",
    "om_terrain": [
      "urban_27_5"
    ],
    "weight": 250,
    "object": {
      "fill_ter": "t_floor",
      "rows": [
        "........................",
        "........................",
        "........................",
        "........................",
        "........................",
        "iiiiwiiiiwiiii..iiwwiiii",
        "i>          ki..ib  b|  ",
        "i--          w..ib  b|  ",
        "i<           i..i    +  ",
        "iiiiiiii1iiiii..i----|  ",
        "iB222Ti    c6i..i    +  ",
        "iB2222i     ci..w bb |  ",
        "iiiC22+  t   w..iebb |  ",
        "iriS22i@     i..iiiiiiii",
        "i iC22i@@@@  i..i bbe|6c",
        "i+ii+iiiO    i..w bb |c ",
        "i      +     w..i    +  ",
        "i      i    ui..i----|  ",
        "i bbb  i     i..i    +  ",
        "i bbb  i22222i..idh  |  ",
        "i bbbe ifCSCoi..id6d |  ",
        "iiiwiiiiiiwiii..iiwwiiiw",
        "........................",
        "........................"
      ],
      "palettes": [
        "acidia_residential_commercial_palette"
      ],
      "toilets": {
        "T": {}
      },
      "items": {
        "2": {
          "item": "softdrugs",
          "chance": 10
        },
        " ": {
          "item": "livingroom",
          "chance": 1
        },
        "@": {
          "item": "magazines",
          "chance": 10
        },
        "A": {
          "item": "livingroom",
          "chance": 15
        },
        "C": {
          "item": "kitchen",
          "chance": 25
        },
        "O": {
          "item": "homebooks",
          "chance": 60
        },
        "Q": {
          "item": "trash",
          "chance": 50
        },
        "b": {
          "item": "bed",
          "chance": 60
        },
        "c": {
          "item": "livingroom",
          "chance": 25
        },
        "d": {
          "item": "office",
          "chance": 40
        },
        "e": {
          "item": "dresser",
          "chance": 60
        },
        "f": {
          "item": "fridge",
          "chance": 70
        },
        "o": {
          "item": "oven",
          "chance": 30
        },
        "r": {
          "item": "beauty",
          "chance": 60
        },
        "t": {
          "item": "coffee_table",
          "chance": 25
        },
        "u": {
          "item": "cannedfood",
          "chance": 50
        }
      },
      "place_monsters": [
        {
          "monster": "GROUP_ZOMBIE",
          "x": [
            1,
            12
          ],
          "y": [
            6,
            20
          ],
          "density": 0.09
        },
        {
          "monster": "GROUP_ZOMBIE",
          "x": [
            17,
            21
          ],
          "y": [
            6,
            20
          ],
          "density": 0.12
        }
      ]
    },
    "id": "02583f07-c5d4-4b7d-859d-c69b05ef1a4c"
  },
  {
    "type": "mapgen",
    "method": "json",
    "om_terrain": [
      "urban_27_6"
    ],
    "weight": 250,
    "object": {
      "fill_ter": "t_floor",
      "rows": [
        "........................",
        "........................",
        "........................",
        "....89999998............",
        "....8}0000{8............",
        "wiiiiii1Yiiiiiiwiiiiwwii",
        " CSoCi    iCoSC   |b bbi",
        " 222Ci    iC222   |b bbi",
        "   2fi    if2     +   ei",
        "hh   1    1   hh  |----i",
        "tt   i    ie htth +   bi",
        "hh   i    ib htth |   bi",
        "     i>|  ib  hh  |bb ei",
        "iiiiii-|  iiiiiiiiiiiiii",
        "     i<|  i       |    i",
        " @   i    i       |    i",
        " @  u1    1       +    i",
        "@@  ui    i       |----i",
        "   2fi    if2     +    i",
        " 222Ci    iC222   |    i",
        " CSoCi    iCoSC   |    i",
        "iiwiiiiwwiiiiwiiwiiiwiii",
        ".....RRRRRR.............",
        "........................"
      ],
      "palettes": [
        "acidia_residential_commercial_palette"
      ],
      "items": {
        "2": {
          "item": "softdrugs",
          "chance": 10
        },
        " ": {
          "item": "livingroom",
          "chance": 1
        },
        "@": {
          "item": "magazines",
          "chance": 10
        },
        "A": {
          "item": "livingroom",
          "chance": 15
        },
        "C": {
          "item": "kitchen",
          "chance": 25
        },
        "O": {
          "item": "homebooks",
          "chance": 60
        },
        "Q": {
          "item": "trash",
          "chance": 50
        },
        "b": {
          "item": "bed",
          "chance": 60
        },
        "c": {
          "item": "livingroom",
          "chance": 25
        },
        "d": {
          "item": "office",
          "chance": 40
        },
        "e": {
          "item": "dresser",
          "chance": 60
        },
        "f": {
          "item": "snacks",
          "chance": 70
        },
        "o": {
          "item": "oven",
          "chance": 30
        },
        "r": {
          "item": "beauty",
          "chance": 60
        },
        "t": {
          "item": "coffee_table",
          "chance": 25
        },
        "u": {
          "item": "cannedfood",
          "chance": 50
        }
      },
      "place_monsters": [
        {
          "monster": "GROUP_ZOMBIE",
          "x": [
            1,
            22
          ],
          "y": [
            6,
            20
          ],
          "density": 0.12
        }
      ]
    },
    "id": "d7ee62e7-1d46-45d1-9388-6539950da144"
  },
  {
    "type": "mapgen",
    "method": "json",
    "om_terrain": [
      "urban_27_7"
    ],
    "weight": 250,
    "object": {
      "fill_ter": "t_floor",
      "rows": [
        "........................",
        "........................",
        "........................",
        "........................",
        "........................",
        "iiiiwiiiiwiiii..iiwwiiii",
        "i<          ki..i bbe|  ",
        "i--          w..i bb |  ",
        "i>           i..i    +  ",
        "iiiiiiii1iiiii..i----|  ",
        "iB222Ti      i..i    +  ",
        "iB2222i htth i..wb  b|  ",
        "iiiC22+ htth w..ibeeb|  ",
        "iriS22i htth i..iiiiiiii",
        "i iC22i      i..i bbe|6c",
        "i+ii+iii     i..w bb |c ",
        "i      +     w..i    +  ",
        "ie     i2222fi..i----|  ",
        "ibb    i2SC2fi..i    +  ",
        "ibb    i22222i..idh  |  ",
        "ie    LifCSCoi..id6d |  ",
        "iiiwiiiiiiwiii..iiwwiiiw",
        "........................",
        "........................"
      ],
      "palettes": [
        "acidia_residential_commercial_palette"
      ],
      "toilets": {
        "T": {}
      },
      "items": {
        "2": {
          "item": "softdrugs",
          "chance": 10
        },
        " ": {
          "item": "livingroom",
          "chance": 1
        },
        "@": {
          "item": "magazines",
          "chance": 10
        },
        "A": {
          "item": "livingroom",
          "chance": 15
        },
        "C": {
          "item": "kitchen",
          "chance": 25
        },
        "O": {
          "item": "homebooks",
          "chance": 60
        },
        "Q": {
          "item": "trash",
          "chance": 50
        },
        "b": {
          "item": "bed",
          "chance": 60
        },
        "c": {
          "item": "livingroom",
          "chance": 25
        },
        "d": {
          "item": "office",
          "chance": 40
        },
        "e": {
          "item": "dresser",
          "chance": 60
        },
        "f": {
          "item": "fridge",
          "chance": 70
        },
        "o": {
          "item": "oven",
          "chance": 30
        },
        "r": {
          "item": "beauty",
          "chance": 60
        },
        "t": {
          "item": "coffee_table",
          "chance": 25
        },
        "u": {
          "item": "cannedfood",
          "chance": 50
        }
      },
      "place_monsters": [
        {
          "monster": "GROUP_ZOMBIE",
          "x": [
            1,
            12
          ],
          "y": [
            6,
            20
          ],
          "density": 0.09
        },
        {
          "monster": "GROUP_ZOMBIE",
          "x": [
            17,
            21
          ],
          "y": [
            6,
            20
          ],
          "density": 0.12
        }
      ]
    },
    "id": "06c2ec0a-089f-4cfe-93ab-12cd93d06c81"
  },
  {
    "type": "mapgen",
    "method": "json",
    "om_terrain": [
      "urban_27_8"
    ],
    "weight": 250,
    "object": {
      "fill_ter": "t_floor",
      "rows": [
        "........................",
        "........................",
        "........................",
        "....89999998............",
        "....8{0000}8............",
        "wiiiiii1Yiiiiiiwiiiiwwii",
        " CSoCi    iCoSC   |bb ui",
        " 222Ci    iC222   |bb ei",
        "   2fi    if2     +   ei",
        "     1    1       |----i",
        "A A @i    i  t6t  +    i",
        "    @i    i@     @| h  i",
        "c6c @i<|  i@@@ @@@|d6d i",
        "iiiiii-|  iiiiiiiiiiiiii",
        "     i>|  iA OO@@@|b  ei",
        " @   i    i      @|b   i",
        " @  u1    1       +    i",
        "@@  ui    i  htth |----i",
        "   2fi    if2CC   +    i",
        " 222Ci    iC222   | bb i",
        " CSoCi    iCoSC  O| bbei",
        "iiwiiiiwwiiiiwiiwiiiwiii",
        "........................",
        "........................"
      ],
      "palettes": [
        "acidia_residential_commercial_palette"
      ],
      "items": {
        "2": {
          "item": "softdrugs",
          "chance": 10
        },
        " ": {
          "item": "livingroom",
          "chance": 1
        },
        "@": {
          "item": "magazines",
          "chance": 10
        },
        "A": {
          "item": "livingroom",
          "chance": 15
        },
        "C": {
          "item": "kitchen",
          "chance": 25
        },
        "O": {
          "item": "homebooks",
          "chance": 60
        },
        "Q": {
          "item": "trash",
          "chance": 50
        },
        "b": {
          "item": "bed",
          "chance": 60
        },
        "c": {
          "item": "livingroom",
          "chance": 25
        },
        "d": {
          "item": "office",
          "chance": 40
        },
        "e": {
          "item": "dresser",
          "chance": 60
        },
        "f": {
          "item": "snacks",
          "chance": 70
        },
        "o": {
          "item": "oven",
          "chance": 30
        },
        "r": {
          "item": "beauty",
          "chance": 60
        },
        "t": {
          "item": "coffee_table",
          "chance": 25
        },
        "u": {
          "item": "cannedfood",
          "chance": 50
        }
      },
      "place_monsters": [
        {
          "monster": "GROUP_ZOMBIE",
          "x": [
            1,
            22
          ],
          "y": [
            6,
            20
          ],
          "density": 0.12
        }
      ]
    },
    "id": "ebc381c4-8fe8-4721-8aca-d501eb3e0922"
  },
  {
    "type": "mapgen",
    "method": "json",
    "om_terrain": [
      "urban_27_9"
    ],
    "weight": 250,
    "object": {
      "fill_ter": "t_floor",
      "rows": [
        "........................",
        "........................",
        "........................",
        "........................",
        "........................",
        "iiiiwiiiiwiiii..89999999",
        "i>           i..8RRRRRRR",
        "i--          w..8RRRRRRR",
        "i<           i..8RRRRRRR",
        "iiiiiiii1iiiii..8RRRRRRR",
        "iB222Ti  t@@@i..8RRRRRRR",
        "iB2222i     @i..8RRRRRRR",
        "iiiC22+   t @w..8RRRRRRR",
        "iriS22ic     i..8RRRRRRR",
        "i iC22i6c   Oi..8RRRRRRR",
        "i+ii+iii    Oi..8RRRRRRR",
        "i      +     w..8RRRRRRR",
        "i      i    ui..8RRRRRRR",
        "ie    ei     i..8RRRRRRR",
        "ibb  bbi22222i..8RRRRRRR",
        "ibb  bbifcScoi..8RRRRRRR",
        "iiiwiiiiiiwiii..89999999",
        "........................",
        "........................"
      ],
      "palettes": [
        "acidia_residential_commercial_palette"
      ],
      "toilets": {
        "T": {}
      },
      "items": {
        "2": {
          "item": "softdrugs",
          "chance": 10
        },
        " ": {
          "item": "livingroom",
          "chance": 1
        },
        "@": {
          "item": "magazines",
          "chance": 10
        },
        "A": {
          "item": "livingroom",
          "chance": 15
        },
        "C": {
          "item": "kitchen",
          "chance": 25
        },
        "O": {
          "item": "homebooks",
          "chance": 60
        },
        "Q": {
          "item": "trash",
          "chance": 50
        },
        "b": {
          "item": "bed",
          "chance": 60
        },
        "c": {
          "item": "livingroom",
          "chance": 25
        },
        "d": {
          "item": "office",
          "chance": 40
        },
        "e": {
          "item": "dresser",
          "chance": 60
        },
        "f": {
          "item": "fridge",
          "chance": 70
        },
        "o": {
          "item": "oven",
          "chance": 30
        },
        "r": {
          "item": "beauty",
          "chance": 60
        },
        "t": {
          "item": "coffee_table",
          "chance": 25
        },
        "u": {
          "item": "cannedfood",
          "chance": 50
        }
      },
      "place_monsters": [
        {
          "monster": "GROUP_ZOMBIE",
          "x": [
            1,
            12
          ],
          "y": [
            6,
            20
          ],
          "density": 0.09
        },
        {
          "monster": "GROUP_ZOMBIE",
          "x": [
            17,
            21
          ],
          "y": [
            6,
            20
          ],
          "density": 0.06
        }
      ]
    },
    "id": "15fd8111-51da-469a-bd3e-649eb610d036"
  },
  {
    "type": "mapgen",
    "method": "json",
    "om_terrain": [
      "urban_27_10"
    ],
    "weight": 250,
    "object": {
      "fill_ter": "t_floor",
      "rows": [
        "........................",
        "........................",
        "........................",
        "....89999998............",
        "....800000{8............",
        "99998RRRRRR8999999999998",
        "RRRRRRRRRRRRRRRRRRRRRRR8",
        "RRRRRRRRRRRRRRRRRRRRRRR8",
        "RRRRRRRRRRRRRRRRRRRRRRR8",
        "RRRRRRRRRRRRRRRRRRRRRRR8",
        "RRRRRRRRRRRRRRRRRRRRRRR8",
        "RRRRRRRRRRRRRRRRRRRRRRR8",
        "RRRRRii1iiRRRRRRRRRRRRR8",
        "RRRR)i   iRRRRRRRRRRRRR8",
        "RRRR)i<  iRRRRRRRRRRRRR8",
        "RRRRRiiiiiRRRRRRRRRRRRR8",
        "RRRRRRRRRRRRRRRRRRRRRRR8",
        "RRRRRRRRRRRRRRRRRRRRRRR8",
        "RRRRRRRRRRRRRRRRRRRRRRR8",
        "RRRRRRRRRRRRRRRRRRRRRRR8",
        "RRRRRRRRRRRRRRRRRRRRRRR8",
        "999999999999999999999998",
        "........................",
        "........................"
      ],
      "palettes": [
        "acidia_residential_commercial_palette"
      ],
      "place_monsters": [
        {
          "monster": "GROUP_ZOMBIE",
          "x": [
            1,
            22
          ],
          "y": [
            6,
            20
          ],
          "density": 0.06
        }
      ]
    },
    "id": "7674e2b8-775c-4954-947b-30b4e94dcceb"
  },
  {
    "type": "mapgen",
    "method": "json",
    "om_terrain": [
      "urban_27_11"
    ],
    "weight": 250,
    "object": {
      "fill_ter": "t_floor",
      "rows": [
        "........................",
        "........................",
        "........................",
        "........................",
        "........................",
        "iiiii999999998..........",
        "i<  iRRRRRRRR8..........",
        "i   1RRRRRRRR8..........",
        "iiiiiRRRRRRRR8..........",
        "8R))RRRRRRRRR8..........",
        "8RRRRRRRRRRRR8..........",
        "8RRRRRRRRRRRR8..........",
        "8RRRRRRRRRRRR8..........",
        "8RRRRRRRRRRRR8..........",
        "8RRRRRRRRRRRR8..........",
        "8RRRRRRRRRRRR8..........",
        "8RRRRRRRRRRRR8..........",
        "8RRRRRRRRRRRR8..........",
        "8RRRRRRRRRRRR8..........",
        "8RRRRRRRRRRRR8..........",
        "8RRRRRRRRRRRR8..........",
        "89999999999998..........",
        "........................",
        "........................"
      ],
      "palettes": [
        "acidia_residential_commercial_palette"
      ]
    },
    "id": "08732d6c-ea93-4f8a-aac7-0a4ab484e258"
  },
  {
    "type": "mapgen",
    "method": "json",
    "om_terrain": [
      "urban_27_12"
    ],
    "weight": 250,
    "object": {
      "fill_ter": "t_floor",
      "rows": [
        "........................",
        "........................",
        "........................",
        "........................",
        "........................",
        "........................",
        "........................",
        "........................",
        "........................",
        "........................",
        "........................",
        "........................",
        ".....RRRRR..............",
        ".....RRRRR..............",
        ".....RRRRR..............",
        ".....RRRRR..............",
        "........................",
        "........................",
        "........................",
        "........................",
        "........................",
        "........................",
        "........................",
        "........................"
      ],
      "palettes": [
        "acidia_residential_commercial_palette"
      ]
    },
    "id": "5f59c123-81ea-4c10-88a7-f344e3a65900"
  },
  {
    "type": "mapgen",
    "method": "json",
    "om_terrain": [
      "urban_27_13"
    ],
    "weight": 250,
    "object": {
      "fill_ter": "t_floor",
      "rows": [
        "........................",
        "........................",
        "........................",
        "........................",
        "........................",
        "RRRRR...................",
        "RRRRR...................",
        "RRRRR...................",
        "RRRRR...................",
        "........................",
        "........................",
        "........................",
        "........................",
        "........................",
        "........................",
        "........................",
        "........................",
        "........................",
        "........................",
        "........................",
        "........................",
        "........................",
        "........................",
        "........................"
      ],
      "palettes": [
        "acidia_residential_commercial_palette"
      ]
    },
    "id": "5640c4c2-7999-4fba-bebc-81a775c603ad"
  }
]