[
  {
    "type": "mapgen",
    "method": "json",
    "om_terrain": [
      "urban_10_1"
    ],
    "weight": 250,
    "object": {
      "fill_ter": "t_floor",
      "rows": [
        ",,,,,,,,,,,,,,,,,,,,,,,,",
        ",,,,,,,,,,,,,,##########",
        ",,,,,,,,,,,,,,#;;;;;;;;;",
        ",,,,^,,,,,,,,,,;;;PPPPPP",
        ",,,,,,,,,,,,,,,;;;PPPPPP",
        ",,,,,,,,,^,,,,#;;;PPPPPP",
        ",,,,,,,,,,,,,,#;;;;;;PPP",
        ",,,,,,,,,,,,,,#;;;;;;;PP",
        ",,,,,,,Iiiiiiwii!iI;;;;;",
        ",,,,,,,Iu |CoSC222I;;G;;",
        ",,,,,,,Iu +2222222Iiiiii",
        ",,,,,,,Iu |f2CC222|r r|>",
        ",,,,,,,I--|C2CC222|-+-| ",
        ",,,,,,,IO               ",
        ",,^,,,,IO               ",
        ",,,,,,#w  httth  cIiiwi!",
        ",,,,,,#w  httth  cI;;;;;",
        ",,,,,,#w  httth  cI;;;;;",
        ",,,,,,,I         cI,,,,;",
        ",,,,,,,IiwwwiiwwwiI,,,,;",
        ",,,,,,,,,###,,###,,,,,,;",
        ",,,,,,,,,,,,,,,,,,,,,^,;",
        ",,,,,,,,,,,,,,,,,,,,,,,;",
        ",,,,,,,,,,,,,,,,,,,,,,,;"
      ],
      "palettes": [
        "acidia_residential_commercial_palette"
      ],
      "items": {
        " ": {
          "item": "livingroom",
          "chance": 2
        },
        "C": {
          "item": "kitchen",
          "chance": 25
        },
        "O": {
          "item": "homebooks",
          "chance": 60
        },
        "b": {
          "item": "bed",
          "chance": 60
        },
        "c": {
          "item": "livingroom",
          "chance": 25
        },
        "f": {
          "item": "fridge",
          "chance": 70
        },
        "o": {
          "item": "oven",
          "chance": 30
        },
        "r": {
          "item": "cleaning",
          "chance": 60
        },
        "t": {
          "item": "dining",
          "chance": 25
        },
        "u": {
          "item": "cannedfood",
          "chance": 50
        }
      },
      "place_monsters": [
        {
          "monster": "GROUP_ZOMBIE",
          "x": [
            1,
            22
          ],
          "y": [
            1,
            22
          ],
          "density": 0.09
        }
      ]
    },
    "id": "49a5b8da-5773-4811-a3e3-af9af7864d67"
  },
  {
    "type": "mapgen",
    "method": "json",
    "om_terrain": [
      "urban_10_2"
    ],
    "weight": 250,
    "object": {
      "fill_ter": "t_floor",
      "rows": [
        ",,,,,,,,,,,,,,,,,,,,,,,,",
        "##########,,,,,,,,,,,,,,",
        ";;;;;;;;;#,,,,,,^,,,,,,,",
        "PPPPPP;;;,,,,,,,,,,,,,,,",
        "PPPPPP;;;,,,,,,,,,,,,,,,",
        "PPPPPP;;;#,,^,,,,,,,,^,,",
        "PPP;;;;;;#,,,,,,,,,,,,,,",
        "PP;;;;;;;#,,,###,,,,,,,,",
        ";;;;;IiwiiiiiiwiI,,,,,,,",
        ";;;;;I    dd6  OI#,,,,,,",
        "iiiiiI     hd   w#,,,,,,",
        ">|T2S|h         I#,,,^,,",
        " |-+-|--+-------I,,,,,,,",
        "           A    I,,,,,,,",
        "         @     cI#,,,,,,",
        "!iwiiIc  @  t  cw#,,,,,,",
        ";;;;;Ic  @  t  cI#,,,,,,",
        ";;;;;Ic  @@    cI,,,,,,,",
        ";,,,,Ic         I,,,,,,,",
        ";,,,,IiiwiiiiwiiI,,,,,,,",
        ";,,,,,,###,,###,,,,,,,,,",
        ";,^,,,,,,,,,,,,,,,,,,,,,",
        ";,,,,,,,,,,,,,,,,,,,,,,,",
        ";,,,,,,,,,,,,,,,,,,,,,,,"
      ],
      "palettes": [
        "acidia_residential_commercial_palette"
      ],
      "toilets": {
        "T": {}
      },
      "items": {
        "2": {
          "item": "softdrugs",
          "chance": 10
        },
        "4": {
          "item": "dining",
          "chance": 25
        },
        " ": {
          "item": "livingroom",
          "chance": 2
        },
        "@": {
          "item": "magazines",
          "chance": 10
        },
        "A": {
          "item": "livingroom",
          "chance": 15
        },
        "O": {
          "item": "homebooks",
          "chance": 60
        },
        "c": {
          "item": "livingroom",
          "chance": 25
        },
        "d": {
          "item": "office",
          "chance": 40
        },
        "t": {
          "item": "coffee_table",
          "chance": 25
        }
      },
      "place_monsters": [
        {
          "monster": "GROUP_ZOMBIE",
          "x": [
            1,
            22
          ],
          "y": [
            1,
            22
          ],
          "density": 0.09
        }
      ]
    },
    "id": "a4b786c6-87f3-42d9-8e36-6f481732588e"
  },
  {
    "type": "mapgen",
    "method": "json",
    "om_terrain": [
      "urban_10_3"
    ],
    "weight": 250,
    "object": {
      "fill_ter": "t_floor",
      "rows": [
        "........................",
        "........................",
        "........................",
        "........................",
        "........................",
        "........................",
        "........................",
        "........................",
        ".......IiiwiiiiwiiI.....",
        ".......ICBB|r +22BI.....",
        ".......wT22|--|T2BIiiiii",
        ".......IC22+ r|C22+u|u|<",
        ".......IS22|--|S22|-|+| ",
        ".......I-+-|ee|-|+|     ",
        ".......Ie       +      c",
        ".......Ie       |-Iiiwii",
        ".......I  bbb   |rI.....",
        ".......w  bbb   + I.....",
        ".......I ebbbe  |rI.....",
        ".......IiiiwiiwiiiI.....",
        "........................",
        "........................",
        "........................",
        "........................"
      ],
      "palettes": [
        "acidia_residential_commercial_palette"
      ],
      "toilets": {
        "T": {}
      },
      "items": {
        "2": {
          "item": "softdrugs",
          "chance": 10
        },
        " ": {
          "item": "livingroom",
          "chance": 2
        },
        "b": {
          "item": "bed",
          "chance": 60
        },
        "c": {
          "item": "livingroom",
          "chance": 25
        },
        "d": {
          "item": "office",
          "chance": 40
        },
        "r": {
          "item": "bedroom",
          "chance": 60
        },
        "u": {
          "item": "cleaning",
          "chance": 60
        }
      },
      "place_monsters": [
        {
          "monster": "GROUP_ZOMBIE",
          "x": [
            8,
            17
          ],
          "y": [
            9,
            18
          ],
          "density": 0.09
        },
        {
          "monster": "GROUP_ZOMBIE",
          "x": [
            18,
            22
          ],
          "y": [
            11,
            14
          ],
          "density": 0.09
        }
      ]
    },
    "id": "bd43939f-2aa0-43d6-a6be-30ee2fbbac8b"
  },
  {
    "type": "mapgen",
    "method": "json",
    "om_terrain": [
      "urban_10_4"
    ],
    "weight": 250,
    "object": {
      "fill_ter": "t_floor",
      "rows": [
        "........................",
        "........................",
        "........................",
        "........................",
        "........................",
        "........................",
        "........................",
        "........................",
        ".....IiiwiiiiwiiI.......",
        ".....Ib   ebb   I.......",
        "iiiiiIb        dw.......",
        "<|r|u+        hdI.......",
        " |+|-|  ee    d6I.......",
        "     |+---------I.......",
        "c              OI.......",
        "iiwiiI    AtA  OI.......",
        ".....IO        OI.......",
        ".....w          w.......",
        ".....IO  tt  OOOI.......",
        ".....IiiiwiiwiiiI.......",
        "........................",
        "........................",
        "........................",
        "........................"
      ],
      "palettes": [
        "acidia_residential_commercial_palette"
      ],
      "items": {
        " ": {
          "item": "livingroom",
          "chance": 2
        },
        "A": {
          "item": "livingroom",
          "chance": 15
        },
        "O": {
          "item": "homebooks",
          "chance": 60
        },
        "b": {
          "item": "bed",
          "chance": 60
        },
        "c": {
          "item": "livingroom",
          "chance": 25
        },
        "d": {
          "item": "office",
          "chance": 40
        },
        "e": {
          "item": "dresser",
          "chance": 60
        },
        "r": {
          "item": "cleaning",
          "chance": 60
        },
        "t": {
          "item": "coffee_table",
          "chance": 25
        },
        "u": {
          "item": "bedroom",
          "chance": 60
        }
      },
      "place_monsters": [
        {
          "monster": "GROUP_ZOMBIE",
          "x": [
            8,
            17
          ],
          "y": [
            9,
            18
          ],
          "density": 0.09
        },
        {
          "monster": "GROUP_ZOMBIE",
          "x": [
            6,
            15
          ],
          "y": [
            11,
            14
          ],
          "density": 0.09
        }
      ]
    },
    "id": "b7f0f644-3410-4b3c-a638-80e05b1906c5"
  },
  {
    "type": "mapgen",
    "method": "json",
    "om_terrain": [
      "urban_10_5"
    ],
    "weight": 250,
    "object": {
      "fill_ter": "t_floor",
      "rows": [
        "........................",
        "........................",
        "........................",
        "........................",
        "........................",
        "........................",
        "........................",
        "........................",
        ".......111111111111.....",
        ".......4RRRRRRRRRR2.....",
        ".......4RR!RRRR!RR111111",
        ".......4RRRRRRRRRRRRRRRR",
        ".......4RRRRRRRRRRRRRRRR",
        ".......4RRRRRRRRRRRRR^RR",
        ".......4RRRRRRRRRRRRRRRR",
        ".......4RRRRRRRRRR333333",
        ".......4RRRR&RRRRR2.....",
        ".......4RRRRRRRRRR2.....",
        ".......4RRRRRRRRRR2.....",
        ".......333333333333.....",
        "........................",
        "........................",
        "........................",
        "........................"
      ],
      "palettes": [
        "acidia_residential_roof_palette"
      ]
    },
    "id": "c4d949ce-b5b0-4c22-9a53-658ceaef76f0"
  },
  {
    "type": "mapgen",
    "method": "json",
    "om_terrain": [
      "urban_10_6"
    ],
    "weight": 250,
    "object": {
      "fill_ter": "t_floor",
      "rows": [
        "........................",
        "........................",
        "........................",
        "........................",
        "........................",
        "........................",
        "........................",
        "........................",
        ".....111111111111.......",
        ".....3RRRRRRRRRR2.......",
        "111111RRRRRR&RRR2.......",
        "RRRRRRRRRRRRRRRR2.......",
        "RRRRRRRRRRRRRRRR2.......",
        "RR^RRRRRRRRRRRRR2.......",
        "RRRRRRRRRRRRRRRR2.......",
        "333333RRRRRRRRRR2.......",
        ".....4RRRRRRRRRR2.......",
        ".....4RRRRRR&RRR2.......",
        ".....4RRRRRRRRRR2.......",
        ".....333333333333.......",
        "........................",
        "........................",
        "........................",
        "........................"
      ],
      "palettes": [
        "acidia_residential_roof_palette"
      ]
    },
    "id": "660adbdd-058d-473b-a348-e7ff6f16933a"
  }
]