[
  {
    "id": "fireman_locker",
    "type": "item_group",
    "items": [
      {
        "group": "fireman_torso",
        "prob": 100
      },
      {
        "group": "fireman_pants",
        "prob": 100
      },
      {
        "group": "fireman_boots",
        "prob": 80
      },
      {
        "group": "fireman_gloves",
        "prob": 80
      },
      {
        "group": "fireman_mask",
        "prob": 80
      },
      {
        "group": "fireman_head",
        "prob": 100
      },
      {
        "group": "fireman_gear",
        "prob": 50
      }
    ]
  },
  {
    "type": "mapgen",
    "method": "json",
    "om_terrain": [
      "urban_32_1"
    ],
    "weight": 250,
    "object": {
      "fill_ter": "t_floor",
      "rows": [
        "%%%%%%%%%i:z0:i%%%%%%%%%",
        "%%%%%%%%%i:z0:i%%%%%%%%%",
        "%%%%%%%%%i:z0:i%%%%%%%%%",
        "iiiiiiiiii$$5$iiiiiiiiii",
        "i'''i''i'zzzzz$000000000",
        "i'''+''$'''zzzi:z0zzzzzz",
        "i>''i''$''''zzizz0zzzz''",
        "iiiii''i'''''z$zz0zz''''",
        "i''''''i''''''izz0'''''Z",
        "i''''''ii''i''izz0'''''Z",
        "i''iiiii'''i''izz0'iiiii",
        "i''i'XXi'''i''i:z0'i''''",
        "i''i''Xi'''iiii:z0'i''''",
        "i''+'''i''''''i:z0'i'i''",
        "i''iXXXi''''''izz0'iiiii",
        "i''iiiiiiiii''izz0'''i''",
        "i'''''&i'''''''zz0''''''",
        "i''''''='''''''000''''''",
        "i''''''i'''''':zz0''''''",
        "i''''''iiiiiiii$$iiiiiii",
        "i''iiiii'''''':zz''''$''",
        "i''i'ZZi'''''''zz''''$''",
        "i''i'''ii''iii'zz''''i''",
        "i''i'''i''''Zi'zz'''iii'"
      ],
      "palettes": [
        "acidia_residential_commercial_palette"
      ],
      "items": {
        "'": {
          "item": "home_hw",
          "chance": 1
        },
        "X": {
          "item": "fireman_gear",
          "chance": 60
        }
      },
      "place_monsters": [
        {
          "monster": "GROUP_FIRE",
          "x": [
            1,
            22
          ],
          "y": [
            4,
            22
          ],
          "density": 0.06
        }
      ]
    },
    "id": "0a720900-a531-4fda-a139-3e5ef92d5621"
  },
  {
    "type": "mapgen",
    "method": "json",
    "om_terrain": [
      "urban_32_2"
    ],
    "weight": 250,
    "object": {
      "fill_ter": "t_floor",
      "rows": [
        "%%%%%%%%%i:z0:i%%%%%%%%%",
        "%%%%%%%%%i:z0:i%%%%%%%%%",
        "%%%%%%%%%i:z0:i%%%%%%%%%",
        "iiiiiiiiii$$5$iiiiiiiiii",
        "0000000000000000i''''''i",
        "zzzzzzzzzz0zz''0i''''''i",
        "iz'''zi'''0zzzz0i''''''i",
        "iz'''zi'iiiiizz0i''''''i",
        "iz'}'zi'''ZZizz0i''''''i",
        "iz'''zi''0000000i''''''i",
        "iz'''zi'''ZZizz0i''''''i",
        "'z'''ziiiiiiizz0'''''''$",
        "'z'':z'''''i:zz0zzzzzzz5",
        "'z'''z''i''i:zz0zzzzzzz5",
        "iz:''z'iii'i:zz0:::::::$",
        "iz'''z''i''i:zziiiiiiiii",
        "$z'''z'''''i:zzi'''''''i",
        "$z'''z'''''i:zzi'''''''i",
        "iz'}'z'''''i:zzi'''''''i",
        "iz'''z'''''i:zzi'''''''i",
        "'z:''z:''''i:zzi'''''''i",
        "'0'''0:''''i:zzi'''''''i",
        "'z'''z''i''i:zzi''''''Zi",
        "'z'''z'iiiii:zzi'''''ZZi"
      ],
      "palettes": [
        "acidia_residential_commercial_palette"
      ],
      "items": {
        "'": {
          "item": "home_hw",
          "chance": 1
        },
        ":": {
          "item": "sewer",
          "chance": 1
        }
      },
      "place_monsters": [
        {
          "monster": "GROUP_FIRE",
          "x": [
            1,
            22
          ],
          "y": [
            4,
            22
          ],
          "density": 0.06
        }
      ]
    },
    "id": "1973945b-5b54-4d77-9c72-eec7cea4a595"
  },
  {
    "type": "mapgen",
    "method": "json",
    "om_terrain": [
      "urban_32_3"
    ],
    "weight": 250,
    "object": {
      "fill_ter": "t_floor",
      "rows": [
        "i''+'''i''''Zi:zz''''i''",
        "i''i''Xi''''Zi:zz'iiiiii",
        "i''i'XXi'''''i'zz''''))i",
        "i''iiiii'''''i'zz''''''i",
        "i''''''i'''''i'zz''''''i",
        "i''''''5'''''i'zz''''''i",
        "i''''''i'''''i'zz'i''''i",
        "ii==i''i'''''i'zz'i''''i",
        "iEEEi''i'''''i''''i'''''",
        "iEEEi''i'''''i''''i'''''",
        "iiiiiiiiiiiiiiiiiiiiiiii",
        "%%%%%%%%%%%%%%%%%%%%%%%%",
        "%%%%%%%%%%%%%%%%%%%%%%%%",
        "%%%%%%%%%%%%%%%%%%%%%%%%",
        "%%%%%%%%%%%%%%%%%%%%%%%%",
        "%%%%%%%%%%%%%%%%%%%%%%%%",
        "%%%%%%%%%%%%%%%%%%%%%%%%",
        "%%%%%%%%%%%%%%%%%%%%%%%%",
        "%%%%%%%%%%%%%%%%%%%%%%%%",
        "%%%%%%%%%%%%%%%%%%%%%%%%",
        "%%%%%%%%%%%%%%%%%%%%%%%%",
        "%%%%%%%%%%%%%%%%%%%%%%%%",
        "%%%%%%%%%%%%%%%%%%%%%%%%",
        "%%%%%%%%%%%%%%%%%%%%%%%%"
      ],
      "palettes": [
        "acidia_residential_commercial_palette"
      ],
      "terrain": {
        ")": "t_strconc_floor"
      },
      "items": {
        "'": {
          "item": "home_hw",
          "chance": 1
        },
        "X": {
          "item": "fireman_gear",
          "chance": 60
        }
      },
      "place_monsters": [
        {
          "monster": "GROUP_FIRE",
          "x": [
            1,
            22
          ],
          "y": [
            1,
            9
          ],
          "density": 0.06
        }
      ]
    },
    "id": "e4502572-3beb-440a-8738-07e42920f82f"
  },
  {
    "type": "mapgen",
    "method": "json",
    "om_terrain": [
      "urban_32_4"
    ],
    "weight": 250,
    "object": {
      "fill_ter": "t_floor",
      "rows": [
        "'z'''z''i''''zzi''''''Zi",
        "'z'''z''$''''zzi'''''''i",
        "'z'''z''$''''zziii'''''i",
        "'z'''z''iiiii$$i'''''''i",
        "'z'''z'''''''zz''''''''i",
        "'z'}'z'''''''zz''''''''i",
        "'z'''z'''''''zz''''''''i",
        "'z'''z'''''''zz''''''''i",
        "'''''''''''''''''''''''i",
        "'''''''''''''''''''''''i",
        "iiiiiiiiiiiiiiiiiiiiiiii",
        "%%%%%%%%%%%%%%%%%%%%%%%%",
        "%%%%%%%%%%%%%%%%%%%%%%%%",
        "%%%%%%%%%%%%%%%%%%%%%%%%",
        "%%%%%%%%%%%%%%%%%%%%%%%%",
        "%%%%%%%%%%%%%%%%%%%%%%%%",
        "%%%%%%%%%%%%%%%%%%%%%%%%",
        "%%%%%%%%%%%%%%%%%%%%%%%%",
        "%%%%%%%%%%%%%%%%%%%%%%%%",
        "%%%%%%%%%%%%%%%%%%%%%%%%",
        "%%%%%%%%%%%%%%%%%%%%%%%%",
        "%%%%%%%%%%%%%%%%%%%%%%%%",
        "%%%%%%%%%%%%%%%%%%%%%%%%",
        "%%%%%%%%%%%%%%%%%%%%%%%%"
      ],
      "palettes": [
        "acidia_residential_commercial_palette"
      ],
      "items": {
        "'": {
          "item": "home_hw",
          "chance": 1
        }
      },
      "place_monsters": [
        {
          "monster": "GROUP_FIRE",
          "x": [
            1,
            22
          ],
          "y": [
            1,
            9
          ],
          "density": 0.06
        }
      ]
    },
    "id": "1a8b0fa1-d328-4dae-acf9-e984edde1e56"
  },
  {
    "type": "mapgen",
    "method": "json",
    "om_terrain": [
      "urban_32_5"
    ],
    "weight": 250,
    "object": {
      "fill_ter": "t_floor",
      "rows": [
        ";;;;____________________",
        ";^;;____________________",
        ";;;;____________________",
        "iiiii+iiiii==========i==",
        "i>     iLL'''''''''''&''",
        "ii     J''''''''''''''''",
        "i<     J'''''''00'''''''",
        "iiiii  i'''''''00'''''''",
        "is2si  v'''''''00'''''''",
        "i222i  v'''''''00'''''''",
        "is2si  v'''''''00'''''''",
        "i222i  v'''''''00'''''''",
        "is2si  iX''''''00'''''''",
        "ii2ii++i'''''''00'''''''",
        "i      i'''''''00''''i''",
        "iL     +'''''''00'''''''",
        "iL ((  i'''''''00'''''''",
        "iL (( Lir''''''00'''''''",
        "iL (( Lir''''''00'''''''",
        "iL (( Lir''''''00'''''''",
        "iL (( Lir''''''00'''''''",
        "iL ((  i'''''''00'''''''",
        "iL     +'''''''00'''''''",
        "iL     i'''''''00''''i''"
      ],
      "palettes": [
        "acidia_residential_commercial_palette"
      ],
      "terrain": {
        "(": "t_floor"
      },
      "items": {
        "'": {
          "item": "mechanics",
          "chance": 1
        },
        "L": {
          "item": "fireman_locker",
          "chance": 90
        },
        "r": {
          "item": "fireman_gear",
          "chance": 50
        }
      },
      "place_monsters": [
        {
          "monster": "GROUP_FIRE",
          "x": [
            1,
            22
          ],
          "y": [
            1,
            22
          ],
          "density": 0.25
        }
      ],
      "place_vehicles": [
        {
          "vehicle": "fire_truck",
          "x": 15,
          "y": 9,
          "chance": 40,
          "rotation": 270
        }
      ]
    },
    "id": "a5c5d63a-0b24-4ef6-b727-5d76004753fb"
  },
  {
    "type": "mapgen",
    "method": "json",
    "om_terrain": [
      "urban_32_6"
    ],
    "weight": 250,
    "object": {
      "fill_ter": "t_floor",
      "rows": [
        "____________________;;;;",
        "____________________;;^;",
        "____________________;;;;",
        "========i==========iiiii",
        "''''''''&'''''''''''XXXi",
        "'''''''''''''''''''''XXi",
        "'0'''0'''''''00''''''''i",
        "'0'''0'''''''00'''''''}i",
        "'0'U'0'''''''00''''''''i",
        "'0'''0'''''''00''''''''i",
        "'0'''0'''''''00''''''''i",
        "'0'''0'''''''00''''''''i",
        "'0'''0'''''''00''''''xxi",
        "'0'''0'''''''00''''''xxi",
        "'0'''0''i''''00''''''''i",
        "'0'''0'''''''00''''xxx'i",
        "'0'''0'''''''00''''''''i",
        "'0'''0'''''''00'''''''xi",
        "'0'U'0'''''''00'''''xxxi",
        "'0'''0'''''''00'''''''xi",
        "'0'''0'''''''00''''''''i",
        "'0'''0'''''''00''''''''i",
        "'0'''0'''''''00''''''''i",
        "'0'''0''i''''00'''''''ci"
      ],
      "palettes": [
        "acidia_residential_commercial_palette"
      ],
      "terrain": {
        "x": "t_strconc_floor"
      },
      "items": {
        "'": {
          "item": "mechanics",
          "chance": 1
        },
        "L": {
          "item": "fireman_locker",
          "chance": 90
        },
        "X": {
          "item": "mechanics",
          "chance": 50
        }
      },
      "place_monsters": [
        {
          "monster": "GROUP_FIRE",
          "x": [
            1,
            22
          ],
          "y": [
            1,
            22
          ],
          "density": 0.25
        }
      ],
      "place_vehicles": [
        {
          "vehicle": "fire_engine",
          "x": 3,
          "y": 9,
          "chance": 20,
          "rotation": 270
        },
        {
          "vehicle": "fire_truck",
          "x": 13,
          "y": 9,
          "chance": 20,
          "rotation": 270
        }
      ]
    },
    "id": "25771928-1396-4d7b-a633-55f238f7386f"
  },
  {
    "type": "mapgen",
    "method": "json",
    "om_terrain": [
      "urban_32_7"
    ],
    "weight": 250,
    "object": {
      "fill_ter": "t_floor",
      "rows": [
        "iiiii+ii'''''''00'''''''",
        "i c6c  i}''''''00'''''''",
        "i      v'''''''00'''''''",
        "i@ t   v'''''''00'''''''",
        "i@ t   v'''''''00'''''''",
        "i@     i'''''''00'''''''",
        "i@@@   J'''''''00'''''''",
        "iiiii  J'''''''00'''''''",
        "iEEEi  i''''''''''''''''",
        "iEEEi  i'''''''''''''&''",
        "ii==i  iiii==========i==",
        "i      ki;;__________&__",
        "i       v;;_____________",
        "i  dc   v;;_____________",
        "i  dc   i;;_____________",
        "i h6c   J;;_____________",
        "id66c   i;;_____________",
        "iiiiivvii;;_____________",
        ",,,;;;;;;;;_____________",
        ",^,(;;;;;;;_____________",
        ",,,(;;;;;;;_____________",
        ",,,(;;;;;;;_____________",
        ",^,(;;;;;;;_____________",
        ",,,;;;;;;;;_____________"
      ],
      "palettes": [
        "acidia_residential_commercial_palette"
      ],
      "items": {
        "'": {
          "item": "mechanics",
          "chance": 1
        },
        "@": {
          "item": "magazines",
          "chance": 10
        },
        "c": {
          "item": "livingroom",
          "chance": 25
        },
        "d": {
          "item": "office",
          "chance": 40
        },
        "t": {
          "item": "coffee_table",
          "chance": 25
        }
      },
      "place_monsters": [
        {
          "monster": "GROUP_FIRE",
          "x": [
            1,
            22
          ],
          "y": [
            1,
            22
          ],
          "density": 0.3
        }
      ],
      "place_vehicles": [
        {
          "vehicle": "fire_engine",
          "x": 16,
          "y": 6,
          "chance": 20,
          "rotation": 90
        }
      ]
    },
    "id": "d9095a62-a491-4d2f-80f6-57f45efeecf8"
  },
  {
    "type": "mapgen",
    "method": "json",
    "om_terrain": [
      "urban_32_8"
    ],
    "weight": 250,
    "object": {
      "fill_ter": "t_floor",
      "rows": [
        "'0'''0'''''''00'''''''ci",
        "'0'''0'''''''00'''''''Si",
        "'0'''0'''''''00'''''''ci",
        "'0'''0'''''''00'''''''ri",
        "'0'''0'''''''00'''''''ri",
        "'0'U'0'''''''00''''''''i",
        "'0'''0'''''''00'''''''}i",
        "'0'''0'''''''00''''''''i",
        "'''''''''''''''''''''''i",
        "''''''''&''''''''''''''i",
        "========i==========iiiii",
        "________&___________;;;;",
        "____________________;,,,",
        "____________________;,^,",
        "____________________;,,,",
        "____________________;,,,",
        "____________________;,^,",
        "____________________;,,,",
        "____________________;,,,",
        "____________________;,^,",
        "____________________;,,,",
        "____________________;,,,",
        "____________________;,^,",
        "____________________;,,,"
      ],
      "palettes": [
        "acidia_residential_commercial_palette"
      ],
      "items": {
        "'": {
          "item": "mechanics",
          "chance": 1
        },
        "c": {
          "item": "mechanics",
          "chance": 25
        },
        "r": {
          "item": "fireman_gear",
          "chance": 40
        }
      },
      "place_monsters": [
        {
          "monster": "GROUP_FIRE",
          "x": [
            1,
            22
          ],
          "y": [
            1,
            22
          ],
          "density": 0.3
        }
      ],
      "place_vehicles": [
        {
          "vehicle": "fire_engine",
          "x": 3,
          "y": 6,
          "chance": 20,
          "rotation": 90
        },
        {
          "vehicle": "ambulance",
          "x": 14,
          "y": 5,
          "chance": 20,
          "rotation": 90
        }
      ]
    },
    "id": "e6b74337-4b66-4505-8d4d-a7ddd7fe6a59"
  },
  {
    "type": "mapgen",
    "method": "json",
    "om_terrain": [
      "urban_32_9"
    ],
    "weight": 250,
    "object": {
      "fill_ter": "t_floor",
      "rows": [
        "........................",
        "........................",
        "........................",
        "iiiiiwwiiiivvvivvivvvivv",
        "i<  i  i7777777777777777",
        "ii  J  i7777777777777777",
        "i>  i  i7777777777777777",
        "iiiii  v7777777777777777",
        "iT+2i  v7777777777777777",
        "i-|2i  i7777777777777777",
        "iT+2i  i7777777777777777",
        "i-|2+  v7777777777777777",
        "i222i  v7777777777777777",
        "iSCSi  i7777777777777777",
        "iiiii  i7777777777777i77",
        "iCC2222i7777777777777777",
        "io2222Ci7777777777777777",
        "iC2C22Sw7777777777777777",
        "ig2C22Sw7777777777777777",
        "ig2222Ci7777777777777777",
        "i22222ji7777777777777777",
        "ihh   ui7777777777777777",
        "itt    i9987777777777777",
        "itt    i}087777777777i77"
      ],
      "palettes": [
        "acidia_residential_commercial_palette"
      ],
      "toilets": {
        "T": {}
      },
      "items": {
        " ": {
          "item": "office",
          "chance": 1
        },
        "C": {
          "item": "kitchen",
          "chance": 25
        },
        "g": {
          "item": "fridge",
          "chance": 70
        },
        "j": {
          "item": "cannedfood",
          "chance": 50
        },
        "t": {
          "item": "office_breakroom",
          "chance": 25
        },
        "u": {
          "item": "cannedfood",
          "chance": 50
        }
      },
      "place_monsters": [
        {
          "monster": "GROUP_FIRE",
          "x": [
            1,
            6
          ],
          "y": [
            4,
            22
          ],
          "density": 0.2
        }
      ]
    },
    "id": "b5d3f34d-9b13-467e-9c4a-dccc1c8a9691"
  },
  {
    "type": "mapgen",
    "method": "json",
    "om_terrain": [
      "urban_32_10"
    ],
    "weight": 250,
    "object": {
      "fill_ter": "t_floor",
      "rows": [
        "........................",
        "........................",
        "........................",
        "vivvivvvivvvivvivvviiiii",
        "77777777777777777777777i",
        "77777777777777777777777i",
        "77777777777777777777899i",
        "7777777777777777777780{i",
        "77777777777777777777800i",
        "7777777777777777777780}i",
        "77777777777777777777899i",
        "77777777777777777777777i",
        "77777777777777777777777i",
        "77777777777777777777777i",
        "77777777i77777777777777i",
        "77777777777777777777777i",
        "77777777777777777777777i",
        "77777777777777777777777i",
        "77777777777777777777777i",
        "77777777777777777777777i",
        "77777777777777777777777i",
        "77777777777777777777777i",
        "77777777777777777777777i",
        "77777777i77777777777777i"
      ],
      "palettes": [
        "acidia_residential_commercial_palette"
      ]
    },
    "id": "c187663a-2d05-476a-bd6b-59099a2d06c4"
  },
  {
    "type": "mapgen",
    "method": "json",
    "om_terrain": [
      "urban_32_11"
    ],
    "weight": 250,
    "object": {
      "fill_ter": "t_floor",
      "rows": [
        "ihh    J0087777777777777",
        "i      i{087777777777777",
        "ihh    v9987777777777777",
        "itt    i7777777777777777",
        "itt    i7777777777777777",
        "ihh    v7777777777777777",
        "i      v7777777777777777",
        "iiiii  i7777777777777777",
        "iEEEi  i7777777777777777",
        "iEEEi  i7777777777777777",
        "ii==i  iiiivvvivvivvvivv",
        "i      di...............",
        "iO     dv...............",
        "iO    A6v...............",
        "id     dv...............",
        "idA   Adv...............",
        "i6ddddd6i...............",
        "iivvvvvii...............",
        "........................",
        "........................",
        "........................",
        "........................",
        "........................",
        "........................"
      ],
      "palettes": [
        "acidia_residential_commercial_palette"
      ],
      "items": {
        " ": {
          "item": "office",
          "chance": 1
        },
        "O": {
          "item": "fireman_doc",
          "chance": 70
        },
        "d": {
          "item": "office",
          "chance": 45
        }
      },
      "place_monsters": [
        {
          "monster": "GROUP_FIRE",
          "x": [
            1,
            6
          ],
          "y": [
            1,
            16
          ],
          "density": 0.2
        }
      ]
    },
    "id": "8b744c7d-c1c4-4ebc-ad54-9a800c8da454"
  },
  {
    "type": "mapgen",
    "method": "json",
    "om_terrain": [
      "urban_32_12"
    ],
    "weight": 250,
    "object": {
      "fill_ter": "t_floor",
      "rows": [
        "77777777777777777777777i",
        "77777777777777777777777i",
        "77777777777777777777777i",
        "77777777777777777777899i",
        "7777777777777777777780}i",
        "77777777777777777777800i",
        "7777777777777777777780{i",
        "77777777777777777777899i",
        "77777777777777777777777i",
        "77777777777777777777777i",
        "vivvivvvivvvivvivvvviiii",
        "........................",
        "........................",
        "........................",
        "........................",
        "........................",
        "........................",
        "........................",
        "........................",
        "........................",
        "........................",
        "........................",
        "........................",
        "........................"
      ],
      "palettes": [
        "acidia_residential_commercial_palette"
      ]
    },
    "id": "b781f35b-3db0-465c-9368-461a9b33f500"
  },
  {
    "type": "mapgen",
    "method": "json",
    "om_terrain": [
      "urban_32_13"
    ],
    "weight": 250,
    "object": {
      "fill_ter": "t_floor",
      "rows": [
        "........................",
        "........................",
        "........................",
        "iiiiiwwiiiivvvivvivvvivv",
        "i>  i  i7777777777777777",
        "ii  J  i7777777777777777",
        "i<  i  i7777777777777777",
        "iiiii  i9999999999999999",
        "ibbei  J0000000000000000",
        "i   i  J0000000000000000",
        "ic  +  i9999999999999999",
        "i   i  i7777777777777777",
        "ibbei  i7777777777777777",
        "iiiii  i7777777777777777",
        "ibbei  i7777777777777i77",
        "i   i  i7777777777777777",
        "ic  +  i7777777777777777",
        "i   i  i7777777777777777",
        "ibbei  i7777777777777777",
        "iiiii  i7777777777777777",
        "ibbei  i7777777777777777",
        "i   i  i7777777777777777",
        "ic  +  i9987777777777777",
        "i   i  i{089999999999i99"
      ],
      "palettes": [
        "acidia_residential_commercial_palette"
      ],
      "items": {
        " ": {
          "item": "office",
          "chance": 1
        },
        "b": {
          "item": "bed",
          "chance": 60
        },
        "c": {
          "item": "bedroom",
          "chance": 70
        },
        "e": {
          "item": "dresser",
          "chance": 70
        }
      },
      "place_monsters": [
        {
          "monster": "GROUP_FIRE",
          "x": [
            1,
            6
          ],
          "y": [
            4,
            22
          ],
          "density": 0.2
        }
      ]
    },
    "id": "daa666e5-6bfd-4a02-89c4-eafe92607740"
  },
  {
    "type": "mapgen",
    "method": "json",
    "om_terrain": [
      "urban_32_14"
    ],
    "weight": 250,
    "object": {
      "fill_ter": "t_floor",
      "rows": [
        "........................",
        "........................",
        "........................",
        "vivvivvvivvvivvivvviiiii",
        "77777777777777777777777i",
        "77777777777777777777777i",
        "77777777777777777777899i",
        "99999999999999999999800i",
        "00000000000000000000000i",
        "0000000000000000000000{i",
        "99999999999999998008999i",
        "77777777777777778008777i",
        "77777777777777778008777i",
        "77777777777777778008777i",
        "77777777i77777778008777i",
        "77777777777777778008777i",
        "77777777777777778008777i",
        "77777777777777778008777i",
        "77777777777777778008777i",
        "77777777777777778008777i",
        "77777777777777778008777i",
        "77777777777777778008777i",
        "77777777777777778008777i",
        "99999999i99999998008777i"
      ],
      "palettes": [
        "acidia_residential_commercial_palette"
      ]
    },
    "id": "5525b7bb-5b7e-4edf-8d27-120f0a3660be"
  },
  {
    "type": "mapgen",
    "method": "json",
    "om_terrain": [
      "urban_32_15"
    ],
    "weight": 250,
    "object": {
      "fill_ter": "t_floor",
      "rows": [
        "ibbei  J0000000000000000",
        "iiiii  i0000000000000000",
        "ibbei  i9999999999999999",
        "i   i  i7777777777777777",
        "ic  +  i7777777777777777",
        "i   i  i7777777777777777",
        "ibbei  i7777777777777777",
        "iiiii  i7777777777777777",
        "iEEEi  i7777777777777777",
        "iEEEi  i7777777777777777",
        "ii==i  iiiivvvivvivvvivv",
        "i      ki...............",
        "i       i...............",
        "ivviJivvi...............",
        "8;;;;;((8...............",
        "8;;;;;;;8...............",
        "8;;;;;;;8...............",
        "899999998...............",
        "........................",
        "........................",
        "........................",
        "........................",
        "........................",
        "........................"
      ],
      "palettes": [
        "acidia_residential_commercial_palette"
      ],
      "terrain": {
        "(": "t_sidewalk"
      },
      "items": {
        " ": {
          "item": "office",
          "chance": 1
        },
        "b": {
          "item": "bed",
          "chance": 60
        },
        "c": {
          "item": "bedroom",
          "chance": 70
        },
        "e": {
          "item": "dresser",
          "chance": 70
        }
      },
      "place_monsters": [
        {
          "monster": "GROUP_FIRE",
          "x": [
            1,
            6
          ],
          "y": [
            1,
            16
          ],
          "density": 0.2
        }
      ]
    },
    "id": "ed009246-7019-4cd4-abce-c7935618f4f3"
  },
  {
    "type": "mapgen",
    "method": "json",
    "om_terrain": [
      "urban_32_16"
    ],
    "weight": 250,
    "object": {
      "fill_ter": "t_floor",
      "rows": [
        "00000000000000000008777i",
        "00000000000000000008777i",
        "99999999999999998008777i",
        "77777777777777778008999i",
        "7777777777777777800000{i",
        "77777777777777778000000i",
        "77777777777777778999800i",
        "77777777777777777777899i",
        "77777777777777777777777i",
        "77777777777777777777777i",
        "vivvivvvivvvivvivvvviiii",
        "........................",
        "........................",
        "........................",
        "........................",
        "........................",
        "........................",
        "........................",
        "........................",
        "........................",
        "........................",
        "........................",
        "........................",
        "........................"
      ],
      "palettes": [
        "acidia_residential_commercial_palette"
      ],
      "place_monsters": [
        {
          "monster": "GROUP_FIRE",
          "x": [
            1,
            16
          ],
          "y": [
            0,
            1
          ],
          "density": 0.4
        }
      ]
    },
    "id": "10c56289-2992-459c-aff8-9ca415bfea3b"
  },
  {
    "type": "mapgen",
    "method": "json",
    "om_terrain": [
      "urban_32_17"
    ],
    "weight": 250,
    "object": {
      "fill_ter": "t_floor",
      "rows": [
        "........................",
        "........................",
        "........................",
        "iiiii9999999999999999999",
        "i<  iRRRRRRRRRRRRRRRRRRR",
        "i   1RRRRRRRRRRRRRRRRRRR",
        "i   iRRRRRRRRRRRRRRRRRRR",
        "iiiiiRRRRRRRRRRRRRRRRRRR",
        "8RRRRRRRRRRRRRRRRRRRRRRR",
        "8RRRRRRRRRRRRRRRRRRRRRRR",
        "8RRRRRRRRRRRRRRRRRRRRRRR",
        "8RRRRRRRRRRRRRRRRRRRRRRR",
        "8RRR))RRRRRRRRRRRRRRRRRR",
        "8RRZ))RRRRRRRRRRRRRRRRRR",
        "8RRZ))RRRRRRRRRRRRRRRRRR",
        "8RRR))RRRRRRRRRRRRRRRRRR",
        "8RRRRRRRRRRRRRRRRRRRRRRR",
        "8RRRRRRRRRRRRRRRRRRRRRRR",
        "8RRRRRRRRRRRRRRRRRRRRRRR",
        "8RRR))RRRRRRRRRRRRRRRRRR",
        "8RRZ))RRRRRRRRRRRRRRRRRR",
        "8RRZ))RRRRRRRRRRRRRRRRRR",
        "8RRR))RRRRRRRRRRRRRRRRRR",
        "8RRRRRRRRRRRRRRRRRRRRRRR"
      ],
      "palettes": [
        "acidia_residential_commercial_palette"
      ]
    },
    "id": "f2a0ecf8-42df-4f5e-b6a8-4e2e5e63462f"
  },
  {
    "type": "mapgen",
    "method": "json",
    "om_terrain": [
      "urban_32_18"
    ],
    "weight": 250,
    "object": {
      "fill_ter": "t_floor",
      "rows": [
        "........................",
        "........................",
        "........................",
        "999999999999999999999998",
        "RRRRRRRRRRRRRRRRRRRRRRRi",
        "RRRRRRRRRRRRRRRRRRRRRRR8",
        "RRRRRRRRRRRRRRRRRRRRRRR8",
        "RRRRRRRRRRRRRRRRRRRRRRR8",
        "RRRRRRRRRRRRRRRRRRRRRRR8",
        "RRRRRRRRRRRRRRRRRRRRRRR8",
        "RRRRRRRRRRRRRRRRRRRRRRR8",
        "RRRRRRRRRRRRRRRRRRRRRRR8",
        "RRRRRRRRRRRRRRRRRRRRRRR8",
        "RRRRRRRRRRRRRRRRRRRRRRR8",
        "RRRRRRRRRRRRRRRRRRRRRRR8",
        "RRRRRRRRRRRRRRRRRRRRRRR8",
        "RRRRRRRRRRRRRRRRRRRRRRR8",
        "RRRRRRRRRRRRRRRRRRRRRRR8",
        "RRRRRRRRRRRRRRRRRRRRRRR8",
        "RRRRRRRRRRRRRRRRRRRRRRR8",
        "RRRRRRRRRRRRRRRRRRRRRRR8",
        "RRRRRRRRRRRRRRRRRRRRRRR8",
        "RRRRRRRRRRRRRRRRRRRRRRR8",
        "RRRRRRRRRRRRRRRRRRRRRRR8"
      ],
      "palettes": [
        "acidia_residential_commercial_palette"
      ],
      "place_monsters": [
        {
          "monster": "GROUP_ZOMBIE",
          "x": [
            1,
            22
          ],
          "y": [
            4,
            22
          ],
          "density": 0.03
        }
      ]
    },
    "id": "b3105986-c29f-4807-9790-75712c1f3802"
  },
  {
    "type": "mapgen",
    "method": "json",
    "om_terrain": [
      "urban_32_19"
    ],
    "weight": 250,
    "object": {
      "fill_ter": "t_floor",
      "rows": [
        "8RRRRRRRRRRRRRRRRRRRRRRR",
        "8RRRRRRRRRRRRRRRRRRRRRRR",
        "8RRRRRRRRRRRRRRRRRRRRRRR",
        "8RRRRRRRRRRRRRRRRRRRRRRR",
        "8RRRRRRRRRRRRRRRRRRRRRRR",
        "8RRRRRRRRRRRRRRRRRRRRRRR",
        "8RRRRRRRRRRRRRRRRRRRRRRR",
        "8RRRRRRRRRRRRRRRRRRRRRRR",
        "8RRRRRRRRRRRRRRRRRRRRRRR",
        "8RRRRRRRRRRRRRRRRRRRRRRR",
        "899999999999999999999999",
        "........................",
        "........................",
        "........................",
        "........................",
        "........................",
        "........................",
        "........................",
        "........................",
        "........................",
        "........................",
        "........................",
        "........................",
        "........................"
      ],
      "palettes": [
        "acidia_residential_commercial_palette"
      ]
    },
    "id": "07578b6b-2bbd-4f3a-b1ef-451abd9cb62c"
  },
  {
    "type": "mapgen",
    "method": "json",
    "om_terrain": [
      "urban_32_20"
    ],
    "weight": 250,
    "object": {
      "fill_ter": "t_floor",
      "rows": [
        "RRRRRRRRRRRRRRRRRRRRRRR8",
        "RRRRRRRRRRRRRRRRRRRRRRR8",
        "RRRRRRRRRRRRRRRRRRRRRRR8",
        "RRRRRRRRRRRRRRRRRRRRRRR8",
        "RRRRRRRRRRRRRRRRRRRRRRR8",
        "RRRRRRRRRRRRRRRRRRRRRRR8",
        "RRRRRRRRRRRRRRRRRRRRRRR8",
        "RRRRRRRRRRRRRRRRRRRRRRR8",
        "RRRRRRRRRRRRRRRRRRRRRRR8",
        "RRRRRRRRRRRRRRRRRRRRRRR8",
        "999999999999999999999999",
        "........................",
        "........................",
        "........................",
        "........................",
        "........................",
        "........................",
        "........................",
        "........................",
        "........................",
        "........................",
        "........................",
        "........................",
        "........................"
      ],
      "palettes": [
        "acidia_residential_commercial_palette"
      ]
    },
    "id": "f261d5c3-f901-4f63-808f-2166635eb469"
  },
  {
    "type": "mapgen",
    "method": "json",
    "om_terrain": [
      "urban_32_21"
    ],
    "weight": 250,
    "object": {
      "fill_ter": "t_floor",
      "rows": [
        "........................",
        "........................",
        "........................",
        "RRRRR...................",
        "RRRRR...................",
        "RRRRR...................",
        "RRRRR...................",
        "RRRRR...................",
        "........................",
        "........................",
        "........................",
        "........................",
        "........................",
        "........................",
        "........................",
        "........................",
        "........................",
        "........................",
        "........................",
        "........................",
        "........................",
        "........................",
        "........................",
        "........................"
      ],
      "palettes": [
        "acidia_residential_commercial_palette"
      ]
    },
    "id": "b530f846-e0a8-4d2f-8929-7f6383b456fb"
  }
]