[
  {
    "id": "f_file_cabinet",
    "type": "furniture",
    "name": "filing cabinet",
    "description": "",
    "symbol": "}",
    "color": "dark_gray",
    "move_cost_mod": 2,
    "max_volume": "1000 L",
    "required_str": 8,
    "bash": {
      "str_min": 8,
      "str_max": 30,
      "sound": "metal screeching!",
      "sound_fail": "clang!",
      "items": [
        {
          "item": "scrap",
          "count": [
            0,
            6
          ]
        },
        {
          "item": "steel_chunk",
          "count": [
            0,
            3
          ]
        },
        {
          "item": "sheet_metal",
          "count": [
            2,
            6
          ]
        }
      ]
    },
    "deconstruct": {
      "items": [
        {
          "item": "sheet_metal",
          "count": [
            2,
            6
          ]
        },
        {
          "item": "scrap",
          "count": [
            2,
            6
          ]
        },
        {
          "item": "steel_chunk",
          "count": [
            2,
            3
          ]
        }
      ]
    },
    "flags": [
      "PLACE_ITEM",
      "TRANSPARENT",
      "CONTAINER",
      "BLOCKSDOOR",
      "MOUNTABLE"
    ]
  },
  {
    "id": "hive_destructive",
    "type": "item_group",
    "items": [
      [
        "honeycomb",
        10
      ],
      {
        "group": "building_rubble",
        "prob": 20
      }
    ]
  },
  {
    "type": "mapgen",
    "method": "json",
    "om_terrain": [
      "urban_37_1"
    ],
    "weight": 250,
    "object": {
      "fill_ter": "t_floor",
      "rows": [
        "%%%%%%%%%%%%%%%%%%%%%%%%",
        "%%%%%%%%%%%%%%%%%%%%%%%%",
        "%%%%%%%%%%%%%%%%%%%%%%%%",
        "%%%%%%%%%%%%%%%%%%%%%%%%",
        "llllllllllllllllllllllll",
        "l>  l__________________l",
        "l   lEEEEEEEE_''''''''_l",
        "llJllEEEEEEEE_''''''''_l",
        "l''''EEEEEEEE6''''''''_l",
        "l''''EEEEEEEE_''''''''_l",
        "l''''EEEEEEEE_''''''''_l",
        "l''''EEEEEEEE_''''''''_l",
        "l'''6EEEEEEEE_''''''''_l",
        "l''''EEEEEEEE_''''''''_l",
        "l''''EEEEEEEE_''''''''_l",
        "l''''___.._______..____l",
        "l''''___..______....___l",
        "l''''___.._______..____l",
        "l''''__....______..____'",
        "l'''____.._______..____'",
        "l''____________________.",
        "l''____________________.",
        "l''____________________.",
        "l''____________________."
      ],
      "palettes": [
        "acidia_commercial_palette"
      ],
      "terrain": {
        "'": "t_sidewalk",
        ".": "t_pavement_y"
      },
      "items": {
        "'": {
          "item": "trash_cart",
          "chance": 1
        },
        "_": {
          "item": "trash_cart",
          "chance": 1
        }
      },
      "place_monsters": [
        {
          "monster": "GROUP_ZOMBIE",
          "x": [
            1,
            22
          ],
          "y": [
            1,
            22
          ],
          "density": 0.3
        }
      ],
      "place_vehicles": [
        {
          "vehicle": "suburban_home",
          "x": 9,
          "y": 12,
          "chance": 60,
          "rotation": 90
        }
      ]
    },
    "id": "4274e3fc-27e0-42eb-a3fb-9dc9e2d02df9"
  },
  {
    "type": "mapgen",
    "method": "json",
    "om_terrain": [
      "urban_37_2"
    ],
    "weight": 250,
    "object": {
      "fill_ter": "t_floor",
      "rows": [
        "%%%%%%%%%%%%%%%%%%%%%%%%",
        "%%%%%%%%%%%%%%%%%%%%%%%%",
        "%%%%%%%%%%%%%%%%%%%%%%%%",
        "%%%%%%%%%%%%%%%%%%%%%%%%",
        "llllllllllllllllllllllll",
        "s Tlr rl     utttu     l",
        "s  lr Sl  ZZ)     )ZZ  l",
        "  Slr cl  Z6)     )6Z  l",
        "l+lll+ll               l",
        "       +      tttt     l",
        "L      +      tttt     l",
        "L (   L1              Žl",
        "L (   Ll      ))  )) ZZ0",
        "L      lllll  Z6  6Z  Žl",
        "       l  >l  ZZ  ZZ  Žl",
        "dh     l   l           l",
        "d6d    l   l         ŽŽl",
        "lll1lllllJlll1llllllllll",
        "'''''''''''''''''''''''l",
        "'''''''''''''''''''''''l",
        "'.______.______.______'l",
        "'.______.______.______'l",
        "'.______.______.______'l",
        "'.______.______.______'l"
      ],
      "palettes": [
        "acidia_commercial_palette"
      ],
      "terrain": {
        "Ž": "t_machinery_heavy",
        "'": "t_sidewalk",
        ".": "t_pavement_y"
      },
      "toilets": {
        "T": {}
      },
      "items": {
        "'": {
          "item": "trash_cart",
          "chance": 1
        },
        "L": {
          "item": "hazmat_torso",
          "chance": 40
        },
        "_": {
          "item": "trash_cart",
          "chance": 1
        },
        "d": {
          "item": "office",
          "chance": 40
        },
        "r": {
          "item": "cleaning",
          "chance": 60
        },
        "t": {
          "item": "home_hw",
          "chance": 60
        },
        "u": {
          "item": "hardware_plumbing",
          "chance": 60
        }
      },
      "place_monsters": [
        {
          "monster": "GROUP_ZOMBIE",
          "x": [
            1,
            22
          ],
          "y": [
            1,
            22
          ],
          "density": 0.16
        }
      ],
      "place_vehicles": [
        {
          "vehicle": "suburban_home",
          "x": 4,
          "y": 21,
          "chance": 30,
          "rotation": 270
        },
        {
          "vehicle": "suburban_home",
          "x": 11,
          "y": 21,
          "chance": 30,
          "rotation": 270
        },
        {
          "vehicle": "suburban_home",
          "x": 18,
          "y": 21,
          "chance": 30,
          "rotation": 270
        }
      ]
    },
    "id": "07ef1dff-f380-4774-8ce9-b81fefcb754f"
  },
  {
    "type": "mapgen",
    "method": "json",
    "om_terrain": [
      "urban_37_3"
    ],
    "weight": 250,
    "object": {
      "fill_ter": "t_floor",
      "rows": [
        "l''____________________.",
        "l'QQ___________________.",
        "l'QQ___________________.",
        "l'QQ___________________.",
        "l''_____________________",
        "l'QQ____________________",
        "l'QQ____________________",
        "l'QQ____________________",
        "l''_____________________",
        "l''_____________________",
        "l''_____________________",
        "l''_____________________",
        "l''______.______.______.",
        "l''______.______.______.",
        "l''______.______.______.",
        "l''______.______.______.",
        "l''______.______.______.",
        "l''______.______.______.",
        "l''______.______.______.",
        "l'''_____.______.______.",
        "l'''''''''''''''''''''''",
        "llllllllllllllllllllllll",
        "%%%%%%%%%%%%%%%%%%%%%%%%",
        "%%%%%%%%%%%%%%%%%%%%%%%%"
      ],
      "palettes": [
        "acidia_commercial_palette"
      ],
      "terrain": {
        "'": "t_sidewalk",
        ".": "t_pavement_y"
      },
      "items": {
        "'": {
          "item": "trash_cart",
          "chance": 1
        },
        "Q": {
          "item": "trash_cart",
          "chance": 90
        },
        "_": {
          "item": "trash_cart",
          "chance": 1
        }
      },
      "place_monsters": [
        {
          "monster": "GROUP_ZOMBIE",
          "x": [
            1,
            22
          ],
          "y": [
            1,
            22
          ],
          "density": 0.3
        }
      ],
      "place_vehicles": [
        {
          "vehicle": "suburban_home",
          "x": 4,
          "y": 14,
          "chance": 30,
          "rotation": 270
        },
        {
          "vehicle": "suburban_home",
          "x": 11,
          "y": 14,
          "chance": 30,
          "rotation": 270
        },
        {
          "vehicle": "suburban_home",
          "x": 18,
          "y": 14,
          "chance": 30,
          "rotation": 270
        }
      ]
    },
    "id": "2e2141e5-b3a0-402d-9440-91e81b0ef13c"
  },
  {
    "type": "mapgen",
    "method": "json",
    "om_terrain": [
      "urban_37_4"
    ],
    "weight": 250,
    "object": {
      "fill_ter": "t_floor",
      "rows": [
        "'.______.______.______'l",
        "'.______.______.______'l",
        "'.______.______.______'l",
        "..______.______.______'l",
        "______________________'l",
        "______________________'l",
        "______________________'l",
        "______________________'0",
        "______________________'0",
        "______________________'0",
        "______________________'0",
        "______________________'0",
        "..______.______.______'0",
        "'.______.______.______'0",
        "'.______.______.______'l",
        "'.______.______.______'l",
        "'.______.______.______'l",
        "'.______.______.______'l",
        "'.______.______.______'l",
        "'.______.______._____''l",
        "'''''''''''''''''''''''l",
        "llllllllllllllllllllllll",
        "%%%%%%%%%%%%%%%%%%%%%%%%",
        "%%%%%%%%%%%%%%%%%%%%%%%%"
      ],
      "palettes": [
        "acidia_commercial_palette"
      ],
      "terrain": {
        "'": "t_sidewalk",
        ".": "t_pavement_y"
      },
      "items": {
        "'": {
          "item": "trash_cart",
          "chance": 1
        },
        "_": {
          "item": "trash_cart",
          "chance": 1
        }
      },
      "place_monsters": [
        {
          "monster": "GROUP_ROACH",
          "x": [
            1,
            22
          ],
          "y": [
            1,
            22
          ],
          "density": 1
        }
      ],
      "place_vehicles": [
        {
          "vehicle": "suburban_home",
          "x": 4,
          "y": 14,
          "chance": 10,
          "rotation": 270
        },
        {
          "vehicle": "suburban_home",
          "x": 11,
          "y": 14,
          "chance": 10,
          "rotation": 270
        },
        {
          "vehicle": "suburban_home",
          "x": 18,
          "y": 14,
          "chance": 10,
          "rotation": 270
        }
      ]
    },
    "id": "b8c60a3d-573b-4e31-af9b-07bdf00a5259"
  },
  {
    "type": "mapgen",
    "method": "json",
    "om_terrain": [
      "urban_37_5"
    ],
    "weight": 250,
    "object": {
      "fill_ter": "t_floor",
      "rows": [
        ";;;;___________________;",
        ";;;;___________________;",
        ";;;;6__________________;",
        ";;;;___________________;",
        "ll=ll_......_l_......_ll",
        "l<  l__________________l",
        "l   l77777777_EEEEEEEE_l",
        "llJll77777777_EEEEEEEE_l",
        "l   8777777776EEEEEEEE_l",
        "l   877777777_EEEEEEEE_l",
        "l   877777777_EEEEEEEE_l",
        "l   877777777_EEEEEEEE_l",
        "l   677777777_EEEEEEEE_l",
        "l   877777777_EEEEEEEE_l",
        "l   877777777_EEEEEEEE_l",
        "l   8999999999999999999l",
        "l                      1",
        "l               llllllll",
        "lk              lk    ((",
        "llllvvvvlll     J       ",
        "lt(((((t  J     J       ",
        "l         J     l     ch",
        "l         lllllll     cc",
        "lcccc6cc  l LlEEl       "
      ],
      "palettes": [
        "acidia_commercial_palette"
      ],
      "terrain": {
        ".": "t_pavement_y"
      },
      "items": {
        "(": {
          "item": "magazines",
          "chance": 5
        },
        "L": {
          "item": "mechanics",
          "chance": 60
        },
        "c": {
          "item": "office",
          "chance": 15
        }
      },
      "place_monsters": [
        {
          "monster": "GROUP_ZOMBIE",
          "x": [
            1,
            22
          ],
          "y": [
            1,
            22
          ],
          "density": 0.36
        }
      ],
      "place_vehicles": [
        {
          "vehicle": "suburban_home",
          "x": 17,
          "y": 8,
          "chance": 50,
          "rotation": 270
        }
      ]
    },
    "id": "0a0a5e9e-cba2-484d-bc77-b86b0162b607"
  },
  {
    "type": "mapgen",
    "method": "json",
    "om_terrain": [
      "urban_37_6"
    ],
    "weight": 250,
    "object": {
      "fill_ter": "t_floor",
      "rows": [
        ";;;;;;;;;;;;;;;;;;;;;;;;",
        ";;;;;;;;;;;;;;;;;;;;;;;;",
        ";;;;;;;;;;;;;;;;;;;;;;;;",
        ";;;;;;;;;''''';;;;;;;;;;",
        "lvvlvvlvvlJvJlvvlvvlvvll",
        "ccKccKccK     KccKccKccl",
        "                       l",
        "  rr               rr  l",
        "  rr     ccccc     rr  l",
        "         6   6         l",
        "O    rr  c   c  rr    Ol",
        "O    rr         rr    Ol",
        "O       OOOOOOO       Ol",
        "lllll1llllllllllllll+lll",
        "LLLlX Xl  <lcScuuuul  Sl",
        "   lX Xl   l       l  Cl",
        "   lXXXl  >l   uuuul  Tl",
        "lllllllllJlll1llllllllll",
        "((    kl              kl",
        "       J               l",
        "       J               l",
        " C     l               l",
        "6C     llllll+llllll+lll",
        "       lEElC   +TlT+  Cl"
      ],
      "palettes": [
        "acidia_commercial_palette"
      ],
      "toilets": {
        "T": {}
      },
      "items": {
        "(": {
          "item": "magazines",
          "chance": 5
        },
        "K": {
          "item": "jackets",
          "chance": 80
        },
        "L": {
          "item": "home_hw",
          "chance": 60
        },
        "O": {
          "item": "winter",
          "chance": 60
        },
        "r": {
          "item": "winter",
          "chance": 60
        },
        "u": {
          "item": "cleaning",
          "chance": 50
        }
      },
      "place_monsters": [
        {
          "monster": "GROUP_ZOMBIE",
          "x": [
            1,
            22
          ],
          "y": [
            1,
            22
          ],
          "density": 0.56
        }
      ]
    },
    "id": "65830765-7371-4f01-bc3d-7ec43dc3f437"
  },
  {
    "type": "mapgen",
    "method": "json",
    "om_terrain": [
      "urban_37_7"
    ],
    "weight": 250,
    "object": {
      "fill_ter": "t_floor",
      "rows": [
        "l   h     + LlEE=       ",
        "l         l LlEE=       ",
        "l      dd6lllllll       ",
        "l       hdlXXlEEl       ",
        "ldh       l XlEE=       ",
        "l6dd     kl XlEE=       ",
        "lllllllllll+lllll       ",
        "l  ggg      l   l(      ",
        "lO     c    l   l(      ",
        "lO     c    l>  J       ",
        "lO     cc6cclllll       ",
        "lO                      ",
        "lO              v(      ",
        "l    rr   rr    v(      ",
        "lr   rr   rr   rl(      ",
        "lr             rllJJlvlJ",
        "lr             rl;;;;;;;",
        "l    rr   rr    v;;;;;;;",
        "lO   rr   rr   Cv;;;;;;;",
        "lO             Cv;^;;;;;",
        "lO           CCCl;;;;;;;",
        "llvvlvvlJlvvlvvll;;;;;;;",
        ";;;;;;;''';;;;;;;;^;;;;;",
        ";;;;;;;;;;;;;;;;;;;;;;;;"
      ],
      "palettes": [
        "acidia_commercial_palette"
      ],
      "items": {
        "(": {
          "item": "magazines",
          "chance": 5
        },
        "C": {
          "item": "snacks",
          "chance": 50
        },
        "O": {
          "item": "newspapers",
          "chance": 60
        },
        "X": {
          "item": "snacks",
          "chance": 80
        },
        "d": {
          "item": "office",
          "chance": 40
        },
        "g": {
          "item": "vending_drink",
          "chance": 60
        },
        "r": {
          "item": "magazines",
          "chance": 60
        }
      },
      "place_monsters": [
        {
          "monster": "GROUP_ZOMBIE",
          "x": [
            1,
            22
          ],
          "y": [
            1,
            22
          ],
          "density": 0.6
        }
      ]
    },
    "id": "bad8fe59-1414-4860-9919-7116f5bbb0e1"
  },
  {
    "type": "mapgen",
    "method": "json",
    "om_terrain": [
      "urban_37_8"
    ],
    "weight": 250,
    "object": {
      "fill_ter": "t_floor",
      "rows": [
        "       =EElS   |-l-|  Sl",
        "       =EElC   +TlT+  Cl",
        "       llllS   |-l-|  Sl",
        "       lEElC   +TlT+  Cl",
        "       =EElS   |-l-|  Sl",
        "       =EElC   +TlT+  Cl",
        "       lllllllllllllllll",
        "      (lO     cggcScrrcl",
        "      (vO              l",
        "      (vO   c          l",
        "       vO   c6***c6***cl",
        "                       l",
        "      (v               l",
        "      (v               l",
        "      (lhh           hhl",
        "JlvlJJlltt           ttl",
        ";;;;;;;lhh  h     h  hhl",
        ";;;;;;;v    t     t    l",
        ";;;;;;;vhh  h     h  hhl",
        ";;;;;^;vtt           ttl",
        ";;;;;;;lhh           hhl",
        ";;;;;;;llvvlvvlJlvvlvvll",
        ";;;;;^;;;;;;;;''';;;;;;;",
        ";;;;;;;;;;;;;;;;;;;;;;;;"
      ],
      "palettes": [
        "acidia_commercial_palette"
      ],
      "toilets": {
        "T": {}
      },
      "items": {
        "(": {
          "item": "magazines",
          "chance": 5
        },
        "*": {
          "item": "coffee_display",
          "chance": 60
        },
        "O": {
          "item": "magazines",
          "chance": 50
        },
        "c": {
          "item": "snacks",
          "chance": 20
        },
        "g": {
          "item": "vending_drink",
          "chance": 60
        },
        "r": {
          "item": "snacks_fancy",
          "chance": 60
        },
        "t": {
          "item": "trash_cart",
          "chance": 20
        }
      },
      "place_monsters": [
        {
          "monster": "GROUP_ZOMBIE",
          "x": [
            1,
            22
          ],
          "y": [
            1,
            22
          ],
          "density": 0.6
        }
      ]
    },
    "id": "31ebb12a-0ec1-4216-b3ba-69149c260659"
  },
  {
    "type": "mapgen",
    "method": "json",
    "om_terrain": [
      "urban_37_9"
    ],
    "weight": 250,
    "object": {
      "fill_ter": "t_floor",
      "rows": [
        "........................",
        "........................",
        "........................",
        "........................",
        "899999999999999999999999",
        "8RRRRRRRRRRRRRRRRRRRRRRR",
        "8RRRRRRRRRRRRRRRRRRRRRRR",
        "8RRRRRRRRRRRRRRRRRRRRRRR",
        "8RRRRRRRRRRRRRRRRRRRRRRR",
        "lllvlllvlllvlllvlllvlllv",
        "l6d   [ k[d6d[d6d[  [dd6",
        "ldh        hd[dh      hd",
        "ld    [  [   [   [  [   ",
        "l[[[[[[  [[[[[[[[[  [[[[",
        "ld6d  [  [   [d  [  [  d",
        "l h        hd[dh      hd",
        "l     [  [d6d[6d [  [ d6",
        "l[[[[[[  [[[[[[[[[  [[[[",
        "ld    [                 ",
        "ldh                     ",
        "l6d   [        @vvvvvvvJ",
        "l[[[[[[   t@@@@@v       ",
        "ld6d  [  |---|--|       ",
        "ldh      |CSC|77|       "
      ],
      "palettes": [
        "acidia_commercial_palette"
      ],
      "items": {
        " ": {
          "item": "office",
          "chance": 1
        },
        "@": {
          "item": "magazines",
          "chance": 5
        },
        "O": {
          "item": "office",
          "chance": 50
        },
        "]": {
          "item": "bookstore_misc",
          "chance": 70
        },
        "d": {
          "item": "office",
          "chance": 40
        },
        "r": {
          "item": "cleaning",
          "chance": 60
        }
      },
      "place_monsters": [
        {
          "monster": "GROUP_ZOMBIE",
          "x": [
            1,
            22
          ],
          "y": [
            1,
            22
          ],
          "density": 0.4
        }
      ]
    },
    "id": "7fd4f9a9-5227-44b1-9c94-a0a572cad18c"
  },
  {
    "type": "mapgen",
    "method": "json",
    "om_terrain": [
      "urban_37_10"
    ],
    "weight": 250,
    "object": {
      "fill_ter": "t_floor",
      "rows": [
        "........................",
        "........................",
        "........................",
        "........................",
        "999999999999999999999998",
        "RRRRRRRRRRRRRRRRRRRRRRR8",
        "RRRRRRRRRRRRRRRRRRRRRRR8",
        "RRRRRRRRRRRRRRRRRRRRRRR8",
        "RRRRRRRRRRRRRRRRRRRRRRR8",
        "llvlllvllvllvlllvlllvlll",
        "[d  [  [ d6[d6d[  [ 6d l",
        "[dh      hd[dh    [ dh l",
        "[6d [  [  d[   [    d  l",
        "[[[[[  |---|[[[[  [    l",
        "[d  [  |  >|rr    [[[[[l",
        "[6h    J   |      [   dl",
        "[dd [  |  <|ZZ[      hdl",
        "[[[[[  |---|[[[  k[  d6l",
        "                 [[[[[[l",
        "                 [h 6ddl",
        "Jvvvvvvv            dh l",
        "       v@@@t     [     l",
        "       |--|A     [[[[[[l",
        "       |77|[[[[  [h 6ddl"
      ],
      "palettes": [
        "acidia_commercial_palette"
      ],
      "items": {
        " ": {
          "item": "office",
          "chance": 1
        },
        "@": {
          "item": "magazines",
          "chance": 5
        },
        "O": {
          "item": "office",
          "chance": 50
        },
        "]": {
          "item": "bookstore_misc",
          "chance": 70
        },
        "d": {
          "item": "office",
          "chance": 40
        },
        "r": {
          "item": "bookstore_misc",
          "chance": 60
        }
      },
      "place_monsters": [
        {
          "monster": "GROUP_ZOMBIE",
          "x": [
            1,
            22
          ],
          "y": [
            1,
            22
          ],
          "density": 0.4
        }
      ]
    },
    "id": "9f3c24d1-6c07-4f1e-a1ab-1e024b0347fe"
  },
  {
    "type": "mapgen",
    "method": "json",
    "om_terrain": [
      "urban_37_11"
    ],
    "weight": 250,
    "object": {
      "fill_ter": "t_floor",
      "rows": [
        "l     [  +   |77=    cc ",
        "l[[[[[[  | T |77=    c  ",
        "l     [  |---|--|    6h ",
        "l hd     |CSC|77|    ccc",
        "ldd6  [  +   |77=       ",
        "l[[[[[[  | T |77=       ",
        "l        |--||--|vvvvvvJ",
        "l htth    ??|>  |d6d[(  ",
        "l htth      J   |dh [(  ",
        "lk          |<  |[ [[(  ",
        "llvlllvll   |---|       ",
        "8RRRRRRRl               ",
        "8RRRRRRRl]        ][[ [[",
        "8RRRRRRRl]        ][dA [",
        "8RRRRRRRl]   ZZ   ][6dd[",
        "8RRRRRRRllvvllvvllvvllvv",
        "8RRRRRRRRRRRRRRR8.......",
        "8RRRRRRRRRRRRRRR8.......",
        "8RRRRRRRRRRRRRRR8.......",
        "8RRRRRRRRRRRRRRR8.......",
        "8RRRRRRRRRRRRRRR8.......",
        "89999999999999998.......",
        "........................",
        "........................"
      ],
      "palettes": [
        "acidia_commercial_palette"
      ],
      "terrain": {
        "?": "t_linoleum_white"
      },
      "toilets": {
        "T": {}
      },
      "items": {
        " ": {
          "item": "office",
          "chance": 1
        },
        "?": {
          "item": "vending_drink",
          "chance": 60
        },
        "O": {
          "item": "office",
          "chance": 50
        },
        "]": {
          "item": "bookstore_misc",
          "chance": 70
        },
        "d": {
          "item": "office",
          "chance": 40
        },
        "r": {
          "item": "bookstore_misc",
          "chance": 60
        },
        "t": {
          "item": "office_breakroom",
          "chance": 25
        }
      },
      "place_monsters": [
        {
          "monster": "GROUP_ZOMBIE",
          "x": [
            1,
            22
          ],
          "y": [
            1,
            22
          ],
          "density": 0.4
        }
      ]
    },
    "id": "b68cb998-fc63-4880-86a3-d752f1723b26"
  },
  {
    "type": "mapgen",
    "method": "json",
    "om_terrain": [
      "urban_37_12"
    ],
    "weight": 250,
    "object": {
      "fill_ter": "t_floor",
      "rows": [
        " cc    =77|d  [     dh l",
        "  c    =77|dh    [h    l",
        " h6    |--|6d [  [[[[[[l",
        "ccc    |77|[[[[  [     l",
        "       =77|6dd[     dh l",
        "       =77|dh    [h 6ddl",
        "Jvvvvvv|--|[  [  [[[[[[l",
        "  ([6dd[dd6[[[[  [ hd6dl",
        "  ([dh [ hd[        dh l",
        "  ([[ [[[ [[     [   OOl",
        "               llllllvll",
        "               lRRRRRRR8",
        "[ [[[ [[[ [[[ [lRRRRRRR8",
        " h [dh [dh [ hdlRRRRRRR8",
        "d6d[d6d[d6d[dd6lRRRRRRR8",
        "vvllvvllvvllvvllRRRRRRR8",
        ".......8RRRRRRRRRRRRRRR8",
        ".......8RRRRRRRRRRRRRRR8",
        ".......8RRRRRRRRRRRRRRR8",
        ".......8RRRRRRRRRRRRRRR8",
        ".......8RRRRRRRRRRRRRRR8",
        ".......89999999999999998",
        "........................",
        "........................"
      ],
      "palettes": [
        "acidia_commercial_palette"
      ],
      "items": {
        " ": {
          "item": "office",
          "chance": 1
        },
        "O": {
          "item": "office",
          "chance": 50
        },
        "]": {
          "item": "bookstore_misc",
          "chance": 70
        },
        "d": {
          "item": "office",
          "chance": 40
        },
        "r": {
          "item": "bookstore_misc",
          "chance": 60
        },
        "t": {
          "item": "office_breakroom",
          "chance": 25
        }
      },
      "place_monsters": [
        {
          "monster": "GROUP_ZOMBIE",
          "x": [
            1,
            22
          ],
          "y": [
            1,
            22
          ],
          "density": 0.4
        }
      ]
    },
    "id": "d6325e4f-7e62-41c9-8d7c-7dcff0ea1006"
  },
  {
    "type": "mapgen",
    "method": "json",
    "om_terrain": [
      "urban_37_13"
    ],
    "weight": 250,
    "object": {
      "fill_ter": "t_floor",
      "rows": [
        "........................",
        "........................",
        "........................",
        "........................",
        "........................",
        "........................",
        "........................",
        "........................",
        "........................",
        "llllllvlllvlllvlllvlllvl",
        "l] rrr  [6dd[6dd[6dd[6dd",
        "l]     Z[dh [dh [dh [dh ",
        "l]  t  Z[   [   [  ][   ",
        "l]      [[ [[[ [[[ [[[ [",
        "l[[[[[                  ",
        "l6d  [                  ",
        "ldh     [[ [[[ [[[ [[[ [",
        "ld   [  [ hd[]hd[ hd[ hd",
        "l[[[[[  [d6d[dd6[dd6[dd6",
        "l6d  [  [[[[[[[[[[[[[[[[",
        "ldh                 ::::",
        "ld  ][               :::",
        "l[[[[[   [[[[|--|vvvJJv:",
        "l6d  [   [  ]|77|       "
      ],
      "palettes": [
        "acidia_commercial_palette"
      ],
      "terrain": {
        ":": "t_floor_wax",
        "M": "t_wax"
      },
      "items": {
        " ": {
          "item": "office",
          "chance": 1
        },
        "O": {
          "item": "office",
          "chance": 50
        },
        "]": {
          "item": "bookstore_misc",
          "chance": 70
        },
        "d": {
          "item": "office",
          "chance": 40
        },
        "r": {
          "item": "bookstore_misc",
          "chance": 60
        },
        "t": {
          "item": "office_breakroom",
          "chance": 25
        }
      },
      "place_monsters": [
        {
          "monster": "GROUP_ZOMBIE",
          "x": [
            1,
            22
          ],
          "y": [
            1,
            22
          ],
          "density": 0.3
        },
        {
          "monster": "GROUP_BEE",
          "x": [
            1,
            22
          ],
          "y": [
            1,
            22
          ],
          "density": 0.2
        }
      ]
    },
    "id": "6d002618-9658-46cf-ae3a-deb5500d41ec"
  },
  {
    "type": "mapgen",
    "method": "json",
    "om_terrain": [
      "urban_37_14"
    ],
    "weight": 250,
    "object": {
      "fill_ter": "t_floor",
      "rows": [
        "........................",
        "........................",
        "........................",
        "........................",
        "........................",
        "........................",
        "........................",
        "........................",
        "........................",
        "llvlllvlllllvlllvlllvlll",
        "[6dd[  |rrr| O[6d][]d6dl",
        "[dh [  +   + O[dh [  hdl",
        "[  ][  |rrr|  [d  [    l",
        "[[ [[  |---|  [[ [[[ [[l",
        "       |  <|           l",
        "       J  3|           l",
        "[[ [[::|333|  [[ [[[ [[l",
        "[ hd[::|---|  [dh [  hdl",
        "[d6d:::c:h    [d6d[]dd6l",
        "[[3::::c6ccc  [[[[[[[[[l",
        "::3333::::            kl",
        ":::3333::::            l",
        ":::::33|--|---|  [[[[[[l",
        ":::::::|77|CSC|  [    ]l"
      ],
      "palettes": [
        "acidia_commercial_palette"
      ],
      "terrain": {
        "3": "t_strconc_floor",
        ":": "t_floor_wax",
        "M": "t_wax"
      },
      "furniture": {
        "3": "f_rubble"
      },
      "items": {
        "3": {
          "item": "building_rubble",
          "chance": 70
        },
        " ": {
          "item": "office",
          "chance": 1
        },
        "O": {
          "item": "office",
          "chance": 50
        },
        "]": {
          "item": "bookstore_misc",
          "chance": 70
        },
        "d": {
          "item": "office",
          "chance": 40
        },
        "r": {
          "item": "cleaning",
          "chance": 60
        }
      },
      "place_monsters": [
        {
          "monster": "GROUP_ZOMBIE",
          "x": [
            1,
            22
          ],
          "y": [
            1,
            22
          ],
          "density": 0.3
        },
        {
          "monster": "GROUP_BEE",
          "x": [
            1,
            22
          ],
          "y": [
            1,
            22
          ],
          "density": 0.2
        }
      ]
    },
    "id": "152f7df4-09bd-4598-b3fe-2348396e5df0"
  },
  {
    "type": "mapgen",
    "method": "json",
    "om_terrain": [
      "urban_37_15"
    ],
    "weight": 250,
    "object": {
      "fill_ter": "t_floor",
      "rows": [
        "ldh        hd|77=       ",
        "ld   [   [d6d|77=       ",
        "l[[[[[   [[[[|--|     ck",
        "l    [   [dd6|77|       ",
        "l hd       hd|77=       ",
        "ldd6 [   [  ]|77=       ",
        "l[[[[[   [[[||--|vvvJJvv",
        "ld   [      |<  |@@@    ",
        "l6h         J   |@      ",
        "ldd  [      |>  |       ",
        "llvlllvll   |---|  [[ [[",
        "........l          []  [",
        "........l]         [   [",
        "........l]         [ hd[",
        "........l]  rr  ZZ [dd6[",
        "........llvvllvvllvvllvv",
        "........................",
        "........................",
        "........................",
        "........................",
        "........................",
        "........................",
        "........................",
        "........................"
      ],
      "palettes": [
        "acidia_commercial_palette"
      ],
      "terrain": {
        ":": "t_floor_wax",
        "M": "t_wax"
      },
      "items": {
        "3": {
          "item": "building_rubble",
          "chance": 70
        },
        " ": {
          "item": "office",
          "chance": 1
        },
        "O": {
          "item": "office",
          "chance": 50
        },
        "]": {
          "item": "bookstore_misc",
          "chance": 70
        },
        "d": {
          "item": "office",
          "chance": 40
        },
        "r": {
          "item": "cleaning",
          "chance": 60
        }
      },
      "place_monsters": [
        {
          "monster": "GROUP_ZOMBIE",
          "x": [
            1,
            22
          ],
          "y": [
            1,
            22
          ],
          "density": 0.3
        },
        {
          "monster": "GROUP_BEE",
          "x": [
            1,
            22
          ],
          "y": [
            1,
            22
          ],
          "density": 0.2
        }
      ]
    },
    "id": "d9aacf26-746f-4cb1-8bf2-3a5e526ad4b7"
  },
  {
    "type": "mapgen",
    "method": "json",
    "om_terrain": [
      "urban_37_16"
    ],
    "weight": 250,
    "object": {
      "fill_ter": "t_floor",
      "rows": [
        "  :::::=77|   +     dh l",
        "    :::=77| T |  [h d6dl",
        "kc    :|--|---|  [[[[[[l",
        "       |77|CSC|  [h    l",
        "       =77|   +     dh l",
        "       =77| T |  [h 6ddl",
        "vvJJvvv|--|---|  [[[[[[l",
        "                  [  d6l",
        "                     hdl",
        "                  [O  dl",
        "[ [[[ [[[ [[[ [llvlllvll",
        "   [   []  [  ]l........",
        "6d [   [   [  ]l........",
        "dh [dh [ hd[ hdl........",
        "d  [6dd[dd6[d6dl........",
        "vvllvvllvvllvvll........",
        "........................",
        "........................",
        "........................",
        "........................",
        "........................",
        "........................",
        "........................",
        "........................"
      ],
      "palettes": [
        "acidia_commercial_palette"
      ],
      "terrain": {
        ":": "t_floor_wax",
        "M": "t_wax"
      },
      "toilets": {
        "T": {}
      },
      "items": {
        "3": {
          "item": "building_rubble",
          "chance": 70
        },
        " ": {
          "item": "office",
          "chance": 1
        },
        "O": {
          "item": "office",
          "chance": 50
        },
        "]": {
          "item": "bookstore_misc",
          "chance": 70
        },
        "d": {
          "item": "office",
          "chance": 40
        },
        "r": {
          "item": "cleaning",
          "chance": 60
        }
      },
      "place_monsters": [
        {
          "monster": "GROUP_ZOMBIE",
          "x": [
            1,
            22
          ],
          "y": [
            1,
            22
          ],
          "density": 0.3
        },
        {
          "monster": "GROUP_BEE",
          "x": [
            1,
            22
          ],
          "y": [
            1,
            22
          ],
          "density": 0.2
        }
      ]
    },
    "id": "cab4a4cb-d075-4621-86c0-fdd99c418200"
  },
  {
    "type": "mapgen",
    "method": "json",
    "om_terrain": [
      "urban_37_17"
    ],
    "weight": 250,
    "object": {
      "fill_ter": "t_floor",
      "rows": [
        "........................",
        "........................",
        "........................",
        "........................",
        "........................",
        "........................",
        "........................",
        "........................",
        "........................",
        "lllvlllvlllvlllvlllvlllv",
        "l6d   [ k[d6d[d6d[  [dd6",
        "ldh        hd[dh      hd",
        "ld    [  [   [   [  [   ",
        "l[[[[[[  [[[[[[[[[  [[[[",
        "ld6d  [  [   [d  [  [  d",
        "l h        hd[dh      hd",
        "l     [  [d6d[6d [  [ d6",
        "l[[[[[[  [[[[[[[[[::[[[[",
        "ld    [        :::::MM::",
        "ldh            :::::::::",
        "l6d   [        @vv:::M::",
        "l[[[[[[   t@@@@@v::::M::",
        "ld6d  [  |---|--| ::::::",
        "ldh      |CSC|77|:::MMM:"
      ],
      "palettes": [
        "acidia_commercial_palette"
      ],
      "terrain": {
        ":": "t_floor_wax",
        "M": "t_wax"
      },
      "items": {
        "3": {
          "item": "building_rubble",
          "chance": 70
        },
        " ": {
          "item": "office",
          "chance": 1
        },
        ":": {
          "item": "building_rubble",
          "chance": 3
        },
        "O": {
          "item": "office",
          "chance": 50
        },
        "]": {
          "item": "bookstore_misc",
          "chance": 70
        },
        "d": {
          "item": "office",
          "chance": 40
        },
        "r": {
          "item": "cleaning",
          "chance": 60
        }
      },
      "place_monsters": [
        {
          "monster": "GROUP_ZOMBIE",
          "x": [
            1,
            22
          ],
          "y": [
            1,
            22
          ],
          "density": 0.1
        },
        {
          "monster": "GROUP_BEE",
          "x": [
            1,
            22
          ],
          "y": [
            1,
            22
          ],
          "density": 0.4
        }
      ]
    },
    "id": "b0d86932-4add-4729-87f9-6b1aa15a50fd"
  },
  {
    "type": "mapgen",
    "method": "json",
    "om_terrain": [
      "urban_37_18"
    ],
    "weight": 250,
    "object": {
      "fill_ter": "t_floor",
      "rows": [
        "........................",
        "........................",
        "........................",
        "........................",
        "........................",
        "........................",
        "........................",
        "........................",
        "........................",
        "llvlllvllvllvlllvlllvlll",
        "[d  [  [ d6[d6d[  [ 6d l",
        "[dh      hd[dh    [ dh l",
        "[6d [  [  d[   [    d  l",
        "[[[[[::|---|[[[[  [    l",
        "[d  [::|::>|rr    [[[[[l",
        "[6h M::::::|      [   dl",
        "[ddMM::|:::|ZZ[      hdl",
        "[[MM:::|---|[[[  k[  d6l",
        ":::::::MM:::::   [[[[[[l",
        "::7::::M::::     [h 6ddl",
        ":777::::::::::      dh l",
        "777:::::@@@t::   [     l",
        ":7::::M|--|A     [[[[[[l",
        "::::::M|77|[[[[  [h 6ddl"
      ],
      "palettes": [
        "acidia_commercial_palette"
      ],
      "terrain": {
        ":": "t_floor_wax",
        "M": "t_wax"
      },
      "items": {
        "3": {
          "item": "building_rubble",
          "chance": 70
        },
        " ": {
          "item": "office",
          "chance": 1
        },
        ":": {
          "item": "building_rubble",
          "chance": 3
        },
        "O": {
          "item": "office",
          "chance": 50
        },
        "]": {
          "item": "bookstore_misc",
          "chance": 70
        },
        "d": {
          "item": "office",
          "chance": 40
        },
        "r": {
          "item": "cleaning",
          "chance": 60
        }
      },
      "place_monsters": [
        {
          "monster": "GROUP_ZOMBIE",
          "x": [
            1,
            22
          ],
          "y": [
            1,
            22
          ],
          "density": 0.1
        },
        {
          "monster": "GROUP_BEE",
          "x": [
            1,
            22
          ],
          "y": [
            1,
            22
          ],
          "density": 0.4
        }
      ]
    },
    "id": "0127baa6-1334-47f3-a0eb-7919585c9542"
  },
  {
    "type": "mapgen",
    "method": "json",
    "om_terrain": [
      "urban_37_19"
    ],
    "weight": 250,
    "object": {
      "fill_ter": "t_floor",
      "rows": [
        "l     [  +   |77= ::M:MM",
        "l[[[[[[  | T |77=  ::c:M",
        "l     [  |---|--|    6h:",
        "l hd     |CSC|77|    ccc",
        "ldd6  [  +   |77=       ",
        "l[[[[[[  | T |77=       ",
        "l        |--||--|vvvvvvJ",
        "l htth    ??|33 |d6d[(  ",
        "l htth      J3  |dh [(  ",
        "lk          |<  |[ [[(  ",
        "llvlllvll   |---|       ",
        "........l               ",
        "........l]        ][[ [[",
        "........l]        ][dA [",
        "........l]   ZZ   ][6dd[",
        "........llvvllvvllvvllvv",
        "........................",
        "........................",
        "........................",
        "........................",
        "........................",
        "........................",
        "........................",
        "........................"
      ],
      "palettes": [
        "acidia_commercial_palette"
      ],
      "terrain": {
        "3": "t_strconc_floor",
        ":": "t_floor_wax",
        "M": "t_wax"
      },
      "furniture": {
        "3": "f_rubble"
      },
      "toilets": {
        "T": {}
      },
      "items": {
        "3": {
          "item": "building_rubble",
          "chance": 70
        },
        " ": {
          "item": "office",
          "chance": 1
        },
        ":": {
          "item": "building_rubble",
          "chance": 3
        },
        "O": {
          "item": "office",
          "chance": 50
        },
        "]": {
          "item": "bookstore_misc",
          "chance": 70
        },
        "d": {
          "item": "office",
          "chance": 40
        },
        "r": {
          "item": "cleaning",
          "chance": 60
        }
      },
      "place_monsters": [
        {
          "monster": "GROUP_ZOMBIE",
          "x": [
            1,
            22
          ],
          "y": [
            1,
            22
          ],
          "density": 0.1
        },
        {
          "monster": "GROUP_BEE",
          "x": [
            1,
            22
          ],
          "y": [
            1,
            22
          ],
          "density": 0.4
        }
      ]
    },
    "id": "f81e9581-94c7-4daa-a6cf-1aee6439ad41"
  },
  {
    "type": "mapgen",
    "method": "json",
    "om_terrain": [
      "urban_37_20"
    ],
    "weight": 250,
    "object": {
      "fill_ter": "t_floor",
      "rows": [
        ":::::::=77|d  [     dh l",
        ":::::::=77|dh    [h    l",
        " h6  : |--|6d [  [[[[[[l",
        "ccc    |77|[[[[  [     l",
        "       =77|6dd[     dh l",
        "       =77|dh    [h 6ddl",
        "Jvvvvvv|--|[  [  [[[[[[l",
        "  ([6dd[dd6[[[[  [ hd6dl",
        "  ([dh [ hd[        dh l",
        "  ([[ [[[ [[     [     l",
        "               llllllvll",
        "               l........",
        "[ [[[ [[[ [[[ [l........",
        " h [dh [dh [ hdl........",
        "d6d[d6d[d6d[dd6l........",
        "vvllvvllvvllvvll........",
        "........................",
        "........................",
        "........................",
        "........................",
        "........................",
        "........................",
        "........................",
        "........................"
      ],
      "palettes": [
        "acidia_commercial_palette"
      ],
      "terrain": {
        ":": "t_floor_wax",
        "M": "t_wax"
      },
      "items": {
        "3": {
          "item": "building_rubble",
          "chance": 70
        },
        " ": {
          "item": "office",
          "chance": 1
        },
        ":": {
          "item": "building_rubble",
          "chance": 3
        },
        "O": {
          "item": "office",
          "chance": 50
        },
        "]": {
          "item": "bookstore_misc",
          "chance": 70
        },
        "d": {
          "item": "office",
          "chance": 40
        },
        "r": {
          "item": "cleaning",
          "chance": 60
        }
      },
      "place_monsters": [
        {
          "monster": "GROUP_ZOMBIE",
          "x": [
            1,
            22
          ],
          "y": [
            1,
            22
          ],
          "density": 0.1
        },
        {
          "monster": "GROUP_BEE",
          "x": [
            1,
            22
          ],
          "y": [
            1,
            22
          ],
          "density": 0.4
        }
      ]
    },
    "id": "ff16e54c-d1cc-4015-ad0d-82c56459a033"
  },
  {
    "type": "mapgen",
    "method": "json",
    "om_terrain": [
      "urban_37_21"
    ],
    "weight": 250,
    "object": {
      "fill_ter": "t_floor",
      "rows": [
        "........................",
        "........................",
        "........................",
        "........................",
        "........................",
        "........................",
        "........................",
        "........................",
        "........................",
        "llllllvlllvlllvlllvlllvl",
        "l] rrr  [6dd[6dd[6dd[6dd",
        "l]     Z[dh [dh [dh [dh ",
        "l]  t ::M:::[   [ ::[:::",
        "l]   ::MMM:::[ [[[:[MMM[",
        "l[[[[[MM:MM::::::::MM:MM",
        "l6d :[::::MM::::::MM:::M",
        "ldh ::::[[ M::::MMM:::::",
        "ld   [::[ hd:::::M::::::",
        "l[[[[[::[d6d[d::::::::::",
        "l6d  [::[[[[[[[[:M::::77",
        "ldh ::::::::::::MMM:7777",
        "ld  ][  :::::::MM:MM::77",
        "l[[[[[   [[[[|--|::MM777",
        "l6d  [   [  ]|77|:::M::7"
      ],
      "palettes": [
        "acidia_commercial_palette"
      ],
      "terrain": {
        ":": "t_floor_wax",
        "M": "t_wax"
      },
      "items": {
        "3": {
          "item": "building_rubble",
          "chance": 70
        },
        " ": {
          "item": "office",
          "chance": 1
        },
        ":": {
          "item": "hive_destructive",
          "chance": 3
        },
        "O": {
          "item": "office",
          "chance": 50
        },
        "]": {
          "item": "bookstore_misc",
          "chance": 70
        },
        "d": {
          "item": "office",
          "chance": 40
        },
        "r": {
          "item": "cleaning",
          "chance": 60
        }
      },
      "place_monsters": [
        {
          "monster": "GROUP_BEE",
          "x": [
            1,
            22
          ],
          "y": [
            1,
            22
          ],
          "density": 0.6
        }
      ]
    },
    "id": "b643e875-dbb1-43aa-8f61-6d5b486c82cd"
  },
  {
    "type": "mapgen",
    "method": "json",
    "om_terrain": [
      "urban_37_22"
    ],
    "weight": 250,
    "object": {
      "fill_ter": "t_floor",
      "rows": [
        "........................",
        "........................",
        "........................",
        "........................",
        "........................",
        "........................",
        "........................",
        "........................",
        "........................",
        "llvlllvlllllvlllvlllvlll",
        "[6dd[  |rrr|  [6d][]d6dl",
        "[dh [  +   +  [dh [  hdl",
        "[  ][  |rrr|  [d  [    l",
        "[[ [[  |---|  [[ [[[ [[l",
        ":::    |  <|           l",
        "M::::  J  3|           l",
        "MMM::  | 33|  [[ [[[ [[l",
        ":M:::: |---|  [dh [  hdl",
        ":::::: c h    [d6d[ dd6l",
        "777:::::6ccc  [[[[[[[[[l",
        "77777::::             kl",
        "7777::::::             l",
        "77777::|--|---|  [[[[[[l",
        "7777:::|77|CSC|  [    ]l"
      ],
      "palettes": [
        "acidia_commercial_palette"
      ],
      "terrain": {
        "3": "t_strconc_floor",
        ":": "t_floor_wax",
        "M": "t_wax"
      },
      "furniture": {
        "3": "f_rubble"
      },
      "items": {
        "3": {
          "item": "building_rubble",
          "chance": 70
        },
        " ": {
          "item": "office",
          "chance": 1
        },
        ":": {
          "item": "hive_destructive",
          "chance": 3
        },
        "O": {
          "item": "office",
          "chance": 50
        },
        "]": {
          "item": "bookstore_misc",
          "chance": 70
        },
        "d": {
          "item": "office",
          "chance": 40
        },
        "r": {
          "item": "cleaning",
          "chance": 60
        }
      },
      "place_monsters": [
        {
          "monster": "GROUP_BEE",
          "x": [
            1,
            22
          ],
          "y": [
            1,
            22
          ],
          "density": 0.6
        }
      ]
    },
    "id": "7aa5e55f-f586-463e-a5e0-e576e26c782d"
  },
  {
    "type": "mapgen",
    "method": "json",
    "om_terrain": [
      "urban_37_23"
    ],
    "weight": 250,
    "object": {
      "fill_ter": "t_floor",
      "rows": [
        "ldh        hd|77=:::M:::",
        "ld   [   [d6d|77=:::M:::",
        "l[[[[[   [[[[|--|:::MM::",
        "l    [   [dd6|77|:M::MM:",
        "l hd       hd|77:MM:::MM",
        "ldd6 [   [  ]|77:::::::M",
        "l[[[[[   [[[||--|::::::M",
        "ld   [     :|::::::::::M",
        "l6h         ::::|MM:::MM",
        "ldd  [      |>::|:MM:MM:",
        "llvlllvll   |---|::MMM:[",
        "........l  ::::M::::M:::",
        "........l]   ::M::::M:::",
        "........l]    ::::::M:::",
        "........l]  rr::ZZ:MMM:[",
        "........llvvllvvllMMllvv",
        "........................",
        "........................",
        "........................",
        "........................",
        "........................",
        "........................",
        "........................",
        "........................"
      ],
      "palettes": [
        "acidia_commercial_palette"
      ],
      "terrain": {
        ":": "t_floor_wax",
        "M": "t_wax"
      },
      "items": {
        "3": {
          "item": "building_rubble",
          "chance": 70
        },
        " ": {
          "item": "office",
          "chance": 1
        },
        ":": {
          "item": "hive_destructive",
          "chance": 3
        },
        "O": {
          "item": "office",
          "chance": 50
        },
        "]": {
          "item": "bookstore_misc",
          "chance": 70
        },
        "d": {
          "item": "office",
          "chance": 40
        },
        "r": {
          "item": "cleaning",
          "chance": 60
        }
      },
      "place_monsters": [
        {
          "monster": "GROUP_BEE",
          "x": [
            1,
            22
          ],
          "y": [
            1,
            22
          ],
          "density": 0.6
        }
      ]
    },
    "id": "2bde6297-4902-45ee-ab35-e83c4bd41632"
  },
  {
    "type": "mapgen",
    "method": "json",
    "om_terrain": [
      "urban_37_24"
    ],
    "weight": 250,
    "object": {
      "fill_ter": "t_floor",
      "rows": [
        "::M:::::77|   +     dh l",
        "::M:::::77| T |  [h d6dl",
        ":MMM:::|--|---|  [[[[[[l",
        "MM:::::|77|CSC|  [h    l",
        "M:::MM:=77|   +     dh l",
        ":::::M:=77| T |  [h 6ddl",
        "::::vMv|--|---|  [[[[[[l",
        ":::::M::: ::::    [  d6l",
        "M::::::: :: :::      hdl",
        ":::M::::::::::    [O  dl",
        "[ [[[;[[[;[[[ [llvlllvll",
        "   [;; []  [  ]l........",
        ":d [   [   [  ]l........",
        "dh [dh [ hd[ hdl........",
        "d  [6dd[dd6[d6dl........",
        "vvllvvllvvllvvll........",
        "........................",
        "........................",
        "........................",
        "........................",
        "........................",
        "........................",
        "........................",
        "........................"
      ],
      "palettes": [
        "acidia_commercial_palette"
      ],
      "terrain": {
        ":": "t_floor_wax",
        "M": "t_wax"
      },
      "toilets": {
        "T": {}
      },
      "items": {
        "3": {
          "item": "building_rubble",
          "chance": 70
        },
        " ": {
          "item": "office",
          "chance": 1
        },
        ":": {
          "item": "hive_destructive",
          "chance": 3
        },
        "O": {
          "item": "office",
          "chance": 50
        },
        "]": {
          "item": "bookstore_misc",
          "chance": 70
        },
        "d": {
          "item": "office",
          "chance": 40
        },
        "r": {
          "item": "cleaning",
          "chance": 60
        }
      },
      "place_monsters": [
        {
          "monster": "GROUP_BEE",
          "x": [
            1,
            22
          ],
          "y": [
            1,
            22
          ],
          "density": 0.6
        }
      ]
    },
    "id": "f07c9ae7-76ff-4790-956f-c37d33bdc005"
  },
  {
    "type": "mapgen",
    "method": "json",
    "om_terrain": [
      "urban_37_25"
    ],
    "weight": 250,
    "object": {
      "fill_ter": "t_floor",
      "rows": [
        "........................",
        "........................",
        "........................",
        "........................",
        "...........MM::MM...MMMM",
        "..........MM::::MMMMM:::",
        "........MMM:::M:M:::::MM",
        "....MMMMM::::MM:::::MMM:",
        "...MM:::MM:::M::::::M:::",
        "llllll:lll:lll:lll:lll:l",
        "l::MMM:::::MMM:::::MMM::",
        "l:MM:MM:::MM:MM:::MM::::",
        "lMM::::::MM:::MM:MM:::MM",
        "lM:::::MMM:::::MMM:::::M",
        "l:::::::M:::7:::M:::::::",
        "l:::::::M::777::::::::::",
        "l:::::::M:::7:::M:::::::",
        "lM:::::MMM:::::MMM:::::7",
        "lM::::MM:MM::::M:MM:7777",
        "l::M:MM:::MM:M::::777777",
        "l::MMM:::::MMM:::::77777",
        "l:::M:::::::M:::::777777",
        "l:::::::::::M|--|7777777",
        "l:::M:::::::M|77|:777777"
      ],
      "palettes": [
        "acidia_commercial_palette"
      ],
      "terrain": {
        ":": "t_floor_wax",
        "M": "t_wax"
      },
      "items": {
        ":": {
          "item": "hive_destructive",
          "chance": 3
        }
      },
      "place_monsters": [
        {
          "monster": "GROUP_BEE",
          "x": [
            1,
            22
          ],
          "y": [
            1,
            22
          ],
          "density": 0.75
        }
      ]
    },
    "id": "4436784a-4ec7-45d2-b0b1-b530d0a5ee6e"
  },
  {
    "type": "mapgen",
    "method": "json",
    "om_terrain": [
      "urban_37_26"
    ],
    "weight": 250,
    "object": {
      "fill_ter": "t_floor",
      "rows": [
        "........................",
        "........................",
        "........................",
        "........................",
        "::MMMM..................",
        ":::::MMMM...............",
        ":MM:::::MMM...MMMMM.....",
        "::MM::::::MMMMM:::MMM...",
        ":::MM::::::MM:::::::MM..",
        "ll:lll:ll:llMlll:lll:lll",
        ":::MMM::::::::::MMM::::l",
        "::MM:::::::::::MM:MM:::l",
        ":MM:::MM::::::MM:::MM::l",
        "MM:::::|-MM|:MM:::::MMMl",
        "M::::::|::>|:M:::::::M:l",
        "M::::::M:::|:::::::::M:l",
        "M::::::|::<|:M:::::::M:l",
        "777:::M|-:-|MMM:::::MMMl",
        "777777M::::MM:MM::::M:Ml",
        "7777777:::MM:::MM:M::::l",
        "7777777:::::::::MMM::::l",
        "77777777::M::::::M:::::l",
        "7777777|--|::::::::::::l",
        "777777:|77|::::::M:::::l"
      ],
      "palettes": [
        "acidia_commercial_palette"
      ],
      "terrain": {
        ":": "t_floor_wax",
        "M": "t_wax"
      },
      "items": {
        ":": {
          "item": "hive_destructive",
          "chance": 3
        }
      },
      "place_monsters": [
        {
          "monster": "GROUP_BEE",
          "x": [
            1,
            22
          ],
          "y": [
            1,
            22
          ],
          "density": 0.75
        }
      ]
    },
    "id": "a605434b-609e-49b4-a34c-4228cc410934"
  },
  {
    "type": "mapgen",
    "method": "json",
    "om_terrain": [
      "urban_37_27"
    ],
    "weight": 250,
    "object": {
      "fill_ter": "t_floor",
      "rows": [
        "l::MMM:::::MM|77::::7777",
        "l:MM:M::::MM:|77::::::77",
        "lMM::::M:MM::|--|:::::::",
        "lM:::::MMM:::|77|:::::::",
        "l:::::::M::::|77=::::M::",
        "l::::::::::::|77=::::M::",
        "l:::::::M:::||--|::::M::",
        "lM:::::MMM::|:::|:::MMM:",
        "lMM:::MM:MM:::::|::MM:::",
        "l:MM:MM:::MM|<::|:MM:::M",
        "llMlllMll::M|---|MM:::::",
        "........l:::M::::M:::7::",
        "........l:::M:::::::777:",
        "........l::::::::M:::7::",
        "........l::MM:::MMM:::::",
        "........llvvllvvllM:ll::",
        "..................M:::::",
        "..................MMM:MM",
        "....................MMM.",
        "........................",
        "........................",
        "........................",
        "........................",
        "........................"
      ],
      "palettes": [
        "acidia_commercial_palette"
      ],
      "terrain": {
        ":": "t_floor_wax",
        "M": "t_wax"
      },
      "items": {
        ":": {
          "item": "hive_destructive",
          "chance": 3
        }
      },
      "place_monsters": [
        {
          "monster": "GROUP_BEE",
          "x": [
            1,
            22
          ],
          "y": [
            1,
            22
          ],
          "density": 0.75
        }
      ]
    },
    "id": "2bc93fd8-a0bd-476b-8d92-a7dd46388d0b"
  },
  {
    "type": "mapgen",
    "method": "json",
    "om_terrain": [
      "urban_37_28"
    ],
    "weight": 250,
    "object": {
      "fill_ter": "t_floor",
      "rows": [
        "77777:::77|:::::MMM::::l",
        "77::::::77|::::MM:MM:::l",
        "::::::M|--|MM::::::MM::l",
        ":::::MM|77|:MMM:::::MMMl",
        ":::::M:=77|::M:::::::M:l",
        ":::::M:=77|::M:::::::M:l",
        ":::::M:|--|::M:::::::M:l",
        "::::MMM:::::MMM:::::MMMl",
        ":::MM:MM:::MM::::::MM:Ml",
        "M:MM:::MM:MM:::MM:MM:::l",
        "MMM:::::MMM::::llMlll:ll",
        ":M:::::::M:::::l........",
        ":M:::::::::::::l........",
        ":M:::::::M:::::l........",
        "MMM::::::MM::::l........",
        "Mvll::ll:vll::ll........",
        ":::::::.................",
        ".:..::..................",
        "........................",
        "........................",
        "........................",
        "........................",
        "........................",
        "........................"
      ],
      "palettes": [
        "acidia_commercial_palette"
      ],
      "terrain": {
        ":": "t_floor_wax",
        "M": "t_wax"
      },
      "items": {
        ":": {
          "item": "hive_destructive",
          "chance": 3
        }
      },
      "place_monsters": [
        {
          "monster": "GROUP_BEE",
          "x": [
            1,
            22
          ],
          "y": [
            1,
            22
          ],
          "density": 0.75
        }
      ]
    },
    "id": "e7b1f4ae-98e3-4fc3-98ef-cfa6b9ee4087"
  },
  {
    "type": "mapgen",
    "method": "json",
    "om_terrain": [
      "urban_37_29"
    ],
    "weight": 250,
    "object": {
      "fill_ter": "t_floor",
      "rows": [
        "........................",
        "........................",
        "........................",
        "........................",
        "...........::::::...::::",
        "..........::::::::::::::",
        "........::::::::::::::::",
        "....::::::::::::::::::::",
        "...:::::::::::::::::::::",
        "899999999999999999999999",
        "8RRRRRRRRRRRRR:::::RRRRR",
        "8RRRRRRRRRRR::::::::::RR",
        "8RRRRRRRRRR::::MMM::::::",
        "8RRRRRRRRR::::MM:MM:::::",
        "8RRRRRRRRRR::MM:::MM::::",
        "8RRRRRRRRRR::M:::::M::::",
        "8RRRRRRRRR:::M::::::::::",
        "8RRRRRRRRR:::M:::::M:::7",
        "8RRRRRRRR:::MM::::MM7777",
        "8RRRRRRR:::MM::M:MM77777",
        "8RRRRR::::MM:::MMMM77777",
        "8RRRRRR:::M:::::MM777777",
        "8RRRRR::::M::::::7777777",
        "8RRRRR::::M:::::M:777777"
      ],
      "palettes": [
        "acidia_commercial_palette"
      ],
      "terrain": {
        ":": "t_floor_wax",
        "M": "t_wax"
      },
      "items": {
        ":": {
          "item": "hive",
          "chance": 3
        }
      },
      "place_monsters": [
        {
          "monster": "GROUP_BEE",
          "x": [
            1,
            22
          ],
          "y": [
            1,
            22
          ],
          "density": 0.55
        }
      ]
    },
    "id": "c02284ba-e5d0-4b26-bc59-70ee00103547"
  },
  {
    "type": "mapgen",
    "method": "json",
    "om_terrain": [
      "urban_37_30"
    ],
    "weight": 250,
    "object": {
      "fill_ter": "t_floor",
      "rows": [
        "........................",
        "........................",
        "........................",
        "........................",
        "::::::..................",
        ":::::::::...............",
        ":::::::::::...:::::.....",
        ":::::::::::::::::::::...",
        "::::::::::::::::::::::..",
        "999999999999999999999998",
        "RRRRRRRRRRRRRRRRRRRRRRR8",
        "RRRRRRRRRRRRRRRRRRRRRRR8",
        "RRRRRRRRRRRRRRRRRRRRRRR8",
        ":RRRRRR|---|RRRRRRRRRRR8",
        ":::::RR|  <|RRRRRRRRRRR8",
        ":::::::1   |:RRRRRRRRRR8",
        ":::::::|   |::RRRRRRRRR8",
        "777::::|---|M:::RRRRRRR8",
        "777777:MM:::MM:::RRRRRR8",
        "7777777M:::::M:RRRRRRRR8",
        "7777777::::::M::RRRRRRR8",
        "7777777M:::::M::RRRRRRR8",
        "7777777M::::MM:::RRRRRR8",
        "777777:::M:MM::RRRRRRRR8"
      ],
      "palettes": [
        "acidia_commercial_palette"
      ],
      "terrain": {
        ":": "t_floor_wax",
        "M": "t_wax"
      },
      "items": {
        ":": {
          "item": "hive",
          "chance": 3
        }
      },
      "place_monsters": [
        {
          "monster": "GROUP_BEE",
          "x": [
            1,
            22
          ],
          "y": [
            1,
            22
          ],
          "density": 0.55
        }
      ]
    },
    "id": "c269d761-51cd-41b4-98c4-7242b5143b21"
  },
  {
    "type": "mapgen",
    "method": "json",
    "om_terrain": [
      "urban_37_31"
    ],
    "weight": 250,
    "object": {
      "fill_ter": "t_floor",
      "rows": [
        "8RRRRRR:::MM:::MMM::7777",
        "8RRRRRR::::MM::::MM:::77",
        "8RRRRRRR::::MMM:::MM:MM:",
        "8RRRRRRR:::::M:::::MMM::",
        "8RRRRRRRRR:::M::::::::::",
        "8RRRRRRRR::::M;:::MM::##",
        "8RRRRRRRRR:::MM:::M::###",
        "8RRRRRRRR:::::MM:MM:####",
        "8RRRRRRRRR:::::MMMM:####",
        "8RRRRRRRRRRRR:::::MM:###",
        "899999998RRRRRR::::MM:##",
        "........8RRRRRRRRR::MM:#",
        "........8RRRRRRRR::::MM:",
        "........8RRRRRRRRR::::MM",
        "........8RRRRRRRRRRR:::M",
        "........89999999999999::",
        "..................::::::",
        "..................::::::",
        "....................:::.",
        "........................",
        "........................",
        "........................",
        "........................",
        "........................"
      ],
      "palettes": [
        "acidia_commercial_palette"
      ],
      "terrain": {
        "#": "t_floor_wax",
        ":": "t_floor_wax",
        "M": "t_wax"
      },
      "items": {
        "#": {
          "item": "hive_center",
          "chance": 25
        },
        ":": {
          "item": "hive",
          "chance": 3
        }
      },
      "place_monsters": [
        {
          "monster": "GROUP_BEE",
          "x": [
            1,
            22
          ],
          "y": [
            1,
            22
          ],
          "density": 0.55
        }
      ]
    },
    "id": "c53475f8-6827-45d9-986d-42da34444e32"
  },
  {
    "type": "mapgen",
    "method": "json",
    "om_terrain": [
      "urban_37_32"
    ],
    "weight": 250,
    "object": {
      "fill_ter": "t_floor",
      "rows": [
        "77777::::MMM::::RRRRRRR8",
        "77M::::::M:::R:RRRRRRRR8",
        ":MMM:::::M::RRRRRRRRRRR8",
        ":::MM:::MM::RRRRRRRRRRR8",
        "##:::::MM::::RRRRRRRRRR8",
        "###::MMM::::RRRRRRRRRRR8",
        "####::M::::RRRRRRRRRRRR8",
        "###:::M:::RRRRRRRRRRRRR8",
        "####::M:::RRRRRRRRRRRRR8",
        "####:MM::RRRRRRRRRRRRRR8",
        "##::MM::RRRRRRR899999998",
        "#::MM::::RRRRRR8........",
        "::MM:::RRRRRRRR8........",
        "MMM::::RRRRRRRR8........",
        "M:::R:RRRRRRRRR8........",
        "::99999999999998........",
        ":::::::.................",
        "........................",
        "........................",
        "........................",
        "........................",
        "........................",
        "........................",
        "........................"
      ],
      "palettes": [
        "acidia_commercial_palette"
      ],
      "terrain": {
        "#": "t_floor_wax",
        ":": "t_floor_wax",
        "M": "t_wax"
      },
      "items": {
        "#": {
          "item": "hive_center",
          "chance": 25
        },
        ":": {
          "item": "hive",
          "chance": 3
        }
      },
      "place_monsters": [
        {
          "monster": "GROUP_BEE",
          "x": [
            1,
            22
          ],
          "y": [
            1,
            22
          ],
          "density": 0.55
        }
      ]
    },
    "id": "89c4f90c-1c36-47e1-99e3-0c29e6198bba"
  },
  {
    "type": "mapgen",
    "method": "json",
    "om_terrain": [
      "urban_37_33"
    ],
    "weight": 250,
    "object": {
      "fill_ter": "t_floor",
      "rows": [
        "........................",
        "........................",
        "........................",
        "........................",
        "........................",
        "........................",
        "........................",
        "........................",
        "........................",
        "........................",
        "........................",
        "........................",
        "...............:::......",
        "..............:::::.....",
        ".............:::::::....",
        ".............:::::::....",
        ".............:::::::....",
        ".............:::::::....",
        "............::::::::.:::",
        "...........:::::::::::::",
        "..........::::::::::::::",
        "..........::::::::::::::",
        "..........::::::::::::::",
        "..........::::::::::::::"
      ],
      "palettes": [
        "acidia_commercial_palette"
      ],
      "terrain": {
        ":": "t_floor_wax",
        "M": "t_wax"
      },
      "place_monsters": [
        {
          "monster": "GROUP_BEE",
          "x": [
            1,
            22
          ],
          "y": [
            1,
            22
          ],
          "density": 0.2
        }
      ]
    },
    "id": "b32c132a-01b3-4779-8d68-fbc511a4bc11"
  },
  {
    "type": "mapgen",
    "method": "json",
    "om_terrain": [
      "urban_37_34"
    ],
    "weight": 250,
    "object": {
      "fill_ter": "t_floor",
      "rows": [
        "........................",
        "........................",
        "........................",
        "........................",
        "........................",
        "........................",
        "........................",
        "........................",
        "........................",
        "........................",
        "........................",
        "........................",
        "........................",
        ".......RRRRR............",
        ".......RRRRR............",
        ".......RRRRR............",
        ".......RRRRR............",
        ".......::R:R............",
        "::::::::::::::..........",
        "::::::::::::::..........",
        "::::::::::::::..........",
        "::::::::::::::..........",
        "::::::::::::::..........",
        ":::::::::::::..........."
      ],
      "palettes": [
        "acidia_commercial_palette"
      ],
      "terrain": {
        ":": "t_floor_wax",
        "M": "t_wax"
      },
      "place_monsters": [
        {
          "monster": "GROUP_BEE",
          "x": [
            1,
            22
          ],
          "y": [
            1,
            22
          ],
          "density": 0.2
        }
      ]
    },
    "id": "4e75398f-fb94-4372-af4f-1399dee01fe0"
  },
  {
    "type": "mapgen",
    "method": "json",
    "om_terrain": [
      "urban_37_35"
    ],
    "weight": 250,
    "object": {
      "fill_ter": "t_floor",
      "rows": [
        "..........::::::::::::::",
        "...........:::::::::::::",
        "............::::::::::::",
        ".............:::::::::::",
        ".............:::::::::::",
        ".............:::::::::::",
        ".............:::::::::::",
        "..............::::::::::",
        "...............:::::::::",
        "..................::::::",
        "...................:::::",
        "....................::::",
        ".....................:::",
        "......................::",
        ".......................:",
        "........................",
        "........................",
        "........................",
        "........................",
        "........................",
        "........................",
        "........................",
        "........................",
        "........................"
      ],
      "palettes": [
        "acidia_commercial_palette"
      ],
      "terrain": {
        ":": "t_floor_wax",
        "M": "t_wax"
      },
      "place_monsters": [
        {
          "monster": "GROUP_BEE",
          "x": [
            1,
            22
          ],
          "y": [
            1,
            22
          ],
          "density": 0.2
        }
      ]
    },
    "id": "5492de69-34fb-4098-9649-91bcf68aee9e"
  },
  {
    "type": "mapgen",
    "method": "json",
    "om_terrain": [
      "urban_37_36"
    ],
    "weight": 250,
    "object": {
      "fill_ter": "t_floor",
      "rows": [
        "::::::::::::............",
        "::::::::::..............",
        "::::::::::..............",
        "::::::::::..............",
        ":::::::::...............",
        "::::::::................",
        ":::::::.................",
        ":::::::.................",
        ":::::::.................",
        ":::::::.................",
        "::::::..................",
        ":::::...................",
        "::::....................",
        ":::.....................",
        ":.......................",
        "........................",
        "........................",
        "........................",
        "........................",
        "........................",
        "........................",
        "........................",
        "........................",
        "........................"
      ],
      "palettes": [
        "acidia_commercial_palette"
      ],
      "terrain": {
        ":": "t_floor_wax",
        "M": "t_wax"
      },
      "place_monsters": [
        {
          "monster": "GROUP_BEE",
          "x": [
            1,
            22
          ],
          "y": [
            1,
            22
          ],
          "density": 0.2
        }
      ]
    },
    "id": "43218278-e4e5-4e40-a509-9d7c0d773645"
  }
]