[
  {
    "type": "mapgen",
    "method": "json",
    "om_terrain": [
      "urban_41_1"
    ],
    "weight": 250,
    "object": {
      "fill_ter": "t_floor",
      "rows": [
        ",,,,,,,,,,,,,,,,,,,,,,,,",
        ",,,,,,,,,,,,,,,,,,,,,,,,",
        ",,,,,,,,,,,-vvvvv-,,,,,,",
        ",,,,,,,,,,--A   A--,,,,,",
        ",,,,,,,,,vv   h   vv,,,,",
        ",,,,,,,,vvA  hth  Avv,,,",
        ",,,,|-ww-     h     -ww-",
        ",,,,wO     OO   OO6  AA ",
        ",,,,wO OO               ",
        ",,,,|O        h h       ",
        ",,,,wO OOOO   ttt       ",
        ",,,,wO        ttt       ",
        ",,,,|O OOOO   h h       ",
        ",,,,wO              OOOO",
        ",,,,wO OOOO   h h       ",
        ",,,,|O        ttt       ",
        ",,,,wO OOOO   ttt   OOOO",
        ",,,,wO        h h       ",
        ",,,,|O OO 6             ",
        ",,,,wA    |   h h   OOOO",
        ",,,,wA    |   ttt       ",
        ",,,,| ttt@|   ttt       ",
        ",,,,|@@@@@|   h h   OOOO",
        ",,,,---------           "
      ],
      "palettes": [
        "acidia_residential_commercial_palette"
      ],
      "items": {
        "t": {
          "item": "office",
          "chance": 40
        }
      },
      "place_items": [
        {
          "item": "textbooks",
          "x": 5,
          "y": [
            7,
            18
          ],
          "chance": 20,
          "repeat": [
            26,
            52
          ]
        },
        {
          "item": "textbooks",
          "x": [
            7,
            8
          ],
          "y": 8,
          "chance": 10,
          "repeat": [
            6,
            12
          ]
        },
        {
          "item": "textbooks",
          "x": [
            7,
            10
          ],
          "y": 10,
          "chance": 5,
          "repeat": [
            12,
            24
          ]
        },
        {
          "item": "textbooks",
          "x": [
            7,
            10
          ],
          "y": 12,
          "chance": 5,
          "repeat": [
            12,
            24
          ]
        },
        {
          "item": "textbooks",
          "x": [
            7,
            10
          ],
          "y": 14,
          "chance": 5,
          "repeat": [
            12,
            24
          ]
        },
        {
          "item": "textbooks",
          "x": [
            7,
            10
          ],
          "y": 16,
          "chance": 5,
          "repeat": [
            12,
            24
          ]
        },
        {
          "item": "textbooks",
          "x": [
            7,
            8
          ],
          "y": 18,
          "chance": 5,
          "repeat": [
            6,
            12
          ]
        },
        {
          "item": "homebooks",
          "x": [
            11,
            12
          ],
          "y": 7,
          "chance": 50,
          "repeat": [
            4,
            8
          ]
        },
        {
          "item": "homebooks",
          "x": [
            16,
            17
          ],
          "y": 7,
          "chance": 50,
          "repeat": [
            4,
            8
          ]
        },
        {
          "item": "novels",
          "x": [
            20,
            23
          ],
          "y": 13,
          "chance": 80,
          "repeat": [
            8,
            16
          ]
        },
        {
          "item": "novels",
          "x": [
            20,
            23
          ],
          "y": 16,
          "chance": 80,
          "repeat": [
            8,
            16
          ]
        },
        {
          "item": "novels",
          "x": [
            20,
            23
          ],
          "y": 19,
          "chance": 80,
          "repeat": [
            8,
            16
          ]
        },
        {
          "item": "novels",
          "x": [
            20,
            23
          ],
          "y": 22,
          "chance": 80,
          "repeat": [
            8,
            16
          ]
        }
      ]
    },
    "id": "eac18f86-73f7-4881-b1e1-5d84163f8d5f"
  },
  {
    "type": "mapgen",
    "method": "json",
    "om_terrain": [
      "urban_41_2"
    ],
    "weight": 250,
    "object": {
      "fill_ter": "t_floor",
      "rows": [
        ",,,,,,,,,,,,,,,,,,,,,,,,",
        ",,,,,,,,,,,,,,,,,,,,,,,,",
        ",,,,,,,,,,,,,,,,,,,,,,,,",
        ",,,,,,,,,,,,,,,,,,,,,,,,",
        ",,,,,,,,,,,,,,,,,,,,,,,,",
        ",,,,,,,,,,,,,,,,,,,,,,,,",
        "ww-ww-ww-ww-ww-ww-,,,,,,",
        "ht ht ht ht ht htw,,,,,,",
        " t  t  t  t  t  hw,,,,,,",
        "                 |,,,,,,",
        "              |---www|,,",
        "              |A A A w,,",
        "                     w,,",
        "OOOOOOOOO           hw,,",
        "                    tw,,",
        "              |@@t  h|,,",
        "OOOOOOOOO     |----+--|,",
        "               t|     w,",
        "              h6| Ad  |,",
        "OOOOOOOOO      t|  dA |,",
        "                1 A6  w,",
        "              |-------|,",
        "OOOOOOOOO        ],,,,,,",
        "                 |,,,,,,"
      ],
      "palettes": [
        "acidia_residential_commercial_palette"
      ],
      "items": {
        "t": {
          "item": "office",
          "chance": 40
        },
        "d": {
          "item": "office",
          "chance": 80
        }
      },
      "place_items": [
        {
          "item": "novels",
          "x": [
            0,
            8
          ],
          "y": 13,
          "chance": 80,
          "repeat": [
            18,
            36
          ]
        },
        {
          "item": "novels",
          "x": [
            0,
            8
          ],
          "y": 16,
          "chance": 80,
          "repeat": [
            18,
            36
          ]
        },
        {
          "item": "novels",
          "x": [
            0,
            8
          ],
          "y": 19,
          "chance": 80,
          "repeat": [
            18,
            36
          ]
        },
        {
          "item": "novels",
          "x": [
            0,
            8
          ],
          "y": 22,
          "chance": 80,
          "repeat": [
            18,
            36
          ]
        }
      ]
    },
    "id": "35b7da7a-be1f-420c-bf3e-d3ca50fce518"
  },
  {
    "type": "mapgen",
    "method": "json",
    "om_terrain": [
      "urban_41_3"
    ],
    "weight": 250,
    "object": {
      "fill_ter": "t_floor",
      "rows": [
        ",,,,,,|OOOOO|           ",
        ",,,,,,w             OOOO",
        ",,,,,,|A                ",
        ",,,,,,w                 ",
        ",,,,,,|h h h            ",
        ",,,,,,|6t6t6    AtAtA   ",
        ",,,,,,|-----|  |-----|  ",
        ",,,,,,|        |OOOOO|  ",
        ",,,,,,w >>>             ",
        ",,,,,,w >>>             ",
        ",,,,,,|        |OOOOO|  ",
        ",,,,,,|-----|  ---------",
        ",,,,,,w44222+    t6t6t6t",
        ",,,,,,|222CC|     h h h ",
        ",,,,,,wCC22C|6h         ",
        ",,,,,,|C222C|6h   h h h ",
        ",,,,,,wCfCCC|    t6t6t6t",
        ",,,,,,|-w-w----+--------",
        ",,,,,,,,,,,,|tA At|,,,,,",
        ",,,,,,,,,,,,|     |,,,,,",
        ",,,,,,,,,,,,|tA At|,,,,,",
        ",,,,,,,,,,,,-w-w-w-,,,,,",
        ",,,,,,,,,,,,,,,,,,,,,,,,",
        ",,,,,,,,,,,,,,,,,,,,,,,,"
      ],
      "palettes": [
        "acidia_residential_commercial_palette"
      ],
      "items": {
        "4": {
          "item": "coffee_table",
          "chance": 30
        },
        "t": {
          "item": "office",
          "chance": 40
        },
        "C": {
          "item": "coffee_counter",
          "chance": 20
        },
        "f": {
          "item": "coffee_freezer",
          "chance": 90
        }
      },
      "place_items": [
        {
          "item": "homebooks",
          "x": [
            7,
            11
          ],
          "y": 0,
          "chance": 50,
          "repeat": [
            10,
            20
          ]
        },
        {
          "item": "novels",
          "x": [
            20,
            23
          ],
          "y": 1,
          "chance": 80,
          "repeat": [
            8,
            16
          ]
        },
        {
          "item": "mansion_books",
          "x": [
            16,
            20
          ],
          "y": 7,
          "chance": 20,
          "repeat": [
            10,
            20
          ]
        },
        {
          "item": "mansion_books",
          "x": [
            16,
            20
          ],
          "y": 10,
          "chance": 20,
          "repeat": [
            10,
            20
          ]
        }
      ]
    },
    "id": "8a07c54f-794d-4a8c-b231-2c7f6f7afcaf"
  },
  {
    "type": "mapgen",
    "method": "json",
    "om_terrain": [
      "urban_41_4"
    ],
    "weight": 250,
    "object": {
      "fill_ter": "t_floor",
      "rows": [
        "            -----|,,,,,,",
        "OOOOOOOOO    A  tw,,,,,,",
        "               h6w,,,,,,",
        "          t@@t  tw,,,,,,",
        "       dd -------|,,,,,,",
        "       d  O-----,,,,,,,,",
        "       dA O|2ST|,,,,,,,,",
        "       d  O|222|,,,,,,,,",
        "       dd |-+|---|,,,,,,",
        "          |  |2ST|,,,,,,",
        "             +222|,,,,,,",
        "-----   ---------|,,,,,,",
        "|rrt     +       w,,,,,,",
        "         | hhhhh |,,,,,,",
        "         | ttttt w,,,,,,",
        "         | hhhhh |,,,,,,",
        "|AttA-JJJ-       w,,,,,,",
        "------   ---w-w-w|,,,,,,",
        ",,,,|     |,,,,,,,,,,,,,",
        ",,,,|     |,,,,,,,,,,,,,",
        ",,,,--   --,,,,,,,,,,,,,",
        ",,,,,-JJJ-,,,,,,,,,,,,,,",
        ",,,,,;;;;;,,,,,,,,,,,,,,",
        ",,,,,;;;;;,,,,,,,,,,,,,,"
      ],
      "palettes": [
        "acidia_residential_commercial_palette"
      ],
      "items": {
        "2": {
          "item": "coffee_bathroom",
          "chance": 20
        },
        "t": {
          "item": "office",
          "chance": 40
        },
        "d": {
          "item": "office",
          "chance": 80
        },
        "r": {
          "item": "maps",
          "chance": 20
        }
      },
      "toilets": {
        "T": {}
      },
      "place_items": [
        {
          "item": "novels",
          "x": [
            0,
            8
          ],
          "y": 1,
          "chance": 80,
          "repeat": [
            18,
            36
          ]
        },
        {
          "item": "exotic_books",
          "x": 10,
          "y": [
            5,
            7
          ],
          "chance": 30,
          "repeat": [
            6,
            12
          ]
        }
      ]
    },
    "id": "1d78fa03-af1f-4604-9a12-b3a1ffa3a3c6"
  },
  {
    "type": "mapgen",
    "method": "json",
    "om_terrain": [
      "urban_41_5"
    ],
    "weight": 250,
    "object": {
      "fill_ter": "t_open_air",
      "rows": [
        "........................",
        "........................",
        "...........vvvvvvv......",
        "..........vvtAtAtvv.....",
        ".........vvA     Avv....",
        "........vvA       Avv...",
        "....|-ww-t         t-ww-",
        "....wt@@t              |",
        "....w@     h           |",
        "....|@    hth      h   |",
        "....w@     h      hth  |",
        "....w@        h    h   |",
        "....|t  h    hth       |",
        "....|  hth    h        |",
        "....w   h              1",
        "....w                  |",
        "....|OOOOOOO    OOOOOO-|",
        "....w                 O|",
        "....w                 O|",
        "....|OOO OOO    OOO OO-|",
        "....w                 O|",
        "....w                 O|",
        "....|OOOOOOO    OOOOOO-|",
        "....--------    --------"
      ],
      "palettes": [
        "acidia_residential_commercial_palette"
      ],
      "items": {
        "t": {
          "item": "office",
          "chance": 40
        },
        "O": {
          "item": "homebooks",
          "chance": 30
        }
      }
    },
    "id": "6f78145e-918b-429b-92a5-1c574c3435ee"
  },
  {
    "type": "mapgen",
    "method": "json",
    "om_terrain": [
      "urban_41_6"
    ],
    "weight": 250,
    "object": {
      "fill_ter": "t_open_air",
      "rows": [
        "........................",
        "........................",
        "........................",
        "........................",
        "........................",
        "........................",
        "ww-ww-ww-ww-wwwww-......",
        "           v     w......",
        "  r  r  r  v     w......",
        "  r  r  r  v     |......",
        "  r  r  r  v    |-ww-|..",
        "  r  r  r  v    |t66t|..",
        "  r  r  r  J    1   6w..",
        "           J    |t  6w..",
        "  r  r  r  J    |6  6w..",
        "  r  r  r  v    |t66t|..",
        "  r  r  r  v    |-----|.",
        "  r  r  r  v    |  h  |.",
        "  r  r  r  v    | hth w.",
        "           v    1 hth w.",
        "-vvvvvvvvvv|    |  h  |.",
        "                |--ww-|.",
        "                 |......",
        "                 |......"
      ],
      "palettes": [
        "acidia_residential_commercial_palette"
      ],
      "items": {
        "r": {
          "item": "homebooks",
          "chance": 10
        }
      }
    },
    "id": "44095ee5-59a3-487e-b3c1-42bd8f7572ed"
  },
  {
    "type": "mapgen",
    "method": "json",
    "om_terrain": [
      "urban_41_7"
    ],
    "weight": 250,
    "object": {
      "fill_ter": "t_open_air",
      "rows": [
        "......|                |",
        "......w  hh        hh  |",
        "......w htth      htth |",
        "......w htth      htth |",
        "......w  hh        hh  |",
        "......|                |",
        "......|-----|          |",
        "......|                |",
        "......w <<<            |",
        "......w <<<         dd |",
        "......|            dd  |",
        "......|-----|      d   |",
        "......|T2222+      dA  |",
        "......|S2222|      d   |",
        "......|-----|      d   |",
        "......|T2222|      d   1",
        "......|S2222+      |   |",
        "......|-------wwww---w--",
        "............RRRRRRR.....",
        "............RRRRRRR.....",
        "............RRRRRRR.....",
        "............RRRRRRR.....",
        "........................",
        "........................"
      ],
      "palettes": [
        "acidia_residential_commercial_palette"
      ],
      "toilets": {
        "T": {}
      },
      "items": {
        "t": {
          "item": "office",
          "chance": 20
        },
        "d": {
          "item": "office",
          "chance": 10
        }
      }
    },
    "id": "c6d5a973-628c-4c97-9448-e9064b59ecd9"
  },
  {
    "type": "mapgen",
    "method": "json",
    "om_terrain": [
      "urban_41_8"
    ],
    "weight": 250,
    "object": {
      "fill_ter": "t_open_air",
      "rows": [
        "-------------   --......",
        "  OOOOOOOOO |    |......",
        "                @w......",
        "                @w......",
        "  OOOOOOOOO    -w-......",
        "              @w........",
        "              @w........",
        "  OOOOOOOOO   @w........",
        "               -w-......",
        "                @w......",
        "  OOO   OOO     @w......",
        "-----   ---------|......",
        "t@@@t   CCf|     |......",
        "        222| hdd w......",
        "           +  dA w......",
        "           | hdd w......",
        "t@@@t t@@@t|     |......",
        "-www---www---www-|......",
        "....RRRRRRR.............",
        "....RRRRRRR.............",
        "....RRRRRRR.............",
        ".....RRRRR..............",
        "........................",
        "........................"
      ],
      "palettes": [
        "acidia_residential_commercial_palette"
      ],
      "items": {
        "O": {
          "item": "homebooks",
          "chance": 5
        },
        "f": {
          "item": "fridgesnacks",
          "chance": 60
        }
      },
      "place_loot": [
        {
          "item": "microwave",
          "x": 9,
          "y": 12,
          "chance": 100
        },
        {
          "item": "laptop",
          "x": 14,
          "y": 14,
          "chance": 70
        }
      ]
    },
    "id": "0551e37d-9ecb-48ad-8ab7-116ccbf44a1a"
  }
]