[
  {
    "type": "mapgen",
    "method": "json",
    "om_terrain": [
      "urban_28_1"
    ],
    "weight": 250,
    "object": {
      "fill_ter": "t_floor",
      "rows": [
        "%%%%%%%%%%%%%%%%iiiiiiii",
        "%%%%%iii%%%%%%%%i'''''''",
        "%%%%%i>i%%%%%%%%i'''''''",
        "iiiiii1iiiiiiiiii''''ii'",
        "i:::::::::::::::i''''ii'",
        "i::::::::::::i::i'''''''",
        "i:::iy:yii11iiiii'''''''",
        "iŽŽŽiy:yi|::::::1'''''''",
        "iiiiiiiii|::::::i'''yyyy",
        "i::::::::|::::::iiiiiiii",
        "0:~:::::i|:::i::i%%%%%%%",
        "~~~:::::iiiiii::i%%%%%%%",
        "0::i::::i:::::::i%%%%%%%",
        "i::iiiiii:::::::i%%%%%%%",
        "ii:i::::::::::::i%%%%%%%",
        "iZZi::::::i:::::i%%%%%%%",
        "i::::::::~i:::::i%%%%%%%",
        "i:::::::iiiii:::i%%%%%%%",
        "i::::::::~i:::::i%%%%%%%",
        "iŽ::::::::i:::::i%%%%%%%",
        "iŽŽ:::::::::::::i%%%%%%%",
        "iiiiiiiiiiiiiiiii%%%%%%%",
        "%%%%%%%%%%%%%%%%%%%%%%%%",
        "%%%%%%%%%%%%%%%%%%%%%%%%"
      ],
      "palettes": [
        "acidia_residential_commercial_palette"
      ],
      "items": {
        "'": {
          "item": "home_hw",
          "chance": 1
        },
        ":": {
          "item": "trash",
          "chance": 1
        }
      },
      "place_monsters": [
        {
          "monster": "GROUP_ZOMBIE",
          "x": [
            1,
            15
          ],
          "y": [
            4,
            20
          ],
          "density": 0.03
        }
      ]
    },
    "id": "9f37bef2-b50e-4f36-b20d-78d9919c6b20"
  },
  {
    "type": "mapgen",
    "method": "json",
    "om_terrain": [
      "urban_28_2"
    ],
    "weight": 250,
    "object": {
      "fill_ter": "t_floor",
      "rows": [
        "iiiiiiiiiii%%%%%%%%%%%%%",
        "ZZZ'''ZZ''i%%%%%%%%%%%%%",
        "''Z'''''''i%%%%%%%%%%%%%",
        "''''ii''''i%%%%%%%%%%%%%",
        "''''ii''''iiiiiiiii%iiii",
        "''''''''''i'rrrrrriii''i",
        "''''''''''i'''''''i>i''i",
        "i'i'''''''1'''''''i'i''i",
        "iii'''''''i''''''''''''i",
        "iiiiiiiiiiiZ''''ii''''Zi",
        "%%%%%%%%%%iZ''''ii''''Zi",
        "%%%%%%%%%%iŽ''''''''''Ž0",
        "%%%%%%%%%%iŽ''''''''''Ž0",
        "%%%%%%%%%%iZ''''ii''''Zi",
        "%%%%%%%%%%i'''''ii'''''i",
        "%%%%%%%%%%iZ''''''''''Zi",
        "%%%%%%%%%%i''''''''''''i",
        "%%%%%%%%%%iZ''''ii''''Zi",
        "%%%%%%%%%%i'''''ii'''''i",
        "%%%%%%%%%%iZ''''''''''Zi",
        "%%%%%%%%%%i''''''''''''i",
        "%%%%%%%%%%iiiiiiiiiiiiii",
        "%%%%%%%%%%%%%%%%%%%%%%%%",
        "%%%%%%%%%%%%%%%%%%%%%%%%"
      ],
      "palettes": [
        "acidia_residential_commercial_palette"
      ],
      "items": {
        "'": {
          "item": "home_hw",
          "chance": 1
        },
        "r": {
          "item": "hardware_plumbing",
          "chance": 60
        }
      },
      "place_monsters": [
        {
          "monster": "GROUP_ZOMBIE",
          "x": [
            11,
            22
          ],
          "y": [
            6,
            20
          ],
          "density": 0.03
        }
      ]
    },
    "id": "3646f787-63c5-4f6a-849c-e86dc4c99534"
  },
  {
    "type": "mapgen",
    "method": "json",
    "om_terrain": [
      "urban_28_3"
    ],
    "weight": 250,
    "object": {
      "fill_ter": "t_floor",
      "rows": [
        ",,,,,,,,,,,,,,,,iiiiiiii",
        ",,,,,''''';;;;;qiT2S|T2S",
        ",,,,,'<'}';;;;;qi22C|222",
        "iiiiiiiiiiiYi!iii-+-|---",
        "ic |c |c |X    >i       ",
        "i  |  |  |X     i   c   ",
        "i- |- |- |--1---i   cccc",
        "i              ri       ",
        "i---------     ri>      ",
        "irrrrrrrrr     riivvviiv",
        "i               i;;;;;;;",
        "ir   **    **   i;;h;;;;",
        "ir   **K   **  Ki;hth;;;",
        "ir              i;;h;;;;",
        "i    K      ccc i;;;;;;;",
        "ir   **     c  hi;;h;;;;",
        "ir   **     cc6ci;hth;;;",
        "ir              i;;h;;;;",
        "i               i;;;;;;;",
        "i              Ki;;h;;;;",
        "iccKcccccKcciiJii;hth;;;",
        "iivvviiivvvii'''8;;h;;;;",
        ";;;;;;;;;;;;;'''89999999",
        ";;;;;;;;;;;;;''';;;;;;;;"
      ],
      "palettes": [
        "acidia_residential_commercial_palette"
      ],
      "toilets": {
        "T": {}
      },
      "items": {
        "*": {
          "item": "suits",
          "chance": 80
        },
        "K": {
          "item": "suits",
          "chance": 90
        },
        "X": {
          "item": "allclothes",
          "chance": 90
        },
        "r": {
          "item": "suits",
          "chance": 50
        },
        "t": {
          "item": "trash_cart",
          "chance": 20
        }
      },
      "place_monsters": [
        {
          "monster": "GROUP_ZOMBIE",
          "x": [
            1,
            22
          ],
          "y": [
            1,
            22
          ],
          "density": 0.25
        }
      ]
    },
    "id": "ba0127bd-91e2-4c4b-95e8-60a0a1276c44"
  },
  {
    "type": "mapgen",
    "method": "json",
    "om_terrain": [
      "urban_28_4"
    ],
    "weight": 250,
    "object": {
      "fill_ter": "t_floor",
      "rows": [
        "iiiiiiiiiii;;;;;;;;;;;;;",
        "|  d6drrrri;;;;;;;;;;;;;",
        "+         1;;QQQ;''''';;",
        "|-+-------i;;QQQ;'''}';;",
        "** cScSrrriiiiiiiii1iYii",
        "          iT2S|uuu|    i",
        "6ccc6ccccci222| h |<  >i",
        "          i-+-|1c-|-1--i",
        "      hth i222222222222i",
        "JvJviivvviic2222222222ci",
        ";;;;;;;;;;iW222WccD222Di",
        ";;;;;;;h;;iW222WccD222Di",
        ";;;;;;hth;iW222WccD222Di",
        ";;;;;;;h;;iW222WccD222Di",
        ";;;;;;;;;;iW222WccD222Di",
        ";;;;;;;h;;iW222WccD222Di",
        ";;;;;;hth;iW222WccD222Di",
        ";;;;;;;h;;iW222WccD222Di",
        ";;;;;;;;;;iW2222222222Di",
        ";;;;;;;h;;ic2222222222ci",
        ";;;;;;hth;ik22222222222i",
        ";;;;;;;h;;iivviiJJiivvii",
        ";;;99999999;;;;;;;;;;;;;",
        ";;;;;;;;;;;;;;;;;;;;;;;;"
      ],
      "palettes": [
        "acidia_residential_commercial_palette"
      ],
      "toilets": {
        "T": {}
      },
      "items": {
        "D": {
          "item": "allclothes",
          "chance": 90
        },
        "W": {
          "item": "allclothes",
          "chance": 90
        },
        "d": {
          "item": "office",
          "chance": 40
        },
        "q": {
          "item": "trash",
          "chance": 50
        },
        "r": {
          "item": "coffee_display",
          "chance": 60
        },
        "t": {
          "item": "trash_cart",
          "chance": 20
        },
        "u": {
          "item": "cleaning",
          "chance": 70
        }
      },
      "place_monsters": [
        {
          "monster": "GROUP_ZOMBIE",
          "x": [
            1,
            22
          ],
          "y": [
            1,
            22
          ],
          "density": 0.25
        }
      ]
    },
    "id": "caa40b52-5899-45b7-8742-6837b4333290"
  },
  {
    "type": "mapgen",
    "method": "json",
    "om_terrain": [
      "urban_28_5"
    ],
    "weight": 250,
    "object": {
      "fill_ter": "t_floor",
      "rows": [
        "................iiiiiiii",
        ".....89998......i@@@@@c ",
        ".....8}0{8......i@      ",
        "iiwiiii1iiiwiiiii@ tt   ",
        "ik           >|<i       ",
        "i               i    h  ",
        "i  |------------i   hth ",
        "i  1      hth   i    h  ",
        "i  |-+|         i<      ",
        "i  |S2|-|222   biivvviiv",
        "i  |T22s|foS   bi.......",
        "i  |----|-------i.......",
        "i  1      u    ei.......",
        "i  |-+|       bbw.......",
        "i  |S2|-|222  bbw.......",
        "i  |T22s|foS   ei.......",
        "i  |----|-------i.......",
        "i  1      d6d   i.......",
        "i  |-+|    A    w.......",
        "i  |S2|-|222 bb w.......",
        "i> |T22s|foS bbei.......",
        "iiwiiiiiiiiiiiiii.......",
        ".............RRR........",
        ".............RRR........"
      ],
      "palettes": [
        "acidia_residential_commercial_palette"
      ],
      "toilets": {
        "T": {}
      },
      "items": {
        "2": {
          "item": "softdrugs",
          "chance": 1
        },
        " ": {
          "item": "livingroom",
          "chance": 2
        },
        "@": {
          "item": "magazines",
          "chance": 10
        },
        "O": {
          "item": "homebooks",
          "chance": 60
        },
        "b": {
          "item": "bed",
          "chance": 60
        },
        "c": {
          "item": "livingroom",
          "chance": 25
        },
        "d": {
          "item": "office",
          "chance": 40
        },
        "e": {
          "item": "dresser",
          "chance": 60
        },
        "f": {
          "item": "fridge",
          "chance": 70
        },
        "o": {
          "item": "oven",
          "chance": 30
        },
        "r": {
          "item": "bedroom",
          "chance": 60
        },
        "t": {
          "item": "coffee_table",
          "chance": 10
        },
        "u": {
          "item": "cannedfood",
          "chance": 50
        }
      },
      "place_monsters": [
        {
          "monster": "GROUP_ZOMBIE",
          "x": [
            1,
            15
          ],
          "y": [
            4,
            20
          ],
          "density": 0.15
        },
        {
          "monster": "GROUP_ZOMBIE",
          "x": [
            7,
            22
          ],
          "y": [
            1,
            8
          ],
          "density": 0.15
        }
      ]
    },
    "id": "be898cd6-0477-4a25-a736-04934c691a9a"
  },
  {
    "type": "mapgen",
    "method": "json",
    "om_terrain": [
      "urban_28_6"
    ],
    "weight": 250,
    "object": {
      "fill_ter": "t_floor",
      "rows": [
        "iiiiiiiiiii.............",
        "    c@@@@@i.............",
        "         @i......89998..",
        "      tt @i......8}0{8..",
        "          iiwwwwiii1iiii",
        "     h    iCCSSCC|     i",
        "    hth   io2222C|    <i",
        "     h    iC2CC2g|-1-|-i",
        "         ki222222c   |Ti",
        "vvvviivvvii222222c   +2i",
        "..........i          |Si",
        "..........w htth |   |-i",
        "..........w htth |   |>i",
        "..........i      |   | i",
        "..........i------|     i",
        "..........i     A      i",
        "..........w           Ai",
        "..........ic    t @    i",
        "..........ic    t @    i",
        "..........w       @   ui",
        "..........i      @@   ui",
        "..........iiiwwiiiiwwiii",
        "........................",
        "........................"
      ],
      "palettes": [
        "acidia_residential_commercial_palette"
      ],
      "toilets": {
        "T": {}
      },
      "items": {
        "2": {
          "item": "softdrugs",
          "chance": 1
        },
        " ": {
          "item": "livingroom",
          "chance": 2
        },
        "@": {
          "item": "magazines",
          "chance": 10
        },
        "c": {
          "item": "livingroom",
          "chance": 25
        },
        "g": {
          "item": "fridge",
          "chance": 70
        },
        "o": {
          "item": "oven",
          "chance": 30
        },
        "t": {
          "item": "coffee_table",
          "chance": 10
        },
        "u": {
          "item": "cleaning",
          "chance": 50
        }
      },
      "place_monsters": [
        {
          "monster": "GROUP_ZOMBIE",
          "x": [
            1,
            9
          ],
          "y": [
            1,
            8
          ],
          "density": 0.15
        },
        {
          "monster": "GROUP_ZOMBIE",
          "x": [
            11,
            22
          ],
          "y": [
            5,
            20
          ],
          "density": 0.12
        }
      ]
    },
    "id": "212ee54a-2f3d-4b4c-8df8-ae5ed107aa17"
  },
  {
    "type": "mapgen",
    "method": "json",
    "om_terrain": [
      "urban_28_7"
    ],
    "weight": 250,
    "object": {
      "fill_ter": "t_floor",
      "rows": [
        "................RRRRRRRR",
        ".....89998......RRRRRRRR",
        ".....8{0}8......RRRRRRRR",
        "iiiiiii1iiiiiiiiiRRRRRRR",
        "ik           <|>iRRRRRRR",
        "i               wRRRRRRR",
        "i  |------------iRRRRRRR",
        "i  1      @@@  eiRRRRRRR",
        "i  |-+|       bbwRRRRRRR",
        "i  |S2|-|222  bbwRRRRRRR",
        "i  |T22s|foS    i.......",
        "i  |----|-------i.......",
        "i  1       bb   i.......",
        "i  |-+|O       dw.......",
        "i  |S2|-|222  h6w.......",
        "i  |T22s|foS  ddi.......",
        "i  |----|-------i.......",
        "i  1     bb  ebbi.......",
        "i> |-+|       bbw.......",
        "i- |S2|-|222    w.......",
        "i< |T22s|foS bbei.......",
        "iiwiiiiiiiiiiiiii.......",
        "........................",
        "........................"
      ],
      "palettes": [
        "acidia_residential_commercial_palette"
      ],
      "toilets": {
        "T": {}
      },
      "items": {
        "2": {
          "item": "softdrugs",
          "chance": 1
        },
        " ": {
          "item": "livingroom",
          "chance": 2
        },
        "@": {
          "item": "magazines",
          "chance": 10
        },
        "O": {
          "item": "homebooks",
          "chance": 60
        },
        "b": {
          "item": "bed",
          "chance": 60
        },
        "c": {
          "item": "livingroom",
          "chance": 25
        },
        "d": {
          "item": "office",
          "chance": 40
        },
        "e": {
          "item": "dresser",
          "chance": 60
        },
        "f": {
          "item": "fridge",
          "chance": 70
        },
        "o": {
          "item": "oven",
          "chance": 30
        },
        "t": {
          "item": "coffee_table",
          "chance": 10
        }
      },
      "place_monsters": [
        {
          "monster": "GROUP_ZOMBIE",
          "x": [
            1,
            15
          ],
          "y": [
            4,
            20
          ],
          "density": 0.15
        }
      ]
    },
    "id": "f81c915f-6682-4a76-b2c0-4dfad7b57f30"
  },
  {
    "type": "mapgen",
    "method": "json",
    "om_terrain": [
      "urban_28_8"
    ],
    "weight": 250,
    "object": {
      "fill_ter": "t_floor",
      "rows": [
        "RRRRRRRRRRR.............",
        "RRRRRRRRRRR.............",
        "RRRRRRRRRRR......89998..",
        "RRRRRRRRRRR......8{0}8..",
        "RRRRRRRRRRiiiwwiiii1iiii",
        "RRRRRRRRRRi ebbe |C2T2Bi",
        "RRRRRRRRRRi  bb  |S222Bi",
        "RRRRRRRRRRi      |--+--i",
        "RRRRRRRRRRie     |O    i",
        "RRRRRRRRRRie     +     i",
        "..........i------|     i",
        "..........ibb    |     i",
        "..........we     +   |<i",
        "..........w      |   |-i",
        "..........ibbe   |   +ri",
        "..........i------|-+-|-i",
        "..........iB22|      d6i",
        "..........wB22+      hdi",
        "..........iCTS|  bbb  di",
        "..........i---|  bbb   i",
        "..........iL  +  bbbe  i",
        "..........iiiiiiwwiwwiii",
        "........................",
        "........................"
      ],
      "palettes": [
        "acidia_residential_commercial_palette"
      ],
      "toilets": {
        "T": {}
      },
      "items": {
        "2": {
          "item": "softdrugs",
          "chance": 10
        },
        " ": {
          "item": "livingroom",
          "chance": 2
        },
        "A": {
          "item": "livingroom",
          "chance": 15
        },
        "L": {
          "item": "homeguns",
          "chance": 50
        },
        "O": {
          "item": "homebooks",
          "chance": 60
        },
        "b": {
          "item": "bed",
          "chance": 60
        },
        "d": {
          "item": "office",
          "chance": 40
        },
        "e": {
          "item": "dresser",
          "chance": 60
        },
        "r": {
          "item": "home_hw",
          "chance": 70
        }
      },
      "place_monsters": [
        {
          "monster": "GROUP_ZOMBIE",
          "x": [
            11,
            22
          ],
          "y": [
            5,
            20
          ],
          "density": 0.12
        }
      ]
    },
    "id": "67a359b5-a12a-490a-aeda-441b95191097"
  },
  {
    "type": "mapgen",
    "method": "json",
    "om_terrain": [
      "urban_28_9"
    ],
    "weight": 250,
    "object": {
      "fill_ter": "t_floor",
      "rows": [
        "........................",
        ".....89998..............",
        ".....8}0{8..............",
        "iiiiiii1iiiiiiiii.......",
        "i              <i.......",
        "i               w.......",
        "i  |------------i.......",
        "i  1     htth bbi.......",
        "i  |-+|O htth  ew.......",
        "i  |S2|-|222   ew.......",
        "i  |T22s|foS  bbi.......",
        "i  |----|-------i.......",
        "i  1      @@@@  i.......",
        "i  |-+|         w.......",
        "i  |S2|-|222  bbw.......",
        "i  |T22s|foS ebbi.......",
        "i  |----|-------i.......",
        "i  1      uu   ei.......",
        "i< |-+|       bbw.......",
        "i  |S2|-|222  bbw.......",
        "i  |T22s|foS    i.......",
        "iiwiiiiiiiiiiiiii.......",
        "........................",
        "........................"
      ],
      "palettes": [
        "acidia_residential_commercial_palette"
      ],
      "toilets": {
        "T": {}
      },
      "items": {
        "2": {
          "item": "softdrugs",
          "chance": 1
        },
        " ": {
          "item": "livingroom",
          "chance": 2
        },
        "@": {
          "item": "magazines",
          "chance": 10
        },
        "O": {
          "item": "homebooks",
          "chance": 60
        },
        "b": {
          "item": "bed",
          "chance": 60
        },
        "c": {
          "item": "livingroom",
          "chance": 25
        },
        "d": {
          "item": "office",
          "chance": 40
        },
        "e": {
          "item": "dresser",
          "chance": 60
        },
        "f": {
          "item": "fridge",
          "chance": 70
        },
        "o": {
          "item": "oven",
          "chance": 30
        },
        "t": {
          "item": "coffee_table",
          "chance": 10
        },
        "u": {
          "item": "cannedfood",
          "chance": 50
        }
      },
      "place_monsters": [
        {
          "monster": "GROUP_ZOMBIE",
          "x": [
            1,
            15
          ],
          "y": [
            4,
            20
          ],
          "density": 0.15
        }
      ]
    },
    "id": "a099703f-1e22-400b-9ab3-9dac1f057bdd"
  },
  {
    "type": "mapgen",
    "method": "json",
    "om_terrain": [
      "urban_28_10"
    ],
    "weight": 250,
    "object": {
      "fill_ter": "t_floor",
      "rows": [
        "........................",
        "........................",
        ".................89998..",
        ".................800{8..",
        "..........RRRRRRRRRRRRRR",
        "..........RRRRRRRRRRRRRR",
        "..........RRRRRRRRRRRRRR",
        "..........RRR)RRRRRRRRRR",
        "..........RRRRRRRRRRRRRR",
        "..........RRRRRRRRRRRRRR",
        "..........RRRRRRRRRRRRRR",
        "..........RRRRRRRRRRRRRR",
        "..........RRRRRRRRRRRRRR",
        "..........RRRRRRRRRRRRRR",
        "..........RRRRRRRRRRRRRR",
        "..........RRRRRRRRRRRRRR",
        "..........RRRRRRRRRRRRRR",
        "..........RRRRRRRRRRRRRR",
        "..........RRRRRRRRRRRRRR",
        "..........RRRRRRRRRRRRRR",
        "..........RRRRRRRRRRRRRR",
        "..........RRRRRRRRRRRRRR",
        "........................",
        "........................"
      ],
      "palettes": [
        "acidia_residential_commercial_palette"
      ]
    },
    "id": "58e94ff5-2c48-46bf-96d6-ef5c2c900aa1"
  },
  {
    "type": "mapgen",
    "method": "json",
    "om_terrain": [
      "urban_28_11"
    ],
    "weight": 250,
    "object": {
      "fill_ter": "t_floor",
      "rows": [
        "........................",
        ".....89998..............",
        ".....8{008..............",
        "899998RRR89999998.......",
        "8RRRRRRRRRRRR)RR8.......",
        "8RRRRRRRRRRRR)RR8.......",
        "8RRRRRRRRRRRRRRR8.......",
        "8RRRRRRRRRRRRRRR8.......",
        "8RRRRRRRRRRRRRRR8.......",
        "8RRRRRRRRRRRRRRR8.......",
        "8RRRRRRRRRRRRRRR8.......",
        "8RRRRRRRRRRRRRRR8.......",
        "8RRRRRRRRRRRRRRR8.......",
        "8RRRRRRRRRRRRRRR8.......",
        "8RRRRRRRRRRRRRRR8.......",
        "8RRRRRRRRRRRRRRR8.......",
        "8RRRRRRRRRRRRRRR8.......",
        "8RRRRRRRRRRRRRRR8.......",
        "8RRRRRRRRRRRRRRR8.......",
        "8RRRRRRRRRRRRRRR8.......",
        "8RRRRRRRRRRRRRRR8.......",
        "89999999999999998.......",
        "........................",
        "........................"
      ],
      "palettes": [
        "acidia_residential_commercial_palette"
      ]
    },
    "id": "9efa66b0-a9f8-40d6-bd78-eae82fb0dfa5"
  }
]