[
  {
    "type": "mapgen",
    "method": "json",
    "om_terrain": [
      "urban_29_1"
    ],
    "weight": 250,
    "object": {
      "fill_ter": "t_floor",
      "rows": [
        "%%%%%%%%%%%%%%%%%%%%%%%%",
        "%%%%%%%%%%%%%%%%%%%%%%%%",
        "%%%%%%%%%%%%%%%%%%%%%%%%",
        "%%%%%%%%%%%%%%%%%%%%%%%%",
        "iiiiiiiiiiiiiiiiiiiiiii%",
        "ii''''ZZZ''''''''''''iii",
        "i''''''Z''''''''''''''''",
        "ii'''''''''yy'''''''''ii",
        "iiiiiiii1iiiii1iiiiiiii>",
        "ii''''''''iii''''''''iii",
        "iZZ''''''''i''''''''''i%",
        "0Ž'''''''''i'''''''''Zi%",
        "0Ž'''''|-|'i'|-|''''ZZi%",
        "iŽ'''''|>|'i'|>|''''''i%",
        "ir''r''|'|'i'|'|''''''i%",
        "ir''r''''''i''''''''''i%",
        "ir''r'''''Di''''''''''i%",
        "i'''''''''Wi''''''''''i%",
        "i''''''''''i''''''''''i%",
        "ii''''''''iiiCCWDCC''ii%",
        "iiiiiiiiiiiiiiiiiiiiiii%",
        "%%%%%%%%%%%%%%%%%%%%%%%%",
        "%%%%%%%%%%%%%%%%%%%%%%%%",
        "%%%%%%%%%%%%%%%%%%%%%%%%"
      ],
      "palettes": [
        "acidia_residential_commercial_palette"
      ],
      "items": {
        "'": {
          "item": "home_hw",
          "chance": 1
        },
        "C": {
          "item": "cleaning",
          "chance": 20
        },
        "D": {
          "item": "allclothes",
          "chance": 60
        },
        "W": {
          "item": "allclothes",
          "chance": 60
        },
        "r": {
          "item": "cannedfood",
          "chance": 50
        }
      },
      "place_monsters": [
        {
          "monster": "GROUP_ZOMBIE",
          "x": [
            1,
            20
          ],
          "y": [
            5,
            19
          ],
          "density": 0.06
        }
      ]
    },
    "id": "e32a7c39-6e79-4902-8c1d-cbd54a34c44f"
  },
  {
    "type": "mapgen",
    "method": "json",
    "om_terrain": [
      "urban_29_2"
    ],
    "weight": 250,
    "object": {
      "fill_ter": "t_floor",
      "rows": [
        "%%%%%%%%%%%%%%%%%%%%%%%%",
        "%%%%%%%%%%%%%%%%%%%%%%%%",
        "%%%%%%%%%%%%%%%%%%%%%%%%",
        "%%%%%%%%%%%%%%%%%%%%%%%%",
        "%iiiiiiiiiiiiiiiiiiiiiii",
        "iii''''''''''''ZZZ''''ii",
        "''''''''''''''''Z''''''i",
        "1i'''''''''yy'''''''''ii",
        "'iiiiiiii1iiiii1iiiiiiii",
        "iii''''''''iii''''''''ii",
        "%i''''''''''i'''''''''Zi",
        "%iZ'''''''''i''''''''ZZ0",
        "%iZZ''''|-|'i'|-|'''''Ž0",
        "%i''''''|>|'i'|>|'''''Ži",
        "%i''''''|'|'i'|'|'''''Wi",
        "%i''''''''''i'''''''''Di",
        "%i''''''''''i'''   '''ri",
        "%i''''''''''ix   x '''ri",
        "%i''''''''''ix  xx ''''i",
        "%ii''''''''iii   x '''ii",
        "%iiiiiiiiiiiiiiiiiiiiiii",
        "%%%%%%%%%%%%%%%%%%%%%%%%",
        "%%%%%%%%%%%%%%%%%%%%%%%%",
        "%%%%%%%%%%%%%%%%%%%%%%%%"
      ],
      "palettes": [
        "acidia_residential_commercial_palette"
      ],
      "items": {
        "'": {
          "item": "home_hw",
          "chance": 1
        },
        "D": {
          "item": "allclothes",
          "chance": 60
        },
        "W": {
          "item": "allclothes",
          "chance": 60
        },
        "r": {
          "item": "cannedfood",
          "chance": 50
        }
      },
      "place_monsters": [
        {
          "monster": "GROUP_ZOMBIE",
          "x": [
            2,
            21
          ],
          "y": [
            5,
            19
          ],
          "density": 0.06
        }
      ]
    },
    "id": "f5ea6041-ab07-4da7-b525-26b1551da639"
  },
  {
    "type": "mapgen",
    "method": "json",
    "om_terrain": [
      "urban_29_3"
    ],
    "weight": 250,
    "object": {
      "fill_ter": "t_floor",
      "rows": [
        ",Nnnnnnnnnnnnnnnnnnnnnnn",
        ",N,,,,,,,,,,,,,,,,,,,,,,",
        ",N,,,,,,,''''',,,,,,,,,,",
        ",N;;;;;;;'''}';;;QQ;;;;;",
        "iiiYiii1iiiiiii1iiiYiii;",
        "iCCSCf22222i222222CSCCi;",
        "io22222H44Hif22222222oY;",
        "iC22222H44Hif22222HH2Ci;",
        "ij222222222i2222224422i<",
        "ij2222222|-i-|22224422iq",
        "i22222222|SiS|2222HH22iq",
        "i22222222+2i2+22222222i;",
        "i--+-| |+|TiT|+| |-+--i;",
        "ir  r| |<|-i-|<| |r  ri;",
        "i----| |-|rir|-| |----i;",
        "iA     |>|+i+|>| @@@@@i;",
        "i          i         @Y;",
        "i@ t      ci  tt  tt  i;",
        "i@        6i@        ci;",
        "i@@       ci@@@@   cc6in",
        "iiYii11iiYiiiYii11iiYii;",
        ";;;;i''i;;,,,;;i''i;;;;;",
        ";;;;;;;;;;,^,;;;;;;;;;;;",
        ";;;;;;;;;;,,,;;;;;;;;;;;"
      ],
      "palettes": [
        "acidia_residential_commercial_palette"
      ],
      "toilets": {
        "T": {}
      },
      "items": {
        "4": {
          "item": "dining",
          "chance": 25
        },
        " ": {
          "item": "livingroom",
          "chance": 2
        },
        "@": {
          "item": "magazines",
          "chance": 10
        },
        "A": {
          "item": "livingroom",
          "chance": 15
        },
        "C": {
          "item": "kitchen",
          "chance": 25
        },
        "Q": {
          "item": "trash",
          "chance": 50
        },
        "c": {
          "item": "livingroom",
          "chance": 25
        },
        "f": {
          "item": "fridge",
          "chance": 70
        },
        "j": {
          "item": "dining",
          "chance": 50
        },
        "o": {
          "item": "oven",
          "chance": 30
        },
        "q": {
          "item": "trash",
          "chance": 50
        },
        "r": {
          "item": "cannedfood",
          "chance": 50
        },
        "t": {
          "item": "coffee_table",
          "chance": 25
        }
      },
      "place_monsters": [
        {
          "monster": "GROUP_ZOMBIE",
          "x": [
            1,
            22
          ],
          "y": [
            1,
            22
          ],
          "density": 0.25
        }
      ]
    },
    "id": "70a6cf96-3985-4d27-836c-47655957766e"
  },
  {
    "type": "mapgen",
    "method": "json",
    "om_terrain": [
      "urban_29_4"
    ],
    "weight": 250,
    "object": {
      "fill_ter": "t_floor",
      "rows": [
        "nnnnnnnnnnnnnnnnnnnnnnN,",
        ",,,^,,,,,,,,,,,,,,,,,,N,",
        ",,,,,,,,,,''''',,,,,,,N,",
        ";;;;;;;;;;'''}';;;;;;;N,",
        ";iiiYiii1iiiiiii1iiiYiii",
        ";iCCSC222222i22222gCSCCi",
        ";Yo222222222ij22222222oi",
        ";iC222222222ij22222CC2Ci",
        ";i2222222222i2222222222i",
        ";i22222222|-i-|2222H44Hi",
        ";i22222222|SiS|2222H44Hi",
        ";i22222222+2i2+22222222i",
        ";i--+-| |+|TiT|+| |-+--i",
        ";i    | |<|-i-|<| |r  ri",
        ";i----| |-| ir|-| |----i",
        ";i      |>|+i+|>|      i",
        ";Y          i       @ Oi",
        "Qi          i       @ Oi",
        "Qi          ic     @@  i",
        "ni          i6c       Ai",
        ";iiYii11iiYiiiYii11iiYii",
        ";;;;;i''i;;,,,;;i''i;;;;",
        ";;;;;;;;;;;,^,;;;;;;;;;;",
        ";;;;;;;;;;;,,,;;;;;;;;;;"
      ],
      "palettes": [
        "acidia_residential_commercial_palette"
      ],
      "toilets": {
        "T": {}
      },
      "items": {
        "4": {
          "item": "dining",
          "chance": 25
        },
        " ": {
          "item": "livingroom",
          "chance": 1
        },
        "@": {
          "item": "magazines",
          "chance": 10
        },
        "A": {
          "item": "livingroom",
          "chance": 15
        },
        "C": {
          "item": "kitchen",
          "chance": 25
        },
        "O": {
          "item": "homebooks",
          "chance": 60
        },
        "Q": {
          "item": "trash",
          "chance": 50
        },
        "c": {
          "item": "livingroom",
          "chance": 25
        },
        "g": {
          "item": "fridge",
          "chance": 70
        },
        "j": {
          "item": "dining",
          "chance": 50
        },
        "o": {
          "item": "oven",
          "chance": 30
        },
        "q": {
          "item": "trash",
          "chance": 50
        },
        "r": {
          "item": "cannedfood",
          "chance": 50
        },
        "t": {
          "item": "coffee_table",
          "chance": 25
        }
      },
      "place_monsters": [
        {
          "monster": "GROUP_ZOMBIE",
          "x": [
            1,
            22
          ],
          "y": [
            1,
            22
          ],
          "density": 0.25
        }
      ]
    },
    "id": "3c189ac9-7ca1-48bc-b33b-c48511486dcb"
  },
  {
    "type": "mapgen",
    "method": "json",
    "om_terrain": [
      "urban_29_5"
    ],
    "weight": 250,
    "object": {
      "fill_ter": "t_floor",
      "rows": [
        "........................",
        "........................",
        ".........89998..........",
        ".........8}0{8..........",
        "iiiwiiiwii1i1iiwiiiwiii.",
        "i  ebbbe   i   ebbb  Ai.",
        "i   bbb    i    bbb  tw.",
        "i   bbb    iO   bbb  Ai.",
        "i          iO         i.",
        "i          i        eei.",
        "i--+-|--+--i--+--|-+--i.",
        "iB22S|    ki     |S22Bi.",
        "iB22T|     i     |T22Bi.",
        "i----|+|   i   |+|----i.",
        "i      |   i   |    OOi.",
        "ie    e|<|>i>|<|      w.",
        "ibb   e|-|-i-|-|      i.",
        "ibb    |22BiB22|      i.",
        "ie     +22BiB22+  h hdi.",
        "i      |S2TiT2S| d6dd6i.",
        "iiiwwiiiiwiiiwiiiiwwiii.",
        "....RRRR.......RRRR.....",
        "........................",
        "........................"
      ],
      "palettes": [
        "acidia_residential_commercial_palette"
      ],
      "toilets": {
        "T": {}
      },
      "items": {
        "2": {
          "item": "softdrugs",
          "chance": 10
        },
        " ": {
          "item": "livingroom",
          "chance": 2
        },
        "A": {
          "item": "livingroom",
          "chance": 15
        },
        "O": {
          "item": "homebooks",
          "chance": 60
        },
        "b": {
          "item": "bed",
          "chance": 60
        },
        "c": {
          "item": "livingroom",
          "chance": 25
        },
        "d": {
          "item": "office",
          "chance": 40
        },
        "e": {
          "item": "dresser",
          "chance": 60
        },
        "r": {
          "item": "bedroom",
          "chance": 60
        },
        "t": {
          "item": "coffee_table",
          "chance": 25
        }
      },
      "place_monsters": [
        {
          "monster": "GROUP_ZOMBIE",
          "x": [
            2,
            21
          ],
          "y": [
            5,
            19
          ],
          "density": 0.09
        }
      ]
    },
    "id": "24cda6cf-1801-47e1-85c9-280d260c9395"
  },
  {
    "type": "mapgen",
    "method": "json",
    "om_terrain": [
      "urban_29_6"
    ],
    "weight": 250,
    "object": {
      "fill_ter": "t_floor",
      "rows": [
        "........................",
        "........................",
        "..........89998.........",
        "..........8}0{8.........",
        ".iiiwiiiwii1i1iiwiiiwiii",
        ".i          i         ei",
        ".w          i htt    bbi",
        ".i          i  tth   bbi",
        ".i          i         ei",
        ".i          ir         i",
        ".i--+-|--+--i--+--|-+--i",
        ".iB22S|     i     |S22Bi",
        ".iB22T|     i     |T22Bi",
        ".i----|+|   i   |+|----i",
        ".i      |   i   |    eei",
        ".w      |<|>i>|<|O     i",
        ".i      |-|-|-|-|      i",
        ".i      |22BiB22|  bbb i",
        ".i      +22BiB22+  bbb i",
        ".i      |S2TiT2S|  bbbei",
        ".iiiwwiiiiwiiiwiiiiwwiii",
        ".....RRRR.......RRRR....",
        "........................",
        "........................"
      ],
      "palettes": [
        "acidia_residential_commercial_palette"
      ],
      "toilets": {
        "T": {}
      },
      "items": {
        "2": {
          "item": "softdrugs",
          "chance": 10
        },
        " ": {
          "item": "livingroom",
          "chance": 2
        },
        "A": {
          "item": "livingroom",
          "chance": 15
        },
        "O": {
          "item": "homebooks",
          "chance": 60
        },
        "b": {
          "item": "bed",
          "chance": 60
        },
        "c": {
          "item": "livingroom",
          "chance": 25
        },
        "d": {
          "item": "office",
          "chance": 40
        },
        "e": {
          "item": "dresser",
          "chance": 60
        },
        "r": {
          "item": "bedroom",
          "chance": 60
        },
        "t": {
          "item": "coffee_table",
          "chance": 25
        }
      },
      "place_monsters": [
        {
          "monster": "GROUP_ZOMBIE",
          "x": [
            13,
            22
          ],
          "y": [
            5,
            19
          ],
          "density": 0.09
        }
      ]
    },
    "id": "143af277-b404-40b8-9aa4-8e07e3bc3c9b"
  },
  {
    "type": "mapgen",
    "method": "json",
    "om_terrain": [
      "urban_29_7"
    ],
    "weight": 250,
    "object": {
      "fill_ter": "t_floor",
      "rows": [
        "........................",
        "........................",
        ".........89998..........",
        ".........8{0}8..........",
        "iiiwiiiwii1i1iiwiiiwiii.",
        "i@@@       i2jj22222CCi.",
        "i@         i2222222222w.",
        "i@ t      ci222H44H222i.",
        "i         6i222H44H222i.",
        "i         6i222H44H222i.",
        "i@ t      ci222H44H222i.",
        "i@         i2222222222w.",
        "i@@        i222222222ji.",
        "i----|+|   i   |+|----i.",
        "iOO    |   i   |      i.",
        "i      | |<i<| |e    ew.",
        "i      |-|-i-|-|e   bbi.",
        "i      |22BiB22|    bbi.",
        "i dh   +22BiB22+     ei.",
        "i d6d  |S2TiT2S|      i.",
        "iiiwwiiiiwiiiwiiiiwwiii.",
        "........................",
        "........................",
        "........................"
      ],
      "palettes": [
        "acidia_residential_commercial_palette"
      ],
      "toilets": {
        "T": {}
      },
      "items": {
        "4": {
          "item": "dining",
          "chance": 25
        },
        " ": {
          "item": "livingroom",
          "chance": 2
        },
        "@": {
          "item": "magazines",
          "chance": 10
        },
        "A": {
          "item": "livingroom",
          "chance": 15
        },
        "O": {
          "item": "homebooks",
          "chance": 60
        },
        "b": {
          "item": "bed",
          "chance": 60
        },
        "c": {
          "item": "livingroom",
          "chance": 25
        },
        "d": {
          "item": "office",
          "chance": 40
        },
        "e": {
          "item": "dresser",
          "chance": 60
        },
        "j": {
          "item": "alcohol",
          "chance": 50
        },
        "t": {
          "item": "coffee_table",
          "chance": 25
        }
      },
      "place_monsters": [
        {
          "monster": "GROUP_ZOMBIE",
          "x": [
            2,
            21
          ],
          "y": [
            5,
            19
          ],
          "density": 0.09
        }
      ]
    },
    "id": "47613111-6570-4baf-bc76-4a545425e650"
  },
  {
    "type": "mapgen",
    "method": "json",
    "om_terrain": [
      "urban_29_8"
    ],
    "weight": 250,
    "object": {
      "fill_ter": "t_floor",
      "rows": [
        "........................",
        "........................",
        "..........89998.........",
        "..........8{0}8.........",
        ".iiiwiiiwii1i1iiwiiiwiii",
        ".i          i   c6c    i",
        ".w          i          i",
        ".i          i          i",
        ".i          i   tt   A i",
        ".i          i @    A   i",
        ".i          i @@@@     i",
        ".w          i         Oi",
        ".i          i         Oi",
        ".i----|+|   i   |+|----i",
        ".i      |   i   |      i",
        ".w      | |<i<| |e    ei",
        ".i      |-|-|-|-|e   bbi",
        ".i      |22BiB22|    bbi",
        ".i      +22BiB22+     ei",
        ".i      |S2TiT2S|      i",
        ".iiiwwiiiiwiiiwiiiiwwiii",
        "........................",
        "........................",
        "........................"
      ],
      "palettes": [
        "acidia_residential_commercial_palette"
      ],
      "toilets": {
        "T": {}
      },
      "items": {
        " ": {
          "item": "livingroom",
          "chance": 2
        },
        "@": {
          "item": "magazines",
          "chance": 10
        },
        "A": {
          "item": "livingroom",
          "chance": 15
        },
        "O": {
          "item": "homebooks",
          "chance": 60
        },
        "b": {
          "item": "bed",
          "chance": 60
        },
        "c": {
          "item": "livingroom",
          "chance": 25
        },
        "d": {
          "item": "office",
          "chance": 40
        },
        "e": {
          "item": "dresser",
          "chance": 60
        },
        "t": {
          "item": "coffee_table",
          "chance": 25
        }
      },
      "place_monsters": [
        {
          "monster": "GROUP_ZOMBIE",
          "x": [
            13,
            22
          ],
          "y": [
            5,
            19
          ],
          "density": 0.09
        }
      ]
    },
    "id": "e4564ac2-151b-43ae-8655-995328bc54ea"
  },
  {
    "type": "mapgen",
    "method": "json",
    "om_terrain": [
      "urban_29_9"
    ],
    "weight": 250,
    "object": {
      "fill_ter": "t_floor",
      "rows": [
        "........................",
        "........................",
        ".........89998..........",
        ".........800{8..........",
        "8999999998RRR8999999998.",
        "8RRRRRRRRRRRRRRRRRRRRR8.",
        "8RRRRRRRRRRRRRR))RRRRR8.",
        "8RRRRRRRRRRRRRRRRRRRRR8.",
        "8RRRRRRRRRRRRRRRRRRRRR8.",
        "8RRRRRRRRRRRRRRRRRRRRR8.",
        "8RRRRRRRRRRRRRRRRRRRRR8.",
        "8RRRRRRRRRRRRRRRRRRRRR8.",
        "8RRRRRRRRRRRRRRRRRRRRR8.",
        "8RRRRRRRRRRRRRRRRRRRRR8.",
        "8RRRRRRRRRRRRRRRRRRRRR8.",
        "8RRRRRRRRRRRRRRRRRRRRR8.",
        "8RRRRRRRRRRRRRRRRRRRRR8.",
        "8RRRRRRRRRRRRRRRRRRRRR8.",
        "8RRRRRRRRRRRRRRRRRRRRR8.",
        "8RRRRRRRRRRRRRRRRRRRRR8.",
        "89999999999999999999998.",
        "........................",
        "........................",
        "........................"
      ],
      "palettes": [
        "acidia_residential_commercial_palette"
      ],
      "place_monsters": [
        {
          "monster": "GROUP_ZOMBIE",
          "x": [
            2,
            20
          ],
          "y": [
            5,
            19
          ],
          "density": 0.02
        }
      ]
    },
    "id": "67ece709-d8ac-4698-a15c-33c803aec2fe"
  },
  {
    "type": "mapgen",
    "method": "json",
    "om_terrain": [
      "urban_29_10"
    ],
    "weight": 250,
    "object": {
      "fill_ter": "t_floor",
      "rows": [
        "........................",
        "........................",
        "..........89998.........",
        "..........800{8.........",
        ".8999999999RRR8999999999",
        ".8RRRRRRRRRRRRRRRRRRRRR8",
        ".8RRRRRRRRRRRRRR))RRRRR8",
        ".8RRRRRRRRRRRRRRRRRRRRR8",
        ".8RRRRRRRRRRRRRRRRRRRRR8",
        ".8RRRRRRRRRRRRRRRRRRRRR8",
        ".8RRRRRRRRRRRRRRRRRRRRR8",
        ".8RRRRRRRRRRRRRRRRRRRRR8",
        ".8RRRRRRRRRRRRRRRRRRRRR8",
        ".8RRRRRRRRRRRRRRRRRRRRR8",
        ".8RRRRRRRRRRRRRRRRRRRRR8",
        ".8RRRRRRRRRRRRRRRRRRRRR8",
        ".8RRRRRRRRRRRRRRRRRRRRR8",
        ".8RRRRRRRRRRRRRRRRRRRRR8",
        ".8RRRRRRRRRRRRRRRRRRRRR8",
        ".8RRRRRRRRRRRRRRRRRRRRR8",
        ".89999999999999999999998",
        "........................",
        "........................",
        "........................"
      ],
      "palettes": [
        "acidia_residential_commercial_palette"
      ],
      "place_monsters": [
        {
          "monster": "GROUP_ZOMBIE",
          "x": [
            2,
            22
          ],
          "y": [
            5,
            19
          ],
          "density": 0.02
        }
      ]
    },
    "id": "1edf9770-d0b4-43ff-abd4-97b58dfff180"
  }
]