[
  {
    "type": "mapgen",
    "method": "json",
    "om_terrain": [
      "urban_30_1"
    ],
    "weight": 250,
    "object": {
      "fill_ter": "t_floor",
      "rows": [
        "%%%%%%%%%%%%%%%%%%%%llll",
        "iiiiiiiilllllllllllllggg",
        "i:::::::lT|T|T|CSCSCl222",
        "iZ::::::l+|+|+|22222llcc",
        "iZZ:::::122222222222+222",
        "iZ::::::lllllllllllll222",
        "i:::::::ylC22C22H4H2v222",
        "i:::::::ylS22C222H22v222",
        "i:::::::ylC226222222J222",
        "i::::Z:::lg22C222222v222",
        "1:::ZZZ::lg222222222v222",
        "i1iiiiiiillllllllllll(22",
        "irri2CDDDC2CWWWCi2|>l(22",
        "1r +22222222222222| l(22",
        "ir i222222222222i2  l(22",
        "iiiiiiiiiiiiiiiii   l(22",
        "ir    xx        i   l(22",
        "ir    x             l(22",
        "ir       xx     iiiillll",
        "i         xx   ri%%%%%%l",
        "i  x   x       ri%%%%%%l",
        "i xxx xxx  iiiiii%%%%%%l",
        "iiiiiiiiiiii%%%%%%%%%%%%",
        "%%%%%%%%%%%%%%%%%%%%%%%%"
      ],
      "palettes": [
        "acidia_residential_commercial_palette"
      ],
      "toilets": {
        "T": {}
      },
      "items": {
        "2": {
          "item": "subway",
          "chance": 1
        },
        "4": {
          "item": "trash_cart",
          "chance": 40
        },
        ":": {
          "item": "home_hw",
          "chance": 1
        },
        "D": {
          "item": "allclothes",
          "chance": 50
        },
        "W": {
          "item": "allclothes",
          "chance": 50
        },
        "g": {
          "item": "vending_drink",
          "chance": 60,
          "repeat": 2
        },
        "r": {
          "item": "cleaning",
          "chance": 50
        }
      },
      "place_monsters": [
        {
          "monster": "GROUP_ZOMBIE",
          "x": [
            11,
            22
          ],
          "y": [
            2,
            10
          ],
          "density": 0.15
        },
        {
          "monster": "GROUP_ZOMBIE",
          "x": [
            2,
            22
          ],
          "y": [
            12,
            17
          ],
          "density": 0.15
        }
      ]
    },
    "id": "5aa4f794-11d9-4b73-a625-4d1b4f5fbeb4"
  },
  {
    "type": "mapgen",
    "method": "json",
    "om_terrain": [
      "urban_30_2"
    ],
    "weight": 250,
    "object": {
      "fill_ter": "t_linoleum_white",
      "rows": [
        "lllllllllllllllllllll%%%",
        "gggl▪▪▪▪▪▪×▪▪×▪▪▪▪▪▪l%%%",
        "226l▪▪▪▪▪▪▪▪▪▪▪▪▪▪▪▪l%%%",
        "ccll¦▪▪▪▪▪▪▪▪▪▪▪▪▪▪▪l%%%",
        "2222¦▪▪▪▪▪▪▪▪▪▪▪▪▪▪▪l%%%",
        "2222¦▪▪▪▪▪×▪▪×▪▪▪▪▪▪l%%%",
        "2222¦▪▪▪▪▪▪▪▪▪▪▪▪▪▪▪iiii",
        "2222¦▪▪▪▪▪▪▪▪▪▪▪▪▪▪▪i:zi",
        "2222¦▪▪▪▪▪▪▪▪▪▪▪▪▪▪▪i:zi",
        "2222¦¦¦¦¦¦×▪▪×▪▪▪▪▪▪i:z0",
        "22222222Ṃ¦¦¦¦¦▪▪▪▪▪▪i::0",
        "22222222222<<¦▪▪▪▪▪▪i::0",
        "22222222222<<¦▪▪▪▪▪▪i:z0",
        "22222222Ṃ¦¦¦¦¦▪▪▪▪▪▪i::0",
        "2222¦¦¦¦¦¦×▪▪×▪▪▪▪▪▪i::i",
        "2222¦▪▪▪▪▪▪▪▪▪▪▪▪▪▪▪i::i",
        "2222¦▪▪▪▪▪▪▪▪▪▪▪▪▪▪▪i::i",
        "2222¦▪▪▪▪▪▪▪▪▪▪▪▪▪▪▪i::i",
        "2222¦▪▪▪▪▪×▪▪×▪▪▪▪▪▪i::i",
        "2222¦▪▪▪▪▪▪▪▪▪▪▪▪▪▪▪i::i",
        ">>>l¦▪▪▪▪▪▪▪▪▪▪▪▪▪▪▪i::i",
        "llll▪▪▪▪▪▪▪▪▪▪▪▪▪▪▪▪iiii",
        "%lll▪▪▪▪▪▪×▪▪×▪▪▪▪▪▪l%%%",
        "%llllllllllllllllllll%%%"
      ],
      "palettes": [
        "acidia_residential_commercial_palette"
      ],
      "terrain": {
        "2": "t_linoleum_white",
        "▪": "t_open_air",
        "¦": "t_glass_railing",
        "×": "t_column",
        "Ṃ": "t_linoleum_white"
      },
      "items": {
        "2": {
          "item": "subway",
          "chance": 1
        },
        "'": {
          "item": "subway",
          "chance": 1
        },
        "g": {
          "item": "vending_drink",
          "chance": 60
        }
      },
      "signs": {
        "Ṃ": {
          "signage": "Subway Map: <city> stop"
        }
      },
      "place_monsters": [
        {
          "monster": "GROUP_ZOMBIE",
          "x": [
            1,
            19
          ],
          "y": [
            3,
            20
          ],
          "density": 0.25
        }
      ]
    },
    "id": "60831856-e39b-4981-ad43-f138007f32fd"
  },
  {
    "type": "mapgen",
    "method": "json",
    "om_terrain": [
      "urban_30_3"
    ],
    "weight": 250,
    "object": {
      "fill_ter": "t_floor",
      "rows": [
        ",,,,,,,,,,,,,,qqq;;;iiii",
        "iiiiYiiiiiiiiYiii'''YSCo",
        "iebb    c6c oSCCi''}iC22",
        "i bb        222Cii1iiC2 ",
        "i        tt   2fi   i   ",
        "ii+ii  @        1   1   ",
        "iS2Ti  @@@@@    i   iiii",
        "iiiiiiiiiiiiiiiii   ir  ",
        "idh   LL   LL   i   ir  ",
        "i6dd            1   ir  ",
        "iiiiiiii1iiiiiiii   ir  ",
        "i*222C2222222222i   ir  ",
        "i*222C22222C2222i |<i   ",
        "i*2226C**CC62222i |-i   ",
        "i222222222222222i |>i   ",
        "i22222222222222*i   i   ",
        "i*22222***22222*i   i  K",
        "i*22222***22222*i   iivv",
        "i*22222222222222iiJii;;;",
        "i222222222222222i;;;;;;l",
        "i222222222222222i;;;;;;v",
        "i2***22***2ii==ii;;;;;;v",
        "iiVVViiVVVii;;;;;;;;;;;l",
        ";;;;;;;;;;;;;;;;;;;;;;;;"
      ],
      "palettes": [
        "acidia_residential_commercial_palette"
      ],
      "toilets": {
        "T": {}
      },
      "items": {
        "*": {
          "item": "jewelry_front",
          "chance": 60
        },
        "@": {
          "item": "magazines",
          "chance": 10
        },
        "K": {
          "item": "shoestore_shoes",
          "chance": 90
        },
        "L": {
          "item": "jewelry_back",
          "chance": 60
        },
        "b": {
          "item": "bed",
          "chance": 60
        },
        "c": {
          "item": "livingroom",
          "chance": 25
        },
        "d": {
          "item": "office",
          "chance": 40
        },
        "e": {
          "item": "bedroom",
          "chance": 60
        },
        "f": {
          "item": "fridge",
          "chance": 70
        },
        "o": {
          "item": "oven",
          "chance": 30
        },
        "q": {
          "item": "trash",
          "chance": 50
        },
        "r": {
          "item": "shoestore_shoes",
          "chance": 60
        },
        "t": {
          "item": "coffee_table",
          "chance": 25
        }
      },
      "place_monsters": [
        {
          "monster": "GROUP_ZOMBIE",
          "x": [
            1,
            22
          ],
          "y": [
            1,
            22
          ],
          "density": 0.3
        }
      ]
    },
    "id": "afde2203-ae9a-4810-a447-d031ceba6be0"
  },
  {
    "type": "mapgen",
    "method": "json",
    "om_terrain": [
      "urban_30_4"
    ],
    "weight": 250,
    "object": {
      "fill_ter": "t_floor",
      "rows": [
        "iiiiiiiiiiiiiiiiiiQQ;;;;",
        "f AtA dd6iBBi bbeiQQ;;;;",
        "2      hdiT2i bb iQQ;;;;",
        "         iS2i    i;;;;;;",
        "         ii+ii+iii''''';",
        "  OO             1'''}';",
        "iiiiiiiiiiiiiiiiiii1iiii",
        " rr   rr   rr   r|X    i",
        " rr   rr   rr   r|XX   i",
        " rr   rr   rr   r|X    i",
        " rr   rr   rr   r|    Xi",
        "                r|X    i",
        "   cc    cc     r|---1-i",
        "K  cc    cc  K     c   i",
        "                   6  ri",
        "                   c  ri",
        "     K      cc     6   i",
        "viiivvvii   cc     cc  i",
        ";;;;;;;;i              i",
        "vvvl;;;;J              i",
        "<<<v;;;;i  K  K  K  K  i",
        "'''v;;;;iivvvivvvvivvvii",
        "'''l;;;;;;;;;;;;;;;;;;;;",
        ";;;;;;;;;;;;;;;;;;;;;;;;"
      ],
      "palettes": [
        "acidia_residential_commercial_palette"
      ],
      "toilets": {
        "T": {}
      },
      "items": {
        "K": {
          "item": "shoestore_shoes",
          "chance": 90
        },
        "Q": {
          "item": "trash",
          "chance": 50
        },
        "X": {
          "item": "shoestore_shoes",
          "chance": 90
        },
        "b": {
          "item": "bed",
          "chance": 60
        },
        "c": {
          "item": "shoestore_accessories",
          "chance": 50
        },
        "d": {
          "item": "office",
          "chance": 40
        },
        "e": {
          "item": "bedroom",
          "chance": 60
        },
        "f": {
          "item": "fridge",
          "chance": 70
        },
        "o": {
          "item": "oven",
          "chance": 30
        },
        "r": {
          "item": "shoestore_shoes",
          "chance": 60
        },
        "t": {
          "item": "coffee_table",
          "chance": 25
        }
      },
      "place_monsters": [
        {
          "monster": "GROUP_ZOMBIE",
          "x": [
            1,
            22
          ],
          "y": [
            1,
            22
          ],
          "density": 0.25
        }
      ]
    },
    "id": "b60def17-5a0a-4573-a526-0b30dcd5e6a4"
  },
  {
    "type": "mapgen",
    "method": "json",
    "om_terrain": [
      "urban_30_5"
    ],
    "weight": 250,
    "object": {
      "fill_ter": "t_floor",
      "rows": [
        "....................iiii",
        "iiiiwiiiiiiiiwiii999YSCo",
        "iebbe   c6c oSCCi}0{iC22",
        "i bb        222Cii1iiC2C",
        "i     A tt A  2fi   i   ",
        "ii+ii           1   i   ",
        "iS2Ti  @@@@@    i   iiii",
        "iiiiiiiiiiiiiiiii       ",
        "ie    ebbe  oSCCi       ",
        "ibb    bb   222Ci   iiii",
        "ibb           2fi   isTS",
        "iiiii    hh     i   i222",
        "i222+   htth    1 |>ii+i",
        "isTSi   htth  rri |-i   ",
        "iiiiiiiiiiiiiiiii |<i bb",
        "iBTSi   t6t  OO i   i bb",
        "iB22+           1   iebb",
        "iiiii  @   @    i   iiii",
        "i      @@@@@   uiiwii...",
        "i bbb       CC2Ci......R",
        "i bbb  htth 222oi......R",
        "iebbbe htth fSCCi......R",
        "iiiwiiiiwiiiiwiii......R",
        "........................"
      ],
      "palettes": [
        "acidia_residential_commercial_palette"
      ],
      "toilets": {
        "T": {}
      },
      "items": {
        "2": {
          "item": "softdrugs",
          "chance": 10
        },
        "4": {
          "item": "dining",
          "chance": 25
        },
        " ": {
          "item": "livingroom",
          "chance": 2
        },
        "@": {
          "item": "magazines",
          "chance": 10
        },
        "A": {
          "item": "livingroom",
          "chance": 15
        },
        "C": {
          "item": "kitchen",
          "chance": 25
        },
        "O": {
          "item": "homebooks",
          "chance": 60
        },
        "b": {
          "item": "bed",
          "chance": 60
        },
        "c": {
          "item": "livingroom",
          "chance": 25
        },
        "d": {
          "item": "office",
          "chance": 40
        },
        "e": {
          "item": "dresser",
          "chance": 60
        },
        "f": {
          "item": "fridge",
          "chance": 70
        },
        "j": {
          "item": "cannedfood",
          "chance": 50
        },
        "o": {
          "item": "oven",
          "chance": 30
        },
        "r": {
          "item": "bedroom",
          "chance": 60
        },
        "t": {
          "item": "coffee_table",
          "chance": 25
        },
        "u": {
          "item": "cannedfood",
          "chance": 50
        }
      },
      "place_monsters": [
        {
          "monster": "GROUP_ZOMBIE",
          "x": [
            1,
            22
          ],
          "y": [
            2,
            17
          ],
          "density": 0.15
        }
      ]
    },
    "id": "e4ec9bf1-7ff1-47cd-bd75-4eff72ca50f3"
  },
  {
    "type": "mapgen",
    "method": "json",
    "om_terrain": [
      "urban_30_6"
    ],
    "weight": 250,
    "object": {
      "fill_ter": "t_floor",
      "rows": [
        "iiiiiiiiiiiiiiiiii......",
        "f     dd6iBBi bbei......",
        "2      hdiT2i bb w......",
        "C tt     iS2i    i......",
        "     @   ii+ii+iii99998.",
        " @@@@@           1}00{8.",
        "1iiiiiiiiiiiiiiiiii1Yiii",
        "                      ki",
        "                       i",
        "ii1iiiiii  iiiiiiiiiiiii",
        "it   @@@i  i       iSTBi",
        "i6     @i  1       +22Bi",
        "it   t @i  i22     iiiii",
        "    A  @i  iC22        i",
        "b       i  iCSo        i",
        "b  22222i  iiiiiiiiiiiii",
        "be CSoCfi  i   d6d iSTBi",
        "wiiiwiiii  1    h  +22Bi",
        "........i  if2     iiiii",
        "RRRR....w  iC22      bbi",
        "RRRR....i  iCSou ee  bbi",
        "RRRR....iiiiiwiiiwiiiwii",
        "RRRR....................",
        "........................"
      ],
      "palettes": [
        "acidia_residential_commercial_palette"
      ],
      "toilets": {
        "T": {}
      },
      "items": {
        "2": {
          "item": "softdrugs",
          "chance": 10
        },
        "4": {
          "item": "dining",
          "chance": 25
        },
        " ": {
          "item": "livingroom",
          "chance": 2
        },
        "@": {
          "item": "magazines",
          "chance": 10
        },
        "A": {
          "item": "livingroom",
          "chance": 15
        },
        "C": {
          "item": "kitchen",
          "chance": 25
        },
        "O": {
          "item": "homebooks",
          "chance": 60
        },
        "b": {
          "item": "bed",
          "chance": 60
        },
        "c": {
          "item": "livingroom",
          "chance": 25
        },
        "d": {
          "item": "office",
          "chance": 40
        },
        "e": {
          "item": "dresser",
          "chance": 60
        },
        "f": {
          "item": "fridge",
          "chance": 70
        },
        "j": {
          "item": "cannedfood",
          "chance": 50
        },
        "o": {
          "item": "oven",
          "chance": 30
        },
        "r": {
          "item": "bedroom",
          "chance": 60
        },
        "t": {
          "item": "coffee_table",
          "chance": 25
        },
        "u": {
          "item": "cannedfood",
          "chance": 50
        }
      },
      "place_monsters": [
        {
          "monster": "GROUP_ZOMBIE",
          "x": [
            1,
            16
          ],
          "y": [
            2,
            17
          ],
          "density": 0.15
        },
        {
          "monster": "GROUP_ZOMBIE",
          "x": [
            14,
            22
          ],
          "y": [
            7,
            20
          ],
          "density": 0.15
        }
      ]
    },
    "id": "cd8feffb-d9f6-4320-89ed-5c2011079761"
  },
  {
    "type": "mapgen",
    "method": "json",
    "om_terrain": [
      "urban_30_7"
    ],
    "weight": 250,
    "object": {
      "fill_ter": "t_floor",
      "rows": [
        "....................iiii",
        "iiiiwiiiiiiiiwiii999YSCo",
        "ibb   OOOO  oSCCi{0}iC22",
        "ibb         222Cii1iiC2 ",
        "ie     AtA  CC2fi  ki   ",
        "ii+ii           1   i   ",
        "iS2TiOOOOO    rri   iiii",
        "iiiiiiiiiiiiiiiii       ",
        "iebb    c6cuoSCCi       ",
        "i bb        222Ci   iiii",
        "i           HH2fi   isTS",
        "iiiii       tt  i   i222",
        "i222+       tt  1 |<ii+i",
        "isTSi  @@@@ hh  i |-i   ",
        "iiiiiiiiiiiiiiiii   i bb",
        "iBTSi           i   i bb",
        "iB22+           1   iebb",
        "iiiii           i   iiii",
        "i              uiiwii...",
        "i             2Ci.......",
        "i           222ow.......",
        "i           fSCCi.......",
        "iiiwiiiiwiiiiwiii.......",
        "........................"
      ],
      "palettes": [
        "acidia_residential_commercial_palette"
      ],
      "toilets": {
        "T": {}
      },
      "items": {
        "2": {
          "item": "softdrugs",
          "chance": 10
        },
        "4": {
          "item": "dining",
          "chance": 25
        },
        " ": {
          "item": "livingroom",
          "chance": 2
        },
        "@": {
          "item": "magazines",
          "chance": 10
        },
        "A": {
          "item": "livingroom",
          "chance": 15
        },
        "C": {
          "item": "kitchen",
          "chance": 25
        },
        "O": {
          "item": "homebooks",
          "chance": 60
        },
        "b": {
          "item": "bed",
          "chance": 60
        },
        "c": {
          "item": "livingroom",
          "chance": 25
        },
        "d": {
          "item": "office",
          "chance": 40
        },
        "e": {
          "item": "dresser",
          "chance": 60
        },
        "f": {
          "item": "fridge",
          "chance": 70
        },
        "j": {
          "item": "cannedfood",
          "chance": 50
        },
        "o": {
          "item": "oven",
          "chance": 30
        },
        "r": {
          "item": "bedroom",
          "chance": 60
        },
        "t": {
          "item": "coffee_table",
          "chance": 25
        },
        "u": {
          "item": "cannedfood",
          "chance": 50
        }
      },
      "place_monsters": [
        {
          "monster": "GROUP_ZOMBIE",
          "x": [
            1,
            22
          ],
          "y": [
            2,
            17
          ],
          "density": 0.15
        }
      ]
    },
    "id": "6d923e9a-4ccc-4b38-b93a-b4c6fbef2c06"
  },
  {
    "type": "mapgen",
    "method": "json",
    "om_terrain": [
      "urban_30_8"
    ],
    "weight": 250,
    "object": {
      "fill_ter": "t_floor",
      "rows": [
        "iiiiiiiiiiiiiiiiii......",
        "f  rrr   iBBiLbbei......",
        "2       diT2i bb w......",
        "       A6iS2i    i......",
        "        dii+ii+iii99998.",
        "  AtO            1{00}8.",
        "1iiiiiiiiiiiiiiiiii1Yiii",
        "                      ki",
        "                       i",
        "ii1iiiiii  iiiiiiiiiiiii",
        "it   hh i  i   d6d iSTBi",
        "i6  htthi  1    A  +22Bi",
        "it  htthi  i22     iiiii",
        "     hh i  iC22       ei",
        "b       i  iCSo      bbi",
        "b  22222i  iiiiiiiiiiiii",
        "b uCSoCfi  iuu     iSTBi",
        "wiiiwiiii  1       +22Bi",
        "........i  if2Ch   iiiii",
        "........w  iC22       ei",
        "........i  iCSo      bbi",
        "........iiiiiwiiiwiiiwii",
        "........................",
        "........................"
      ],
      "palettes": [
        "acidia_residential_commercial_palette"
      ],
      "toilets": {
        "T": {}
      },
      "items": {
        "2": {
          "item": "softdrugs",
          "chance": 10
        },
        "4": {
          "item": "dining",
          "chance": 25
        },
        " ": {
          "item": "livingroom",
          "chance": 2
        },
        "@": {
          "item": "magazines",
          "chance": 10
        },
        "A": {
          "item": "livingroom",
          "chance": 15
        },
        "C": {
          "item": "kitchen",
          "chance": 25
        },
        "L": {
          "item": "homeguns",
          "chance": 70
        },
        "O": {
          "item": "homebooks",
          "chance": 60
        },
        "b": {
          "item": "bed",
          "chance": 60
        },
        "c": {
          "item": "livingroom",
          "chance": 25
        },
        "d": {
          "item": "office",
          "chance": 40
        },
        "e": {
          "item": "dresser",
          "chance": 60
        },
        "f": {
          "item": "fridge",
          "chance": 70
        },
        "j": {
          "item": "cannedfood",
          "chance": 50
        },
        "o": {
          "item": "oven",
          "chance": 30
        },
        "r": {
          "item": "bedroom",
          "chance": 60
        },
        "t": {
          "item": "coffee_table",
          "chance": 25
        },
        "u": {
          "item": "cannedfood",
          "chance": 50
        }
      },
      "place_monsters": [
        {
          "monster": "GROUP_ZOMBIE",
          "x": [
            1,
            16
          ],
          "y": [
            2,
            17
          ],
          "density": 0.15
        },
        {
          "monster": "GROUP_ZOMBIE",
          "x": [
            14,
            22
          ],
          "y": [
            7,
            20
          ],
          "density": 0.15
        }
      ]
    },
    "id": "b5c82157-115d-4513-9a29-18baa54180b6"
  },
  {
    "type": "mapgen",
    "method": "json",
    "om_terrain": [
      "urban_30_9"
    ],
    "weight": 250,
    "object": {
      "fill_ter": "t_floor",
      "rows": [
        "....................8999",
        "899999999999999999998RRR",
        "8RRRRRRRRRRRRRRRR00{RRRR",
        "8RRRRRRRRRRRRRRRRRRRRRRR",
        "8RRRRRRRRRRRRRRRRRRRRRRR",
        "8RRRRRRRRRRRR))RRRRRRRRR",
        "8RRRRRRRRRRRRRRRRRRRRRRR",
        "8RRRRRRRRRRRRRRRRRRRRRRR",
        "8RRRRRRRRRRRRRRRRRRRRRRR",
        "8RRRRRRRRRRRRRRRRRRRRRRR",
        "8RRRRRRRRRRRRRRRRRRRRRRR",
        "8RRRRRRRRRRRRRRRRRRRRRRR",
        "8RRRRRRRRRRRRRRRRRRRRRRR",
        "8RRRRRRRRRRRRRRRRRRRRRRR",
        "8RRRRRRRRRRRRRRRRRRRRRRR",
        "8RRRRRRRRRRRRRRRRRRRRRRR",
        "8RRRRRRRRRRRRRRRRRRRRRRR",
        "8RRRRRRRRRRRRRRRRRRR8999",
        "8RRRRRRRRRRRRRRR89998...",
        "8RRRRRRRRRRRRRRR8.......",
        "8RRRRRRRRRRRRRRR8.......",
        "8RRRRRRRRRRRRRRR8.......",
        "89999999999999998.......",
        "........................"
      ],
      "palettes": [
        "acidia_residential_commercial_palette"
      ],
      "place_monsters": [
        {
          "monster": "GROUP_ZOMBIE",
          "x": [
            1,
            22
          ],
          "y": [
            2,
            17
          ],
          "density": 0.03
        }
      ]
    },
    "id": "ce8e38a5-add1-4841-8aff-5f2e6b61c9b9"
  },
  {
    "type": "mapgen",
    "method": "json",
    "om_terrain": [
      "urban_30_10"
    ],
    "weight": 250,
    "object": {
      "fill_ter": "t_floor",
      "rows": [
        "999999999999999998......",
        "RRRRRRRRRRRRRRRRR8......",
        "RRRRRRRRRRRRRRRRR8......",
        "RRRRRRRRRRRRRRRRR8......",
        "RRRRRRRRRRRRRRRRR899998.",
        "RRRRRRRRRRRRRRRRRR000{8.",
        "RRRRRRRRRRRRRRRRRRRRRR88",
        "RRRRRRRRRRRRRRRRRRRRRRR8",
        "RRRRRRRRRRRRRRRRRRRRRRR8",
        "RRRRRRRRRRRRR))RRRRRRRR8",
        "RRRRRRRRRRRRRRRRRRRRRRR8",
        "RRRRRRRRRRRRRRRRRRRRRRR8",
        "RRRRRRRRRRRRRRRRRRRRRRR8",
        "RRRRRRRRRRRRRRRRRRRRRRR8",
        "RRRRRRRRRRRRRRRRRRRRRRR8",
        "RRRRRRRRRRRRRRRRRRRRRRR8",
        "RRRRRRRRRRRRRRRRRRRRRRR8",
        "999999998RRRRRRRRRRRRRR8",
        "........8RRRRRRRRRRRRRR8",
        "........8RRRRRRRRRRRRRR8",
        "........8RRRRRRRRRRRRRR8",
        "........8999999999999998",
        "........................",
        "........................"
      ],
      "palettes": [
        "acidia_residential_commercial_palette"
      ],
      "place_monsters": [
        {
          "monster": "GROUP_ZOMBIE",
          "x": [
            1,
            16
          ],
          "y": [
            2,
            17
          ],
          "density": 0.03
        },
        {
          "monster": "GROUP_ZOMBIE",
          "x": [
            14,
            22
          ],
          "y": [
            7,
            20
          ],
          "density": 0.03
        }
      ]
    },
    "id": "9341256e-3619-4838-b3f7-e3460a652946"
  }
]