[
  {
    "type": "MOD_INFO",
    "id": "no_medieval_items",
    "name": "No Medieval Items",
    "authors": [
      "Rivet-the-Zombie"
    ],
    "maintainers": [
      "Rivet-the-Zombie"
    ],
    "description": "Removes medieval weapons, armors, and specific books.",
    "category": "item_exclude",
    "dependencies": [
      "bn"
    ],
    "obsolete": true
  },
  {
    "type": "ITEM_BLACKLIST",
    "items": [
      "katana_fake",
      "broadsword",
      "broadsword_fake",
      "broadsword_inferior",
      "arming_sword",
      "arming_sword_fake",
      "longsword",
      "longsword_fake",
      "jian",
      "jian_fake",
      "scimitar",
      "scimitar_fake",
      "katana",
      "katana_fake",
      "katana_inferior",
      "rapier_fake",
      "rapier",
      "estoc",
      "estoc_inferior",
      "estoc_fake",
      "kris",
      "kris_fake",
      "zweihander",
      "zweihander_fake",
      "nodachi",
      "nodachi_fake",
      "nodachi_inferior",
      "bullwhip",
      "wakizashi",
      "wakizashi_fake",
      "q_staff",
      "i_staff",
      "battleaxe",
      "battleaxe_fake",
      "battleaxe_inferior",
      "mace",
      "mace_fake",
      "mace_inferior",
      "morningstar",
      "morningstar_fake",
      "morningstar_inferior",
      "warhammer",
      "scythe_war",
      "pike",
      "pike_fake",
      "pike_inferior",
      "spear_steel",
      "glaive",
      "naginata",
      "qiang",
      "halberd",
      "halberd_fake",
      "textbook_armschina",
      "textbook_weapwest",
      "textbook_weapeast",
      "textbook_armwest",
      "textbook_armeast",
      "armor_plate",
      "gloves_plate",
      "boots_plate",
      "helmet_plate",
      "armor_lamellar",
      "armor_lightplate",
      "armor_lorica",
      "helmet_barbute",
      "helmet_conical",
      "helmet_galea",
      "helmet_nasal",
      "armor_samurai",
      "helmet_kabuto",
      "helmet_larmor",
      "boots_larmor",
      "armor_larmor",
      "gambeson",
      "armguard_larmor",
      "vambrace_larmor"
    ],
    "id": "39af7b35-abe1-44ca-afd8-957376a9f1ad"
  }
]