[
  {
    "type": "mapgen",
    "om_terrain": "combohouseB_basement",
    "weight": 0,
    "method": "json",
    "object": {
      "fill_ter": "t_concrete_floor",
      "rows": [
        "########################",
        "########################",
        "########################",
        "########################",
        "########################",
        "########################",
        "########################",
        "########################",
        "#######===============##",
        "#######=             =##",
        "#######=             =##",
        "#######=             =##",
        "#######=             ===",
        "#######=              <=",
        "#######=             ===",
        "#######=             =##",
        "#######=             =##",
        "#######=             =##",
        "#######=             =##",
        "#######=             =##",
        "#######===============##",
        "########################",
        "########################",
        "########################"
      ],
      "palettes": [
        "multistory_house",
        "lower_level"
      ]
    },
    "id": "a41d3624-77b7-42ec-90ca-0b2dc5533939"
  }
]