[
  {
    "type": "mapgen",
    "om_terrain": "combogarageB_first",
    "weight": 250,
    "method": "json",
    "object": {
      "fill_ter": "t_concrete_floor",
      "rows": [
        "#,,,,,,,,,##############",
        "#,,,,,,,,,##############",
        "#,,,,,,,,,##############",
        "#,,,,,,,,,WWWW##########",
        "=         ===W##########",
        "           x=W##########",
        "           x=,,,,,,,,,##",
        "           x=,,,,,,,,,##",
        "   v       x=,,,,,,,,,##",
        "           x=7,,,,,,,,##",
        "           x=,,,,,,,,,##",
        "            =,,,,,,,,,##",
        "            =,,,,,,,,,##",
        "       llCCC=,,,,,,,,,##",
        "---+--=======,,,,,,,,,##",
        "      =#################",
        "  c   =#################",
        " TTT  w#################",
        "cTTT  w#################",
        "      =#################",
        "==www==#################",
        "########################",
        "########################",
        "########################"
      ],
      "palettes": [
        "multistory_house",
        "ground_level"
      ],
      "terrain": {
        " ": "t_concrete_floor",
        ",": "t_pavement"
      },
      "set": [
        {
          "square": "terrain",
          "x": 0,
          "y": 15,
          "x2": 5,
          "y2": 19,
          "id": "t_floor"
        }
      ],
      "vehicles": {
        "v": {
          "vehicle": "car",
          "chance": 70,
          "fuel": 50,
          "status": 1
        }
      }
    },
    "id": "0d06a8c2-9ea5-4261-9546-df82cf909ac8"
  }
]