[
  {
    "type": "mapgen",
    "om_terrain": "combogarageB_second",
    "weight": 250,
    "method": "json",
    "object": {
      "fill_ter": "t_floor",
      "rows": [
        "########################",
        "########################",
        "########################",
        "########################",
        "--ww---rrrrrr###########",
        "     T|rrrrrr###########",
        "   z  |rrrrrr###########",
        "      |rrrrrr###########",
        "   z  wrrrrrr###########",
        "      wrrrrrr###########",
        "   z  |rrrrrr###########",
        "     R|rrrrrr###########",
        "---+--|rrrrrr###########",
        "      wrrrrrr###########",
        "      wrrrrrr###########",
        "---+--|#################",
        "     d|#################",
        "  BB  |#################",
        "  BB  |#################",
        "     d|#################",
        "-------#################",
        "########################",
        "########################",
        "########################"
      ],
      "palettes": [
        "multistory_house",
        "upper_level"
      ]
    },
    "id": "148d71d1-6e12-45a9-9761-0b1d73a3460c"
  }
]