[
  {
    "type": "mapgen",
    "om_terrain": "combohouseB_first",
    "weight": 250,
    "method": "json",
    "object": {
      "fill_ter": "t_floor",
      "rows": [
        "##############W#########",
        "##############W#########",
        "##############W#########",
        "##############W#########",
        "##############W######===",
        "##############W##WWWW=L ",
        "##############WWWWWWW+  ",
        "#################WWWW=  ",
        "#######===========++==  ",
        "#######= T  AA      d|x ",
        "#######= A           |L ",
        "#######= A       b|  |x ",
        "#######= A  a    b|  |  ",
        "#######=         b|<<|> ",
        "#######=------   b------",
        "#######=     |       +  ",
        "#######=  TT -++---+-|  ",
        "#######w  TT     |s  |  ",
        "#######=R       U|   |  ",
        "#######=CCCssCoCU|& S|  ",
        "#######====ww=========+=",
        "########################",
        "########################",
        "########################"
      ],
      "palettes": [
        "multistory_house",
        "ground_level"
      ],
      "set": [
        {
          "square": "terrain",
          "x": 22,
          "y": 5,
          "x2": 23,
          "y2": 19,
          "id": "t_concrete_floor"
        }
      ]
    },
    "id": "74f23af7-a68a-4520-b92b-18049f4f982c"
  }
]