[
  {
    "type": "mapgen",
    "om_terrain": "combohouseA_second",
    "weight": 250,
    "method": "json",
    "object": {
      "fill_ter": "t_floor",
      "rows": [
        "########################",
        "########################",
        "########################",
        "########################",
        "############--wwww--####",
        "#######------b    A|----",
        "#######|&  S|T    A|  >>",
        "#######|s   |T    A|  >>",
        "#######|s   +           ",
        "#######|  --|           ",
        "#######|~~|             ",
        "#######|---+------+---+-",
        "#######|BB  |d|d   b|d  ",
        "#######|BB  | +    b|   ",
        "#######w    |-|   BB|   ",
        "#######|    + |   BB|B  ",
        "#######|d  b|d|d    |B  ",
        "#######--ww------ww---w-",
        "########################",
        "########################",
        "########################",
        "########################",
        "########################",
        "########################"
      ],
      "palettes": [
        "multistory_house",
        "upper_level"
      ]
    },
    "id": "08177b56-ade8-412e-8744-a02f487e9096"
  }
]