[
  {
    "type": "mapgen",
    "om_terrain": "combogarageC_second",
    "weight": 0,
    "method": "json",
    "object": {
      "fill_ter": "t_floor",
      "rows": [
        "########################",
        "########################",
        "########################",
        "########################",
        "----------##############",
        "         |##############",
        "         |rrrrrrrrrr####",
        "         |rrrrrrrrrr####",
        "         |rrrrrrrrrr####",
        "         |rrrrrrrrrr####",
        "--       |rrrrrrrrrr####",
        "         |rrrrrrrrrr####",
        "         |rrrrrrrrrr####",
        "--     >>|rrrrrrrrrr####",
        "         |rrrrrrrrrr####",
        "         |##############",
        "         |##############",
        "         |##############",
        "         |##############",
        "         |##############",
        "----------##############",
        "########################",
        "########################",
        "########################"
      ],
      "palettes": [
        "multistory_house",
        "upper_level"
      ]
    },
    "id": "8bcd6c9c-694c-43b3-84c9-647dfa983cdc"
  }
]