[
  {
    "type": "mapgen",
    "om_terrain": "combohouseA_second",
    "weight": 250,
    "method": "json",
    "object": {
      "fill_ter": "t_floor",
      "rows": [
        "########################",
        "########################",
        "########################",
        "########################",
        "############--wwww--####",
        "#######-----|p BB p-----",
        "#######|s ~~|  BB  +d|>>",
        "#######|    +      --->>",
        "#######|& ll|d     +    ",
        "#######|------------    ",
        "#######|S  ss|          ",
        "#######|&    +   ----+--",
        "#######|-------+-|d|b   ",
        "#######|MMMM    b| +    ",
        "#######|MBB     T|-|    ",
        "#######wMBB      + | BB ",
        "#######|M     7DD|d|dBB ",
        "#######------w----------",
        "########################",
        "########################",
        "########################",
        "########################",
        "########################",
        "########################"
      ],
      "palettes": [
        "multistory_house",
        "upper_level"
      ]
    },
    "id": "9ebb00bc-b83c-4c83-8b3e-9795c5b36c49"
  }
]