[
  {
    "type": "mapgen",
    "om_terrain": "combohouseB_second",
    "weight": 250,
    "method": "json",
    "object": {
      "fill_ter": "t_floor",
      "rows": [
        "########################",
        "########################",
        "########################",
        "########################",
        "#####################---",
        "#####################|D ",
        "#####################wDc",
        "#####################|D ",
        "#######--w-w------ww--  ",
        "#######|  B  T|d|&  S|  ",
        "#######w  B   + |    +  ",
        "#######|      |d|   s|b ",
        "#######|--+------+------",
        "#######|    AAA    >>   ",
        "#######|                ",
        "#######| ZZ       -++---",
        "#######| ZZ   CCCC|     ",
        "#######| ZZ   C  L|--   ",
        "#######|      C  L| + c ",
        "#######|a a      L|d|TT ",
        "#######--w-ww-ww-----w--",
        "########################",
        "########################",
        "########################"
      ],
      "palettes": [
        "multistory_house",
        "upper_level"
      ]
    },
    "id": "1931cc73-7e20-4aef-baf1-5e048ec3a6df"
  }
]