[
  {
    "type": "mapgen",
    "om_terrain": "combogarageB_second",
    "weight": 0,
    "method": "json",
    "object": {
      "fill_ter": "t_floor",
      "rows": [
        "########################",
        "########################",
        "########################",
        "########################",
        "-------rrrrrr###########",
        "      |rrrrrr###########",
        "      |rrrrrr###########",
        "      |rrrrrr###########",
        "      |rrrrrr###########",
        "      |rrrrrr###########",
        "      |rrrrrr###########",
        "      |rrrrrr###########",
        "--    |rrrrrr###########",
        "      |rrrrrr###########",
        "      |rrrrrr###########",
        "--    |#################",
        "      |#################",
        "      |#################",
        "      |#################",
        "      |#################",
        "-------#################",
        "########################",
        "########################",
        "########################"
      ],
      "palettes": [
        "multistory_house",
        "upper_level"
      ]
    },
    "id": "b029451e-e9fb-4400-b4e2-f1788eda00c3"
  }
]