[
  {
    "type": "mapgen",
    "om_terrain": "combohouseC_basement",
    "weight": 0,
    "method": "json",
    "object": {
      "fill_ter": "t_concrete_floor",
      "rows": [
        "########################",
        "########################",
        "########################",
        "########################",
        "#####===================",
        "#####=                 =",
        "#####=                 =",
        "#####=                 =",
        "#####=                 =",
        "#####=                 =",
        "#####=                 =",
        "#####=                 =",
        "#####=                 =",
        "#####=<<               =",
        "#####=                 =",
        "#####=                 =",
        "#####=                 =",
        "#####=                 =",
        "#####=                 =",
        "#####=                 =",
        "#####===================",
        "########################",
        "########################",
        "########################"
      ],
      "palettes": [
        "multistory_house",
        "lower_level"
      ]
    },
    "id": "94f75a85-23a9-4882-962d-077d9f80ca3f"
  }
]