[
  {
    "type": "mapgen",
    "om_terrain": "combohouseA_second",
    "weight": 0,
    "method": "json",
    "object": {
      "fill_ter": "t_floor",
      "rows": [
        "########################",
        "########################",
        "########################",
        "########################",
        "############========####",
        "#######======      =====",
        "#######=              >>",
        "#######=              >>",
        "#######=                ",
        "#######=                ",
        "#######=                ",
        "#######=              --",
        "#######=                ",
        "#######=                ",
        "#######=                ",
        "#######=                ",
        "#######=                ",
        "#######=================",
        "########################",
        "########################",
        "########################",
        "########################",
        "########################",
        "########################"
      ],
      "palettes": [
        "multistory_house",
        "upper_level"
      ]
    },
    "id": "4e83c5da-c406-4453-8fe4-125f165502aa"
  }
]