[
  {
    "type": "mapgen",
    "om_terrain": "combogarageA_second",
    "weight": 0,
    "method": "json",
    "object": {
      "fill_ter": "t_floor",
      "rows": [
        "########################",
        "########################",
        "########################",
        "########################",
        "########################",
        "===============#########",
        "              =#########",
        "              =#########",
        "              =#########",
        "              =#########",
        "              =#########",
        "--            =#########",
        "              =#########",
        "              =#########",
        "              =#########",
        "              =#########",
        "              =#########",
        "===============#########",
        "########################",
        "########################",
        "########################",
        "########################",
        "########################",
        "########################"
      ],
      "palettes": [
        "multistory_house",
        "upper_level"
      ]
    },
    "id": "37569510-d225-42ae-b1cf-7fa5d9858977"
  }
]