[
  {
    "type": "mapgen",
    "om_terrain": "combohouseB_roof",
    "weight": 0,
    "method": "json",
    "object": {
      "fill_ter": "t_flat_roof",
      "rows": [
        "########################",
        "########################",
        "########################",
        "########################",
        "#####################rrr",
        "#####################rrr",
        "#####################rrr",
        "#####################rrr",
        "#######rrrrrrrrrrrrrrrrr",
        "#######rrrrrrrrrrrrrrrrr",
        "#######rrrrrrrrrrrrrrrrr",
        "#######rrrrrrrrrrrrrrrrr",
        "#######rrrrrrrrrrrrrrrrr",
        "#######rrrrrrrrrrrrrrrrr",
        "#######rrrrrrrrrrrrrrrrr",
        "#######rrrrrrrrrrrrrrrrr",
        "#######rrrrrrrrrrrrrrrrr",
        "#######rrrrrrrrrrrrrrrrr",
        "#######rrrrrrrrrrrrrrrrr",
        "#######rrrrrrrrrrrrrrrrr",
        "#######rrrrrrrrrrrrrrrrr",
        "########################",
        "########################",
        "########################"
      ],
      "palettes": [
        "multistory_house",
        "upper_level"
      ]
    },
    "id": "4319b08c-8cd1-4f32-9b80-52ce6120235c"
  }
]