[
  {
    "type": "mapgen",
    "om_terrain": "combohouseC_first",
    "weight": 250,
    "method": "json",
    "object": {
      "fill_ter": "t_floor",
      "rows": [
        "##########WW############",
        "##########WW############",
        "#########1,,,,,1,,,,,1##",
        "#########,,,,,,,,,,,,,##",
        "#####==w==++=w==w=====w=",
        "#####=b         np|DDD  ",
        "#####=            | c   ",
        "#####=  ------    |     ",
        "#####=  |~~ s|b   |ii   ",
        "#####=  |   s|    |bbbb ",
        "#####w<<|    +    +     ",
        "#####=<<|&  l|    |bbbb ",
        "#####=--------    ------",
        "#####=>>                ",
        "#####=       ---++----+-",
        "#####=      A|R     R|  ",
        "####88      A|C  TTc |  ",
        "####8N      A|   TT  |  ",
        "####88  AAA  |       |d ",
        "#####=b      |CCsCoUU|d ",
        "#####====ww=====www=====",
        "########################",
        "########################",
        "########################"
      ],
      "palettes": [
        "multistory_house",
        "ground_level"
      ],
      "terrain": {
        ",": "t_concrete_floor"
      }
    },
    "id": "0bfc2afc-a94e-48f5-a185-0e93d338f528"
  }
]