[
  {
    "type": "mapgen",
    "om_terrain": "combohouseA_basement",
    "weight": 250,
    "method": "json",
    "object": {
      "fill_ter": "t_concrete_floor",
      "rows": [
        "########################",
        "########################",
        "########################",
        "########################",
        "########################",
        "#######=================",
        "#######=l            R =",
        "#######=               =",
        "#######=               =",
        "#######=               =",
        "#######=               =",
        "#######=               =",
        "#######=               =",
        "#######=              H=",
        "#######=Q             h=",
        "#######=q              =",
        "#######=TTT          <<=",
        "#######=================",
        "########################",
        "########################",
        "########################",
        "########################",
        "########################",
        "########################"
      ],
      "palettes": [
        "multistory_house",
        "lower_level"
      ]
    },
    "id": "ba0f5a81-b835-42f8-aa7b-9a1cf0fcd8e5"
  }
]