[
  {
    "type": "mapgen",
    "om_terrain": "combohouseC_second",
    "weight": 250,
    "method": "json",
    "object": {
      "fill_ter": "t_floor",
      "rows": [
        "########################",
        "########################",
        "#########1,,,,,1,,,,,1##",
        "#########,,,,,,,,,,,,,##",
        "#####-----w-+-w--w--w---",
        "#####|TT          b| nnn",
        "#####|TTc     AAA  |z   ",
        "#####|    A        |z   ",
        "#####|b   A        +    ",
        "#####|b   A       b|ll  ",
        "#####|b            -----",
        "#####w>>       a        ",
        "#####w>>                ",
        "#####----++--+---+----+-",
        "#####|DD    |d|s    |D  ",
        "#####| c    |-|&  ~~|D  ",
        "####88      + |------   ",
        "####8N a BB |d| BB      ",
        "####88   BB |-| BB      ",
        "#####|M     |d+         ",
        "#####-------------------",
        "########################",
        "########################",
        "########################"
      ],
      "palettes": [
        "multistory_house",
        "upper_level"
      ]
    },
    "id": "99368ae5-cfa0-4d37-a196-4b4b34b1229f"
  }
]