[
  {
    "type": "mapgen",
    "om_terrain": "combogarageC_roof",
    "weight": 250,
    "method": "json",
    "object": {
      "fill_ter": "t_flat_roof",
      "rows": [
        "########################",
        "########################",
        "########################",
        "########################",
        "rrrrrrrrrr##############",
        "rrrrrrrrrr##############",
        "rrrrrrrrrr##############",
        "rrrrrrrrrr##############",
        "rrrrrrrrrr##############",
        "rrrrrrrrrr##############",
        "rrrrrrrrrr##############",
        "rrrrrrrrrr##############",
        "rrrrrrrrrr##############",
        "rrrrrrrrrr##############",
        "rrrrrrrrrr##############",
        "rrrrrrrrrr##############",
        "rrrrrrrrrr##############",
        "rrrrrrrrrr##############",
        "rrrrrrrrrr##############",
        "rrrrrrrrrr##############",
        "rrrrrrrrrr##############",
        "########################",
        "########################",
        "########################"
      ],
      "palettes": [
        "multistory_house",
        "upper_level"
      ]
    },
    "id": "70ac2942-40b8-405f-a325-7d89679b5356"
  }
]