[
  {
    "result": "tiny_pistol_ball",
    "type": "recipe",
    "category": "CC_AMMO",
    "subcategory": "CSC_AMMO_PISTOL",
    "skill_used": "fabrication",
    "difficulty": 2,
    "skills_required": [
      "gun",
      2
    ],
    "time": "2 m",
    "batch_time_factors": [
      60,
      5
    ],
    "book_learn": [
      [
        "recipe_bullets",
        1
      ],
      [
        "manual_pistol",
        2
      ]
    ],
    "charges": 1,
    "using": [
      [
        "req_pistol_tiny",
        1
      ],
      [
        "bullet_forming",
        2
      ],
      [
        "ammo_bullet",
        2
      ]
    ],
    "components": [
      [
        [
          "gunpowder",
          2
        ]
      ],
      [
        [
          "copper",
          1
        ]
      ]
    ],
    "id": "73c0acc9-692d-4229-94da-125264faf7f8"
  },
  {
    "result": "bp_tiny_pistol_ball",
    "type": "recipe",
    "copy-from": "tiny_pistol_ball",
    "reversible": true,
    "components": [
      [
        [
          "chem_black_powder",
          3
        ]
      ],
      [
        [
          "copper",
          1
        ]
      ]
    ],
    "id": "f4f19d34-621b-47fa-a898-d515df0598ab"
  },
  {
    "result": "tiny_pistol_jhp",
    "type": "recipe",
    "category": "CC_AMMO",
    "subcategory": "CSC_AMMO_PISTOL",
    "skill_used": "fabrication",
    "difficulty": 1,
    "skills_required": [
      "gun",
      1
    ],
    "time": "2 m",
    "batch_time_factors": [
      60,
      5
    ],
    "book_learn": [
      [
        "recipe_bullets",
        0
      ],
      [
        "manual_pistol",
        1
      ]
    ],
    "charges": 1,
    "using": [
      [
        "req_pistol_tiny",
        1
      ],
      [
        "bullet_forming",
        2
      ],
      [
        "ammo_bullet",
        2
      ]
    ],
    "components": [
      [
        [
          "gunpowder",
          2
        ]
      ]
    ],
    "id": "79ec06e9-dcd6-4a9d-9f8d-29853d25be9f"
  },
  {
    "result": "bp_tiny_pistol_jhp",
    "type": "recipe",
    "copy-from": "tiny_pistol_jhp",
    "reversible": true,
    "components": [
      [
        [
          "chem_black_powder",
          3
        ]
      ]
    ],
    "id": "35d0f045-8f37-4686-9063-5cea9347b48b"
  },
  {
    "result": "pistol_ball",
    "type": "recipe",
    "category": "CC_AMMO",
    "subcategory": "CSC_AMMO_PISTOL",
    "skill_used": "fabrication",
    "difficulty": 3,
    "skills_required": [
      "gun",
      3
    ],
    "time": "2 m",
    "batch_time_factors": [
      60,
      5
    ],
    "book_learn": [
      [
        "manual_pistol",
        3
      ],
      [
        "manual_smg",
        3
      ],
      [
        "recipe_bullets",
        2
      ]
    ],
    "charges": 1,
    "using": [
      [
        "bullet_forming",
        2
      ],
      [
        "ammo_bullet",
        2
      ],
      [
        "req_pistol",
        1
      ]
    ],
    "components": [
      [
        [
          "gunpowder",
          4
        ]
      ],
      [
        [
          "copper",
          1
        ]
      ]
    ],
    "id": "98487285-580c-468b-ad16-6545bc68d2ad"
  },
  {
    "result": "bp_pistol_ball",
    "type": "recipe",
    "copy-from": "pistol_ball",
    "reversible": true,
    "components": [
      [
        [
          "chem_black_powder",
          4
        ]
      ],
      [
        [
          "copper",
          1
        ]
      ]
    ],
    "id": "a057f4f0-4f3c-43ea-9b21-c6bf63cacb34"
  },
  {
    "result": "pistol_jhp",
    "type": "recipe",
    "category": "CC_AMMO",
    "subcategory": "CSC_AMMO_PISTOL",
    "skill_used": "fabrication",
    "difficulty": 2,
    "skills_required": [
      "gun",
      2
    ],
    "time": "2 m",
    "batch_time_factors": [
      60,
      5
    ],
    "book_learn": [
      [
        "manual_pistol",
        2
      ],
      [
        "manual_smg",
        2
      ],
      [
        "recipe_bullets",
        1
      ]
    ],
    "charges": 1,
    "using": [
      [
        "req_pistol",
        1
      ],
      [
        "bullet_forming",
        2
      ],
      [
        "ammo_bullet",
        2
      ]
    ],
    "components": [
      [
        [
          "gunpowder",
          4
        ]
      ]
    ],
    "id": "df640053-242c-4b68-b491-5bef62f983c8"
  },
  {
    "result": "bp_pistol_jhp",
    "type": "recipe",
    "copy-from": "pistol_jhp",
    "reversible": true,
    "components": [
      [
        [
          "chem_black_powder",
          4
        ]
      ]
    ],
    "id": "23868fb4-3469-46a3-8fd4-307bce144577"
  },
  {
    "result": "pistol_magnum_ball",
    "type": "recipe",
    "category": "CC_AMMO",
    "subcategory": "CSC_AMMO_PISTOL",
    "skill_used": "fabrication",
    "difficulty": 4,
    "skills_required": [
      "gun",
      4
    ],
    "time": "2 m",
    "batch_time_factors": [
      60,
      5
    ],
    "book_learn": [
      [
        "recipe_bullets",
        3
      ],
      [
        "manual_pistol",
        4
      ]
    ],
    "charges": 1,
    "reversible": true,
    "using": [
      [
        "req_pistol_magnum",
        1
      ],
      [
        "bullet_forming",
        5
      ],
      [
        "ammo_bullet",
        4
      ]
    ],
    "components": [
      [
        [
          "gunpowder",
          6
        ]
      ],
      [
        [
          "copper",
          2
        ]
      ]
    ],
    "id": "7bb92242-2ff3-4828-8d58-1c003df3622a"
  },
  {
    "result": "bp_pistol_magnum_ball",
    "type": "recipe",
    "copy-from": "pistol_magnum_ball",
    "reversible": true,
    "components": [
      [
        [
          "chem_black_powder",
          6
        ]
      ],
      [
        [
          "copper",
          2
        ]
      ]
    ],
    "id": "477ee00e-0608-4bc0-94d3-68d5e4e77ae9"
  },
  {
    "result": "pistol_magnum_jhp",
    "type": "recipe",
    "category": "CC_AMMO",
    "subcategory": "CSC_AMMO_PISTOL",
    "skill_used": "fabrication",
    "difficulty": 3,
    "skills_required": [
      "gun",
      3
    ],
    "time": "2 m",
    "batch_time_factors": [
      60,
      5
    ],
    "book_learn": [
      [
        "recipe_bullets",
        3
      ],
      [
        "manual_pistol",
        4
      ]
    ],
    "charges": 1,
    "using": [
      [
        "req_pistol_magnum",
        1
      ],
      [
        "bullet_forming",
        5
      ],
      [
        "ammo_bullet",
        5
      ]
    ],
    "components": [
      [
        [
          "gunpowder",
          6
        ]
      ]
    ],
    "id": "41c4f178-ec6a-417c-80fa-2f66662cd893"
  },
  {
    "result": "bp_pistol_magnum_jhp",
    "type": "recipe",
    "copy-from": "pistol_magnum_jhp",
    "reversible": true,
    "components": [
      [
        [
          "chem_black_powder",
          6
        ]
      ]
    ],
    "id": "9f8450be-8717-44e0-9481-b8395d87fda1"
  }
]