[
  {
    "result": "black_powder_ball",
    "type": "recipe",
    "category": "CC_AMMO",
    "subcategory": "CSC_AMMO_RIFLE",
    "skill_used": "fabrication",
    "difficulty": 3,
    "skills_required": [
      "gun",
      1
    ],
    "time": "1 m",
    "batch_time_factors": [
      60,
      5
    ],
    "autolearn": true,
    "charges": 1,
    "reversible": true,
    "using": [
      [
        "ammo_bullet",
        10
      ]
    ],
    "qualities": [
      {
        "id": "CUT",
        "level": 1
      }
    ],
    "components": [
      [
        [
          "chem_black_powder",
          5
        ],
        [
          "gunpowder",
          5
        ],
        [
          "chem_match_head_powder",
          5
        ]
      ],
      [
        [
          "paper",
          1
        ],
        [
          "aluminum_foil",
          1
        ]
      ]
    ],
    "id": "094901bf-3790-48ca-aa50-b2cf3444e470"
  },
  {
    "result": "rifle_ball",
    "type": "recipe",
    "category": "CC_AMMO",
    "subcategory": "CSC_AMMO_RIFLE",
    "skill_used": "fabrication",
    "difficulty": 5,
    "skills_required": [
      "gun",
      5
    ],
    "time": "2 m",
    "batch_time_factors": [
      60,
      5
    ],
    "book_learn": [
      [
        "recipe_bullets",
        4
      ],
      [
        "mag_rifle",
        5
      ]
    ],
    "charges": 1,
    "using": [
      [
        "req_rifle",
        1
      ],
      [
        "bullet_forming",
        4
      ],
      [
        "ammo_bullet",
        4
      ]
    ],
    "components": [
      [
        [
          "gunpowder",
          6
        ]
      ],
      [
        [
          "copper",
          2
        ]
      ]
    ],
    "id": "7e94491a-9413-42e9-a99f-3f3b9c8b7726"
  },
  {
    "result": "bp_rifle_ball",
    "type": "recipe",
    "copy-from": "rifle_ball",
    "reversible": true,
    "components": [
      [
        [
          "chem_black_powder",
          6
        ]
      ],
      [
        [
          "copper",
          2
        ]
      ]
    ],
    "id": "3d892ea2-7b37-4a09-bff1-fabbede8c74a"
  },
  {
    "result": "rifle_jhp",
    "type": "recipe",
    "category": "CC_AMMO",
    "subcategory": "CSC_AMMO_RIFLE",
    "skill_used": "fabrication",
    "difficulty": 4,
    "skills_required": [
      "gun",
      4
    ],
    "time": "2 m",
    "batch_time_factors": [
      60,
      5
    ],
    "book_learn": [
      [
        "recipe_bullets",
        3
      ],
      [
        "mag_rifle",
        4
      ]
    ],
    "charges": 1,
    "using": [
      [
        "req_rifle",
        1
      ],
      [
        "bullet_forming",
        4
      ],
      [
        "ammo_bullet",
        4
      ]
    ],
    "components": [
      [
        [
          "gunpowder",
          6
        ]
      ]
    ],
    "id": "febfc243-531e-4298-b1e4-7da7e2aea8a2"
  },
  {
    "result": "bp_rifle_jhp",
    "type": "recipe",
    "copy-from": "rifle_jhp",
    "reversible": true,
    "components": [
      [
        [
          "chem_black_powder",
          6
        ]
      ]
    ],
    "id": "654e61e6-0ec7-41fb-9ab3-79ee8577006e"
  },
  {
    "result": "sniper_ball",
    "type": "recipe",
    "category": "CC_AMMO",
    "subcategory": "CSC_AMMO_RIFLE",
    "skill_used": "fabrication",
    "difficulty": 6,
    "skills_required": [
      "gun",
      6
    ],
    "time": "2 m",
    "batch_time_factors": [
      60,
      5
    ],
    "book_learn": [
      [
        "recipe_bullets",
        5
      ],
      [
        "mag_rifle",
        6
      ]
    ],
    "charges": 1,
    "using": [
      [
        "req_sniper",
        1
      ],
      [
        "bullet_forming",
        4
      ],
      [
        "ammo_bullet",
        8
      ]
    ],
    "components": [
      [
        [
          "gunpowder",
          10
        ]
      ],
      [
        [
          "copper",
          4
        ]
      ]
    ],
    "id": "3dc35dc6-7940-4ee1-952b-87ccd965d2ce"
  },
  {
    "result": "bp_sniper_ball",
    "type": "recipe",
    "copy-from": "sniper_ball",
    "reversible": true,
    "components": [
      [
        [
          "chem_black_powder",
          10
        ]
      ],
      [
        [
          "copper",
          4
        ]
      ]
    ],
    "id": "a3a0f82e-3a7f-4577-be9d-8474ba560fc9"
  },
  {
    "result": "sniper_jhp",
    "type": "recipe",
    "category": "CC_AMMO",
    "subcategory": "CSC_AMMO_RIFLE",
    "skill_used": "fabrication",
    "difficulty": 5,
    "skills_required": [
      "gun",
      5
    ],
    "time": "2 m",
    "batch_time_factors": [
      60,
      5
    ],
    "book_learn": [
      [
        "recipe_bullets",
        4
      ],
      [
        "mag_rifle",
        5
      ]
    ],
    "charges": 1,
    "using": [
      [
        "req_sniper",
        1
      ],
      [
        "bullet_forming",
        4
      ],
      [
        "ammo_bullet",
        8
      ]
    ],
    "components": [
      [
        [
          "gunpowder",
          10
        ]
      ]
    ],
    "id": "c68427d3-fcbb-4514-b1d3-486610974a7b"
  },
  {
    "result": "bp_sniper_jhp",
    "type": "recipe",
    "copy-from": "sniper_jhp",
    "reversible": true,
    "components": [
      [
        [
          "chem_black_powder",
          10
        ]
      ]
    ],
    "id": "47cb6add-6d1a-4ff1-89bb-c378fb5ed6de"
  },
  {
    "result": "rifle_huge_ball",
    "type": "recipe",
    "category": "CC_AMMO",
    "subcategory": "CSC_AMMO_RIFLE",
    "skill_used": "fabrication",
    "difficulty": 7,
    "skills_required": [
      "gun",
      7
    ],
    "time": "2 m",
    "batch_time_factors": [
      60,
      5
    ],
    "book_learn": [
      [
        "recipe_bullets",
        6
      ]
    ],
    "charges": 1,
    "using": [
      [
        "req_rifle_huge",
        1
      ],
      [
        "bullet_forming",
        18
      ],
      [
        "ammo_bullet",
        12
      ]
    ],
    "components": [
      [
        [
          "gunpowder",
          30
        ]
      ],
      [
        [
          "copper",
          6
        ]
      ]
    ],
    "id": "ee461471-fed8-4b07-9d0e-0b9d3a8a9a25"
  },
  {
    "result": "bp_rifle_huge_ball",
    "type": "recipe",
    "copy-from": "rifle_huge_ball",
    "reversible": true,
    "components": [
      [
        [
          "chem_black_powder",
          30
        ]
      ],
      [
        [
          "copper",
          5
        ]
      ]
    ],
    "id": "35aa5b8f-5168-4ec0-bd81-357fb2672a0e"
  },
  {
    "result": "rifle_huge_jhp",
    "type": "recipe",
    "category": "CC_AMMO",
    "subcategory": "CSC_AMMO_RIFLE",
    "skill_used": "fabrication",
    "difficulty": 6,
    "skills_required": [
      "gun",
      6
    ],
    "time": "2 m",
    "batch_time_factors": [
      60,
      5
    ],
    "book_learn": [
      [
        "recipe_bullets",
        5
      ]
    ],
    "charges": 1,
    "using": [
      [
        "req_rifle_huge",
        1
      ],
      [
        "bullet_forming",
        18
      ],
      [
        "ammo_bullet",
        12
      ]
    ],
    "components": [
      [
        [
          "gunpowder",
          30
        ]
      ]
    ],
    "id": "168447bd-8dd3-4c02-834b-feb252eccd4a"
  },
  {
    "result": "bp_rifle_huge_jhp",
    "type": "recipe",
    "copy-from": "rifle_huge_jhp",
    "reversible": true,
    "components": [
      [
        [
          "chem_black_powder",
          30
        ]
      ]
    ],
    "id": "df5cf994-083e-4e71-bb04-3edb8ce1c962"
  }
]