[
  {
    "result": "tiny_pistol_ball",
    "copy-from": "ammo_cartridge",
    "type": "uncraft",
    "using": [
      [
        "req_pistol_tiny",
        1
      ]
    ],
    "qualities": [
      {
        "id": "PULL",
        "level": 1
      }
    ],
    "components": [
      [
        [
          "lead",
          1
        ]
      ],
      [
        [
          "gunpowder",
          2
        ]
      ],
      [
        [
          "copper",
          1
        ]
      ]
    ],
    "id": "0159c539-f714-4b46-904a-89973bd57325"
  },
  {
    "result": "tiny_pistol_jhp",
    "copy-from": "ammo_cartridge",
    "type": "uncraft",
    "using": [
      [
        "req_pistol_tiny",
        1
      ]
    ],
    "qualities": [
      {
        "id": "PULL",
        "level": 1
      }
    ],
    "components": [
      [
        [
          "lead",
          1
        ]
      ],
      [
        [
          "gunpowder",
          2
        ]
      ]
    ],
    "id": "eb0cbd08-1bb6-4fbf-8be2-c3916b406407"
  },
  {
    "result": "pistol_ball",
    "copy-from": "ammo_cartridge",
    "type": "uncraft",
    "using": [
      [
        "req_pistol",
        1
      ]
    ],
    "qualities": [
      {
        "id": "PULL",
        "level": 1
      }
    ],
    "components": [
      [
        [
          "lead",
          2
        ]
      ],
      [
        [
          "gunpowder",
          4
        ]
      ],
      [
        [
          "copper",
          2
        ]
      ]
    ],
    "id": "3841d84c-96b2-42aa-bf72-285913936e53"
  },
  {
    "result": "pistol_jhp",
    "copy-from": "ammo_cartridge",
    "type": "uncraft",
    "using": [
      [
        "req_pistol",
        1
      ]
    ],
    "qualities": [
      {
        "id": "PULL",
        "level": 1
      }
    ],
    "components": [
      [
        [
          "lead",
          2
        ]
      ],
      [
        [
          "gunpowder",
          4
        ]
      ]
    ],
    "id": "8ea01593-f99d-417e-ba68-32ec4d39aaf9"
  },
  {
    "result": "pistol_magnum_ball",
    "copy-from": "ammo_cartridge",
    "type": "uncraft",
    "using": [
      [
        "req_pistol_magnum",
        1
      ]
    ],
    "qualities": [
      {
        "id": "PULL",
        "level": 1
      }
    ],
    "components": [
      [
        [
          "lead",
          4
        ]
      ],
      [
        [
          "gunpowder",
          6
        ]
      ],
      [
        [
          "copper",
          2
        ]
      ]
    ],
    "id": "91fd3e55-140d-46b1-acd5-7f652c19ced9"
  },
  {
    "result": "pistol_magnum_jhp",
    "copy-from": "ammo_cartridge",
    "type": "uncraft",
    "using": [
      [
        "req_pistol_magnum",
        1
      ]
    ],
    "qualities": [
      {
        "id": "PULL",
        "level": 1
      }
    ],
    "components": [
      [
        [
          "lead",
          4
        ]
      ],
      [
        [
          "gunpowder",
          6
        ]
      ]
    ],
    "id": "9c1c5db5-42e2-46a3-9ba7-cd291c19fbfd"
  },
  {
    "result": "rifle_ball",
    "copy-from": "ammo_cartridge",
    "type": "uncraft",
    "using": [
      [
        "req_rifle",
        1
      ]
    ],
    "qualities": [
      {
        "id": "PULL",
        "level": 2
      }
    ],
    "components": [
      [
        [
          "lead",
          4
        ]
      ],
      [
        [
          "gunpowder",
          6
        ]
      ],
      [
        [
          "copper",
          2
        ]
      ]
    ],
    "id": "a2a44e9d-6d0e-4598-84f7-b6474d3b6ca3"
  },
  {
    "result": "rifle_jhp",
    "copy-from": "ammo_cartridge",
    "type": "uncraft",
    "using": [
      [
        "req_rifle",
        1
      ]
    ],
    "qualities": [
      {
        "id": "PULL",
        "level": 2
      }
    ],
    "components": [
      [
        [
          "lead",
          4
        ]
      ],
      [
        [
          "gunpowder",
          6
        ]
      ]
    ],
    "id": "e6e004aa-a8ea-4496-a896-02a7f15fc3d0"
  },
  {
    "result": "sniper_ball",
    "copy-from": "ammo_cartridge",
    "type": "uncraft",
    "using": [
      [
        "req_sniper",
        1
      ]
    ],
    "qualities": [
      {
        "id": "PULL",
        "level": 2
      }
    ],
    "components": [
      [
        [
          "lead",
          8
        ]
      ],
      [
        [
          "gunpowder",
          10
        ]
      ],
      [
        [
          "copper",
          4
        ]
      ]
    ],
    "id": "42fb247d-52be-430f-be79-2c919d9fbab2"
  },
  {
    "result": "sniper_jhp",
    "copy-from": "ammo_cartridge",
    "type": "uncraft",
    "using": [
      [
        "req_sniper",
        1
      ]
    ],
    "qualities": [
      {
        "id": "PULL",
        "level": 2
      }
    ],
    "components": [
      [
        [
          "lead",
          8
        ]
      ],
      [
        [
          "gunpowder",
          10
        ]
      ]
    ],
    "id": "b8c133a0-9f74-460b-b2f1-4b297beb1831"
  },
  {
    "result": "rifle_huge_ball",
    "copy-from": "ammo_cartridge",
    "type": "uncraft",
    "using": [
      [
        "req_rifle_huge",
        1
      ]
    ],
    "qualities": [
      {
        "id": "PULL",
        "level": 2
      }
    ],
    "components": [
      [
        [
          "lead",
          12
        ]
      ],
      [
        [
          "gunpowder",
          30
        ]
      ],
      [
        [
          "copper",
          6
        ]
      ]
    ],
    "id": "19182313-37b0-4c2c-9fc9-6e01b563539b"
  },
  {
    "result": "rifle_huge_jhp",
    "copy-from": "ammo_cartridge",
    "type": "uncraft",
    "using": [
      [
        "req_rifle_huge",
        1
      ]
    ],
    "qualities": [
      {
        "id": "PULL",
        "level": 2
      }
    ],
    "components": [
      [
        [
          "lead",
          12
        ]
      ],
      [
        [
          "gunpowder",
          30
        ]
      ]
    ],
    "id": "37bccc20-d8c9-4c30-9983-1c5f84295464"
  },
  {
    "result": "shot_buck",
    "copy-from": "ammo_cartridge",
    "type": "uncraft",
    "using": [
      [
        "req_shot",
        1
      ]
    ],
    "qualities": [
      {
        "id": "CUT",
        "level": 1
      }
    ],
    "components": [
      [
        [
          "gunpowder",
          6
        ]
      ],
      [
        [
          "lead",
          10
        ]
      ]
    ],
    "id": "fbb009c3-245e-4c6e-a87d-586b57d68616"
  },
  {
    "result": "shot_bean",
    "copy-from": "ammo_cartridge",
    "type": "uncraft",
    "using": [
      [
        "req_shot",
        1
      ]
    ],
    "qualities": [
      {
        "id": "CUT",
        "level": 1
      }
    ],
    "components": [
      [
        [
          "gunpowder",
          3
        ]
      ],
      [
        [
          "rubber_slug",
          1
        ]
      ]
    ],
    "id": "cd7995c4-3f88-4e7b-b464-2913655293f7"
  },
  {
    "result": "shot_fowl",
    "copy-from": "ammo_cartridge",
    "type": "uncraft",
    "using": [
      [
        "req_shot",
        1
      ]
    ],
    "qualities": [
      {
        "id": "CUT",
        "level": 1
      }
    ],
    "components": [
      [
        [
          "gunpowder",
          3
        ]
      ],
      [
        [
          "lead",
          10
        ]
      ]
    ],
    "id": "88d4a695-f432-4d52-aceb-a86662e9be4d"
  },
  {
    "result": "shot_pyro",
    "copy-from": "ammo_cartridge",
    "type": "uncraft",
    "using": [
      [
        "req_shot",
        1
      ]
    ],
    "qualities": [
      {
        "id": "CUT",
        "level": 1
      }
    ],
    "components": [
      [
        [
          "gunpowder",
          3
        ]
      ],
      [
        [
          "magnesium",
          5
        ]
      ]
    ],
    "id": "2e10305c-c182-4574-8f4b-5c7adb6c2a23"
  },
  {
    "result": "shot_dart",
    "copy-from": "ammo_cartridge",
    "type": "uncraft",
    "using": [
      [
        "req_shot",
        1
      ]
    ],
    "qualities": [
      {
        "id": "CUT",
        "level": 1
      }
    ],
    "components": [
      [
        [
          "gunpowder",
          6
        ]
      ],
      [
        [
          "combatnail",
          10
        ]
      ]
    ],
    "id": "476ee159-9320-4fa7-9147-e902b267b92e"
  },
  {
    "result": "shot_foster",
    "copy-from": "ammo_cartridge",
    "type": "uncraft",
    "using": [
      [
        "req_shot",
        1
      ]
    ],
    "qualities": [
      {
        "id": "CUT",
        "level": 1
      }
    ],
    "components": [
      [
        [
          "gunpowder",
          6
        ]
      ],
      [
        [
          "lead",
          20
        ]
      ]
    ],
    "id": "44178723-dfb4-46a8-9f5a-c0ed7ca12cc6"
  }
]