[
  {
    "type": "speech",
    "speaker": "mon_utilibot_beehive",
    "sound": "\"bzzzzzz.\"",
    "volume": 3,
    "id": "d3de9a0e-874e-463f-b7d4-be32020a7371"
  },
  {
    "type": "speech",
    "speaker": "mon_craftbuddy",
    "sound": "\"Beep.\"",
    "volume": 10,
    "id": "acf9d5ec-4d8c-4db7-95ee-673a2e94a1a4"
  },
  {
    "type": "speech",
    "speaker": "mon_craftbuddy",
    "sound": "\"Beep.\"",
    "volume": 10,
    "id": "46b1e9c4-e5bd-4a6a-9a55-337f857492c9"
  },
  {
    "type": "speech",
    "speaker": "mon_craftbuddy",
    "sound": "\"Beep.\"",
    "volume": 10,
    "id": "4be9eef2-5f99-48ef-9ad0-4023cc4345fd"
  },
  {
    "type": "speech",
    "speaker": "mon_craftbuddy",
    "sound": "\"Beep?\"",
    "volume": 10,
    "id": "df0bb93a-c849-4d91-a250-5fe5227bbf3c"
  },
  {
    "type": "speech",
    "speaker": "mon_craftbuddy",
    "sound": "\"Beep?\"",
    "volume": 10,
    "id": "c137df97-767a-4bad-acde-a1c5d7547a9f"
  },
  {
    "type": "speech",
    "speaker": "mon_craftbuddy",
    "sound": "\"Beep!\"",
    "volume": 12,
    "id": "c046f15b-610a-46b4-8212-2636608ccff1"
  },
  {
    "type": "speech",
    "speaker": "mon_craftbuddy",
    "sound": "\"Beep!\"",
    "volume": 12,
    "id": "bea61f90-b81a-495f-90b1-4ae30115b2b2"
  },
  {
    "type": "speech",
    "speaker": "mon_craftbuddy",
    "sound": "\"Beeeeep beep.\"",
    "volume": 10,
    "id": "d55baa55-bc7f-4c55-851b-f0050f834229"
  },
  {
    "type": "speech",
    "speaker": "mon_craftbuddy",
    "sound": "\"Bebebeeeep.\"",
    "volume": 10,
    "id": "6a83d724-1dae-4d9c-92e8-b81f94b422e5"
  },
  {
    "type": "speech",
    "speaker": "mon_craftbuddy",
    "sound": "\"Beep boop beep?\"",
    "volume": 10,
    "id": "d03e0f87-c3e5-404d-b706-1f9891dd03c7"
  },
  {
    "type": "speech",
    "speaker": "mon_craftbuddy",
    "sound": "\"Beedoo-Beep.\"",
    "volume": 10,
    "id": "a10bf6d0-9a6a-4da5-acb8-e47665545f49"
  },
  {
    "type": "speech",
    "speaker": "mon_craftbuddy",
    "sound": "\"Beep Beep.  Whirr.\"",
    "volume": 10,
    "id": "9372ea89-82bd-4e8b-8842-2364fcafe6db"
  },
  {
    "type": "speech",
    "speaker": "mon_craftbuddy",
    "sound": "\"Vrrrr Hrrrmmm.\"",
    "volume": 10,
    "id": "925ac688-c26b-4e5b-bc02-ac7d9537e23b"
  },
  {
    "type": "speech",
    "speaker": "mon_craftbuddy",
    "sound": "\"Whirrrrr-click click.\"",
    "volume": 10,
    "id": "67d6f143-8a09-42eb-b889-4898c8eeaafc"
  },
  {
    "type": "speech",
    "speaker": "mon_craftbuddy",
    "sound": "\"Boodoobeep beep beep.\"",
    "volume": 10,
    "id": "a624bcd1-58c2-4a69-9a4d-71e4bcd0b3a9"
  },
  {
    "type": "speech",
    "speaker": "mon_craftbuddy",
    "sound": "\"Brannnnnnn Brzt Brmmmm.\"",
    "volume": 10,
    "id": "6db448b5-9175-43df-b816-312a7551a22b"
  },
  {
    "type": "speech",
    "speaker": "mon_craftbuddy",
    "sound": "\"Whshoooo.  Brzzzt.  Brzzzt.\"",
    "volume": 10,
    "id": "b1c0be04-319c-418f-8638-862f89e5bdfb"
  },
  {
    "type": "speech",
    "speaker": "mon_craftbuddy",
    "sound": "\"Brrm Bum Brrm?\"",
    "volume": 10,
    "id": "e1af25aa-7501-43ac-b8f3-8dd28c6fa35d"
  },
  {
    "type": "speech",
    "speaker": "mon_craftbuddy",
    "sound": "\"Pwweeee Krsht.\"",
    "volume": 10,
    "id": "d40d54fc-6371-40a4-99dc-f2aee1622b3e"
  },
  {
    "type": "speech",
    "speaker": "mon_craftbuddy",
    "sound": "\"Fshkt fshkt.  Booop.\"",
    "volume": 10,
    "id": "b254608f-762f-476a-86a7-2404756591e7"
  },
  {
    "type": "speech",
    "speaker": "mon_craftbuddy",
    "sound": "\"Vzt.  Vzt.  Krshhhhhhhh.\"",
    "volume": 10,
    "id": "52f625f5-9d6e-4871-817c-64c6bfa510cd"
  },
  {
    "type": "speech",
    "speaker": "mon_craftbuddy",
    "sound": "\"Whhheeee-oooo.  Bedeep.\"",
    "volume": 10,
    "id": "642c5e3f-d333-4ed6-9041-0ba4b3ac5523"
  },
  {
    "type": "speech",
    "speaker": "mon_craftbuddy",
    "sound": "\"Grrrnd clang whirrrr.\"",
    "volume": 10,
    "id": "e2c86c4f-41d1-4134-b88a-aa3852c288bc"
  },
  {
    "type": "speech",
    "speaker": "mon_craftbuddy",
    "sound": "\"Grrrrrrrnd.  Grrrnd.\"",
    "volume": 10,
    "id": "02deb0c1-1b8c-4e86-a24c-c18065c11aff"
  },
  {
    "type": "speech",
    "speaker": "mon_craftbuddy",
    "sound": "\"Cla-clang cla-clang!\"",
    "volume": 15,
    "id": "ad754093-d8ff-4216-990a-aa6a119f0b75"
  },
  {
    "type": "speech",
    "speaker": "mon_craftbuddy",
    "sound": "\"Klang!\"",
    "volume": 15,
    "id": "d2a06536-775a-4f0a-bdc3-3dc70e867240"
  },
  {
    "type": "speech",
    "speaker": "mon_craftbuddy",
    "sound": "\"Bzzzt.  Bzzzzt!\"",
    "volume": 10,
    "id": "0db5544c-c3f8-4103-ac94-a0d6726ea594"
  },
  {
    "type": "speech",
    "speaker": "mon_craftbuddy",
    "sound": "\"Bedeep.  Whurrrrrmmmm.\"",
    "volume": 10,
    "id": "2af59d9a-a95b-49ee-8be1-0fe362a5481f"
  },
  {
    "type": "speech",
    "speaker": "mon_craftbuddy",
    "sound": "\"Pwwowm.  Fsht fshrrrr.\"",
    "volume": 10,
    "id": "f95151c6-9ba7-4e48-b6ce-4f8eaeb06e27"
  },
  {
    "type": "speech",
    "speaker": "mon_craftbuddy",
    "sound": "\"Click.  Clicliclick.  Vrnnnk.\"",
    "volume": 10,
    "id": "913d504d-41e5-4b71-a546-4ff1650d6b9c"
  },
  {
    "type": "speech",
    "speaker": "mon_craftbuddy",
    "sound": "\"Shwwwrrrrnnnzzz bzzt.\"",
    "volume": 10,
    "id": "4932f774-27a8-43db-a0db-5e45553d5ede"
  },
  {
    "type": "speech",
    "speaker": "mon_distract_hack",
    "sound": "a high pitched alarm.",
    "volume": 10,
    "id": "0d6ac327-4634-4d32-aa71-e95bc5130d97"
  },
  {
    "type": "speech",
    "speaker": "mon_distract_hack",
    "sound": "a blaring siren.",
    "volume": 10,
    "id": "07bf4107-a9e0-42b7-b43a-0c293058dc52"
  },
  {
    "type": "speech",
    "speaker": "mon_defbot_paladin",
    "sound": "\"CHUG chug chug.\"",
    "volume": 50,
    "id": "dd8c10ed-b06c-4bec-84ef-04de7c480fad"
  },
  {
    "type": "speech",
    "speaker": "mon_defbot_paladin",
    "sound": "\"Creak!  Clang clang.\"",
    "volume": 50,
    "id": "8a9cee84-da7f-46cb-9d2a-e85815945de1"
  },
  {
    "type": "speech",
    "speaker": "mon_defbot_paladin",
    "sound": "\"Khr Khr Khr.\"",
    "volume": 50,
    "id": "0e5d699f-d267-4833-b312-4683c170b252"
  },
  {
    "type": "speech",
    "speaker": "mon_defbot_paladin",
    "sound": "a mechanical groaning.",
    "volume": 50,
    "id": "b8b627ce-f739-4d9b-af77-067b6366c5f8"
  },
  {
    "type": "speech",
    "speaker": "mon_defbot_paladin",
    "sound": "grinding gears.",
    "volume": 50,
    "id": "2a306739-c49e-413d-904b-c02023a93399"
  },
  {
    "type": "speech",
    "speaker": "mon_defbot_paladin",
    "sound": "tortured machinery.",
    "volume": 50,
    "id": "27db84ac-383e-4cdd-9b9e-007aa4ed1532"
  }
]