[
  {
    "result": "necro_head",
    "type": "uncraft",
    "skill_used": "fabrication",
    "difficulty": 1,
    "time": "1 m",
    "qualities": [
      {
        "id": "CUT",
        "level": 1
      }
    ],
    "components": [
      [
        [
          "etched_skull",
          1
        ]
      ]
    ],
    "id": "ea763dcc-3db6-45c5-9605-b23860170369"
  },
  {
    "result": "broken_light_hack",
    "type": "uncraft",
    "skill_used": "electronics",
    "difficulty": 4,
    "time": "2 m",
    "using": [
      [
        "soldering_standard",
        5
      ]
    ],
    "qualities": [
      {
        "id": "SCREW",
        "level": 1
      }
    ],
    "components": [
      [
        [
          "lightstrip_inactive",
          2
        ]
      ],
      [
        [
          "ai_module_basic",
          1
        ]
      ],
      [
        [
          "small_storage_battery",
          1
        ]
      ],
      [
        [
          "scrap",
          1
        ]
      ],
      [
        [
          "quad_rotors",
          1
        ]
      ],
      [
        [
          "sensor_module",
          1
        ]
      ],
      [
        [
          "identification_module",
          1
        ]
      ]
    ],
    "id": "1f0e88d6-92d7-4ea6-a495-7fd3c4398bae"
  },
  {
    "result": "broken_distract_hack",
    "type": "uncraft",
    "skill_used": "electronics",
    "difficulty": 4,
    "time": "2 m",
    "using": [
      [
        "soldering_standard",
        5
      ]
    ],
    "qualities": [
      {
        "id": "SCREW",
        "level": 1
      }
    ],
    "components": [
      [
        [
          "lightstrip_inactive",
          1
        ]
      ],
      [
        [
          "element",
          1
        ]
      ],
      [
        [
          "ai_module_basic",
          1
        ]
      ],
      [
        [
          "small_storage_battery",
          1
        ]
      ],
      [
        [
          "scrap",
          1
        ]
      ],
      [
        [
          "quad_rotors",
          1
        ]
      ],
      [
        [
          "sensor_module",
          1
        ]
      ],
      [
        [
          "identification_module",
          1
        ]
      ]
    ],
    "id": "6d0327f7-d787-4a2b-9f53-61a125191d09"
  },
  {
    "result": "broken_arson_hack",
    "type": "uncraft",
    "skill_used": "electronics",
    "difficulty": 4,
    "time": "2 m",
    "using": [
      [
        "soldering_standard",
        5
      ]
    ],
    "qualities": [
      {
        "id": "SCREW",
        "level": 1
      }
    ],
    "components": [
      [
        [
          "element",
          1
        ]
      ],
      [
        [
          "ai_module_basic",
          1
        ]
      ],
      [
        [
          "small_storage_battery",
          1
        ]
      ],
      [
        [
          "scrap",
          1
        ]
      ],
      [
        [
          "quad_rotors",
          1
        ]
      ],
      [
        [
          "sensor_module",
          1
        ]
      ],
      [
        [
          "identification_module",
          1
        ]
      ]
    ],
    "id": "9dc2acdb-de0d-4a4f-997b-726c0a34fd52"
  },
  {
    "result": "broken_spore_hack",
    "type": "uncraft",
    "skill_used": "electronics",
    "difficulty": 4,
    "time": "2 m",
    "using": [
      [
        "soldering_standard",
        5
      ]
    ],
    "qualities": [
      {
        "id": "SCREW",
        "level": 1
      }
    ],
    "components": [
      [
        [
          "ai_module_basic",
          1
        ]
      ],
      [
        [
          "small_storage_battery",
          1
        ]
      ],
      [
        [
          "scrap",
          1
        ]
      ],
      [
        [
          "quad_rotors",
          1
        ]
      ],
      [
        [
          "sensor_module",
          1
        ]
      ],
      [
        [
          "identification_module",
          1
        ]
      ]
    ],
    "id": "bfc964f9-f986-475b-84f2-82b25a73ff73"
  },
  {
    "result": "broken_turret_water",
    "type": "uncraft",
    "skill_used": "electronics",
    "difficulty": 2,
    "time": "3 m",
    "qualities": [
      {
        "id": "SCREW",
        "level": 1
      }
    ],
    "components": [
      [
        [
          "broken_turret_disarmed",
          1
        ]
      ],
      [
        [
          "hose",
          1
        ]
      ]
    ],
    "id": "ce92536e-d4c5-4866-81c0-f8e0f4c57a8e"
  },
  {
    "result": "broken_eyebot_heater",
    "type": "uncraft",
    "skill_used": "electronics",
    "difficulty": 4,
    "time": "30 m",
    "using": [
      [
        "soldering_standard",
        3
      ]
    ],
    "qualities": [
      {
        "id": "SCREW",
        "level": 1
      }
    ],
    "components": [
      [
        [
          "broken_eyebot_disarmed",
          1
        ]
      ],
      [
        [
          "robopart_microreactor",
          1
        ]
      ],
      [
        [
          "wire",
          3
        ]
      ],
      [
        [
          "scrap",
          4
        ]
      ],
      [
        [
          "element",
          10
        ]
      ]
    ],
    "id": "2bfa47d9-3642-43ca-b715-4e5bb154a95b"
  },
  {
    "result": "broken_eyebot_furnace",
    "type": "uncraft",
    "skill_used": "electronics",
    "difficulty": 4,
    "time": "30 m",
    "using": [
      [
        "soldering_standard",
        3
      ]
    ],
    "qualities": [
      {
        "id": "SCREW",
        "level": 1
      }
    ],
    "components": [
      [
        [
          "broken_eyebot_disarmed",
          1
        ]
      ],
      [
        [
          "robopart_microreactor",
          2
        ]
      ],
      [
        [
          "wire",
          3
        ]
      ],
      [
        [
          "scrap",
          4
        ]
      ],
      [
        [
          "element",
          10
        ]
      ]
    ],
    "id": "d98a0ef6-cd46-42eb-b660-a0f11511c2f5"
  },
  {
    "result": "broken_eyebot_burn",
    "type": "uncraft",
    "skill_used": "electronics",
    "difficulty": 4,
    "time": "30 m",
    "using": [
      [
        "soldering_standard",
        3
      ]
    ],
    "qualities": [
      {
        "id": "SCREW",
        "level": 1
      }
    ],
    "components": [
      [
        [
          "broken_eyebot_disarmed",
          1
        ]
      ],
      [
        [
          "robopart_microreactor",
          1
        ]
      ],
      [
        [
          "robopart_laser",
          1
        ]
      ]
    ],
    "id": "80d1ef40-337a-4c2d-82ca-2c6d63cce17c"
  },
  {
    "result": "broken_utilibot_butler",
    "type": "uncraft",
    "skill_used": "fabrication",
    "difficulty": 1,
    "time": "18 s",
    "components": [
      [
        [
          "broken_utilibot",
          1
        ]
      ],
      [
        [
          "glasses_monocle",
          1
        ]
      ],
      [
        [
          "tophat",
          1
        ]
      ]
    ],
    "id": "1b8a2348-4bf1-4ca4-867d-9fa3444674e3"
  },
  {
    "result": "broken_utilibot_const",
    "type": "uncraft",
    "skill_used": "electronics",
    "difficulty": 4,
    "time": "30 m",
    "using": [
      [
        "soldering_standard",
        3
      ]
    ],
    "qualities": [
      {
        "id": "SCREW",
        "level": 1
      }
    ],
    "components": [
      [
        [
          "broken_utilibot",
          1
        ]
      ],
      [
        [
          "elec_jackhammer",
          1
        ]
      ],
      [
        [
          "nailgun",
          1
        ]
      ],
      [
        [
          "circsaw_blade",
          6
        ]
      ],
      [
        [
          "welder",
          1
        ]
      ],
      [
        [
          "weldtank",
          1
        ]
      ],
      [
        [
          "scrap",
          5
        ]
      ]
    ],
    "id": "e87a36b3-3149-4107-b8bd-19468a057666"
  },
  {
    "result": "broken_utilibot_fire",
    "type": "uncraft",
    "skill_used": "fabrication",
    "difficulty": 4,
    "using": [
      [
        "soldering_standard",
        3
      ]
    ],
    "qualities": [
      {
        "id": "SCREW",
        "level": 1
      }
    ],
    "time": "30 m",
    "components": [
      [
        [
          "broken_utilibot",
          1
        ]
      ],
      [
        [
          "nomex",
          7
        ]
      ],
      [
        [
          "hose",
          4
        ]
      ],
      [
        [
          "watercannon",
          1
        ]
      ],
      [
        [
          "metal_tank",
          2
        ]
      ],
      [
        [
          "steel_chunk",
          3
        ]
      ],
      [
        [
          "oxygen_tank",
          2
        ]
      ]
    ],
    "id": "b3cc3dc5-ef54-44cd-8f96-900da25b35dd"
  },
  {
    "result": "broken_utilibot_blob",
    "type": "uncraft",
    "skill_used": "fabrication",
    "difficulty": 4,
    "using": [
      [
        "soldering_standard",
        3
      ]
    ],
    "qualities": [
      {
        "id": "SCREW",
        "level": 1
      }
    ],
    "time": "30 m",
    "components": [
      [
        [
          "broken_utilibot",
          1
        ]
      ],
      [
        [
          "robopart_microreactor",
          1
        ]
      ],
      [
        [
          "plastic_chunk",
          5
        ]
      ],
      [
        [
          "metal_tank_little",
          3
        ]
      ],
      [
        [
          "hose",
          3
        ]
      ],
      [
        [
          "element",
          4
        ]
      ],
      [
        [
          "scrap",
          7
        ]
      ]
    ],
    "id": "fb02293b-828d-47f7-b415-79b14e3744ca"
  },
  {
    "result": "broken_utilibot_slimespring",
    "type": "uncraft",
    "skill_used": "fabrication",
    "difficulty": 4,
    "using": [
      [
        "soldering_standard",
        3
      ]
    ],
    "qualities": [
      {
        "id": "SCREW",
        "level": 1
      }
    ],
    "time": "30 m",
    "components": [
      [
        [
          "broken_utilibot",
          1
        ]
      ],
      [
        [
          "robopart_microreactor",
          1
        ]
      ],
      [
        [
          "metal_tank_little",
          3
        ]
      ],
      [
        [
          "plastic_chunk",
          5
        ]
      ],
      [
        [
          "hose",
          3
        ]
      ],
      [
        [
          "element",
          4
        ]
      ],
      [
        [
          "scrap",
          7
        ]
      ]
    ],
    "id": "dcd6a93d-e3a4-4e07-a641-60b33aada592"
  },
  {
    "result": "broken_utilibot_digester",
    "type": "uncraft",
    "skill_used": "fabrication",
    "difficulty": 4,
    "using": [
      [
        "soldering_standard",
        3
      ]
    ],
    "qualities": [
      {
        "id": "SCREW",
        "level": 1
      }
    ],
    "time": "30 m",
    "components": [
      [
        [
          "broken_utilibot",
          1
        ]
      ],
      [
        [
          "robopart_microreactor",
          1
        ]
      ],
      [
        [
          "plastic_chunk",
          5
        ]
      ],
      [
        [
          "hose",
          1
        ]
      ],
      [
        [
          "element",
          4
        ]
      ],
      [
        [
          "metal_tank_little",
          2
        ]
      ],
      [
        [
          "element",
          4
        ]
      ],
      [
        [
          "scrap",
          7
        ]
      ]
    ],
    "id": "ac8e1713-7491-4c92-954b-236b96e12453"
  },
  {
    "result": "broken_utilibot_beehive",
    "type": "uncraft",
    "skill_used": "fabrication",
    "difficulty": 4,
    "using": [
      [
        "soldering_standard",
        3
      ]
    ],
    "qualities": [
      {
        "id": "SCREW",
        "level": 1
      }
    ],
    "time": "30 m",
    "components": [
      [
        [
          "broken_utilibot",
          1
        ]
      ],
      [
        [
          "robopart_microreactor",
          1
        ]
      ],
      [
        [
          "stick",
          4
        ]
      ],
      [
        [
          "metal_tank_little",
          2
        ]
      ],
      [
        [
          "scrap",
          5
        ]
      ]
    ],
    "id": "e63c1d5f-0d01-4334-9d0b-172292621f60"
  },
  {
    "result": "broken_medibot_disarmed",
    "type": "uncraft",
    "skill_used": "fabrication",
    "difficulty": 4,
    "using": [
      [
        "soldering_standard",
        3
      ]
    ],
    "qualities": [
      {
        "id": "SCREW",
        "level": 1
      }
    ],
    "time": "30 m",
    "components": [
      [
        [
          "ai_module_advanced",
          1
        ]
      ],
      [
        [
          "self_monitoring_module",
          1
        ]
      ],
      [
        [
          "sensor_module",
          1
        ]
      ],
      [
        [
          "memory_module",
          1
        ]
      ],
      [
        [
          "pathfinding_module",
          1
        ]
      ],
      [
        [
          "identification_module",
          1
        ]
      ],
      [
        [
          "robopart_microreactor",
          1
        ]
      ],
      [
        [
          "power_supply",
          2
        ]
      ],
      [
        [
          "small_storage_battery",
          2
        ]
      ],
      [
        [
          "solar_cell",
          2
        ]
      ],
      [
        [
          "android_chassis",
          1
        ]
      ],
      [
        [
          "android_arms",
          2
        ]
      ],
      [
        [
          "plastic_chunk",
          2
        ]
      ],
      [
        [
          "steel_chunk",
          4
        ]
      ]
    ],
    "id": "be915026-7df5-4452-b5d2-223e1869e3af"
  },
  {
    "result": "broken_medibot",
    "type": "uncraft",
    "skill_used": "fabrication",
    "difficulty": 4,
    "using": [
      [
        "soldering_standard",
        3
      ]
    ],
    "qualities": [
      {
        "id": "SCREW",
        "level": 1
      }
    ],
    "time": "30 m",
    "components": [
      [
        [
          "broken_medibot_disarmed",
          1
        ]
      ],
      [
        [
          "robopart_surgery",
          1
        ]
      ],
      [
        [
          "robopart_pharma",
          1
        ]
      ],
      [
        [
          "xlframe",
          1
        ]
      ],
      [
        [
          "e_scrap",
          1
        ]
      ],
      [
        [
          "plastic_chunk",
          2
        ]
      ],
      [
        [
          "steel_chunk",
          1
        ]
      ]
    ],
    "id": "160fbe11-13c9-4191-a59a-c8dd118506e3"
  },
  {
    "result": "broken_medibot_assassin",
    "type": "uncraft",
    "skill_used": "fabrication",
    "difficulty": 4,
    "using": [
      [
        "soldering_standard",
        3
      ]
    ],
    "qualities": [
      {
        "id": "SCREW",
        "level": 1
      }
    ],
    "time": "30 m",
    "components": [
      [
        [
          "broken_medibot_disarmed",
          1
        ]
      ],
      [
        [
          "spike",
          4
        ]
      ],
      [
        [
          "robopart_pharma",
          1
        ]
      ],
      [
        [
          "scrap",
          4
        ]
      ]
    ],
    "id": "1fbcb4f8-3e50-4a26-bf16-bf875b79ca1b"
  },
  {
    "result": "broken_medibot_elixir",
    "type": "uncraft",
    "skill_used": "fabrication",
    "difficulty": 4,
    "using": [
      [
        "soldering_standard",
        3
      ]
    ],
    "qualities": [
      {
        "id": "SCREW",
        "level": 1
      }
    ],
    "time": "30 m",
    "components": [
      [
        [
          "broken_medibot_disarmed",
          1
        ]
      ],
      [
        [
          "robopart_microreactor",
          1
        ]
      ],
      [
        [
          "robopart_pharma",
          1
        ]
      ],
      [
        [
          "metal_tank_little",
          1
        ]
      ],
      [
        [
          "bottle_glass",
          5
        ]
      ],
      [
        [
          "e_scrap",
          1
        ]
      ],
      [
        [
          "plastic_chunk",
          2
        ]
      ],
      [
        [
          "steel_chunk",
          1
        ]
      ]
    ],
    "id": "6ef1973c-5cca-482d-ae6a-f5e577a3c48f"
  },
  {
    "result": "broken_medibot_party",
    "type": "uncraft",
    "skill_used": "fabrication",
    "difficulty": 4,
    "using": [
      [
        "soldering_standard",
        3
      ]
    ],
    "qualities": [
      {
        "id": "SCREW",
        "level": 1
      }
    ],
    "time": "30 m",
    "components": [
      [
        [
          "broken_medibot_disarmed",
          1
        ]
      ],
      [
        [
          "robopart_pharma",
          1
        ]
      ],
      [
        [
          "metal_tank_little",
          1
        ]
      ],
      [
        [
          "e_scrap",
          1
        ]
      ],
      [
        [
          "lightstrip_inactive",
          10
        ]
      ],
      [
        [
          "scrap",
          3
        ]
      ]
    ],
    "id": "50b01906-bf10-415c-9881-ce9b6adcae92"
  },
  {
    "result": "broken_skitterbot_rat",
    "type": "uncraft",
    "skill_used": "fabrication",
    "difficulty": 4,
    "using": [
      [
        "soldering_standard",
        3
      ]
    ],
    "qualities": [
      {
        "id": "SCREW",
        "level": 1
      }
    ],
    "time": "30 m",
    "components": [
      [
        [
          "broken_skitterbot_disarmed",
          1
        ]
      ],
      [
        [
          "robopart_tazer",
          1
        ]
      ],
      [
        [
          "e_scrap",
          1
        ]
      ],
      [
        [
          "steel_chunk",
          3
        ]
      ]
    ],
    "id": "bcd9236b-71c6-4783-81cd-8d671ade009d"
  },
  {
    "result": "broken_skitterbot_grab",
    "type": "uncraft",
    "skill_used": "fabrication",
    "difficulty": 4,
    "using": [
      [
        "soldering_standard",
        3
      ]
    ],
    "qualities": [
      {
        "id": "SCREW",
        "level": 1
      }
    ],
    "time": "30 m",
    "components": [
      [
        [
          "broken_skitterbot_disarmed",
          1
        ]
      ],
      [
        [
          "clockworks",
          4
        ]
      ],
      [
        [
          "motor_small",
          1
        ]
      ],
      [
        [
          "e_scrap",
          1
        ]
      ],
      [
        [
          "steel_chunk",
          3
        ]
      ]
    ],
    "id": "79fef38e-165d-4734-bef8-b01057955d0a"
  },
  {
    "result": "broken_skitterbot_hunter",
    "type": "uncraft",
    "skill_used": "fabrication",
    "difficulty": 4,
    "using": [
      [
        "soldering_standard",
        3
      ]
    ],
    "qualities": [
      {
        "id": "SCREW",
        "level": 1
      }
    ],
    "time": "30 m",
    "components": [
      [
        [
          "broken_skitterbot_disarmed",
          1
        ]
      ],
      [
        [
          "robopart_8x40mm",
          1
        ]
      ],
      [
        [
          "e_scrap",
          1
        ]
      ],
      [
        [
          "steel_chunk",
          3
        ]
      ]
    ],
    "id": "b72b495a-e8b6-48dc-898a-63e06fb65d50"
  },
  {
    "result": "broken_broken_cyborg",
    "type": "uncraft",
    "skill_used": "electronics",
    "difficulty": 6,
    "time": "120 m",
    "using": [
      [
        "soldering_standard",
        20
      ],
      [
        "welding_standard",
        5
      ]
    ],
    "qualities": [
      {
        "id": "SCREW",
        "level": 1
      },
      {
        "id": "SAW_M",
        "level": 1
      }
    ],
    "components": [
      [
        [
          "robopart_microreactor",
          1
        ]
      ],
      [
        [
          "power_supply",
          4
        ]
      ],
      [
        [
          "small_storage_battery",
          3
        ]
      ],
      [
        [
          "bio_digestion",
          1
        ]
      ],
      [
        [
          "bone",
          1
        ]
      ],
      [
        [
          "android_legs",
          1
        ]
      ],
      [
        [
          "android_chassis",
          1
        ]
      ],
      [
        [
          "android_arms",
          1
        ]
      ],
      [
        [
          "robot_controls",
          1
        ]
      ]
    ],
    "id": "c5508400-e22d-46ac-a8af-15ee87850b12"
  },
  {
    "result": "broken_cyborg_necro",
    "type": "uncraft",
    "skill_used": "fabrication",
    "difficulty": 2,
    "time": "3 m",
    "using": [
      [
        "soldering_standard",
        3
      ]
    ],
    "qualities": [
      {
        "id": "SCREW",
        "level": 1
      }
    ],
    "components": [
      [
        [
          "broken_broken_cyborg",
          1
        ]
      ],
      [
        [
          "necro_head",
          1
        ]
      ]
    ],
    "id": "1b1de9f4-e8a7-4396-9388-02212cfc8c83"
  },
  {
    "result": "broken_defbot_9mm",
    "type": "uncraft",
    "skill_used": "electronics",
    "difficulty": 4,
    "time": "30 m",
    "using": [
      [
        "soldering_standard",
        3
      ]
    ],
    "qualities": [
      {
        "id": "SCREW",
        "level": 1
      }
    ],
    "components": [
      [
        [
          "broken_defbot_disarmed",
          1
        ]
      ],
      [
        [
          "robopart_tazer",
          1
        ]
      ],
      [
        [
          "robopart_9mm",
          1
        ]
      ]
    ],
    "id": "6d971446-c959-4663-b293-c83381c3faf5"
  },
  {
    "result": "broken_defbot_shot",
    "type": "uncraft",
    "skill_used": "electronics",
    "difficulty": 4,
    "time": "30 m",
    "using": [
      [
        "soldering_standard",
        3
      ]
    ],
    "qualities": [
      {
        "id": "SCREW",
        "level": 1
      }
    ],
    "components": [
      [
        [
          "broken_defbot_disarmed",
          1
        ]
      ],
      [
        [
          "robopart_tazer",
          1
        ]
      ],
      [
        [
          "robopart_shot",
          1
        ]
      ]
    ],
    "id": "5f97a64c-561c-44e7-9b37-6c26a789c849"
  },
  {
    "result": "broken_defbot_riotcontrol",
    "type": "uncraft",
    "skill_used": "electronics",
    "difficulty": 4,
    "time": "30 m",
    "using": [
      [
        "soldering_standard",
        3
      ]
    ],
    "qualities": [
      {
        "id": "SCREW",
        "level": 1
      }
    ],
    "components": [
      [
        [
          "broken_defbot_disarmed",
          1
        ]
      ],
      [
        [
          "robopart_tazer",
          1
        ]
      ],
      [
        [
          "robopart_teargas",
          1
        ]
      ],
      [
        [
          "robopart_beanbag",
          1
        ]
      ]
    ],
    "id": "b3a101e6-61ab-48d8-81ce-c7a5ab22929a"
  },
  {
    "result": "broken_defbot_cowboy",
    "type": "uncraft",
    "skill_used": "electronics",
    "difficulty": 4,
    "time": "30 m",
    "using": [
      [
        "soldering_standard",
        3
      ]
    ],
    "qualities": [
      {
        "id": "SCREW",
        "level": 1
      }
    ],
    "components": [
      [
        [
          "broken_defbot_disarmed",
          1
        ]
      ],
      [
        [
          "robopart_shot",
          1
        ]
      ],
      [
        [
          "circsaw_off",
          1
        ]
      ],
      [
        [
          "cowboy_hat",
          1
        ]
      ],
      [
        [
          "scrap",
          5
        ]
      ]
    ],
    "id": "948af7fa-891d-4c30-9df9-35b5e15c8ba8"
  },
  {
    "result": "broken_defbot_samurai",
    "type": "uncraft",
    "skill_used": "electronics",
    "difficulty": 4,
    "time": "30 m",
    "using": [
      [
        "soldering_standard",
        3
      ]
    ],
    "qualities": [
      {
        "id": "SCREW",
        "level": 1
      }
    ],
    "components": [
      [
        [
          "broken_defbot_disarmed",
          1
        ]
      ],
      [
        [
          "robopart_microreactor",
          1
        ]
      ],
      [
        [
          "robopart_tazer",
          2
        ]
      ],
      [
        [
          "blade",
          1
        ]
      ],
      [
        [
          "wire_barbed",
          2
        ]
      ],
      [
        [
          "small_storage_battery",
          1
        ]
      ],
      [
        [
          "scrap",
          5
        ]
      ]
    ],
    "id": "07e8f09e-f0e5-41d5-99a1-c7f28928d744"
  },
  {
    "result": "broken_defbot_paladin",
    "type": "uncraft",
    "skill_used": "electronics",
    "difficulty": 4,
    "time": "30 m",
    "using": [
      [
        "soldering_standard",
        3
      ]
    ],
    "qualities": [
      {
        "id": "SCREW",
        "level": 1
      }
    ],
    "components": [
      [
        [
          "broken_defbot_disarmed",
          1
        ]
      ],
      [
        [
          "flamethrower_simple",
          1
        ]
      ],
      [
        [
          "hose",
          1
        ]
      ],
      [
        [
          "metal_tank",
          1
        ]
      ],
      [
        [
          "nomex",
          5
        ]
      ],
      [
        [
          "scrap",
          5
        ]
      ]
    ],
    "id": "80ad5de5-07e0-4885-a8bc-2008d0f14916"
  },
  {
    "result": "broken_milbot_disarmed",
    "type": "uncraft",
    "skill_used": "electronics",
    "difficulty": 6,
    "time": "120 m",
    "using": [
      [
        "soldering_standard",
        20
      ],
      [
        "welding_standard",
        5
      ]
    ],
    "qualities": [
      {
        "id": "SCREW",
        "level": 1
      },
      {
        "id": "SAW_M",
        "level": 1
      }
    ],
    "components": [
      [
        [
          "ai_module",
          1
        ]
      ],
      [
        [
          "sensor_module",
          1
        ]
      ],
      [
        [
          "memory_module",
          1
        ]
      ],
      [
        [
          "targeting_module",
          1
        ]
      ],
      [
        [
          "gun_module",
          1
        ]
      ],
      [
        [
          "identification_module",
          1
        ]
      ],
      [
        [
          "robot_controls",
          1
        ]
      ],
      [
        [
          "robopart_microreactor",
          1
        ]
      ],
      [
        [
          "power_supply",
          4
        ]
      ],
      [
        [
          "medium_storage_battery",
          1
        ]
      ],
      [
        [
          "motor",
          1
        ]
      ],
      [
        [
          "hdframe",
          1
        ]
      ],
      [
        [
          "omni_wheel",
          1
        ]
      ],
      [
        [
          "kevlar_plate",
          8
        ]
      ],
      [
        [
          "steel_chunk",
          8
        ]
      ]
    ],
    "id": "19763cb0-e409-4de6-9b1c-5b9385ee43cf"
  },
  {
    "result": "broken_milbot_trainer",
    "type": "uncraft",
    "skill_used": "electronics",
    "difficulty": 4,
    "time": "30 m",
    "using": [
      [
        "soldering_standard",
        3
      ]
    ],
    "qualities": [
      {
        "id": "SCREW",
        "level": 1
      }
    ],
    "components": [
      [
        [
          "broken_milbot_disarmed",
          1
        ]
      ],
      [
        [
          "robopart_paintball",
          1
        ]
      ]
    ],
    "id": "179a12e0-6845-42d3-963d-6ab54e9bfa02"
  },
  {
    "result": "broken_milbot_556",
    "type": "uncraft",
    "skill_used": "electronics",
    "difficulty": 4,
    "time": "30 m",
    "using": [
      [
        "soldering_standard",
        3
      ]
    ],
    "qualities": [
      {
        "id": "SCREW",
        "level": 1
      }
    ],
    "components": [
      [
        [
          "broken_milbot_disarmed",
          1
        ]
      ],
      [
        [
          "robopart_tazer",
          1
        ]
      ],
      [
        [
          "robopart_556",
          1
        ]
      ]
    ],
    "id": "243962cf-12e9-4af5-acd4-2a8cee2b7ead"
  },
  {
    "result": "broken_milbot_308",
    "type": "uncraft",
    "skill_used": "electronics",
    "difficulty": 4,
    "time": "30 m",
    "using": [
      [
        "soldering_standard",
        3
      ]
    ],
    "qualities": [
      {
        "id": "SCREW",
        "level": 1
      }
    ],
    "components": [
      [
        [
          "broken_milbot_disarmed",
          1
        ]
      ],
      [
        [
          "robopart_tazer",
          1
        ]
      ],
      [
        [
          "robopart_308",
          1
        ]
      ]
    ],
    "id": "31a30c67-e803-435e-b04f-68f49aead32a"
  },
  {
    "result": "broken_milbot_50bmg",
    "type": "uncraft",
    "skill_used": "electronics",
    "difficulty": 4,
    "time": "30 m",
    "using": [
      [
        "soldering_standard",
        3
      ]
    ],
    "qualities": [
      {
        "id": "SCREW",
        "level": 1
      }
    ],
    "components": [
      [
        [
          "broken_milbot_disarmed",
          1
        ]
      ],
      [
        [
          "robopart_tazer",
          1
        ]
      ],
      [
        [
          "robopart_50bmg",
          1
        ]
      ]
    ],
    "id": "1bb72790-b9e6-4008-bff2-03e8f25c3542"
  },
  {
    "result": "broken_milbot_8x40mm",
    "type": "uncraft",
    "skill_used": "electronics",
    "difficulty": 4,
    "time": "30 m",
    "using": [
      [
        "soldering_standard",
        3
      ]
    ],
    "qualities": [
      {
        "id": "SCREW",
        "level": 1
      }
    ],
    "components": [
      [
        [
          "broken_milbot_disarmed",
          1
        ]
      ],
      [
        [
          "robopart_tazer",
          1
        ]
      ],
      [
        [
          "robopart_8x40mm",
          1
        ]
      ]
    ],
    "id": "e950264a-ff8d-4a91-8236-9b879b276de0"
  },
  {
    "result": "broken_milbot_needle",
    "type": "uncraft",
    "skill_used": "electronics",
    "difficulty": 4,
    "time": "30 m",
    "using": [
      [
        "soldering_standard",
        3
      ]
    ],
    "qualities": [
      {
        "id": "SCREW",
        "level": 1
      }
    ],
    "components": [
      [
        [
          "broken_milbot_disarmed",
          1
        ]
      ],
      [
        [
          "robopart_tazer",
          1
        ]
      ],
      [
        [
          "robopart_needle",
          1
        ]
      ]
    ],
    "id": "a74fc4a4-6b68-40f5-ae68-9717f76dea14"
  },
  {
    "result": "broken_milbot_40mm",
    "type": "uncraft",
    "skill_used": "electronics",
    "difficulty": 4,
    "time": "30 m",
    "using": [
      [
        "soldering_standard",
        3
      ]
    ],
    "qualities": [
      {
        "id": "SCREW",
        "level": 1
      }
    ],
    "components": [
      [
        [
          "broken_milbot_disarmed",
          1
        ]
      ],
      [
        [
          "robopart_tazer",
          1
        ]
      ],
      [
        [
          "robopart_40mm",
          1
        ]
      ]
    ],
    "id": "646bfc0e-da5f-48e7-8863-8d99c4869410"
  },
  {
    "result": "broken_milbot_flame",
    "type": "uncraft",
    "skill_used": "electronics",
    "difficulty": 4,
    "time": "30 m",
    "using": [
      [
        "soldering_standard",
        3
      ]
    ],
    "qualities": [
      {
        "id": "SCREW",
        "level": 1
      }
    ],
    "components": [
      [
        [
          "broken_milbot_disarmed",
          1
        ]
      ],
      [
        [
          "robopart_tazer",
          1
        ]
      ],
      [
        [
          "robopart_flame",
          1
        ]
      ]
    ],
    "id": "658ff656-cdf7-437d-adbd-c751e93fe8f1"
  },
  {
    "result": "broken_milbot_gaurdian",
    "type": "uncraft",
    "skill_used": "electronics",
    "difficulty": 4,
    "time": "30 m",
    "using": [
      [
        "soldering_standard",
        3
      ]
    ],
    "qualities": [
      {
        "id": "SCREW",
        "level": 1
      }
    ],
    "components": [
      [
        [
          "broken_milbot_disarmed",
          1
        ]
      ],
      [
        [
          "robopart_9mm",
          2
        ]
      ]
    ],
    "id": "33548916-5114-4572-8b4e-9fd8b779da84"
  },
  {
    "result": "broken_milbot_deluxe",
    "type": "uncraft",
    "skill_used": "electronics",
    "difficulty": 4,
    "time": "30 m",
    "using": [
      [
        "soldering_standard",
        3
      ]
    ],
    "qualities": [
      {
        "id": "SCREW",
        "level": 1
      }
    ],
    "components": [
      [
        [
          "broken_milbot_disarmed",
          1
        ]
      ],
      [
        [
          "robopart_9mm",
          2
        ]
      ],
      [
        [
          "gold_small",
          100
        ]
      ]
    ],
    "id": "5ba486d2-658f-4752-9156-9ad89c9fc79e"
  },
  {
    "result": "broken_milbot_protector",
    "type": "uncraft",
    "skill_used": "electronics",
    "difficulty": 4,
    "time": "30 m",
    "using": [
      [
        "soldering_standard",
        3
      ]
    ],
    "qualities": [
      {
        "id": "SCREW",
        "level": 1
      }
    ],
    "components": [
      [
        [
          "broken_milbot_disarmed",
          1
        ]
      ],
      [
        [
          "robopart_556",
          1
        ]
      ]
    ],
    "id": "c566821d-631c-469c-acd4-fc272c1b9a9b"
  },
  {
    "result": "broken_milbot_defender",
    "type": "uncraft",
    "skill_used": "electronics",
    "difficulty": 4,
    "time": "30 m",
    "using": [
      [
        "soldering_standard",
        3
      ]
    ],
    "qualities": [
      {
        "id": "SCREW",
        "level": 1
      }
    ],
    "components": [
      [
        [
          "broken_milbot_disarmed",
          1
        ]
      ],
      [
        [
          "robopart_50bmg",
          1
        ]
      ]
    ],
    "id": "5d6b6824-2364-4685-981c-9cd8a4388e39"
  },
  {
    "result": "broken_advbot_disarmed",
    "type": "uncraft",
    "skill_used": "electronics",
    "difficulty": 6,
    "time": "120 m",
    "using": [
      [
        "soldering_standard",
        20
      ],
      [
        "welding_standard",
        5
      ]
    ],
    "qualities": [
      {
        "id": "SCREW",
        "level": 1
      },
      {
        "id": "SAW_M",
        "level": 1
      }
    ],
    "components": [
      [
        [
          "ai_module",
          1
        ]
      ],
      [
        [
          "sensor_module",
          1
        ]
      ],
      [
        [
          "memory_module",
          1
        ]
      ],
      [
        [
          "targeting_module",
          1
        ]
      ],
      [
        [
          "gun_module",
          1
        ]
      ],
      [
        [
          "identification_module",
          1
        ]
      ],
      [
        [
          "robot_controls",
          1
        ]
      ],
      [
        [
          "robopart_microreactor",
          1
        ]
      ],
      [
        [
          "power_supply",
          4
        ]
      ],
      [
        [
          "medium_storage_battery",
          1
        ]
      ],
      [
        [
          "motor",
          1
        ]
      ],
      [
        [
          "frame",
          1
        ]
      ],
      [
        [
          "omni_wheel",
          1
        ]
      ],
      [
        [
          "alloy_plate",
          6
        ]
      ],
      [
        [
          "plastic_chunk",
          6
        ]
      ],
      [
        [
          "steel_chunk",
          3
        ]
      ]
    ],
    "id": "dda6cdd9-2638-431e-bb71-2bfd999185ef"
  },
  {
    "result": "broken_advbot_laser",
    "type": "uncraft",
    "skill_used": "electronics",
    "difficulty": 4,
    "time": "30 m",
    "using": [
      [
        "soldering_standard",
        3
      ]
    ],
    "qualities": [
      {
        "id": "SCREW",
        "level": 1
      }
    ],
    "components": [
      [
        [
          "broken_advbot_disarmed",
          1
        ]
      ],
      [
        [
          "robopart_microreactor",
          1
        ]
      ],
      [
        [
          "robopart_laser",
          1
        ]
      ]
    ],
    "id": "963512b4-35c2-47b0-b712-6f37baf20594"
  },
  {
    "result": "broken_advbot_plasma",
    "type": "uncraft",
    "skill_used": "electronics",
    "difficulty": 4,
    "time": "30 m",
    "using": [
      [
        "soldering_standard",
        3
      ]
    ],
    "qualities": [
      {
        "id": "SCREW",
        "level": 1
      }
    ],
    "components": [
      [
        [
          "broken_advbot_disarmed",
          1
        ]
      ],
      [
        [
          "robopart_microreactor",
          1
        ]
      ],
      [
        [
          "robopart_plasma",
          1
        ]
      ]
    ],
    "id": "176aba47-c71c-4cf7-86be-24995ec8c971"
  },
  {
    "result": "broken_advbot_rail",
    "type": "uncraft",
    "skill_used": "electronics",
    "difficulty": 4,
    "time": "30 m",
    "using": [
      [
        "soldering_standard",
        3
      ]
    ],
    "qualities": [
      {
        "id": "SCREW",
        "level": 1
      }
    ],
    "components": [
      [
        [
          "broken_advbot_disarmed",
          1
        ]
      ],
      [
        [
          "robopart_microreactor",
          1
        ]
      ],
      [
        [
          "robopart_rail",
          1
        ]
      ]
    ],
    "id": "40d6a0e4-d4dc-4805-8a3f-4985e0519f3f"
  },
  {
    "result": "broken_advbot_lightning",
    "type": "uncraft",
    "skill_used": "electronics",
    "difficulty": 4,
    "time": "30 m",
    "using": [
      [
        "soldering_standard",
        3
      ]
    ],
    "qualities": [
      {
        "id": "SCREW",
        "level": 1
      }
    ],
    "components": [
      [
        [
          "broken_advbot_disarmed",
          1
        ]
      ],
      [
        [
          "robopart_microreactor",
          1
        ]
      ],
      [
        [
          "robopart_lightning",
          1
        ]
      ]
    ],
    "id": "51e8453f-5069-4635-b611-6c7264299c5c"
  },
  {
    "result": "broken_advbot_emp",
    "type": "uncraft",
    "skill_used": "electronics",
    "difficulty": 4,
    "time": "30 m",
    "using": [
      [
        "soldering_standard",
        3
      ]
    ],
    "qualities": [
      {
        "id": "SCREW",
        "level": 1
      }
    ],
    "components": [
      [
        [
          "broken_advbot_disarmed",
          1
        ]
      ],
      [
        [
          "robopart_microreactor",
          1
        ]
      ],
      [
        [
          "robopart_emp",
          1
        ]
      ]
    ],
    "id": "24a1a912-5fe4-4606-8b2b-8edfb944246d"
  },
  {
    "result": "broken_advbot_glitter",
    "type": "uncraft",
    "skill_used": "electronics",
    "difficulty": 4,
    "time": "30 m",
    "using": [
      [
        "soldering_standard",
        3
      ]
    ],
    "qualities": [
      {
        "id": "SCREW",
        "level": 1
      }
    ],
    "components": [
      [
        [
          "broken_advbot_disarmed",
          1
        ]
      ],
      [
        [
          "robopart_microreactor",
          2
        ]
      ],
      [
        [
          "robopart_laser",
          2
        ]
      ],
      [
        [
          "small_storage_battery",
          2
        ]
      ],
      [
        [
          "glass_shard",
          1
        ]
      ]
    ],
    "id": "db12c289-e083-403d-9a84-c4c79d7ad638"
  },
  {
    "result": "broken_advbot_bitter",
    "type": "uncraft",
    "skill_used": "electronics",
    "difficulty": 4,
    "time": "30 m",
    "using": [
      [
        "soldering_standard",
        3
      ]
    ],
    "qualities": [
      {
        "id": "SCREW",
        "level": 1
      }
    ],
    "components": [
      [
        [
          "broken_advbot_disarmed",
          1
        ]
      ],
      [
        [
          "robopart_microreactor",
          1
        ]
      ],
      [
        [
          "metal_tank_little",
          2
        ]
      ],
      [
        [
          "hose",
          2
        ]
      ],
      [
        [
          "robopart_acid",
          1
        ]
      ]
    ],
    "id": "95e5cfc5-7db7-47c5-8e17-2c3ef0d03e00"
  },
  {
    "result": "broken_chickenbot_horror",
    "type": "uncraft",
    "skill_used": "electronics",
    "difficulty": 6,
    "time": "120 m",
    "using": [
      [
        "soldering_standard",
        20
      ],
      [
        "welding_standard",
        5
      ]
    ],
    "qualities": [
      {
        "id": "SCREW",
        "level": 1
      },
      {
        "id": "SAW_M",
        "level": 1
      }
    ],
    "components": [
      [
        [
          "broken_chickenbot_disarmed",
          1
        ]
      ],
      [
        [
          "etched_skull",
          4
        ]
      ],
      [
        [
          "elec_chainsaw_off",
          2
        ]
      ],
      [
        [
          "spiked_plate",
          1
        ]
      ],
      [
        [
          "stereo",
          1
        ]
      ]
    ],
    "id": "d837d78a-db67-41f7-beff-a5ff6d8bb0ac"
  },
  {
    "result": "broken_chickenbot_terror",
    "type": "uncraft",
    "skill_used": "electronics",
    "difficulty": 6,
    "time": "120 m",
    "using": [
      [
        "soldering_standard",
        20
      ],
      [
        "welding_standard",
        5
      ]
    ],
    "qualities": [
      {
        "id": "SCREW",
        "level": 1
      },
      {
        "id": "SAW_M",
        "level": 1
      }
    ],
    "components": [
      [
        [
          "broken_chickenbot_disarmed",
          1
        ]
      ],
      [
        [
          "etched_skull",
          4
        ]
      ],
      [
        [
          "motor_small",
          2
        ]
      ],
      [
        [
          "spiked_plate",
          1
        ]
      ],
      [
        [
          "spear_steel",
          2
        ]
      ],
      [
        [
          "stereo",
          1
        ]
      ]
    ],
    "id": "7d558a0a-630e-4af5-b5ab-b17f8273428e"
  },
  {
    "result": "broken_chickenbot_nightmare",
    "type": "uncraft",
    "skill_used": "electronics",
    "difficulty": 6,
    "time": "120 m",
    "using": [
      [
        "soldering_standard",
        20
      ],
      [
        "welding_standard",
        5
      ]
    ],
    "qualities": [
      {
        "id": "SCREW",
        "level": 1
      },
      {
        "id": "SAW_M",
        "level": 1
      }
    ],
    "components": [
      [
        [
          "broken_chickenbot_disarmed",
          1
        ]
      ],
      [
        [
          "etched_skull",
          4
        ]
      ],
      [
        [
          "motor_small",
          2
        ]
      ],
      [
        [
          "grapnel",
          3
        ]
      ],
      [
        [
          "spiked_plate",
          1
        ]
      ],
      [
        [
          "chain",
          3
        ]
      ],
      [
        [
          "stereo",
          1
        ]
      ]
    ],
    "id": "250885f1-e0a6-4a16-a0ff-994bc5bdcc19"
  },
  {
    "result": "broken_tankbot_king",
    "type": "uncraft",
    "skill_used": "electronics",
    "difficulty": 6,
    "time": "120 m",
    "using": [
      [
        "soldering_standard",
        20
      ],
      [
        "welding_standard",
        5
      ]
    ],
    "qualities": [
      {
        "id": "SCREW",
        "level": 1
      },
      {
        "id": "SAW_M",
        "level": 1
      }
    ],
    "components": [
      [
        [
          "broken_tankbot_disarmed",
          1
        ]
      ],
      [
        [
          "motor",
          2
        ]
      ],
      [
        [
          "steel_plate",
          6
        ]
      ]
    ],
    "id": "9bec72bc-388c-4aae-935d-b59358d687a6"
  },
  {
    "result": "broken_tankbot_sultan",
    "type": "uncraft",
    "skill_used": "electronics",
    "difficulty": 6,
    "time": "120 m",
    "using": [
      [
        "soldering_standard",
        20
      ],
      [
        "welding_standard",
        5
      ]
    ],
    "qualities": [
      {
        "id": "SCREW",
        "level": 1
      },
      {
        "id": "SAW_M",
        "level": 1
      }
    ],
    "components": [
      [
        [
          "broken_tankbot_disarmed",
          1
        ]
      ],
      [
        [
          "motor",
          1
        ]
      ],
      [
        [
          "steel_plate",
          4
        ]
      ],
      [
        [
          "robopart_microreactor",
          1
        ]
      ]
    ],
    "id": "dda38ba9-d37b-4099-9fe3-68d5d6539c2b"
  }
]