[
  {
    "type": "mapgen",
    "om_terrain": "2storyE_basement",
    "weight": 250,
    "method": "json",
    "object": {
      "fill_ter": "t_concrete_floor",
      "rows": [
        "########################",
        "########################",
        "##====================##",
        "##=                  =##",
        "##= yyyyyyyyyyyyyyyy =##",
        "##= yyyyyyyyyyyyyyyy =##",
        "##= yyyyyyyyyyyyyyyy =##",
        "##= yyyyyyyyyyyyyyyy =##",
        "##= yyyyyyyyyyyyyyyy =##",
        "##= yyyyyyyyyyyyyyyy =##",
        "##=                  =##",
        "##=<                 =##",
        "##=--------  --------=##",
        "##=C      |  |D     b=##",
        "##=Q      +  |c  BB  =##",
        "##=q      |  +   BB  =##",
        "##=C      |  |       =##",
        "##=-------|  |       =##",
        "##=&    ss|  |d  d  d=##",
        "##=gg     +  --------=##",
        "##=S*    l|         <=##",
        "##====================##",
        "########################",
        "########################"
      ],
      "palettes": [
        "multistory_house",
        "lower_level"
      ],
      "terrain": {
        "y": "t_water_dp"
      }
    },
    "id": "2fc5114a-aba5-4216-a013-05d8ccaaf0ec"
  }
]