[
  {
    "type": "mapgen",
    "om_terrain": "2storyC_first",
    "weight": 0,
    "method": "json",
    "object": {
      "fill_ter": "t_floor",
      "rows": [
        "########################",
        "########################",
        "########################",
        "#####=================##",
        "#####=               =##",
        "#####=               =##",
        "#####=               =##",
        "#####=<<             =##",
        "#####=               =##",
        "#####=>              =##",
        "#####=               =##",
        "#####=               =##",
        "####88               =##",
        "####88               =##",
        "#####=               =##",
        "#####=               =##",
        "#####=               =##",
        "#####=               =##",
        "#####=               =##",
        "#####=               =##",
        "#####=================##",
        "########################",
        "########################",
        "########################"
      ],
      "palettes": [
        "multistory_house",
        "ground_level"
      ]
    },
    "id": "d45159a3-d5cc-4a9c-9b4d-2246315e351c"
  }
]