[
  {
    "type": "mapgen",
    "om_terrain": "2storyB_basement",
    "weight": 0,
    "method": "json",
    "object": {
      "fill_ter": "t_concrete_floor",
      "rows": [
        "########################",
        "########################",
        "########################",
        "########################",
        "########################",
        "##====================##",
        "##=                  =##",
        "##=                  =##",
        "##=                  =##",
        "##=                  =##",
        "##=                  =##",
        "##=                  =##",
        "##=                  =##",
        "##=                  =##",
        "##=                  =##",
        "##=                  =##",
        "##=                  =##",
        "##=                 <=##",
        "##=                  =##",
        "##=                  =##",
        "##=                  =##",
        "##====================##",
        "########################",
        "########################"
      ],
      "palettes": [
        "multistory_house",
        "lower_level"
      ]
    },
    "id": "66e08282-02d4-4302-be9b-3d91454194a8"
  }
]