[
  {
    "type": "mapgen",
    "om_terrain": "2storyA_first",
    "weight": 250,
    "method": "json",
    "object": {
      "fill_ter": "t_floor",
      "rows": [
        "########################",
        "########################",
        "########################",
        "##====ww====++===ww===##",
        "##=a  TT  b|  |i   cD=##",
        "##w                 Dw##",
        "##= AAA   b|  |bbbbbb=##",
        "##=---------  -------=##",
        "##w<<          |RCCCU=##",
        "##=--------    |     =##",
        "##=M  BB d|         C=##",
        "##w z BB  |         o=##",
        "##w       +    |    s=##",
        "##=   llll|  >>|UUU C=##",
        "##=-+------    |-----=##",
        "##=  |         |dd  b=##",
        "##=dd|         +     =##",
        "##=---+---  ---|  BB =##",
        "##=S    s|  |dd|  BB =##",
        "##=&    s|  |  +    d=##",
        "##========++==========##",
        "########################",
        "########################",
        "########################"
      ],
      "palettes": [
        "multistory_house",
        "ground_level"
      ]
    },
    "id": "c5905581-ab09-4d9e-a5eb-fcd0fde7011c"
  }
]