[
  {
    "type": "mapgen",
    "om_terrain": "2storyA_second",
    "weight": 250,
    "method": "json",
    "object": {
      "fill_ter": "t_floor",
      "rows": [
        "########################",
        "########################",
        "########################",
        "##====================##",
        "##=dBdB  +d|Tc     cD=##",
        "##= B B  |-|    BB  D=##",
        "##=      |d+   ------=##",
        "##=----------+-|S  ~~=##",
        "##w>>          +     =##",
        "##=            |ss  &=##",
        "##=--+------  -------=##",
        "##=      +d|  |     d=##",
        "##wD     +d|  |  BB  =##",
        "##=D  BB |--++-  BB  =##",
        "##wc  BB |d+         =##",
        "##=      |d+  TTT  c7=##",
        "##=++=ww==============##",
        "##FrrrrrrFrrrrrrrrrrrr##",
        "##FrrrrrrFrrrrrrrrrrrr##",
        "##FrrrrrrFrrrrrrrrrrrr##",
        "##ffffffffrrrrrrrrrrrr##",
        "########################",
        "########################",
        "########################"
      ],
      "palettes": [
        "multistory_house",
        "upper_level"
      ]
    },
    "id": "35449d56-2efb-4ab1-b688-b53e77982980"
  }
]