[
  {
    "type": "mapgen",
    "om_terrain": "2storyF_basement",
    "weight": 250,
    "method": "json",
    "object": {
      "fill_ter": "t_concrete_floor",
      "rows": [
        "########################",
        "########################",
        "########################",
        "########################",
        "########################",
        "########################",
        "##====================##",
        "##=TTq ss           x=##",
        "##=Q                x=##",
        "##=              x x =##",
        "##=          ---+----=##",
        "##=         x|CC CsoC=##",
        "##=       x x|U      =##",
        "##=     x  xx|R    TT=##",
        "##=    ------|--   --=##",
        "##=   x|ddCdd|b     b=##",
        "##=< xx|             =##",
        "##=-+--|            A=##",
        "##=h | + BB  |a     A=##",
        "##=H |d| BB p|  AAA b=##",
        "##====================##",
        "########################",
        "########################",
        "########################"
      ],
      "palettes": [
        "multistory_house",
        "lower_level"
      ]
    },
    "id": "29256670-c44f-4eb9-909e-4a50c8bfe189"
  }
]