[
  {
    "type": "mapgen",
    "om_terrain": "2storyD_second",
    "weight": 0,
    "method": "json",
    "object": {
      "fill_ter": "t_floor",
      "rows": [
        "########################",
        "########################",
        "########################",
        "##rrrrrrrrrrrrrrrrrrrr##",
        "##rrrrrrrrrrrrrrrrrrrr##",
        "##rrrrrrrrrrrrrrrrrrrr##",
        "##====================##",
        "##=                  =##",
        "##=                  =##",
        "##=                  =##",
        "##=                  =##",
        "##=                  =##",
        "##=                  =##",
        "##=                  =##",
        "##=                  =##",
        "##=                  =##",
        "##=>>                =##",
        "##====================##",
        "##rrrrrrr######rrrrrrr##",
        "##rrrrrrr######rrrrrrr##",
        "##rrrrrrr######rrrrrrr##",
        "##rrrrrrr######rrrrrrr##",
        "########################",
        "########################"
      ],
      "palettes": [
        "multistory_house",
        "upper_level"
      ]
    },
    "id": "c5d792bc-7e38-448b-a671-772b660084b2"
  }
]