[
  {
    "type": "mapgen",
    "om_terrain": "2storyF_first",
    "weight": 0,
    "method": "json",
    "object": {
      "fill_ter": "t_floor",
      "rows": [
        "########################",
        "########################",
        "########################",
        "######1##########1######",
        "########################",
        "########################",
        "##====================##",
        "##=                  =##",
        "##=                  =##",
        "##=                  =##",
        "##=                  =##",
        "##=                  =##",
        "##=                  =##",
        "##=                  88#",
        "##=<                 88#",
        "##=<                 =##",
        "##=>                 =##",
        "##=                  =##",
        "##=                  =##",
        "##=                  =##",
        "##====================##",
        "########################",
        "########################",
        "########################"
      ],
      "palettes": [
        "multistory_house",
        "ground_level"
      ]
    },
    "id": "794c802a-6db4-4389-aeb1-7d6c4ea8a690"
  }
]