[
  {
    "type": "mapgen",
    "om_terrain": "2storyE_roof",
    "weight": 250,
    "method": "json",
    "object": {
      "fill_ter": "t_flat_roof",
      "rows": [
        "########################",
        "########################",
        "##########rrrrrrrrrrrr##",
        "##########rrrrrrrrrrrr##",
        "##########rrrrrrrrrrrr##",
        "##########rrrrrrrrrrrr##",
        "##########rrrrrrrrrrrr##",
        "##########rrrrrrrrrrrr##",
        "##########rrrrrrrrrrrr##",
        "##########rrrrrrrrrrrr##",
        "##########rrrrrrrrrrrr##",
        "##########rrrrrrrrrrrr##",
        "##########rrrrrrrrrrrr##",
        "##########rrrrrrrrrrrr##",
        "##########rrrrrrrrrrrr##",
        "##########rrrrrrrrrrrr##",
        "##########rrrrrrrrrrrr##",
        "##########rrrrrrrrrrrr##",
        "##########rrrrrrrrrrrr##",
        "##########rrrrrrrrrrrr##",
        "##########rrrrrrrrrrrr##",
        "##########rrrrrrrrrrrr##",
        "########################",
        "########################"
      ],
      "palettes": [
        "multistory_house",
        "upper_level"
      ]
    },
    "id": "a8d19fa7-ced5-4642-865d-77c583d793ef"
  }
]