[
  {
    "type": "mapgen",
    "om_terrain": "2storyA_first",
    "weight": 250,
    "method": "json",
    "object": {
      "fill_ter": "t_floor",
      "rows": [
        "########################",
        "########################",
        "########################",
        "##====================##",
        "##=                  =##",
        "##=                  =##",
        "##=                  =##",
        "##=                  =##",
        "##=<<                =##",
        "##=                  =##",
        "##=                  =##",
        "##=                  =##",
        "##=                  =##",
        "##=          >>      =##",
        "##=                  =##",
        "##=                  =##",
        "##=                  =##",
        "##=                  =##",
        "##=                  =##",
        "##=                  =##",
        "##====================##",
        "########################",
        "########################",
        "########################"
      ],
      "palettes": [
        "multistory_house",
        "ground_level"
      ]
    },
    "id": "4237c787-e12b-4a3b-949e-c2a0151c2e35"
  }
]