[
  {
    "type": "mapgen",
    "om_terrain": "2storyB_basement",
    "weight": 250,
    "method": "json",
    "object": {
      "fill_ter": "t_concrete_floor",
      "rows": [
        "########################",
        "########################",
        "########################",
        "########################",
        "########################",
        "##====================##",
        "##=y yyy%yy yy       =##",
        "##=yy yyyy  y        =##",
        "##=yy y yy           =##",
        "##=yy 1  yy      1   =##",
        "##=y                 =##",
        "##=                  =##",
        "##=                  =##",
        "##=                  =##",
        "##=                  =##",
        "##=                  =##",
        "##= x                =##",
        "##=   1----------1  <=##",
        "##= x       x|       =##",
        "##=   XX   x |       =##",
        "##= X    x x |hH   qQ=##",
        "##====================##",
        "########################",
        "########################"
      ],
      "palettes": [
        "multistory_house",
        "lower_level"
      ],
      "terrain": {
        "y": "t_sewage",
        "%": "t_sewage_pump"
      }
    },
    "id": "1d41b6e1-7459-4f44-b47a-59ec2aa9b649"
  }
]