[
  {
    "type": "mapgen",
    "om_terrain": "2storyE_roof",
    "weight": 0,
    "method": "json",
    "object": {
      "fill_ter": "t_flat_roof",
      "rows": [
        "########################",
        "########################",
        "##########rrrrrrrrrrrr##",
        "##########rrrrrrrrrrrr##",
        "##########rrrrrrrrrrrr##",
        "##########rrrrrrrrrrrr##",
        "##########rrrrrrrrrrrr##",
        "##########rrrrrrrrrrrr##",
        "##########rrrrrrrrrrrr##",
        "##########rrrrrrrrrrrr##",
        "##########rrrrrrrrrrrr##",
        "##########rrrrrrrrrrrr##",
        "##########rrrrrrrrrrrr##",
        "##########rrrrrrrrrrrr##",
        "##########rrrrrrrrrrrr##",
        "##########rrrrrrrrrrrr##",
        "##########rrrrrrrrrrrr##",
        "##########rrrrrrrrrrrr##",
        "##########rrrrrrrrrrrr##",
        "##########rrrrrrrrrrrr##",
        "##########rrrrrrrrrrrr##",
        "##########rrrrrrrrrrrr##",
        "########################",
        "########################"
      ],
      "palettes": [
        "multistory_house",
        "upper_level"
      ]
    },
    "id": "8df663ad-abf0-44ef-a24b-7742c0b5b91c"
  }
]