[
  {
    "type": "mapgen",
    "om_terrain": "2storyC_first",
    "weight": 250,
    "method": "json",
    "object": {
      "fill_ter": "t_floor",
      "rows": [
        "#############W##########",
        "#############W##########",
        "#############W##########",
        "#####===w=ww=+=ww=w===##",
        "#####=bb           bb=##",
        "#####=               =##",
        "#####w  --++-------  =##",
        "#####=<<|    b|& s|  w##",
        "#####=--| c   |  s|  =##",
        "#####+> |7DDii|S  +  w##",
        "#####=-------------  =##",
        "#####=bbbp           w##",
        "####88  a            w##",
        "####8N      A ---  --=##",
        "####88      A |     U=##",
        "#####=      A | T   C=##",
        "#####w  a    b| Tc  ow##",
        "#####=  ---+--| T   sw##",
        "#####w  |L| | +     C=##",
        "#####=  + |d|l|  UCCC=##",
        "#####=++===========w==##",
        "########################",
        "########################",
        "########################"
      ],
      "palettes": [
        "multistory_house",
        "ground_level"
      ]
    },
    "id": "cb528feb-e228-4d85-a007-bb79fe679551"
  }
]