[
  {
    "type": "mapgen",
    "om_terrain": "2storyD_roof",
    "weight": 250,
    "method": "json",
    "object": {
      "fill_ter": "t_flat_roof",
      "rows": [
        "########################",
        "########################",
        "########################",
        "########################",
        "########################",
        "########################",
        "##rrrrrrrrrrrrrrrrrrrr##",
        "##rrrrrrrrrrrrrrrrrrrr##",
        "##rrrrrrrrrrrrrrrrrrrr##",
        "##rrrrrrrrrrrrrrrrrrrr##",
        "##rrrrrrrrrrrrrrrrrrrr##",
        "##rrrrrrrrrrrrrrrrrrrr##",
        "##rrrrrrrrrrrrrrrrrrrr##",
        "##rrrrrrrrrrrrrrrrrrrr##",
        "##rrrrrrrrrrrrrrrrrrrr##",
        "##rrrrrrrrrrrrrrrrrrrr##",
        "##rrrrrrrrrrrrrrrrrrrr##",
        "##rrrrrrrrrrrrrrrrrrrr##",
        "########################",
        "########################",
        "########################",
        "########################",
        "########################",
        "########################"
      ],
      "palettes": [
        "multistory_house",
        "upper_level"
      ]
    },
    "id": "9aad3f6c-94d6-426c-ac2c-644d4d4aabcf"
  }
]