[
  {
    "type": "mapgen",
    "om_terrain": "2storyD_first",
    "weight": 250,
    "method": "json",
    "object": {
      "fill_ter": "t_floor",
      "rows": [
        "########################",
        "########################",
        "########################",
        "##==w==++==w====w==w==##",
        "##=bb    |DD7 |D  BBp=##",
        "##=      |c  i|D  BB w##",
        "##w      |   i|      =##",
        "##wA     --+----+---+=##",
        "##=A             |l|d=##",
        "##=A        ------+--=##",
        "##=-------  |b      b=##",
        "##=CCUUUU|  |   TT   w##",
        "##=s           cTT   =##",
        "##=o            TTc  w##",
        "##=CC   R|  |       b=##",
        "##=-------  ---------=##",
        "##=<<             | l=##",
        "##=---+-===++==1-+-+-1##",
        "##=ss   =>WWW##g     g##",
        "##w     =##WW##g c c g##",
        "##=S~~ &=##WW##g     g##",
        "##===w===##WW##1ggggg1##",
        "###########WW###########",
        "########################"
      ],
      "palettes": [
        "multistory_house",
        "ground_level"
      ]
    },
    "id": "6e89e341-cc2b-4cfe-9360-b8461aa5b650"
  }
]