[
  {
    "type": "mapgen",
    "om_terrain": "2storyC_basement",
    "weight": 250,
    "method": "json",
    "object": {
      "fill_ter": "t_concrete_floor",
      "rows": [
        "########################",
        "########################",
        "########################",
        "#####=================##",
        "#####= x             =##",
        "#####= xxx    x x    =##",
        "#####= x x           =##",
        "#####=xx         x   =##",
        "#####=------++-------=##",
        "#####=<             l=##",
        "#####=              l=##",
        "#####=              l=##",
        "#####=Q   TT         =##",
        "#####=q   TT        L=##",
        "#####=C   TT        L=##",
        "#####=C              =##",
        "#####=           --+-=##",
        "#####=           |   =##",
        "#####=           |   =##",
        "#####=         LL|h H=##",
        "#####=================##",
        "########################",
        "########################",
        "########################"
      ],
      "palettes": [
        "multistory_house",
        "lower_level"
      ]
    },
    "id": "99d83e42-21e1-46d2-af37-3ab37ff8265d"
  }
]