[
  {
    "type": "mapgen",
    "om_terrain": "2storyC_basement",
    "weight": 0,
    "method": "json",
    "object": {
      "fill_ter": "t_concrete_floor",
      "rows": [
        "########################",
        "########################",
        "########################",
        "#####=================##",
        "#####=               =##",
        "#####=               =##",
        "#####=               =##",
        "#####=               =##",
        "#####=               =##",
        "#####=<              =##",
        "#####=               =##",
        "#####=               =##",
        "#####=               =##",
        "#####=               =##",
        "#####=               =##",
        "#####=               =##",
        "#####=               =##",
        "#####=               =##",
        "#####=               =##",
        "#####=               =##",
        "#####=================##",
        "########################",
        "########################",
        "########################"
      ],
      "palettes": [
        "multistory_house",
        "lower_level"
      ]
    },
    "id": "8bb99a4c-be0a-4738-a271-760bc0fa824f"
  }
]