[
  {
    "type": "mapgen",
    "om_terrain": "2storyC_basement",
    "weight": 250,
    "method": "json",
    "object": {
      "fill_ter": "t_floor",
      "rows": [
        "########################",
        "########################",
        "########################",
        "#####=================##",
        "#####=Rnnnn          =##",
        "#####=          z    =##",
        "#####=               =##",
        "#####=        z    z =##",
        "#####=               =##",
        "#####=<   ZZ     z   =##",
        "#####=    ZZ       z =##",
        "#####=    ZZ         =##",
        "#####=               =##",
        "#####=               =##",
        "#####=         ZZ    =##",
        "#####=         ZZ    =##",
        "#####=         ZZ    =##",
        "#####=               =##",
        "#####=               =##",
        "#####=lll            =##",
        "#####=================##",
        "########################",
        "########################",
        "########################"
      ],
      "palettes": [
        "multistory_house",
        "lower_level"
      ],
      "furniture": {
        "z": "f_exercise",
        "Z": "f_pool_table"
      }
    },
    "id": "a24ac961-aa59-4e89-b574-7a4531609a0d"
  }
]