[
  {
    "type": "mapgen",
    "om_terrain": "2storyB_second",
    "weight": 250,
    "method": "json",
    "object": {
      "fill_ter": "t_floor",
      "rows": [
        "########################",
        "########################",
        "########################",
        "##############rrrrrrrr##",
        "##############rrrrrrrr##",
        "##==ww=ww=ww==rrrrrrrr##",
        "##=p        d=rrrrrrrr##",
        "##w BB   c   wrrrrrrrr##",
        "##w BB    TT wrrrrrrrr##",
        "##=       TT =rrrrrrrr##",
        "##=-+--------==w=w=w==##",
        "##=d |,,,,,,,|M   BBd=##",
        "##=--|>>,,,,,|    BB =##",
        "##=~~-----,,,+       =##",
        "##w    ss|,,,|       =##",
        "##=      +,,,|-+-- cD=##",
        "##=&  CCC|,,,|d d|  D=##",
        "##=------|,,,|-------=##",
        "##=BB    +,,,+     BB=##",
        "##=C    b|---|b     C=##",
        "##=BB    +d|d+     BB=##",
        "##====================##",
        "########################",
        "########################"
      ],
      "palettes": [
        "multistory_house",
        "upper_level"
      ]
    },
    "id": "9ce2fa1e-0050-48c1-ba10-0c6a95a6520d"
  }
]