[
  {
    "id": "smpistol_primer",
    "type": "MIGRATION",
    "replace": "gg_pistol_primer",
    "unrolled_id_group": "smpistol_primer"
  },
  {
    "id": "lgpistol_primer",
    "type": "MIGRATION",
    "replace": "gg_pistol_primer",
    "unrolled_id_group": "smpistol_primer"
  },
  {
    "id": "smrifle_primer",
    "type": "MIGRATION",
    "replace": "gg_rifle_primer",
    "unrolled_id_group": "smrifle_primer"
  },
  {
    "id": "lgrifle_primer",
    "type": "MIGRATION",
    "replace": "gg_rifle_primer",
    "unrolled_id_group": "smrifle_primer"
  },
  {
    "id": "shotgun_primer",
    "type": "MIGRATION",
    "replace": "gg_rifle_primer",
    "unrolled_id_group": "smrifle_primer"
  }
]