[
  {
    "type": "mapgen",
    "method": "json",
    "om_terrain": [
      "dinoexhibit"
    ],
    "weight": 300,
    "object": {
      "fill_ter": "t_floor",
      "rows": [
        ".................y~~~y..",
        ".................~~~~~..",
        ".................~~~~~..",
        ".................~~~~~..",
        ".................~~~~~..",
        ".................y~~~y..",
        "yyyyyyyyyyyyyyyyyy~~~yy^",
        "###############|||o*ooo|",
        "#..............|t|D    |",
        "#.#############| |JJJ Q|",
        "#.#...#...#...#|j* D  Q|",
        "#.#I..#...#.I.#||||*||||",
        "#.#...#..I#...#.j......#",
        "#.##u###u###u##........#",
        "#......................#",
        "#.####u#####u##..     .#",
        "#.#.....#.....#..HH   .#",
        "#.#.....#.....#..HH   .#",
        "#.#.....#.....#.%%%%*%%#",
        "#.#.....#.....#.%.....%#",
        "#.#....I#...I.#.%PPPPP%#",
        "#.#############.%%%%%%%#",
        "#......................#",
        "########################"
      ],
      "palettes": [
        "city_block_foundation_palette"
      ],
      "terrain": {
        "y": "t_pavement_y",
        ".": "t_dirtfloor",
        "B": "t_floor",
        "G": "t_dirtfloor",
        "H": "t_floor",
        "I": "t_dirtfloor"
      },
      "furniture": {
        "H": "f_hay",
        "I": "f_hay"
      },
      "place_items": [
        {
          "item": "guns_rifle_common",
          "chance": 70,
          "x": [
            20,
            21
          ],
          "y": 20
        },
        {
          "item": "tools_hunting",
          "chance": 80,
          "x": [
            18,
            19
          ],
          "y": 20
        },
        {
          "item": "book_mag_surv",
          "chance": 80,
          "x": 22,
          "y": [
            8,
            10
          ]
        }
      ],
      "place_monsters": [
        {
          "monster": "GROUP_DINOSAUR_HARMLESS",
          "chance": 2,
          "x": [
            3,
            5
          ],
          "y": [
            10,
            12
          ],
          "density": 0.15
        },
        {
          "monster": "GROUP_DINOSAUR_DANGEROUS",
          "chance": 4,
          "x": [
            3,
            5
          ],
          "y": [
            10,
            12
          ],
          "density": 0.15
        },
        {
          "monster": "GROUP_DINOSAUR_HARMLESS",
          "chance": 3,
          "x": [
            3,
            5
          ],
          "y": [
            10,
            12
          ],
          "density": 0.15
        },
        {
          "monster": "GROUP_DINOSAUR_HARMLESS",
          "chance": 2,
          "x": [
            7,
            9
          ],
          "y": [
            10,
            12
          ],
          "density": 0.15
        },
        {
          "monster": "GROUP_DINOSAUR_DANGEROUS",
          "chance": 4,
          "x": [
            7,
            9
          ],
          "y": [
            10,
            12
          ],
          "density": 0.15
        },
        {
          "monster": "GROUP_DINOSAUR_HARMLESS",
          "chance": 3,
          "x": [
            7,
            9
          ],
          "y": [
            10,
            12
          ],
          "density": 0.15
        },
        {
          "monster": "GROUP_DINOSAUR_HARMLESS",
          "chance": 2,
          "x": [
            11,
            13
          ],
          "y": [
            10,
            12
          ],
          "density": 0.15
        },
        {
          "monster": "GROUP_DINOSAUR_DANGEROUS",
          "chance": 4,
          "x": [
            11,
            13
          ],
          "y": [
            10,
            12
          ],
          "density": 0.15
        },
        {
          "monster": "GROUP_DINOSAUR_HARMLESS",
          "chance": 3,
          "x": [
            11,
            13
          ],
          "y": [
            10,
            12
          ],
          "density": 0.15
        },
        {
          "monster": "GROUP_DINOSAUR_HARMLESS",
          "chance": 2,
          "x": [
            3,
            7
          ],
          "y": [
            16,
            20
          ],
          "density": 0.15
        },
        {
          "monster": "GROUP_DINOSAUR_DANGEROUS",
          "chance": 4,
          "x": [
            3,
            7
          ],
          "y": [
            16,
            20
          ],
          "density": 0.15
        },
        {
          "monster": "GROUP_DINOSAUR_HARMLESS",
          "chance": 3,
          "x": [
            3,
            7
          ],
          "y": [
            16,
            20
          ],
          "density": 0.15
        },
        {
          "monster": "GROUP_DINOSAUR_HARMLESS",
          "chance": 2,
          "x": [
            9,
            13
          ],
          "y": [
            16,
            20
          ],
          "density": 0.15
        },
        {
          "monster": "GROUP_DINOSAUR_DANGEROUS",
          "chance": 4,
          "x": [
            9,
            13
          ],
          "y": [
            16,
            20
          ],
          "density": 0.15
        },
        {
          "monster": "GROUP_DINOSAUR_HARMLESS",
          "chance": 3,
          "x": [
            9,
            13
          ],
          "y": [
            16,
            20
          ],
          "density": 0.15
        },
        {
          "monster": "GROUP_DINOSAUR_ZOMBIE",
          "chance": 2,
          "x": [
            1,
            22
          ],
          "y": [
            1,
            6
          ],
          "density": 0.15
        },
        {
          "monster": "GROUP_DINOSAUR_ZOMBIE",
          "chance": 2,
          "x": [
            16,
            22
          ],
          "y": [
            8,
            21
          ],
          "density": 0.15
        }
      ]
    },
    "id": "6bf49637-6cbe-4881-ba27-945c985faee7"
  },
  {
    "type": "mapgen",
    "method": "json",
    "om_terrain": [
      "dinoexhibit"
    ],
    "weight": 300,
    "object": {
      "fill_ter": "t_floor",
      "rows": [
        ".................y~~~y..",
        ".................~~~~~..",
        ".................~~~~~..",
        ".................~~~~~..",
        ".................~~~~~..",
        ".................y~~~y..",
        "yyyyyyyyyyyyyyyyyy~~~yy^",
        "###############|||o*ooo|",
        "#..............|t|D    |",
        "#.#############| |JJJ Q|",
        "#.#...#...#...#|j* D  Q|",
        "#.#I..#...#.I.#||||*||||",
        "#.#...#..I#...#.j......#",
        "#.##u###u###u##........#",
        "#......................#",
        "#.####u#####u##..     .#",
        "#.#.....#.....#..HH   .#",
        "#.#.....#.....#..HH   .#",
        "#.#.....#.....#.%%%%*%%#",
        "#.#.....#.....#.%.....%#",
        "#.#....I#...I.#.%PPPPP%#",
        "#.#############.%%%%%%%#",
        "#......................#",
        "########################"
      ],
      "palettes": [
        "city_block_foundation_palette"
      ],
      "terrain": {
        "y": "t_pavement_y",
        ".": "t_dirtfloor",
        "B": "t_floor",
        "G": "t_dirtfloor",
        "H": "t_floor",
        "I": "t_dirtfloor"
      },
      "furniture": {
        "H": "f_hay",
        "I": "f_hay"
      },
      "place_items": [
        {
          "item": "guns_rifle_common",
          "chance": 70,
          "x": [
            20,
            21
          ],
          "y": 20
        },
        {
          "item": "tools_hunting",
          "chance": 80,
          "x": [
            18,
            19
          ],
          "y": 20
        },
        {
          "item": "book_mag_surv",
          "chance": 80,
          "x": 22,
          "y": [
            9,
            10
          ]
        }
      ],
      "place_monsters": [
        {
          "monster": "GROUP_DINOSAUR_HARMLESS_HATCHLING",
          "chance": 2,
          "x": [
            3,
            5
          ],
          "y": [
            10,
            12
          ],
          "density": 0.15
        },
        {
          "monster": "GROUP_DINOSAUR_DANGEROUS_HATCHLING",
          "chance": 4,
          "x": [
            3,
            5
          ],
          "y": [
            10,
            12
          ],
          "density": 0.15
        },
        {
          "monster": "GROUP_DINOSAUR_HARMLESS_HATCHLING",
          "chance": 3,
          "x": [
            3,
            5
          ],
          "y": [
            10,
            12
          ],
          "density": 0.15
        },
        {
          "monster": "GROUP_DINOSAUR_HARMLESS_HATCHLING",
          "chance": 2,
          "x": [
            7,
            9
          ],
          "y": [
            10,
            12
          ],
          "density": 0.15
        },
        {
          "monster": "GROUP_DINOSAUR_DANGEROUS_HATCHLING",
          "chance": 4,
          "x": [
            7,
            9
          ],
          "y": [
            10,
            12
          ],
          "density": 0.15
        },
        {
          "monster": "GROUP_DINOSAUR_HARMLESS_HATCHLING",
          "chance": 3,
          "x": [
            7,
            9
          ],
          "y": [
            10,
            12
          ],
          "density": 0.15
        },
        {
          "monster": "GROUP_DINOSAUR_HARMLESS_HATCHLING",
          "chance": 2,
          "x": [
            11,
            13
          ],
          "y": [
            10,
            12
          ],
          "density": 0.15
        },
        {
          "monster": "GROUP_DINOSAUR_DANGEROUS_HATCHLING",
          "chance": 4,
          "x": [
            11,
            13
          ],
          "y": [
            10,
            12
          ],
          "density": 0.15
        },
        {
          "monster": "GROUP_DINOSAUR_HARMLESS_HATCHLING",
          "chance": 3,
          "x": [
            11,
            13
          ],
          "y": [
            10,
            12
          ],
          "density": 0.15
        },
        {
          "monster": "GROUP_DINOSAUR_HARMLESS_JUVENILE",
          "chance": 2,
          "x": [
            3,
            7
          ],
          "y": [
            16,
            20
          ],
          "density": 0.15
        },
        {
          "monster": "GROUP_DINOSAUR_DANGEROUS_JUVENILE",
          "chance": 4,
          "x": [
            3,
            7
          ],
          "y": [
            16,
            20
          ],
          "density": 0.15
        },
        {
          "monster": "GROUP_DINOSAUR_HARMLESS_JUVENILE",
          "chance": 3,
          "x": [
            3,
            7
          ],
          "y": [
            16,
            20
          ],
          "density": 0.15
        },
        {
          "monster": "GROUP_DINOSAUR_HARMLESS_JUVENILE",
          "chance": 2,
          "x": [
            9,
            13
          ],
          "y": [
            16,
            20
          ],
          "density": 0.15
        },
        {
          "monster": "GROUP_DINOSAUR_DANGEROUS_JUVENILE",
          "chance": 4,
          "x": [
            9,
            13
          ],
          "y": [
            16,
            20
          ],
          "density": 0.15
        },
        {
          "monster": "GROUP_DINOSAUR_HARMLESS_JUVENILE",
          "chance": 3,
          "x": [
            9,
            13
          ],
          "y": [
            16,
            20
          ],
          "density": 0.15
        },
        {
          "monster": "GROUP_DINOSAUR_ZOMBIE",
          "chance": 2,
          "x": [
            1,
            22
          ],
          "y": [
            1,
            6
          ],
          "density": 0.15
        },
        {
          "monster": "GROUP_DINOSAUR_ZOMBIE",
          "chance": 2,
          "x": [
            16,
            22
          ],
          "y": [
            8,
            21
          ],
          "density": 0.15
        }
      ]
    },
    "id": "4ef2a688-8233-4cea-8c59-9bdd13449df0"
  },
  {
    "type": "mapgen",
    "method": "json",
    "om_terrain": [
      "dinoexhibit_roof"
    ],
    "weight": 300,
    "object": {
      "fill_ter": "t_flat_roof",
      "rows": [
        "                        ",
        "                        ",
        "                        ",
        "                        ",
        "                        ",
        "                        ",
        "                        ",
        "               --------5",
        "               .........",
        "               .....&...",
        "               .........",
        "               .........",
        "                        ",
        "                        ",
        "                        ",
        "                        ",
        "                        ",
        "                        ",
        "                ....... ",
        "                ....... ",
        "                ....... ",
        "                ....... ",
        "                        ",
        "                        "
      ],
      "terrain": {
        "5": "t_gutter_drop",
        ".": "t_flat_roof",
        " ": "t_open_air",
        "-": "t_gutter_north"
      },
      "furniture": {
        "&": "f_roof_turbine_vent"
      }
    },
    "id": "21f26230-532e-45b5-91fd-c6e529e320b4"
  }
]