[
  {
    "type": "dream",
    "messages": [
      "You dream of a strange jungle with giant ferns.",
      "Dreams of being the king are all you can remember."
    ],
    "category": "TYRANT",
    "strength": 1,
    "id": "7dae384a-7ecb-45f2-bc0c-5224438968e1"
  },
  {
    "type": "dream",
    "messages": [
      "You brush through tree sized ferns as you hunt for your prey.  The rain falls slick upon your skin.",
      "Thunderous footsteps shake the earth, are they yours?"
    ],
    "category": "TYRANT",
    "strength": 2,
    "id": "386410df-d6fe-4074-8d4e-7a32334e1a88"
  },
  {
    "type": "dream",
    "messages": [
      "Your teeth, how do you have so many teeth?  Am I growing extra teeth?",
      "The hairless apes around you smell like food.  Are they?"
    ],
    "category": "TYRANT",
    "strength": 3,
    "id": "dab4bffd-c927-4375-a98e-e11d0bf931bf"
  },
  {
    "type": "dream",
    "messages": [
      "So close, you can taste the rebirth of a glorious past.",
      "King, nay not a king.  A god among beasts."
    ],
    "category": "TYRANT",
    "strength": 4,
    "id": "a097c8ab-0954-4768-99b1-fe392e4a4807"
  },
  {
    "type": "dream",
    "messages": [
      "The warm sun upon your skin.  A heavier air, golden dreams.",
      "You dream of eating the largest fern you've ever seen."
    ],
    "category": "STEGO",
    "strength": 1,
    "id": "9c3692fc-70e6-4a42-8c40-ff8d1c747fd6"
  },
  {
    "type": "dream",
    "messages": [
      "Large, you are becoming larger every day.  Armored skin, to protect you from the world.  These are the gifts you are receiving.",
      "You dream of before the Cataclysm, but you are different somehow.  The other humans all seem so soft to you."
    ],
    "category": "STEGO",
    "strength": 2,
    "id": "e045bd03-8dc6-4f80-ac7f-e4682f270382"
  },
  {
    "type": "dream",
    "messages": [
      "Slower, trudging through the universe, you cease to notice those that try to stop you as you walk through them.",
      "Why is this world so cold compared to the one in your dreams?"
    ],
    "category": "STEGO",
    "strength": 3,
    "id": "e2d3b2eb-267b-4849-b0c7-2bd77f247b05"
  },
  {
    "type": "dream",
    "messages": [
      "Is this how superman feels?  Bulletproof?  But superman is much faster than you.",
      "Nothing less than an asteroid can kill you."
    ],
    "category": "STEGO",
    "strength": 4,
    "id": "1f9982e8-a2dd-4705-8dea-69e473dfdb90"
  }
]