[
  {
    "type": "snippet",
    "category": "robot_protest",
    "text": "Real work for real people!",
    "id": "8ca5004d-31d0-4322-b144-e6e030752844"
  },
  {
    "type": "snippet",
    "category": "robot_protest",
    "text": "Strike!",
    "id": "69cf5757-98c8-43eb-8a92-f4329c0e131e"
  },
  {
    "type": "snippet",
    "category": "robot_protest",
    "text": "Robots stole my job!",
    "id": "b0c14ca3-be14-40a5-b1f4-2609eae4a450"
  },
  {
    "type": "snippet",
    "category": "robot_protest",
    "text": "robot labor=slave labor",
    "id": "878c273e-9d3e-405d-b40f-2e2ec45c3747"
  },
  {
    "type": "snippet",
    "category": "robot_protest",
    "text": "Bring back our jobs!",
    "id": "c1a70fd0-47e8-458e-9d4e-c8f65b35aa76"
  },
  {
    "type": "snippet",
    "category": "robot_protest",
    "text": "Robots go home!",
    "id": "29cd1818-1a57-447d-afe7-62756cc81fa9"
  },
  {
    "type": "snippet",
    "category": "robot_protest",
    "text": "Human labor",
    "id": "dcdb44d2-9697-4f06-8753-594d2d9a3073"
  },
  {
    "type": "snippet",
    "category": "robot_protest",
    "text": "We want our old factory!",
    "id": "72b0dcde-a636-48af-a150-b3d4fd906c05"
  },
  {
    "type": "snippet",
    "category": "robot_protest",
    "text": "Smash the Bots!",
    "id": "adcf342c-4830-4949-a154-2a02aba01282"
  },
  {
    "type": "snippet",
    "category": "raider_grave",
    "text": "Here Lies  <full_name>.  What a Jerk.",
    "id": "3eaab7df-f602-4095-81b9-21f3835e25f5"
  },
  {
    "type": "snippet",
    "category": "raider_grave",
    "text": " <full_name>.  Eaten by wolves.",
    "id": "8288ffdb-1a3b-4d6b-85af-c66a6afa6343"
  },
  {
    "type": "snippet",
    "category": "raider_grave",
    "text": " <full_name>.  Infected.",
    "id": "dbcefd53-5179-4376-b695-af86985596fa"
  },
  {
    "type": "snippet",
    "category": "raider_grave",
    "text": "We send <full_name> on to Valhalla",
    "id": "daed7a30-262f-4cba-8d9a-19f4993643ba"
  },
  {
    "type": "snippet",
    "category": "raider_grave",
    "text": "RIP  <given_name> ",
    "id": "ce2177e3-edd9-4925-9a61-d55eaf220726"
  },
  {
    "type": "snippet",
    "category": "raider_grave",
    "text": " <full_name>.  Roasting in Hell.",
    "id": "f200f089-46ed-40ed-b2d7-e92fea49fe08"
  },
  {
    "type": "snippet",
    "category": "raider_grave",
    "text": " <full_name>.  Fallen Soldier.",
    "id": "86337081-622a-4def-a688-71e84a0f91e8"
  },
  {
    "type": "snippet",
    "category": "raider_grave",
    "text": " <full_name>.  Ripped apart by a gross tentacle thing in the woods.",
    "id": "08afb749-1f8c-43cc-bb23-df0bfa8e8672"
  },
  {
    "type": "snippet",
    "category": "raider_grave",
    "text": " <given_name>.  Died as he lived, drunk and on fire.",
    "id": "6bf869f6-fe5f-40e2-a27f-f3257caba559"
  },
  {
    "type": "snippet",
    "category": "raider_grave",
    "text": " <full_name> & <full_name>.  Crashed their motorcycles at 120mph.  Buried the pieces together.",
    "id": "cb196639-ac6c-442d-9d67-fb039ad2c0a9"
  },
  {
    "type": "snippet",
    "category": "raider",
    "text": " <full_name>.  Friend, Lover, Cannibal.",
    "id": "912e291e-8ea1-4572-9773-781aa3a7a62a"
  },
  {
    "type": "snippet",
    "category": "raider_grave",
    "text": " <full_name>.  Vaporized by Tank Bot.",
    "id": "4a8c8fc2-ef86-41f6-8640-c2c5770fdb74"
  },
  {
    "type": "snippet",
    "category": "raider_grave",
    "text": " <given_name>.  Died in his sleep.  Lucky Bastard.",
    "id": "4dd48ed0-6672-4b2c-ba16-8ec8609ed55f"
  },
  {
    "type": "snippet",
    "category": "raider_grave.",
    "text": " Here lies <full_name>.  No Smoking near Molotov storage!",
    "id": "7eb63ccb-3962-4de3-8a5d-521432aa6457"
  },
  {
    "type": "snippet",
    "category": "raider_grave",
    "text": " <full_name>.  Gunned down in his prime.",
    "id": "55813de0-ea0c-47ca-88a4-4a26e31c9815"
  },
  {
    "type": "snippet",
    "category": "raider_grave",
    "text": " <full_name>.  Drank a mystery serum and mutated to death.",
    "id": "b189ee45-8e84-49c0-b7c5-b7fe1ce47e57"
  },
  {
    "type": "snippet",
    "category": "raider_grave",
    "text": " <given_name>.  We'll never see another like him.",
    "id": "eb9134e6-397d-4249-aaca-b03e58c7ca5a"
  },
  {
    "type": "snippet",
    "category": "raider_grave",
    "text": " <full_name>.  Done in by mutant wasps.",
    "id": "dcf08c52-423b-4c40-b106-dcfee857fba6"
  },
  {
    "type": "snippet",
    "category": "refugee_help",
    "text": "LIVING INSIDE!",
    "id": "a4bef331-c067-4b98-a651-ce0929b87338"
  },
  {
    "type": "snippet",
    "category": "refugee_help",
    "text": "Send Help.",
    "id": "dc2d34ff-c97b-4c33-90b5-bc6a489d2e1d"
  },
  {
    "type": "snippet",
    "category": "refugee_help",
    "text": "Rooms Available.  Rent Negotiable.",
    "id": "ff4e16bd-b696-4d81-a6b7-feac776b7645"
  },
  {
    "type": "snippet",
    "category": "refugee_help",
    "text": "No sick allowed inside!",
    "id": "304a232c-8e1e-45de-ad52-b1c00d955683"
  },
  {
    "type": "snippet",
    "category": "refugee_help",
    "text": "Need clean water.",
    "id": "66fd2f60-b796-43cc-8845-401c06693aa7"
  },
  {
    "type": "snippet",
    "category": "refugee_help",
    "text": "Waiting for airlift.",
    "id": "d1cf1d28-86f9-4ea5-aeab-cbbd8be74026"
  },
  {
    "type": "snippet",
    "category": "refugee_help",
    "text": "Ready for EVAC.",
    "id": "ca07110d-4a90-46e0-8ac4-c5ee312aa843"
  },
  {
    "type": "snippet",
    "category": "refugee_help",
    "text": "S.O.S.",
    "id": "68f50ae4-23a9-4932-b596-ba2504889a74"
  },
  {
    "type": "snippet",
    "category": "refugee_help",
    "text": "No Power.  No Food.  Send Airdrops Please!",
    "id": "3cca55d1-e2dd-4920-bed4-888ab5cda7c0"
  },
  {
    "type": "snippet",
    "category": "refugee_help",
    "text": "No more FEMA camp refugees.  You're already dying.",
    "id": "d43f675e-3e5f-4810-881a-229ebe52a88e"
  },
  {
    "type": "snippet",
    "category": "refugee_help",
    "text": "Health check required for entrance.",
    "id": "9e519998-d89a-48ba-b366-c214016efe15"
  },
  {
    "type": "snippet",
    "category": "refugee_help",
    "text": "Running low on Medicine, Food, Water, Optimism.",
    "id": "cdd48670-91d4-4d84-b8fb-317372d22863"
  },
  {
    "type": "snippet",
    "category": "refugee_help",
    "text": "Save us, army men.",
    "id": "ac9c54b0-3861-4dbf-917b-842781a5371d"
  },
  {
    "type": "snippet",
    "category": "refugee_help",
    "text": "HELP!",
    "id": "ea42cb7a-795f-44e1-bd88-eeab04a5b577"
  },
  {
    "type": "snippet",
    "category": "refugee_help",
    "text": "STILL ALIVE.  for now.",
    "id": "fed61bda-4fa3-478b-b112-5179cd133a72"
  }
]