[
  {
    "type": "mapgen",
    "method": "json",
    "nested_mapgen_id": "NC_Yoshimi_spawn",
    "object": {
      "mapgensize": [
        1,
        1
      ],
      "place_npcs": [
        {
          "class": "yoshimi",
          "x": 0,
          "y": 0
        }
      ]
    },
    "id": "addc3a11-139a-4f21-bfd7-45ea5bb47434"
  }
]