[
  {
    "type": "mapgen",
    "om_terrain": [
      "factory_mid"
    ],
    "//": "middle",
    "method": "json",
    "weight": 250,
    "object": {
      "fill_ter": "t_concrete_floor",
      "rows": [
        "......|.........=|......",
        "......|.........===.....",
        "......|..........|=.....",
        "......------------=.....",
        "..........333======.....",
        "..........373...........",
        "----................----",
        "...|....ggg..ggg....|2==",
        "...|....g4g..g4g....|...",
        "...g....ggg..ggg....g...",
        "...g.......uu.......g...",
        "..tg.......uu.......g...",
        "...g....ggg..ggg....g...",
        "...g....g4g..g4g....g...",
        "...|....ggg..ggg....|6..",
        "...|................|...",
        "..33................|...",
        "--3-................----",
        "........................",
        "........................",
        "......---1....1---......",
        "......|..........|......",
        "......|.........2|......",
        "......|.........=|......"
      ],
      "rotation": [
        0,
        3
      ],
      "palettes": [
        "factory"
      ]
    },
    "id": "798a440b-8865-49e2-8844-5718b3f6b723"
  }
]