[
  {
    "type": "mapgen",
    "om_terrain": [
      "factory_mid"
    ],
    "//": "middle",
    "method": "json",
    "weight": 250,
    "object": {
      "fill_ter": "t_concrete_floor",
      "rows": [
        "......|=........=|......",
        "......|=........=|......",
        "......|===3373===|......",
        "......-----*------......",
        "........................",
        "........................",
        "-----------..-----------",
        "...|lllll.|..|...=======",
        "...!.....L|..|...=......",
        "...|.....L|..|..9=9.....",
        "...|lllll.|..|..........",
        "...--------..--------...",
        "...|,,,,,,,,,,,,,,,,|...",
        "..8|,,,,,,,,,,,,,,,,|...",
        "..T|,,,,,,,,,,,,,,,,|...",
        "..8|,,,,,,,,,,,,,,,,|...",
        "===|,,,,,,,,,,,,,,,,|2==",
        "--=|,,,,,,,,,,,,,,,,|---",
        "..=|,,,,,,,,,,,,,,,,|.x.",
        "..=|,,,,,,,,,,,,,,,,|...",
        "..=-----1......1-----...",
        "..====|..........|x..x..",
        "..333===.........|..x...",
        "......|=.........|......"
      ],
      "rotation": [
        0,
        3
      ],
      "palettes": [
        "factory"
      ]
    },
    "id": "f8805798-e0d4-4858-80e6-cc390f39ca9d"
  }
]