[
  {
    "type": "mapgen",
    "om_terrain": [
      "factory_be"
    ],
    "//": "bottom edge",
    "method": "json",
    "weight": 250,
    "object": {
      "fill_ter": "t_concrete_floor",
      "rows": [
        ".....0|..........|......",
        "....0.|..........|......",
        ".....0*..........|......",
        ".00..0*..........|ff....",
        "....0.|..........|tF....",
        "------1..........1------",
        "........................",
        "........................",
        ".........ff..ff.........",
        ".....=...F    F.........",
        "...==5...F    F.........",
        "====..2..F    F.........",
        "------2244    4422------",
        "----------4774----------",
        ",,u------------------u,,",
        ",,,,,u------------u,,,,,",
        ",,,,,,,,,,,,,,,,,,,,,,,,",
        ",,,,,,,,,,,,,,,,,,,,,,,,",
        ",,,,,,,,,,,,,,,,,,,,,,,,",
        ",,,,,,,,,,,,,,,,,,,,,,,,",
        ",,,,,,,,,,,,,,,,,,,,,,,,",
        "ffffffffffffffffffffffff",
        ",,,,,,,,,,,,,,,,,,,,,,,,",
        ",,,,,,,,,,,,,,,,,,,,,,,,"
      ],
      "palettes": [
        "factory"
      ],
      "monster": {
        "t": {
          "monster": "mon_turret_light"
        }
      }
    },
    "id": "50551e5f-7ef1-4239-86fc-bf10988fb3cb"
  }
]