[
  {
    "type": "mapgen",
    "om_terrain": [
      "factory_tlc"
    ],
    "//": "top left corner",
    "method": "json",
    "weight": 250,
    "object": {
      "fill_ter": "t_concrete_floor",
      "rows": [
        ",,,,,,,,,,,,,,,,,,,,,,,,",
        ",,,,,,,,,,,,,,,,,,,,,,,,",
        ",,ffffffffffffffffffffff",
        ",,F,,,,,,,,,,,,,,,,,,,,,",
        ",,F,,,,,,,,,,,,,,,,,,,,,",
        ",,F,,,,,,,,,,,,,,,,,,,,,",
        ",,F,,,,,,,,,,,,,,,,,,,,,",
        ",,F,,,,,,,,,,,,,,,,,,,,,",
        ",,F,,,,,,,,,,,,,,,,,,,,,",
        ",,F,,,,,,,,,,,,,,,,,,,,,",
        ",,F,,,,,,,,,,,,,,,------",
        ",,F,,,,,,,,,,,,,,,|-----",
        ",,F,,,,,,,,,,,,,,,||====",
        ",,F,,,,,,,,,,,,,,,||=9..",
        ",,F,,,,,,,,,,,,,,,||=...",
        ",,F,,,,,,,,,,,,,,,||=9..",
        ",,F,,,,,,,,,,,,,,,||=...",
        ",,F,,,,,,,,,,,,,,,||=9..",
        ",,F,,,,,,,----------=---",
        ",,F,,,,,,,|---------=...",
        ",,F,,,,,,,||========33..",
        ",,F,,,,,,,||=7.7.7|.33..",
        ",,F,,,,,,,||=.....|.....",
        ",,F,,,,,,,||=.....|....."
      ],
      "palettes": [
        "factory"
      ]
    },
    "id": "ca6facca-ea24-4f99-b05e-6bef407995b3"
  }
]