[
  {
    "type": "mapgen",
    "om_terrain": [
      "factory_be"
    ],
    "//": "bottom edge",
    "method": "json",
    "weight": 250,
    "object": {
      "fill_ter": "t_concrete_floor",
      "rows": [
        "......|..........|7.....",
        "..=======2.......|7.....",
        "..=--------+--------....",
        "..=|7 7        cTTc|....",
        "===|               |....",
        "---|               |--+-",
        "...g 4 4 4 4 4 4 4 g.x..",
        "...|---------------|xx..",
        ".LL|---------------|..x.",
        "...||,,,,,,,,,,,,,||xx..",
        ".LL||,,,,,,,,,,,,,||..x.",
        "...||,,,,,,,,,,,,,||x.x.",
        "----|,,,,,,,,,,,,,|-----",
        "-----,,,,,,,,,,,,,------",
        ",,,,,,,,,,,,,,,,,,,,,,,,",
        ",,,,,,,,,,,,,,,,,,,,,,,,",
        ",,,,,,,,,,,,,,,,,,,,,,,,",
        ",,,,,,,,,,,,,,,,,,,,,,,,",
        ",,,,,,,,,,,,,,,,,,,,,,,,",
        ",,,,,,,,,,,,,,,,,,,,,,,,",
        ",,,,,,,,,,,,,,,,,,,,,,,,",
        "ffffffffffffffffffffffff",
        ",,,,,,,,,,,,,,,,,,,,,,,,",
        ",,,,,,,,,,,,,,,,,,,,,,,,"
      ],
      "palettes": [
        "factory"
      ]
    },
    "id": "4db43018-628c-4867-a8d8-6888f9f8f02e"
  }
]