[
  {
    "type": "mapgen",
    "om_terrain": [
      "factory_le"
    ],
    "//": "left edge",
    "method": "json",
    "weight": 250,
    "object": {
      "fill_ter": "t_concrete_floor",
      "rows": [
        ",,F,,,,,,,||=.....|.....",
        ",,F,,,,,,,||=.....1.....",
        ",,F,,,,,,,||====........",
        ",,F,,,,,,,||...=........",
        ",,F,,,,,,,||...=........",
        ",,F,,,,,,,||..3=3.......",
        ",,F,,,,,,,||--3=3-------",
        ",,F,,,,,,,GG..3=3....===",
        ",,F,,,,,,,||...=.....=..",
        ",,F,,,,,,,GG...=======..",
        ",,F,,,,,,,||......%=%...",
        ",,F,,,,,,,GG.......=....",
        ",,F,,,,,,,GG.......=....",
        ",,F,,,,,,,||....====....",
        ",,F,,,,,,,GG....=.......",
        ",,F,,,,,,,||....=.......",
        ",,F,,,,,,,GG....=.......",
        ",,F,,,,,,|||---2=!-!----",
        ",,F,,,,,,|||....=.|.....",
        ",,F,,,,,,|||.x....|4....",
        ",,F,,,,,,|||..x...|466..",
        ",,F,,,,,,,||=.....|46u..",
        ",,F,,,,,,,||=.....|466..",
        ",,F,,,,,,,||=.....|4...."
      ],
      "palettes": [
        "factory"
      ]
    },
    "id": "7451c1df-3ec2-407e-b5e2-038c06c162fa"
  }
]