[
  {
    "type": "mapgen",
    "om_terrain": [
      "factory_brc"
    ],
    "//": "bottom right corner",
    "method": "json",
    "weight": 250,
    "object": {
      "fill_ter": "t_concrete_floor",
      "rows": [
        ".....|......||,,,,,,,F,,",
        ".....|......||,,,,,,,F,,",
        ".....|......||,,,,,,,F,,",
        "...ggggg....||,,,,,,,F,,",
        "...gu.ug....||,,,,,,,F,,",
        "---g.4.g....||,,,,,,,F,,",
        "...gu.ug.....-|,,,,,,F,,",
        "...ggggg     6-|,,,,,F,,",
        "....... .......-|,,,,F,,",
        "....... .      6|,,,,F,,",
        "....... . .....-|,,,,F,,",
        "===2... . .  6-|,,,,,F,,",
        "------. . . .-|,,,,,,F,,",
        "-------6. .6-|,,,,,,,F,,",
        ",,,,,,|-. .-|,,,,,,,,F,,",
        ",,,,,,,|-6-|,,,,,,,,,F,,",
        ",,,,,,,,|-|,,,,,,,,,,F,,",
        ",,,,,,,,,,,,,,,,,,,,,F,,",
        ",,,,,,,,,,,,,,,,,,,,,F,,",
        ",,,,,,,,,,,,,,,,,,,,,F,,",
        ",,,,,,,,,,,,,,,,,,,,uF,,",
        "ffffffffffffffffffffff,,",
        ",,,,,,,,,,,,,,,,,,,,,,,,",
        ",,,,,,,,,,,,,,,,,,,,,,,,"
      ],
      "palettes": [
        "factory"
      ]
    },
    "id": "da5e12a6-5b65-45d5-a16a-6c2f2d49d79c"
  }
]