[
  {
    "type": "mapgen",
    "om_terrain": [
      "factory_brc"
    ],
    "//": "bottom right corner",
    "method": "json",
    "weight": 250,
    "object": {
      "fill_ter": "t_concrete_floor",
      "rows": [
        ".....|.....=||,,,,,,,F,,",
        ".....|.....=||,,,,,,,F,,",
        "..g.g------=||,,,,,,,F,,",
        "..g  g    == M,,,,,,,F,,",
        "..g 6g   u=% M,,,,,,,F,,",
        "---!gg    =  G,,,,,,,F,,",
        "..|      %=  M,,,,,,,F,,",
        "..|   =====  G,,,,,,,F,,",
        "..|   =% u   M,,,,,,,F,,",
        "..|   =      G,,,,,,,F,,",
        ".2|u %=u     M,,,,,,,F,,",
        "=======      M,,,,,,,F,,",
        "---%        4M,,,,,,,F,,",
        "---MMGMGMGMMMM,,,,,,,F,,",
        ",,,,,,,,,,,,,,,,,,,,,F,,",
        ",,,,,,,,,,,,,,,,,,,,,F,,",
        ",,,,,,,,,,,,,,,,,,,,,F,,",
        ",,,,,,,,,,,,,,,,,,,,,F,,",
        ",,,,,,,,,,,,,,,,,,,,,F,,",
        ",,,,,,,,,,,,,,,,,,,,,F,,",
        ",,,,,,,,,,,,,,,,,,,,,F,,",
        "ffffffffffffffffffffff,,",
        ",,,,,,,,,,,,,,,,,,,,,,,,",
        ",,,,,,,,,,,,,,,,,,,,,,,,"
      ],
      "palettes": [
        "factory"
      ]
    },
    "id": "facecac4-2534-40aa-9337-ae53e1bfd9ac"
  }
]