[
  {
    "type": "mapgen",
    "om_terrain": [
      "factory_be"
    ],
    "//": "bottom edge",
    "method": "json",
    "weight": 250,
    "object": {
      "fill_ter": "t_concrete_floor",
      "rows": [
        "......|..........|......",
        "......|..........|......",
        "...fff---ffffff---......",
        "...F....................",
        "...F......X.........====",
        "----......xx.......-=---",
        "...+......x.x.....X|=...",
        ".2.M---------------|==..",
        "...M---------------|7...",
        ".2.M|,,,,,,P,,,,,,||7...",
        "...M|,,,,,,P,,,,,,||7...",
        ".2.M|,,,PPPP,,,,,,||6...",
        "-MMM|,,,P,,,,,,,,,|-----",
        "-----,,gPggggggg,,------",
        ",,,,,,,g~~~~~~~g,,,,,,,,",
        ",,,,,,tg~~~~~~~gt,,,,,,,",
        ",,,,,,,g~~~~~~~g,,,,,,,,",
        ",,,,,,,g~~~~~~~g,,,,,,,,",
        ",,,,,,,ggggggggg,,,,,,,,",
        ",,,,,,,,,,,,,,,,,,,,,,,,",
        ",,,,,,,,,,,,,,,,,,,,,,,,",
        "ffffffffffffffffffffffff",
        ",,,,,,,,,,,,,,,,,,,,,,,,",
        ",,,,,,,,,,,,,,,,,,,,,,,,"
      ],
      "palettes": [
        "factory"
      ],
      "monster": {
        "t": {
          "monster": "mon_turret_light"
        }
      }
    },
    "id": "d469cae4-7f0d-4aac-9ff9-d246176414a3"
  }
]