[
  {
    "type": "mapgen",
    "om_terrain": [
      "factory_le"
    ],
    "//": "left edge",
    "method": "json",
    "weight": 250,
    "object": {
      "fill_ter": "t_concrete_floor",
      "rows": [
        ",,F,,,,,,,||......|=....",
        ",,F,,,,,,,||.33...|=....",
        ",,F,,,,,,,||.33...|=....",
        ",,F,,,-----|......|=....",
        ",,F,,,|-----******-===..",
        ",,F,,,||.............===",
        ",,F,,,||.0.0.0.0.0.0.=--",
        ",,F,,,||.=============|.",
        ",,F,,,||.0.0.0.0.0.0.===",
        ",,F,,,||..............|.",
        ",,F,,,|----------------.",
        ",,F,,,------------|l....",
        ",,F,,,,,,,,,,,,,,||l....",
        ",,F,,,,,,,,,,,,,,||l....",
        ",,F,,,,,,,,,,,,,,||l....",
        ",,F,,,,,,,,,,,,,,||l....",
        ",,F,,,,,,,,,,,,,,||l....",
        ",,F,,,,,,,-------||-!---",
        ",,F,,,,,,,|-------|.....",
        ",,F,,,,,,,||xxxxx.|.....",
        ",,F,,,,,,,||Xx...===....",
        ",,F,,,,,,,||..xx..|=....",
        ",,F,,,,,,,||.x..xx|=....",
        ",,F,,,,,,,||......|=...."
      ],
      "palettes": [
        "factory"
      ]
    },
    "id": "4c57b9df-81a1-4a93-88c5-c65f7dbc5757"
  }
]