[
  {
    "type": "mapgen",
    "om_terrain": [
      "factory_re"
    ],
    "//": "right edge",
    "method": "json",
    "weight": 250,
    "object": {
      "fill_ter": "t_concrete_floor",
      "rows": [
        ".....|......||,,,,,,,F,,",
        ".....g....  ||,,,,,,,F,,",
        ".....g.... TM|,,,,,,,F,,",
        ".....|----MMM|,,,,,,,F,,",
        ".....||-------,,,,,,,F,,",
        ".....||,,,,,,,,,,,,,,F,,",
        "--!!-||,,,,,,,,,,,,,,F,,",
        ".....||,,,,,,,,,,,,,,F,,",
        ".....||,,,,,,,,,,,,,,F,,",
        "...  MMMMM,,,,,,,,,,,F,,",
        "... u...uM,,,,,,,,,,,F,,",
        "... .%33.M,,,,,,,,,,,F,,",
        "... .336.M,,,,,,,,,,,F,,",
        "... u...uM,,,,,,,,,,,F,,",
        "...  MMMMM,,,,,,,,,,,F,,",
        ".....||,,,,,,,,,,,,,,F,,",
        "=====||,,,,,,,,,,,,,,F,,",
        "----=||,,,,,,,,,,,,,,F,,",
        "....=||,,,,,,,,,,,,,,F,,",
        "...33||-------,,,,,,,F,,",
        "....=|-------|,,,,,,,F,,",
        "....======33||,,,,,,,F,,",
        ".....|.....=||,,,,,,,F,,",
        ".....|.....=||,,,,,,,F,,"
      ],
      "palettes": [
        "factory"
      ]
    },
    "id": "6a190c60-ebfb-46e8-851e-3ad4121ffa46"
  }
]