[
  {
    "type": "mapgen",
    "om_terrain": [
      "factory_re"
    ],
    "//": "right edge",
    "method": "json",
    "weight": 250,
    "object": {
      "fill_ter": "t_concrete_floor",
      "rows": [
        ".....|.....=||,,,,,,,F,,",
        "...=========||,,,,,,,F,,",
        "...=2-------||----,,,F,,",
        "...=.......t----||,,,F,,",
        "...=.......u.u.u[],,,F,,",
        "...=.......t----||6,,F,,",
        "---=-----!--||----,,,F,,",
        "..3=3|6....6||,,,,,,,F,,",
        "...=.|......||,,,,,,,F,,",
        "...=.|..D...||,,,,,,,F,,",
        "...=9|..Dc..||,,,,,,,F,,",
        "...=.|..D6Z.||,,,,,,,F,,",
        "...=9|......||,,,,,,,F,,",
        "...=.|p..NNN||,,,,,,,F,,",
        "...=9|-+----||,,,,,,,F,,",
        "====.|..ss..||,,,,,,,F,,",
        "....9|c....&||,,,,,,,F,,",
        "-----|-------|6,,,,,,F,,",
        ".....||t------,,,,,,,F,,",
        ".....[],,,,,,,,,,,,,,F,,",
        "..00.||t------,,,,,,,F,,",
        "..00.|-------|,,,,,,,F,,",
        "..00.!..LLL.||,,,,,,,F,,",
        ".....|......||,,,,,,,F,,"
      ],
      "palettes": [
        "factory"
      ],
      "monster": {
        "t": {
          "monster": "mon_turret_light"
        }
      }
    },
    "id": "1ef4d99b-6942-486f-86b2-9b65bf1bfb9d"
  }
]