[
  {
    "type": "mapgen",
    "om_terrain": [
      "factory_te"
    ],
    "//": "bottom right corner",
    "method": "json",
    "weight": 250,
    "object": {
      "fill_ter": "t_concrete_floor",
      "rows": [
        ",,,,,,,,,,,,,,,,,,,,,,,,",
        ",,,,,,,,,,,,,,,,,,,,,,,,",
        "ffffffffffffffffffffffff",
        ",,,,,,,,,,,,,,,,,,,,,,,,",
        ",,,,,,,,,M----M,,,,,,,,,",
        ",,,,,,,,~|....|,,,,,,,,,",
        ",,,,,,~~~|.88.|,,,,,,,,,",
        ",,,,,,,~~|.88.!,,,,,,,,,",
        ",,,,,,,,,|....|6,,,,,,,,",
        ",,,,,,,,,M----M,,,,,,,,,",
        "-----,,,,,,,,,,,,,,-----",
        "----|,,,,,,,,,,,,,,|----",
        "==.||,,,,,,,,,,,,,,||===",
        ".=.||,,,,,,,,,,,,,,||x..",
        ".=8||,,,,,,,,,,,,,,||x..",
        ".=2||,,,,,,,,,,,,,,||.X.",
        ".=.||t,,,,,,,,,,,,t||...",
        ".=.|-------GG-------|...",
        "-=---------GG---------!-",
        "=====8|6DD.uu...p|......",
        ".....3|..........|......",
        "......g....  ....g......",
        "......g....  ....g......",
        "......|..........|5....."
      ],
      "palettes": [
        "factory"
      ],
      "monster": {
        "t": {
          "monster": "mon_turret_light"
        }
      }
    },
    "id": "be1bf9c0-0560-41f4-987d-e2ca62274922"
  }
]