[
  {
    "type": "mapgen",
    "om_terrain": [
      "factory_tlc"
    ],
    "//": "top left corner",
    "method": "json",
    "weight": 250,
    "object": {
      "fill_ter": "t_concrete_floor",
      "rows": [
        ",,,,,,,,,,,,,,,,,,,,,,,,",
        ",,,,,,,,,,,,,,,,,,,,,,,,",
        ",,ffffffffffffffffffffff",
        ",,F,,,,,,,,,,,,,,,,,,,,,",
        ",,F,,,,,,,,,,,,,,,,,,,,,",
        ",,F,,,,,,,,,,,,,,,,,,,,,",
        ",,F,,,,,,,,,,,,,,,,,,,,,",
        ",,F,,,,,,,,,,,,,,,,,,,,,",
        ",,F,,,,,,,,,,,,,,,,,,,,,",
        ",,F,,,,,,,,,,,,,,,,,,,,,",
        ",,F,,,,,,,,,,,,,,,------",
        ",,F,,,,,,,,,,,,,,,|-----",
        ",,F,,,,,,,,,,,,,,,||.===",
        ",,F,,,,,,,,,,,,,,,||x=..",
        ",,F,,,,,,,,,,,,,,,||.=..",
        ",,F,,,,,,,,,,,,,,,||x=..",
        ",,F,,,,,,,,,,,,,,,||.=..",
        ",,F,,,,,,,,,,,,,,,||.=..",
        ",,F,,,,,,,-----------2--",
        ",,F,,,,,,,|---------x=.x",
        ",,F,,,,,,,||4.g.4.gx.=..",
        ",,F,,,,,,,||..g...g..x..",
        ",,F,,,,,,,||ggggggg...x.",
        ",,F,,,,,,,||......|....."
      ],
      "palettes": [
        "factory"
      ]
    },
    "id": "e1cffacd-c9a6-4b4e-a2c3-586e226ab018"
  }
]