[
  {
    "type": "mapgen",
    "om_terrain": [
      "factory_te"
    ],
    "//": "top edge",
    "method": "json",
    "weight": 250,
    "object": {
      "fill_ter": "t_concrete_floor",
      "rows": [
        ",,,,,,,,,,,,,,,,,,,,,,,,",
        ",,,,,,,,,,,,,,,,,,,,,,,,",
        "ffffffffffffffffffffffff",
        ",,,,,,,,,,,,,,,,,,,,,,,,",
        ",,,,,,,,,,,,,,,,,,,,,,,,",
        ",,,,,,,,--------,,,,,,,,",
        ",,,,,,,--MMMMMM--,,,,,,,",
        ",,,,,,,-MM....MM-,,,,,,,",
        ",,,,,,,|M..66..M|,,,,,,,",
        ",,,,,,,|M..nn..M|,,,,,,,",
        "------,||..uu..||,------",
        "-----|,||......||,|-----",
        "====|---|......|---|0000",
        "...=-----......-----....",
        "...===..................",
        ".....=====..............",
        "....-----=.....-----....",
        "....|...|7.....|...|0000",
        "----|.4.|=%....|.4.|----",
        "....g...|7.....|...g....",
        "....gg---=.....---gg....",
        "......|===.......|......",
        "......|=.........|......",
        "......|=.........|......"
      ],
      "palettes": [
        "factory"
      ]
    },
    "id": "f576dbb9-7d1f-466f-b5ae-98021129579f"
  }
]