[
  {
    "type": "mapgen",
    "om_terrain": [
      "factory_be_gate"
    ],
    "//": "bottom edge gate",
    "method": "json",
    "weight": 250,
    "object": {
      "fill_ter": "t_concrete_floor",
      "rows": [
        "......|..........|......",
        ".....tg..........gt.....",
        "......|..........|6.....",
        "....6--..........--.....",
        "...6--             --66.",
        "-+---               ----",
        "..||                ||L.",
        "...+                ||L.",
        "..||                ||..",
        ".l||                ||..",
        ".l||                +...",
        ".|||                |||.",
        "---|                |---",
        "---t                t---",
        ",,,,                ,,,,",
        ",,,,                ,,,,",
        ",,,,                ---,",
        ",,,,                gc+,",
        ",,,,                ---,",
        ",,,F                F,,,",
        ",,,F                F%,,",
        "ffff                ffff",
        ",,,,                ,,,,",
        ",,,,                ,,,,"
      ],
      "palettes": [
        "factory"
      ],
      "monster": {
        "t": {
          "monster": "mon_turret_light"
        },
        "Z": {
          "monster": "mon_secubot"
        },
        "z": {
          "monster": "mon_skitterbot"
        }
      }
    },
    "id": "6fb0fcdd-55b1-4f24-a300-36f546e74a0b"
  }
]