[
  {
    "type": "mapgen",
    "om_terrain": [
      "factory_mid"
    ],
    "//": "middle",
    "method": "json",
    "weight": 250,
    "object": {
      "fill_ter": "t_concrete_floor",
      "rows": [
        "......|=.........|......",
        "......|2.........|......",
        "......|=.........|......",
        "......1=.1....1..1......",
        ".......=................",
        ".......=................",
        "---1...====.........1---",
        "..........=..........===",
        "..........=....=======..",
        "...1......=....=....1...",
        ".........5=...5=........",
        "..........=%...=%.......",
        "..........======........",
        "............%=5.........",
        "...1.......5.=......1...",
        ".......=======..........",
        "========....%=5.........",
        "---1.........=......1---",
        ".............=..........",
        ".............=..........",
        "......1..1...=1..1......",
        "......|......====|......",
        "......|......333=|......",
        "......|......333=|......"
      ],
      "rotation": [
        0,
        3
      ],
      "palettes": [
        "factory"
      ]
    },
    "id": "4a0a537d-7aaf-4a1a-b936-ee33ec859868"
  }
]