[
  {
    "type": "mapgen",
    "om_terrain": [
      "factory_trc"
    ],
    "//": "top right corner",
    "method": "json",
    "weight": 250,
    "object": {
      "fill_ter": "t_concrete_floor",
      "rows": [
        ",,,,,,,,,,,,,,,,,,,,,,,,",
        ",,,,,,,,,,,,,,,,,,,,,,,,",
        "ffffffffffffffffffffff,,",
        ",,,,~~~~~~~~~~~,,,,,,F,,",
        ",,~~~~~~~~~~~~~~~~~,,F,,",
        ",,,~~~~~~~~~~~~~~~~,,F,,",
        ",,,~~~~~~~~~~~~~~~,,,F,,",
        ",,,~~~~~~~~~~~~~~,,,,F,,",
        ",,,~~~~~~~~~~~~~~~,,,F,,",
        ",,,,~~~~~~~~~~~~~~~,,F,,",
        "--,,,,~~~~~~~~~~~~~,,F,,",
        "---,,,,~~~~~~~~~~~,,,F,,",
        "---.,,,~~~~~~~~~~~~,,F,,",
        ".---,,,~~~~~~~~~~~~,,F,,",
        ".|---,,,~~~~~~~~~~~,,F,,",
        ".|.---,,,,~~~~~~~~,,,F,,",
        "....---,,,,~~~~~~~~,,F,,",
        ".....---,,,,~~~~~~~,,F,,",
        "-1...----,,,,,~~~~,,,F,,",
        ".......---,,,,,~~~,,,F,,",
        "........---,,,,,~,,,,F,,",
        ".........---,,,,,,,,,F,,",
        ".....1..----|,,,,,,,,F,,",
        ".....|.....-||,,,,,,,F,,"
      ],
      "palettes": [
        "factory"
      ]
    },
    "id": "bc64ae3f-af47-4d4e-93c4-8d3a363daa12"
  }
]