[
  {
    "type": "mapgen",
    "om_terrain": [
      "factory_le"
    ],
    "//": "left edge",
    "method": "json",
    "weight": 250,
    "object": {
      "fill_ter": "t_concrete_floor",
      "rows": [
        ",,F,,,,,,,||......|.....",
        ",,F,,,,,,,||......|.....",
        ",,F,,,,,,|||......1.....",
        ",,F,,,,,,|||............",
        ",,F,,,,,,||.............",
        ",,F,,,,,,||.............",
        ",,F,,,,,,||..........1--",
        ",,F,,,,,,||..00......|..",
        ",,F,,,,,,||..00......|..",
        ",,F,,,,,|||..P....1--1..",
        ",,F,,,,,|||..PT...|44...",
        ",,F,,,PPP|...P....|46...",
        ",,F,,,,,P|.8PPT...|46...",
        ",,F,,,,,P||..P....|44...",
        ",,F,,,,,PP|..P....1--1..",
        ",,F,,,,,,PPPPPP8.....|..",
        ",,F,,,PPPP|.P........|2.",
        ",,F,,,,,,P|.8........1=-",
        ",,F,,,,,,P|......=======",
        ",,F,,,,PPP|......=..2...",
        ",,F,,,,,,|||======......",
        ",,F,,,,,,|||=2....1.....",
        ",,F,,,,,,,||=.....|.....",
        ",,F,,,,,,,||=.....|....."
      ],
      "palettes": [
        "factory"
      ]
    },
    "id": "04f8db03-b462-4ba0-a4c3-bb7589296f01"
  }
]