[
  {
    "type": "mapgen",
    "om_terrain": [
      "factory_mid"
    ],
    "//": "middle",
    "method": "json",
    "weight": 250,
    "object": {
      "fill_ter": "t_concrete_floor",
      "rows": [
        "......|.........=|......",
        ".....V|.........=|......",
        "......|.........=|4..6..",
        ".....n|.........=|-g-...",
        ".....n|.........=%.ug...",
        ".....n|.........===.|4..",
        "--++-------++-----=%----",
        "................p|======",
        ".................|=.....",
        ".................|53....",
        ".................|32....",
        ".................g=.....",
        ".................g=..6..",
        ".................g=.....",
        ".................|32....",
        ".................|72....",
        ".................|=.....",
        "--3-3--..........|=-!!--",
        ".2.2.2|..........|=.....",
        "......3..........|=...x.",
        ".2.2.2|..........|=..x..",
        "......3..........|=..x..",
        ".2.2.2|..........|=.....",
        "......|..........|=....."
      ],
      "rotation": [
        0,
        3
      ],
      "palettes": [
        "factory"
      ]
    },
    "id": "70a32e34-934d-4354-9051-acae021bcd6f"
  }
]