[
  {
    "type": "mapgen",
    "om_terrain": [
      "factory_be_gate"
    ],
    "//": "bottom edge gate",
    "method": "json",
    "weight": 250,
    "object": {
      "fill_ter": "t_concrete_floor",
      "rows": [
        "......|=.........|......",
        "......1=.........1......",
        "........................",
        "........................",
        "......u..........u......",
        "-1...u1..........1u...1-",
        "......u          u......",
        ".......          .......",
        ".......          .......",
        ".......          .......",
        "H......          ......H",
        "==.....          .....==",
        "------1          1------",
        "-----||          ||-----",
        ",,,,t||     Z    ||t,,,,",
        ",,,,,||          ||,,,,,",
        ",,,,,t,  Z   Z   t,,,,,,",
        ",,,,,,,          ,,,,,,,",
        ",,,,,,,          ,,,,,,,",
        ",,,,,,,          ,,,,,,,",
        ",,,,,,,          ,,,,,,,",
        "fffffff]]]]]]]]]]fffffff",
        ",,,,,,,          ,,,,,,,",
        ",,,,,,,          ,,,,,,,"
      ],
      "palettes": [
        "factory"
      ],
      "monster": {
        "t": {
          "monster": "mon_turret_light"
        },
        "Z": {
          "monster": "mon_secubot"
        },
        "z": {
          "monster": "mon_skitterbot"
        }
      },
      "mapping": {
        "H": {
          "item": {
            "item": "chem_zinc_powder",
            "count": 50
          }
        }
      }
    },
    "id": "5fec523e-9f19-4e1b-b7f9-e6b38c396b60"
  }
]