[
  {
    "type": "mapgen",
    "om_terrain": [
      "factory_re"
    ],
    "//": "right edge",
    "method": "json",
    "weight": 250,
    "object": {
      "fill_ter": "t_concrete_floor",
      "rows": [
        ".....|.....=||,,,,,,,F,,",
        ".....|.....=||,,,,,,,F,,",
        ".....|.....=|-----,,,F,,",
        ".....1-----=-----|,,,F,,",
        "...........===.u||,,,F,,",
        "............333.||,,,F,,",
        "----........333.||,,,F,,",
        "==============.u||,,,F,,",
        "..=|........-----|,,,F,,",
        "..=|........|-----,,,F,,",
        "..3PP00..00PP|,,,,,,,F,,",
        "..=|.00..00.||,,,,,,,F,,",
        "..=|........||,,,,,,,F,,",
        "..2PP00..00.||,,,,,,,F,,",
        "..=|.00..00PP|,,,,,,,F,,",
        "..=|......---|,,,,,,,F,,",
        "===|.x....|---,,,,,,,F,,",
        "----..x...||,,,,,,,,,F,,",
        ".x........||,,,,,,,,,F,,",
        "....x.x..=|---,,,,,,,F,,",
        ".....----=--||,,,,,,,F,,",
        "....x|...===||,,,,,,,F,,",
        "...x.|.....=||,,,,,,,F,,",
        ".....|.....=||,,,,,,,F,,"
      ],
      "palettes": [
        "factory"
      ]
    },
    "id": "41049281-3134-459e-aafa-f72667355f28"
  }
]