[
  {
    "type": "mapgen",
    "om_terrain": [
      "factory_mid"
    ],
    "//": "middle",
    "method": "json",
    "weight": 250,
    "object": {
      "fill_ter": "t_concrete_floor",
      "rows": [
        "......|=.........|......",
        "......|=.........|......",
        "..----|=7........|......",
        "..|....=.........|......",
        "..+....=======...|......",
        "..|..........=...|......",
        "---...-------=----------",
        "......|......===========",
        "...00.|......=..........",
        "...00.*.....3=33........",
        "......|......=..........",
        "...00.*.....3=33........",
        "...00.|......=..........",
        "......*.....3=33........",
        "...00.|......=..........",
        "...00.*......=..........",
        "......|......=..........",
        "---!---......=...-------",
        "==....|......=...|Xxxx..",
        ".=....|......=...|xxx.x.",
        ".====222=======..|.xx.x.",
        ".....222.........!...x..",
        "......|..........|..x...",
        "......|..........|......"
      ],
      "rotation": [
        0,
        3
      ],
      "palettes": [
        "factory"
      ]
    },
    "id": "f21b094c-ce90-4550-8804-6a11ccd3ec33"
  }
]