[
  {
    "result": "acidchitin_armor_elephant",
    "type": "recipe",
    "copy-from": "armor_acidchitin",
    "category": "CC_ANIMALS",
    "subcategory": "CSC_ANIMALS_ELEPHANT ARMOR",
    "skills_required": [
      [
        "survival",
        4
      ],
      [
        "firstaid",
        2
      ],
      [
        "fabrication",
        4
      ]
    ],
    "time": "8 h 30 m",
    "using": [
      [
        "cordage",
        7
      ]
    ],
    "components": [
      [
        [
          "acidchitin_piece",
          84
        ]
      ]
    ],
    "id": "050a8c28-1309-42dc-9bb0-3f8c9da28fe4"
  },
  {
    "result": "chitin_armor_elephant",
    "type": "recipe",
    "copy-from": "armor_chitin",
    "category": "CC_ANIMALS",
    "subcategory": "CSC_ANIMALS_ELEPHANT ARMOR",
    "time": "8 h 30 m",
    "book_learn": [
      [
        "textbook_tailor",
        5
      ],
      [
        "tailor_portfolio",
        5
      ]
    ],
    "skills_required": [
      [
        "fabrication",
        4
      ]
    ],
    "using": [
      [
        "cordage",
        7
      ]
    ],
    "components": [
      [
        [
          "chitin_piece",
          84
        ]
      ]
    ],
    "id": "24fae249-5de2-4796-b6aa-7013e5945fea"
  },
  {
    "result": "chainmail_armor_elephant",
    "type": "recipe",
    "copy-from": "chainmail_vest",
    "category": "CC_ANIMALS",
    "subcategory": "CSC_ANIMALS_ELEPHANT ARMOR",
    "time": "6 h 30 m",
    "reversible": true,
    "using": [
      [
        "chainmail_standard",
        7
      ]
    ],
    "components": [
      [
        [
          "link_sheet",
          35
        ]
      ],
      [
        [
          "chain_link",
          917
        ]
      ],
      [
        [
          "wire",
          7
        ]
      ],
      [
        [
          "fur",
          42
        ],
        [
          "tanned_pelt",
          7
        ],
        [
          "leather",
          42
        ],
        [
          "tanned_hide",
          7
        ]
      ]
    ],
    "id": "d973b2f7-77fa-4a2d-b2a8-7e0108de93cb"
  },
  {
    "result": "kevlar_armor_elephant",
    "type": "recipe",
    "category": "CC_ANIMALS",
    "subcategory": "CSC_ANIMALS_ELEPHANT ARMOR",
    "skill_used": "tailor",
    "difficulty": 6,
    "time": "12 h 30 m",
    "reversible": true,
    "autolearn": true,
    "using": [
      [
        "sewing_standard",
        190
      ]
    ],
    "components": [
      [
        [
          "kevlar_plate",
          56
        ]
      ],
      [
        [
          "rag",
          42
        ]
      ],
      [
        [
          "leather",
          24
        ],
        [
          "tanned_hide",
          4
        ]
      ]
    ],
    "id": "78d944b6-2f62-4076-802a-c839ef26a3ec"
  },
  {
    "result": "leather_armor_elephant",
    "type": "recipe",
    "category": "CC_ANIMALS",
    "subcategory": "CSC_ANIMALS_ELEPHANT ARMOR",
    "skill_used": "tailor",
    "difficulty": 3,
    "time": "4 h 30 m",
    "byproducts": [
      [
        "leather",
        21
      ]
    ],
    "using": [
      [
        "sewing_standard",
        30
      ]
    ],
    "components": [
      [
        [
          "armor_blarmor",
          3
        ]
      ],
      [
        [
          "rag",
          18
        ]
      ]
    ],
    "id": "37732c07-28ff-4329-9fd2-4f846542cadc"
  },
  {
    "result": "leather_armor_elephant",
    "type": "recipe",
    "copy-from": "armor_blarmor",
    "id_suffix": "from_scratch",
    "category": "CC_ANIMALS",
    "subcategory": "CSC_ANIMALS_ELEPHANT ARMOR",
    "skills_required": [
      "tailor",
      6
    ],
    "time": "10 h 30 m",
    "autolearn": true,
    "reversible": true,
    "using": [
      [
        "sewing_standard",
        190
      ],
      [
        "surface_heat",
        60
      ]
    ],
    "components": [
      [
        [
          "water",
          30
        ],
        [
          "water_clean",
          30
        ]
      ],
      [
        [
          "wax",
          6
        ],
        [
          "tallow",
          24
        ],
        [
          "mutant_tallow",
          24
        ],
        [
          "human_tallow",
          24
        ],
        [
          "tallow_tainted",
          24
        ],
        [
          "vinegar",
          30
        ],
        [
          "pine_bough",
          60
        ]
      ],
      [
        [
          "salt",
          150
        ]
      ],
      [
        [
          "leather",
          105
        ],
        [
          "tanned_hide",
          17
        ]
      ],
      [
        [
          "rag",
          18
        ]
      ]
    ],
    "id": "0c793869-5f94-41ce-8f03-57e853bff3e5"
  },
  {
    "result": "leatherbone_armor_elephant",
    "type": "recipe",
    "copy-from": "leather_armor_elephant",
    "difficulty": 4,
    "time": "6 h 30 m",
    "using": [
      [
        "sewing_standard",
        75
      ]
    ],
    "components": [
      [
        [
          "bone",
          39
        ],
        [
          "bone_human",
          39
        ]
      ],
      [
        [
          "armor_blarmor",
          3
        ]
      ]
    ],
    "id": "789139e3-2735-49c5-92a1-6ea47243461b"
  },
  {
    "result": "leatherbone_armor_elephant",
    "type": "recipe",
    "id_suffix": "from_leatherarmor",
    "category": "CC_ANIMALS",
    "subcategory": "CSC_ANIMALS_ELEPHANT ARMOR",
    "skill_used": "tailor",
    "difficulty": 4,
    "time": "6 h 30 m",
    "autolearn": true,
    "byproducts": [
      [
        "rag",
        6
      ]
    ],
    "using": [
      [
        "sewing_standard",
        35
      ]
    ],
    "components": [
      [
        [
          "bone_sturdy",
          39,
          "LIST"
        ]
      ],
      [
        [
          "leather_armor_elephant",
          1
        ]
      ]
    ],
    "id": "e368cc96-e509-4dbe-9275-630f13cdae24"
  },
  {
    "result": "leatherbone_armor_elephant",
    "type": "recipe",
    "id_suffix": "from_scratch",
    "category": "CC_ANIMALS",
    "subcategory": "CSC_ANIMALS_ELEPHANT ARMOR",
    "skill_used": "tailor",
    "difficulty": 4,
    "skills_required": [
      "tailor",
      6
    ],
    "time": "12 h 30 m",
    "reversible": true,
    "book_learn": [
      [
        "textbook_tailor",
        4
      ],
      [
        "tailor_portfolio",
        5
      ],
      [
        "textbook_survival",
        3
      ],
      [
        "trappers_companion",
        3
      ],
      [
        "survival_book",
        3
      ],
      [
        "textbook_armwest",
        6
      ],
      [
        "textbook_armschina",
        6
      ]
    ],
    "using": [
      [
        "sewing_standard",
        225
      ]
    ],
    "tools": [
      [
        [
          "surface_heat",
          60,
          "LIST"
        ]
      ]
    ],
    "components": [
      [
        [
          "water",
          30
        ],
        [
          "water_clean",
          30
        ]
      ],
      [
        [
          "wax",
          6
        ],
        [
          "any_tallow",
          24,
          "LIST"
        ],
        [
          "vinegar",
          30
        ],
        [
          "pine_bough",
          60
        ]
      ],
      [
        [
          "salt",
          150
        ]
      ],
      [
        [
          "bone_sturdy",
          39,
          "LIST"
        ]
      ],
      [
        [
          "leather",
          105
        ],
        [
          "tanned_hide",
          17
        ]
      ]
    ],
    "id": "8a9cb63e-f4ac-4600-a798-7e38ae3072c4"
  },
  {
    "result": "rubber_armor_elephant",
    "type": "recipe",
    "category": "CC_ANIMALS",
    "subcategory": "CSC_ANIMALS_ELEPHANT ARMOR",
    "skill_used": "tailor",
    "difficulty": 4,
    "skills_required": [
      "fabrication",
      3
    ],
    "time": "2 h",
    "autolearn": true,
    "qualities": [
      {
        "id": "SEW",
        "level": 1
      },
      {
        "id": "CUT",
        "level": 1
      }
    ],
    "components": [
      [
        [
          "duct_tape",
          175
        ]
      ],
      [
        [
          "coat_rain",
          7
        ]
      ]
    ],
    "id": "279eb94e-3374-40f4-9011-21aeb5e2e8af"
  },
  {
    "result": "rubber_armor_elephant",
    "type": "recipe",
    "id_suffix": "from_scratch",
    "category": "CC_ANIMALS",
    "subcategory": "CSC_ANIMALS_ELEPHANT ARMOR",
    "skill_used": "tailor",
    "difficulty": 5,
    "skills_required": [
      "fabrication",
      3
    ],
    "time": "3 h",
    "autolearn": true,
    "qualities": [
      {
        "id": "SEW",
        "level": 1
      },
      {
        "id": "CUT",
        "level": 1
      }
    ],
    "components": [
      [
        [
          "duct_tape",
          350
        ]
      ],
      [
        [
          "bag_plastic",
          70
        ]
      ],
      [
        [
          "rag",
          70
        ]
      ]
    ],
    "id": "db1f320e-c570-4180-ae08-29e6891524db"
  },
  {
    "result": "sweater_armor_elephant",
    "type": "recipe",
    "category": "CC_ANIMALS",
    "subcategory": "CSC_ANIMALS_ELEPHANT ARMOR",
    "skill_used": "tailor",
    "difficulty": 3,
    "time": "50 h",
    "autolearn": true,
    "reversible": true,
    "using": [
      [
        "tailoring_wool_knitting",
        5000
      ]
    ],
    "id": "6848cefa-2a4e-424a-8fbe-ef656f1a30d0"
  },
  {
    "result": "iron_armor_elephant",
    "type": "recipe",
    "copy-from": "armor_plarmor",
    "category": "CC_ANIMALS",
    "subcategory": "CSC_ANIMALS_ELEPHANT ARMOR",
    "skills_required": [
      "tailor",
      3
    ],
    "time": "24 h",
    "book_learn": [
      [
        "textbook_tailor",
        5
      ],
      [
        "tailor_portfolio",
        5
      ],
      [
        "textbook_armwest",
        4
      ],
      [
        "textbook_armschina",
        4
      ]
    ],
    "using": [
      [
        "sewing_standard",
        260
      ]
    ],
    "components": [
      [
        [
          "steel_chunk",
          60
        ],
        [
          "scrap",
          180
        ]
      ],
      [
        [
          "leather_armor_elephant",
          1
        ]
      ]
    ],
    "id": "5365c7f3-c6c7-4d2a-b5c4-45b0d201844f"
  },
  {
    "result": "bronze_armor_elephant",
    "type": "recipe",
    "copy-from": "armor_cuirass",
    "category": "CC_ANIMALS",
    "subcategory": "CSC_ANIMALS_ELEPHANT ARMOR",
    "skills_required": [
      "fabrication",
      5
    ],
    "time": "24 h",
    "book_learn": [
      [
        "textbook_armwest",
        4
      ],
      [
        "recipe_melee",
        4
      ]
    ],
    "using": [
      [
        "forging_standard",
        120
      ],
      [
        "bronzesmithing_tools",
        10
      ]
    ],
    "components": [
      [
        [
          "scrap_bronze",
          60
        ]
      ],
      [
        [
          "leather_armor_elephant",
          1
        ]
      ]
    ],
    "id": "b5bac3a2-385e-45be-bdfd-199f1af122c6"
  },
  {
    "result": "steel_armor_elephant",
    "type": "recipe",
    "copy-from": "armor_lightplate",
    "category": "CC_ANIMALS",
    "subcategory": "CSC_ANIMALS_ELEPHANT ARMOR",
    "skills_required": [
      "fabrication",
      8
    ],
    "time": "96 h",
    "book_learn": [
      [
        "textbook_armwest",
        7
      ]
    ],
    "using": [
      [
        "blacksmithing_advanced",
        800
      ],
      [
        "steel_standard",
        200
      ],
      [
        "fabric_leather_fur_hide",
        30
      ]
    ],
    "id": "9c3c9127-16ec-4366-b4b6-e5b4d242f7d7"
  }
]