[
  {
    "result": "acidchitin_armor_ostrich",
    "type": "recipe",
    "copy-from": "armor_acidchitin",
    "category": "CC_ANIMALS",
    "subcategory": "CSC_ANIMALS_OSTRICH ARMOR",
    "skills_required": [
      [
        "survival",
        4
      ],
      [
        "firstaid",
        2
      ],
      [
        "fabrication",
        4
      ]
    ],
    "time": "8 h 30 m",
    "using": [
      [
        "cordage",
        7
      ]
    ],
    "components": [
      [
        [
          "acidchitin_piece",
          84
        ]
      ]
    ],
    "id": "06c775b5-8bc1-426d-a662-8977ec1a5456"
  },
  {
    "result": "chitin_armor_ostrich",
    "type": "recipe",
    "copy-from": "armor_chitin",
    "category": "CC_ANIMALS",
    "subcategory": "CSC_ANIMALS_OSTRICH ARMOR",
    "time": "8 h 30 m",
    "book_learn": [
      [
        "textbook_tailor",
        5
      ],
      [
        "tailor_portfolio",
        5
      ]
    ],
    "skills_required": [
      [
        "fabrication",
        4
      ]
    ],
    "using": [
      [
        "cordage",
        7
      ]
    ],
    "components": [
      [
        [
          "chitin_piece",
          84
        ]
      ]
    ],
    "id": "ac5e4e58-893c-48a0-af26-24193f468633"
  },
  {
    "result": "chainmail_armor_ostrich",
    "type": "recipe",
    "copy-from": "chainmail_vest",
    "category": "CC_ANIMALS",
    "subcategory": "CSC_ANIMALS_OSTRICH ARMOR",
    "time": "6 h 30 m",
    "reversible": true,
    "using": [
      [
        "chainmail_standard",
        7
      ]
    ],
    "components": [
      [
        [
          "link_sheet",
          35
        ]
      ],
      [
        [
          "chain_link",
          917
        ]
      ],
      [
        [
          "wire",
          7
        ]
      ],
      [
        [
          "fur",
          42
        ],
        [
          "tanned_pelt",
          7
        ],
        [
          "leather",
          42
        ],
        [
          "tanned_hide",
          7
        ]
      ]
    ],
    "id": "0f6d338c-3176-454f-9b9e-57a7af518c13"
  },
  {
    "result": "kevlar_armor_ostrich",
    "type": "recipe",
    "category": "CC_ANIMALS",
    "subcategory": "CSC_ANIMALS_OSTRICH ARMOR",
    "skill_used": "tailor",
    "difficulty": 6,
    "time": "12 h 30 m",
    "reversible": true,
    "autolearn": true,
    "using": [
      [
        "sewing_standard",
        190
      ]
    ],
    "components": [
      [
        [
          "kevlar_plate",
          56
        ]
      ],
      [
        [
          "rag",
          42
        ]
      ],
      [
        [
          "leather",
          24
        ],
        [
          "tanned_hide",
          4
        ]
      ]
    ],
    "id": "2ba6cc01-b551-4f49-9f7d-316d63a40f3b"
  },
  {
    "result": "leather_armor_ostrich",
    "type": "recipe",
    "category": "CC_ANIMALS",
    "subcategory": "CSC_ANIMALS_OSTRICH ARMOR",
    "skill_used": "tailor",
    "difficulty": 3,
    "time": "4 h 30 m",
    "byproducts": [
      [
        "leather",
        21
      ]
    ],
    "using": [
      [
        "sewing_standard",
        30
      ]
    ],
    "components": [
      [
        [
          "armor_blarmor",
          3
        ]
      ],
      [
        [
          "rag",
          18
        ]
      ]
    ],
    "id": "ec4f6078-4cd9-4866-be77-f79237db940d"
  },
  {
    "result": "leather_armor_ostrich",
    "type": "recipe",
    "copy-from": "armor_blarmor",
    "id_suffix": "from_scratch",
    "category": "CC_ANIMALS",
    "subcategory": "CSC_ANIMALS_OSTRICH ARMOR",
    "skills_required": [
      "tailor",
      6
    ],
    "time": "10 h 30 m",
    "autolearn": true,
    "reversible": true,
    "using": [
      [
        "sewing_standard",
        190
      ],
      [
        "surface_heat",
        60
      ]
    ],
    "components": [
      [
        [
          "water",
          30
        ],
        [
          "water_clean",
          30
        ]
      ],
      [
        [
          "wax",
          6
        ],
        [
          "tallow",
          24
        ],
        [
          "mutant_tallow",
          24
        ],
        [
          "human_tallow",
          24
        ],
        [
          "tallow_tainted",
          24
        ],
        [
          "vinegar",
          30
        ],
        [
          "pine_bough",
          60
        ]
      ],
      [
        [
          "salt",
          150
        ]
      ],
      [
        [
          "leather",
          105
        ],
        [
          "tanned_hide",
          17
        ]
      ],
      [
        [
          "rag",
          18
        ]
      ]
    ],
    "id": "a776c7b1-cd30-4c33-b651-7da932240645"
  },
  {
    "result": "leatherbone_armor_ostrich",
    "type": "recipe",
    "copy-from": "leather_armor_ostrich",
    "difficulty": 4,
    "time": "6 h 30 m",
    "using": [
      [
        "sewing_standard",
        75
      ]
    ],
    "components": [
      [
        [
          "bone",
          39
        ],
        [
          "bone_human",
          39
        ]
      ],
      [
        [
          "armor_blarmor",
          3
        ]
      ]
    ],
    "id": "d481fe10-52e1-493e-a28e-961722665b65"
  },
  {
    "result": "leatherbone_armor_ostrich",
    "type": "recipe",
    "id_suffix": "from_leatherarmor",
    "category": "CC_ANIMALS",
    "subcategory": "CSC_ANIMALS_OSTRICH ARMOR",
    "skill_used": "tailor",
    "difficulty": 4,
    "time": "6 h 30 m",
    "autolearn": true,
    "byproducts": [
      [
        "rag",
        6
      ]
    ],
    "using": [
      [
        "sewing_standard",
        35
      ]
    ],
    "components": [
      [
        [
          "bone_sturdy",
          39,
          "LIST"
        ]
      ],
      [
        [
          "leather_armor_ostrich",
          1
        ]
      ]
    ],
    "id": "5dd301ee-2290-4ae9-8ec2-b5cb0354b087"
  },
  {
    "result": "leatherbone_armor_ostrich",
    "type": "recipe",
    "id_suffix": "from_scratch",
    "category": "CC_ANIMALS",
    "subcategory": "CSC_ANIMALS_OSTRICH ARMOR",
    "skill_used": "tailor",
    "difficulty": 4,
    "skills_required": [
      "tailor",
      6
    ],
    "time": "12 h 30 m",
    "reversible": true,
    "book_learn": [
      [
        "textbook_tailor",
        4
      ],
      [
        "tailor_portfolio",
        5
      ],
      [
        "textbook_survival",
        3
      ],
      [
        "trappers_companion",
        3
      ],
      [
        "survival_book",
        3
      ],
      [
        "textbook_armwest",
        6
      ],
      [
        "textbook_armschina",
        6
      ]
    ],
    "using": [
      [
        "sewing_standard",
        225
      ]
    ],
    "tools": [
      [
        [
          "surface_heat",
          60,
          "LIST"
        ]
      ]
    ],
    "components": [
      [
        [
          "water",
          30
        ],
        [
          "water_clean",
          30
        ]
      ],
      [
        [
          "wax",
          6
        ],
        [
          "any_tallow",
          24,
          "LIST"
        ],
        [
          "vinegar",
          30
        ],
        [
          "pine_bough",
          60
        ]
      ],
      [
        [
          "salt",
          150
        ]
      ],
      [
        [
          "bone_sturdy",
          39,
          "LIST"
        ]
      ],
      [
        [
          "leather",
          105
        ],
        [
          "tanned_hide",
          17
        ]
      ]
    ],
    "id": "4c18543b-f610-41bb-ab9c-ce5a03d330e9"
  },
  {
    "result": "rubber_armor_ostrich",
    "type": "recipe",
    "category": "CC_ANIMALS",
    "subcategory": "CSC_ANIMALS_OSTRICH ARMOR",
    "skill_used": "tailor",
    "difficulty": 4,
    "skills_required": [
      "fabrication",
      3
    ],
    "time": "2 h",
    "autolearn": true,
    "qualities": [
      {
        "id": "SEW",
        "level": 1
      },
      {
        "id": "CUT",
        "level": 1
      }
    ],
    "components": [
      [
        [
          "duct_tape",
          175
        ]
      ],
      [
        [
          "coat_rain",
          7
        ]
      ]
    ],
    "id": "b6e20858-7a5f-44e9-900f-036f32c0d3a2"
  },
  {
    "result": "rubber_armor_ostrich",
    "type": "recipe",
    "id_suffix": "from_scratch",
    "category": "CC_ANIMALS",
    "subcategory": "CSC_ANIMALS_OSTRICH ARMOR",
    "skill_used": "tailor",
    "difficulty": 5,
    "skills_required": [
      "fabrication",
      3
    ],
    "time": "3 h",
    "autolearn": true,
    "qualities": [
      {
        "id": "SEW",
        "level": 1
      },
      {
        "id": "CUT",
        "level": 1
      }
    ],
    "components": [
      [
        [
          "duct_tape",
          350
        ]
      ],
      [
        [
          "bag_plastic",
          70
        ]
      ],
      [
        [
          "rag",
          70
        ]
      ]
    ],
    "id": "b9c5aa42-04c6-4a1f-8550-a60ca8defac2"
  },
  {
    "result": "sweater_armor_ostrich",
    "type": "recipe",
    "category": "CC_ANIMALS",
    "subcategory": "CSC_ANIMALS_OSTRICH ARMOR",
    "skill_used": "tailor",
    "difficulty": 3,
    "time": "50 h",
    "autolearn": true,
    "reversible": true,
    "using": [
      [
        "tailoring_wool_knitting",
        5000
      ]
    ],
    "id": "eb2931f1-f884-47f9-adb4-101dde73c064"
  },
  {
    "result": "iron_armor_ostrich",
    "type": "recipe",
    "copy-from": "armor_plarmor",
    "category": "CC_ANIMALS",
    "subcategory": "CSC_ANIMALS_OSTRICH ARMOR",
    "skills_required": [
      "tailor",
      3
    ],
    "time": "24 h",
    "book_learn": [
      [
        "textbook_tailor",
        5
      ],
      [
        "tailor_portfolio",
        5
      ],
      [
        "textbook_armwest",
        4
      ],
      [
        "textbook_armschina",
        4
      ]
    ],
    "using": [
      [
        "sewing_standard",
        260
      ]
    ],
    "components": [
      [
        [
          "steel_chunk",
          60
        ],
        [
          "scrap",
          180
        ]
      ],
      [
        [
          "leather_armor_ostrich",
          1
        ]
      ]
    ],
    "id": "7ef311f1-b636-462b-a2aa-834b30d783d8"
  },
  {
    "result": "bronze_armor_ostrich",
    "type": "recipe",
    "copy-from": "armor_cuirass",
    "category": "CC_ANIMALS",
    "subcategory": "CSC_ANIMALS_OSTRICH ARMOR",
    "skills_required": [
      "fabrication",
      5
    ],
    "time": "24 h",
    "book_learn": [
      [
        "textbook_armwest",
        4
      ],
      [
        "recipe_melee",
        4
      ]
    ],
    "using": [
      [
        "forging_standard",
        120
      ],
      [
        "bronzesmithing_tools",
        10
      ]
    ],
    "components": [
      [
        [
          "scrap_bronze",
          60
        ]
      ],
      [
        [
          "leather_armor_ostrich",
          1
        ]
      ]
    ],
    "id": "c22d243b-817d-443d-a0cf-83eaf3f5013e"
  },
  {
    "result": "steel_armor_ostrich",
    "type": "recipe",
    "copy-from": "armor_lightplate",
    "category": "CC_ANIMALS",
    "subcategory": "CSC_ANIMALS_OSTRICH ARMOR",
    "skills_required": [
      "fabrication",
      8
    ],
    "time": "96 h",
    "book_learn": [
      [
        "textbook_armwest",
        7
      ]
    ],
    "using": [
      [
        "blacksmithing_advanced",
        800
      ],
      [
        "steel_standard",
        200
      ],
      [
        "fabric_leather_fur_hide",
        30
      ]
    ],
    "id": "5ae38f48-c0f9-4d5b-b08d-c23cc1127d2d"
  }
]