[
  {
    "type": "recipe",
    "result": "dino_carrier_wooden",
    "category": "CC_OTHER",
    "subcategory": "CSC_OTHER_OTHER",
    "skill_used": "fabrication",
    "difficulty": 3,
    "time": "4 h",
    "reversible": true,
    "autolearn": true,
    "qualities": [
      {
        "id": "HAMMER",
        "level": 2
      },
      {
        "id": "SAW_W",
        "level": 2
      }
    ],
    "components": [
      [
        [
          "2x4",
          40
        ]
      ],
      [
        [
          "nail",
          200
        ]
      ],
      [
        [
          "hinge",
          2
        ]
      ]
    ],
    "id": "b6364a11-ffbf-4620-9adf-9963e2965272"
  }
]